G95 module created on Thu Jun 25 17:48:15 2020 from ./.fpp/D_DATUM.f90
If you edit this, you'll get what you deserve.
module-version 9
(() () () () () () () () () () () () () () () () () () () () ())

()

()

()

()

(2 'backslash' 'm_bern' 1 ((PARAMETER UNKNOWN UNKNOWN UNKNOWN NONE NONE)
(CHARACTER 1 ((CONSTANT (INTEGER 4) 0 '1'))) 0 0 () (CONSTANT (
CHARACTER 1 ((CONSTANT (INTEGER 4) 0 '1'))) 0 1 '\') () () '' () ())
3 'char' '(intrinsic)' 1 ((PROCEDURE UNKNOWN INTRINSIC UNKNOWN NONE NONE
FUNCTION) (UNKNOWN) 0 0 () () () '' () ())
4 'd_datum' 'd_datum' 1 ((MODULE UNKNOWN UNKNOWN UNKNOWN NONE NONE) (
UNKNOWN) 0 0 () () () '' () ())
5 'datum' 'd_datum' 1 ((VARIABLE UNKNOWN UNKNOWN UNKNOWN NONE NONE) (
DERIVED 6) 0 0 () () () '' () ())
7 'fileextlength' 'm_bern' 1 ((PARAMETER UNKNOWN UNKNOWN UNKNOWN NONE
NONE) (INTEGER 4) 0 0 () (CONSTANT (INTEGER 4) 0 '3') () () '' () ())
8 'filenamelength' 'm_bern' 1 ((PARAMETER UNKNOWN UNKNOWN UNKNOWN NONE
NONE) (INTEGER 4) 0 0 () (CONSTANT (INTEGER 4) 0 '32') () () '' () ())
9 'filenamelength80' 'm_bern' 1 ((PARAMETER UNKNOWN UNKNOWN UNKNOWN NONE
NONE) (INTEGER 4) 0 0 () (CONSTANT (INTEGER 4) 0 '80') () () '' () ())
10 'filepathlength' 'm_bern' 1 ((PARAMETER UNKNOWN UNKNOWN UNKNOWN NONE
NONE) (INTEGER 4) 0 0 () (CONSTANT (INTEGER 4) 0 '32') () () '' () ())
11 'i4b' 'm_bern' 1 ((PARAMETER UNKNOWN UNKNOWN UNKNOWN NONE NONE) (
INTEGER 4) 0 0 () (CONSTANT (INTEGER 4) 0 '4') () () '' () ())
12 'i4ex' 'm_bern' 1 ((VARIABLE UNKNOWN UNKNOWN UNKNOWN NONE NONE) (
INTEGER 4) 0 0 () () () '' () ())
13 'init_key' 'm_bern' 1 ((PROCEDURE UNKNOWN MODULE-PROC DECL NONE NONE
SUBROUTINE) (PROCEDURE 0) 0 0 (14 NONE) () () '' () ())
15 'keynamelength' 'm_bern' 1 ((PARAMETER UNKNOWN UNKNOWN UNKNOWN NONE
NONE) (INTEGER 4) 0 0 () (CONSTANT (INTEGER 4) 0 '32') () () '' () ())
16 'keyvaluelength' 'm_bern' 1 ((PARAMETER UNKNOWN UNKNOWN UNKNOWN NONE
NONE) (INTEGER 4) 0 0 () (CONSTANT (INTEGER 4) 0 '255') () () '' () ())
17 'kind' '(intrinsic)' 1 ((PROCEDURE UNKNOWN INTRINSIC UNKNOWN NONE
NONE FUNCTION) (UNKNOWN) 0 0 () () () '' () ())
18 'lfn001' 'm_bern' 1 ((VARIABLE UNKNOWN UNKNOWN UNKNOWN NONE NONE) (
INTEGER 4) 0 0 () () () '' () ())
19 'lfn002' 'm_bern' 1 ((VARIABLE UNKNOWN UNKNOWN UNKNOWN NONE NONE) (
INTEGER 4) 0 0 () () () '' () ())
20 'lfneph' 'm_bern' 1 ((VARIABLE UNKNOWN UNKNOWN UNKNOWN NONE NONE) (
INTEGER 4) 0 0 () () () '' () ())
21 'lfnerf' 'm_bern' 1 ((VARIABLE UNKNOWN UNKNOWN UNKNOWN NONE NONE) (
INTEGER 4) 0 0 () () () '' () ())
22 'lfnerr' 'm_bern' 1 ((VARIABLE UNKNOWN UNKNOWN UNKNOWN NONE NONE) (
INTEGER 4) 0 0 () () () '' () ())
23 'lfnkbd' 'm_bern' 1 ((VARIABLE UNKNOWN UNKNOWN UNKNOWN NONE NONE) (
INTEGER 4) 0 0 () () () '' () ())
24 'lfnloc' 'm_bern' 1 ((VARIABLE UNKNOWN UNKNOWN UNKNOWN NONE NONE) (
INTEGER 4) 0 0 () () () '' () ())
25 'lfnor1' 'm_bern' 1 ((VARIABLE UNKNOWN UNKNOWN UNKNOWN NONE NONE) (
INTEGER 4) 0 0 () () () '' () ())
26 'lfnorb' 'm_bern' 1 ((VARIABLE UNKNOWN UNKNOWN UNKNOWN NONE NONE) (
INTEGER 4) 0 0 () () () '' () ())
27 'lfnplt' 'm_bern' 1 ((VARIABLE UNKNOWN UNKNOWN UNKNOWN NONE NONE) (
INTEGER 4) 0 0 () () () '' () ())
28 'lfnprf' 'm_bern' 1 ((VARIABLE UNKNOWN UNKNOWN UNKNOWN NONE NONE) (
INTEGER 4) 0 0 () () () '' () ())
29 'lfnprt' 'm_bern' 1 ((VARIABLE UNKNOWN UNKNOWN UNKNOWN NONE NONE) (
INTEGER 4) 0 0 () () () '' () ())
30 'lfnres' 'm_bern' 1 ((VARIABLE UNKNOWN UNKNOWN UNKNOWN NONE NONE) (
INTEGER 4) 0 0 () () () '' () ())
31 'lfnrp1' 'm_bern' 1 ((VARIABLE UNKNOWN UNKNOWN UNKNOWN NONE NONE) (
INTEGER 4) 0 0 () () () '' () ())
32 'lfnrpr' 'm_bern' 1 ((VARIABLE UNKNOWN UNKNOWN UNKNOWN NONE NONE) (
INTEGER 4) 0 0 () () () '' () ())
33 'linelength' 'm_bern' 1 ((PARAMETER UNKNOWN UNKNOWN UNKNOWN NONE NONE)
(INTEGER 4) 0 0 () (CONSTANT (INTEGER 4) 0 '255') () () '' () ())
34 'linelength1024' 'm_bern' 1 ((PARAMETER UNKNOWN UNKNOWN UNKNOWN NONE
NONE) (INTEGER 4) 0 0 () (CONSTANT (INTEGER 4) 0 '1024') () () '' () ())
35 'longlinelength' 'm_bern' 1 ((PARAMETER UNKNOWN UNKNOWN UNKNOWN NONE
NONE) (INTEGER 4) 0 0 () (CONSTANT (INTEGER 4) 0 '512') () () '' () ())
36 'm_bern' 'm_bern' 1 ((MODULE UNKNOWN UNKNOWN UNKNOWN NONE NONE) (
UNKNOWN) 0 0 () () () '' () ())
37 'pgmver' 'm_bern' 1 ((PARAMETER UNKNOWN UNKNOWN UNKNOWN NONE NONE) (
CHARACTER 1 ((CONSTANT (INTEGER 4) 0 '3'))) 0 0 () (CONSTANT (CHARACTER
1 ((CONSTANT (INTEGER 4) 0 '3'))) 0 3 '5.2') () () '' () ())
38 'program_dscr' 'm_bern' 1 ((VARIABLE UNKNOWN UNKNOWN UNKNOWN NONE
NONE) (CHARACTER 1 ((CONSTANT (INTEGER 4) 0 '80'))) 0 0 () () () '' () ())
39 'program_name' 'm_bern' 1 ((VARIABLE UNKNOWN UNKNOWN UNKNOWN NONE
NONE) (CHARACTER 1 ((CONSTANT (INTEGER 4) 0 '8'))) 0 0 () () () '' () ())
40 'r8b' 'm_bern' 1 ((PARAMETER UNKNOWN UNKNOWN UNKNOWN NONE NONE) (
INTEGER 4) 0 0 () (CONSTANT (INTEGER 4) 0 '8') () () '' () ())
41 'r8ex' 'm_bern' 1 ((VARIABLE UNKNOWN UNKNOWN UNKNOWN NONE NONE) (
REAL 8) 0 0 () () () '' () ())
42 'shortlinelength' 'm_bern' 1 ((PARAMETER UNKNOWN UNKNOWN UNKNOWN NONE
NONE) (INTEGER 4) 0 0 () (CONSTANT (INTEGER 4) 0 '80') () () '' () ())
43 'stafla2length' 'm_bern' 1 ((PARAMETER UNKNOWN UNKNOWN UNKNOWN NONE
NONE) (INTEGER 4) 0 0 () (CONSTANT (INTEGER 4) 0 '5') () () '' () ())
44 'staflaglength' 'm_bern' 1 ((PARAMETER UNKNOWN UNKNOWN UNKNOWN NONE
NONE) (INTEGER 4) 0 0 () (CONSTANT (INTEGER 4) 0 '1') () () '' () ())
45 'stanam2length' 'm_bern' 1 ((PARAMETER UNKNOWN UNKNOWN UNKNOWN NONE
NONE) (INTEGER 4) 0 0 () (CONSTANT (INTEGER 4) 0 '20') () () '' () ())
46 'stanamelength' 'm_bern' 1 ((PARAMETER UNKNOWN UNKNOWN UNKNOWN NONE
NONE) (INTEGER 4) 0 0 () (CONSTANT (INTEGER 4) 0 '16') () () '' () ())
6 't_datum' 'd_datum' 1 ((DERIVED UNKNOWN UNKNOWN UNKNOWN NONE NONE) (
UNKNOWN) 0 0 () () () '' ((47 'name' (CHARACTER 1 ((CONSTANT (INTEGER 4)
0 '16'))) () () 0 0 0 ()) (48 'aell' (REAL 8) () () 0 0 0 ()) (49 'bell'
(REAL 8) () () 0 0 0 ()) (50 'dxell' (REAL 8) (1 EXPLICIT (CONSTANT (
INTEGER 4) 0 '1') (CONSTANT (INTEGER 4) 0 '3')) () 1 0 0 ()) (51 'drell'
(REAL 8) (1 EXPLICIT (CONSTANT (INTEGER 4) 0 '1') (CONSTANT (INTEGER 4)
0 '3')) () 1 0 0 ()) (52 'scell' (REAL 8) () () 0 0 0 ()) (53 'type' (
CHARACTER 1 ((CONSTANT (INTEGER 4) 0 '16'))) () () 0 0 0 ())) PUBLIC ())
54 't_key' 'm_bern' 1 ((DERIVED UNKNOWN UNKNOWN UNKNOWN NONE NONE) (
UNKNOWN) 0 0 () () () '' ((55 'name' (CHARACTER 1 ((CONSTANT (INTEGER 4)
0 '32'))) () () 0 0 0 ()) (56 'value' (CHARACTER 1 ((CONSTANT (INTEGER 4)
0 '255'))) (1 DEFERRED () ()) () 1 1 0 ())) PUBLIC ())
57 'timstrglength' 'm_bern' 1 ((PARAMETER UNKNOWN UNKNOWN UNKNOWN NONE
NONE) (INTEGER 4) 0 0 () (CONSTANT (INTEGER 4) 0 '19') () () '' () ())
58 'timstrglength2' 'm_bern' 1 ((PARAMETER UNKNOWN UNKNOWN UNKNOWN NONE
NONE) (INTEGER 4) 0 0 () (CONSTANT (INTEGER 4) 0 '40') () () '' () ())
14 'key' '' 59 ((VARIABLE UNKNOWN UNKNOWN UNKNOWN NONE NONE DUMMY) (
DERIVED 54) 0 0 () () () '' () ())
6 't_datum' 'd_datum' 1 ((DERIVED UNKNOWN UNKNOWN UNKNOWN NONE NONE) (
UNKNOWN) 0 0 () () () '' ((47 'name' (CHARACTER 1 ((CONSTANT (INTEGER 4)
0 '16'))) () () 0 0 0 ()) (48 'aell' (REAL 8) () () 0 0 0 ()) (49 'bell'
(REAL 8) () () 0 0 0 ()) (50 'dxell' (REAL 8) (1 EXPLICIT (CONSTANT (
INTEGER 4) 0 '1') (CONSTANT (INTEGER 4) 0 '3')) () 1 0 0 ()) (51 'drell'
(REAL 8) (1 EXPLICIT (CONSTANT (INTEGER 4) 0 '1') (CONSTANT (INTEGER 4)
0 '3')) () 1 0 0 ()) (52 'scell' (REAL 8) () () 0 0 0 ()) (53 'type' (
CHARACTER 1 ((CONSTANT (INTEGER 4) 0 '16'))) () () 0 0 0 ())) PUBLIC ())
)

('backslash' 0 2 'char' 0 3 'd_datum' 0 4 'datum' 0 5 'fileextlength' 0
7 'filenamelength' 0 8 'filenamelength80' 0 9 'filepathlength' 0 10 'i4b'
0 11 'i4ex' 0 12 'init_key' 0 13 'keynamelength' 0 15 'keyvaluelength' 0
16 'kind' 0 17 'lfn001' 0 18 'lfn002' 0 19 'lfneph' 0 20 'lfnerf' 0 21
'lfnerr' 0 22 'lfnkbd' 0 23 'lfnloc' 0 24 'lfnor1' 0 25 'lfnorb' 0 26
'lfnplt' 0 27 'lfnprf' 0 28 'lfnprt' 0 29 'lfnres' 0 30 'lfnrp1' 0 31
'lfnrpr' 0 32 'linelength' 0 33 'linelength1024' 0 34 'longlinelength' 0
35 'm_bern' 0 36 'pgmver' 0 37 'program_dscr' 0 38 'program_name' 0 39
'r8b' 0 40 'r8ex' 0 41 'shortlinelength' 0 42 'stafla2length' 0 43
'staflaglength' 0 44 'stanam2length' 0 45 'stanamelength' 0 46 't_datum'
0 6 't_key' 0 54 'timstrglength' 0 57 'timstrglength2' 0 58)
