G95 module created on Thu Jun 25 17:49:00 2020 from ./.fpp/D_ECCENT.f90
If you edit this, you'll get what you deserve.
module-version 9
(() () () () () () () () () () () () () () () () () () () () ())

()

()

()

()

(2 'backslash' 'm_bern' 1 ((PARAMETER UNKNOWN UNKNOWN UNKNOWN NONE NONE)
(CHARACTER 1 ((CONSTANT (INTEGER 4) 0 '1'))) 0 0 () (CONSTANT (
CHARACTER 1 ((CONSTANT (INTEGER 4) 0 '1'))) 0 1 '\') () () '' () ())
3 'char' '(intrinsic)' 1 ((PROCEDURE UNKNOWN INTRINSIC UNKNOWN NONE NONE
FUNCTION) (UNKNOWN) 0 0 () () () '' () ())
4 'd_datum' 'd_datum' 1 ((MODULE UNKNOWN UNKNOWN UNKNOWN NONE NONE) (
UNKNOWN) 0 0 () () () '' () ())
5 'd_eccent' 'd_eccent' 1 ((MODULE UNKNOWN UNKNOWN UNKNOWN NONE NONE) (
UNKNOWN) 0 0 () () () '' () ())
6 'ecctyp' 'd_eccent' 1 ((PARAMETER UNKNOWN UNKNOWN UNKNOWN NONE NONE
DIMENSION) (CHARACTER 1 ((CONSTANT (INTEGER 4) 0 '10'))) 0 0 () (ARRAY (
CHARACTER 1 ((CONSTANT (INTEGER 4) 0 '10'))) 1 (((CONSTANT (CHARACTER 1
((CONSTANT (INTEGER 4) 0 '10'))) 0 10 'LOCAL     ') ()) ((CONSTANT (
CHARACTER 1 ((CONSTANT (INTEGER 4) 0 '10'))) 0 10 'GEOCENTRIC') ())) ())
(1 EXPLICIT (CONSTANT (INTEGER 4) 0 '1') (CONSTANT (INTEGER 4) 0 '2')) ()
'' () ())
7 'fileextlength' 'm_bern' 1 ((PARAMETER UNKNOWN UNKNOWN UNKNOWN NONE
NONE) (INTEGER 4) 0 0 () (CONSTANT (INTEGER 4) 0 '3') () () '' () ())
8 'filenamelength' 'm_bern' 1 ((PARAMETER UNKNOWN UNKNOWN UNKNOWN NONE
NONE) (INTEGER 4) 0 0 () (CONSTANT (INTEGER 4) 0 '32') () () '' () ())
9 'filenamelength80' 'm_bern' 1 ((PARAMETER UNKNOWN UNKNOWN UNKNOWN NONE
NONE) (INTEGER 4) 0 0 () (CONSTANT (INTEGER 4) 0 '80') () () '' () ())
10 'filepathlength' 'm_bern' 1 ((PARAMETER UNKNOWN UNKNOWN UNKNOWN NONE
NONE) (INTEGER 4) 0 0 () (CONSTANT (INTEGER 4) 0 '32') () () '' () ())
11 'i4b' 'm_bern' 1 ((PARAMETER UNKNOWN UNKNOWN UNKNOWN NONE NONE) (
INTEGER 4) 0 0 () (CONSTANT (INTEGER 4) 0 '4') () () '' () ())
12 'i4ex' 'm_bern' 1 ((VARIABLE UNKNOWN UNKNOWN UNKNOWN NONE NONE) (
INTEGER 4) 0 0 () () () '' () ())
13 'init_eccent' 'd_eccent' 1 ((PROCEDURE UNKNOWN MODULE-PROC DECL NONE
NONE SUBROUTINE) (PROCEDURE 0) 0 0 (14 NONE) () () '' () ())
15 'init_key' 'm_bern' 1 ((PROCEDURE UNKNOWN MODULE-PROC DECL NONE NONE
SUBROUTINE) (PROCEDURE 0) 0 0 (16 NONE) () () '' () ())
17 'keynamelength' 'm_bern' 1 ((PARAMETER UNKNOWN UNKNOWN UNKNOWN NONE
NONE) (INTEGER 4) 0 0 () (CONSTANT (INTEGER 4) 0 '32') () () '' () ())
18 'keyvaluelength' 'm_bern' 1 ((PARAMETER UNKNOWN UNKNOWN UNKNOWN NONE
NONE) (INTEGER 4) 0 0 () (CONSTANT (INTEGER 4) 0 '255') () () '' () ())
19 'kind' '(intrinsic)' 1 ((PROCEDURE UNKNOWN INTRINSIC UNKNOWN NONE
NONE FUNCTION) (UNKNOWN) 0 0 () () () '' () ())
20 'lfn001' 'm_bern' 1 ((VARIABLE UNKNOWN UNKNOWN UNKNOWN NONE NONE) (
INTEGER 4) 0 0 () () () '' () ())
21 'lfn002' 'm_bern' 1 ((VARIABLE UNKNOWN UNKNOWN UNKNOWN NONE NONE) (
INTEGER 4) 0 0 () () () '' () ())
22 'lfneph' 'm_bern' 1 ((VARIABLE UNKNOWN UNKNOWN UNKNOWN NONE NONE) (
INTEGER 4) 0 0 () () () '' () ())
23 'lfnerf' 'm_bern' 1 ((VARIABLE UNKNOWN UNKNOWN UNKNOWN NONE NONE) (
INTEGER 4) 0 0 () () () '' () ())
24 'lfnerr' 'm_bern' 1 ((VARIABLE UNKNOWN UNKNOWN UNKNOWN NONE NONE) (
INTEGER 4) 0 0 () () () '' () ())
25 'lfnkbd' 'm_bern' 1 ((VARIABLE UNKNOWN UNKNOWN UNKNOWN NONE NONE) (
INTEGER 4) 0 0 () () () '' () ())
26 'lfnloc' 'm_bern' 1 ((VARIABLE UNKNOWN UNKNOWN UNKNOWN NONE NONE) (
INTEGER 4) 0 0 () () () '' () ())
27 'lfnor1' 'm_bern' 1 ((VARIABLE UNKNOWN UNKNOWN UNKNOWN NONE NONE) (
INTEGER 4) 0 0 () () () '' () ())
28 'lfnorb' 'm_bern' 1 ((VARIABLE UNKNOWN UNKNOWN UNKNOWN NONE NONE) (
INTEGER 4) 0 0 () () () '' () ())
29 'lfnplt' 'm_bern' 1 ((VARIABLE UNKNOWN UNKNOWN UNKNOWN NONE NONE) (
INTEGER 4) 0 0 () () () '' () ())
30 'lfnprf' 'm_bern' 1 ((VARIABLE UNKNOWN UNKNOWN UNKNOWN NONE NONE) (
INTEGER 4) 0 0 () () () '' () ())
31 'lfnprt' 'm_bern' 1 ((VARIABLE UNKNOWN UNKNOWN UNKNOWN NONE NONE) (
INTEGER 4) 0 0 () () () '' () ())
32 'lfnres' 'm_bern' 1 ((VARIABLE UNKNOWN UNKNOWN UNKNOWN NONE NONE) (
INTEGER 4) 0 0 () () () '' () ())
33 'lfnrp1' 'm_bern' 1 ((VARIABLE UNKNOWN UNKNOWN UNKNOWN NONE NONE) (
INTEGER 4) 0 0 () () () '' () ())
34 'lfnrpr' 'm_bern' 1 ((VARIABLE UNKNOWN UNKNOWN UNKNOWN NONE NONE) (
INTEGER 4) 0 0 () () () '' () ())
35 'linelength' 'm_bern' 1 ((PARAMETER UNKNOWN UNKNOWN UNKNOWN NONE NONE)
(INTEGER 4) 0 0 () (CONSTANT (INTEGER 4) 0 '255') () () '' () ())
36 'linelength1024' 'm_bern' 1 ((PARAMETER UNKNOWN UNKNOWN UNKNOWN NONE
NONE) (INTEGER 4) 0 0 () (CONSTANT (INTEGER 4) 0 '1024') () () '' () ())
37 'longlinelength' 'm_bern' 1 ((PARAMETER UNKNOWN UNKNOWN UNKNOWN NONE
NONE) (INTEGER 4) 0 0 () (CONSTANT (INTEGER 4) 0 '512') () () '' () ())
38 'm_bern' 'm_bern' 1 ((MODULE UNKNOWN UNKNOWN UNKNOWN NONE NONE) (
UNKNOWN) 0 0 () () () '' () ())
39 'pgmver' 'm_bern' 1 ((PARAMETER UNKNOWN UNKNOWN UNKNOWN NONE NONE) (
CHARACTER 1 ((CONSTANT (INTEGER 4) 0 '3'))) 0 0 () (CONSTANT (CHARACTER
1 ((CONSTANT (INTEGER 4) 0 '3'))) 0 3 '5.2') () () '' () ())
40 'program_dscr' 'm_bern' 1 ((VARIABLE UNKNOWN UNKNOWN UNKNOWN NONE
NONE) (CHARACTER 1 ((CONSTANT (INTEGER 4) 0 '80'))) 0 0 () () () '' () ())
41 'program_name' 'm_bern' 1 ((VARIABLE UNKNOWN UNKNOWN UNKNOWN NONE
NONE) (CHARACTER 1 ((CONSTANT (INTEGER 4) 0 '8'))) 0 0 () () () '' () ())
42 'r8b' 'm_bern' 1 ((PARAMETER UNKNOWN UNKNOWN UNKNOWN NONE NONE) (
INTEGER 4) 0 0 () (CONSTANT (INTEGER 4) 0 '8') () () '' () ())
43 'r8ex' 'm_bern' 1 ((VARIABLE UNKNOWN UNKNOWN UNKNOWN NONE NONE) (
REAL 8) 0 0 () () () '' () ())
44 'shortlinelength' 'm_bern' 1 ((PARAMETER UNKNOWN UNKNOWN UNKNOWN NONE
NONE) (INTEGER 4) 0 0 () (CONSTANT (INTEGER 4) 0 '80') () () '' () ())
45 'stafla2length' 'm_bern' 1 ((PARAMETER UNKNOWN UNKNOWN UNKNOWN NONE
NONE) (INTEGER 4) 0 0 () (CONSTANT (INTEGER 4) 0 '5') () () '' () ())
46 'staflaglength' 'm_bern' 1 ((PARAMETER UNKNOWN UNKNOWN UNKNOWN NONE
NONE) (INTEGER 4) 0 0 () (CONSTANT (INTEGER 4) 0 '1') () () '' () ())
47 'stanam2length' 'm_bern' 1 ((PARAMETER UNKNOWN UNKNOWN UNKNOWN NONE
NONE) (INTEGER 4) 0 0 () (CONSTANT (INTEGER 4) 0 '20') () () '' () ())
48 'stanamelength' 'm_bern' 1 ((PARAMETER UNKNOWN UNKNOWN UNKNOWN NONE
NONE) (INTEGER 4) 0 0 () (CONSTANT (INTEGER 4) 0 '16') () () '' () ())
49 't_datum' 'd_datum' 1 ((DERIVED UNKNOWN UNKNOWN UNKNOWN NONE NONE) (
UNKNOWN) 0 0 () () () '' ((50 'name' (CHARACTER 1 ((CONSTANT (INTEGER 4)
0 '16'))) () () 0 0 0 ()) (51 'aell' (REAL 8) () () 0 0 0 ()) (52 'bell'
(REAL 8) () () 0 0 0 ()) (53 'dxell' (REAL 8) (1 EXPLICIT (CONSTANT (
INTEGER 4) 0 '1') (CONSTANT (INTEGER 4) 0 '3')) () 1 0 0 ()) (54 'drell'
(REAL 8) (1 EXPLICIT (CONSTANT (INTEGER 4) 0 '1') (CONSTANT (INTEGER 4)
0 '3')) () 1 0 0 ()) (55 'scell' (REAL 8) () () 0 0 0 ()) (56 'type' (
CHARACTER 1 ((CONSTANT (INTEGER 4) 0 '16'))) () () 0 0 0 ())) PUBLIC ())
57 't_ecc' 'd_eccent' 1 ((DERIVED UNKNOWN UNKNOWN UNKNOWN NONE NONE) (
UNKNOWN) 0 0 () () () '' ((58 'stanum' (INTEGER 4) () () 0 0 0 ()) (59
'stanam' (CHARACTER 1 ((CONSTANT (INTEGER 4) 0 '16'))) () () 0 0 0 ()) (
60 'cennam' (CHARACTER 1 ((CONSTANT (INTEGER 4) 0 '16'))) () () 0 0 0 ())
(61 'xeccen' (REAL 8) (1 EXPLICIT (CONSTANT (INTEGER 4) 0 '1') (
CONSTANT (INTEGER 4) 0 '3')) () 1 0 0 ())) PUBLIC ())
62 't_eccent' 'd_eccent' 1 ((DERIVED UNKNOWN UNKNOWN UNKNOWN NONE NONE)
(UNKNOWN) 0 0 () () () '' ((63 'title' (CHARACTER 1 ((CONSTANT (INTEGER
4) 0 '80'))) () () 0 0 0 ()) (64 'ecctyp' (INTEGER 4) () () 0 0 0 ()) (
65 'datum' (DERIVED 49) () () 0 0 0 ()) (66 'necc' (INTEGER 4) () () 0 0
0 ()) (67 'ecc' (DERIVED 57) (1 DEFERRED () ()) () 1 1 0 ())) PUBLIC ())
68 't_key' 'm_bern' 1 ((DERIVED UNKNOWN UNKNOWN UNKNOWN NONE NONE) (
UNKNOWN) 0 0 () () () '' ((69 'name' (CHARACTER 1 ((CONSTANT (INTEGER 4)
0 '32'))) () () 0 0 0 ()) (70 'value' (CHARACTER 1 ((CONSTANT (INTEGER 4)
0 '255'))) (1 DEFERRED () ()) () 1 1 0 ())) PUBLIC ())
71 'timstrglength' 'm_bern' 1 ((PARAMETER UNKNOWN UNKNOWN UNKNOWN NONE
NONE) (INTEGER 4) 0 0 () (CONSTANT (INTEGER 4) 0 '19') () () '' () ())
72 'timstrglength2' 'm_bern' 1 ((PARAMETER UNKNOWN UNKNOWN UNKNOWN NONE
NONE) (INTEGER 4) 0 0 () (CONSTANT (INTEGER 4) 0 '40') () () '' () ())
16 'key' '' 73 ((VARIABLE UNKNOWN UNKNOWN UNKNOWN NONE NONE DUMMY) (
DERIVED 68) 0 0 () () () '' () ())
14 'eccent' '' 74 ((VARIABLE UNKNOWN UNKNOWN UNKNOWN NONE NONE DUMMY) (
DERIVED 62) 0 0 () () () '' () ())
)

('backslash' 0 2 'char' 0 3 'd_datum' 0 4 'd_eccent' 0 5 'ecctyp' 0 6
'fileextlength' 0 7 'filenamelength' 0 8 'filenamelength80' 0 9
'filepathlength' 0 10 'i4b' 0 11 'i4ex' 0 12 'init_eccent' 0 13 'init_key'
0 15 'keynamelength' 0 17 'keyvaluelength' 0 18 'kind' 0 19 'lfn001' 0
20 'lfn002' 0 21 'lfneph' 0 22 'lfnerf' 0 23 'lfnerr' 0 24 'lfnkbd' 0 25
'lfnloc' 0 26 'lfnor1' 0 27 'lfnorb' 0 28 'lfnplt' 0 29 'lfnprf' 0 30
'lfnprt' 0 31 'lfnres' 0 32 'lfnrp1' 0 33 'lfnrpr' 0 34 'linelength' 0
35 'linelength1024' 0 36 'longlinelength' 0 37 'm_bern' 0 38 'pgmver' 0
39 'program_dscr' 0 40 'program_name' 0 41 'r8b' 0 42 'r8ex' 0 43
'shortlinelength' 0 44 'stafla2length' 0 45 'staflaglength' 0 46
'stanam2length' 0 47 'stanamelength' 0 48 't_datum' 0 49 't_ecc' 0 57
't_eccent' 0 62 't_key' 0 68 'timstrglength' 0 71 'timstrglength2' 0 72)
