G95 module created on Thu Jun 25 17:48:12 2020 from ./.fpp/D_PAR.f90
If you edit this, you'll get what you deserve.
module-version 9
(() () () () () () () () () () () () () () () () () () () () ())

()

()

()

()

(2 'add_techn' 'd_par' 1 ((PROCEDURE UNKNOWN MODULE-PROC DECL NONE NONE
SUBROUTINE INVOKED) (PROCEDURE 0) 0 0 (3 NONE 4 NONE 5 NONE 6 NONE 7
NONE 8 NONE 9 NONE 10 NONE 11 NONE 12 NONE 13 NONE 14 NONE) () () '' ()
())
15 'backslash' 'm_bern' 1 ((PARAMETER UNKNOWN UNKNOWN UNKNOWN NONE NONE)
(CHARACTER 1 ((CONSTANT (INTEGER 4) 0 '1'))) 0 0 () (CONSTANT (
CHARACTER 1 ((CONSTANT (INTEGER 4) 0 '1'))) 0 1 '\') () () '' () ())
16 'char' '(intrinsic)' 1 ((PROCEDURE UNKNOWN INTRINSIC UNKNOWN NONE
NONE FUNCTION) (UNKNOWN) 0 0 () () () '' () ())
17 'd_par' 'd_par' 1 ((MODULE UNKNOWN UNKNOWN UNKNOWN NONE NONE) (
UNKNOWN) 0 0 () () () '' () ())
18 'fileextlength' 'm_bern' 1 ((PARAMETER UNKNOWN UNKNOWN UNKNOWN NONE
NONE) (INTEGER 4) 0 0 () (CONSTANT (INTEGER 4) 0 '3') () () '' () ())
19 'filenamelength' 'm_bern' 1 ((PARAMETER UNKNOWN UNKNOWN UNKNOWN NONE
NONE) (INTEGER 4) 0 0 () (CONSTANT (INTEGER 4) 0 '32') () () '' () ())
20 'filenamelength80' 'm_bern' 1 ((PARAMETER UNKNOWN UNKNOWN UNKNOWN
NONE NONE) (INTEGER 4) 0 0 () (CONSTANT (INTEGER 4) 0 '80') () () '' ()
())
21 'filepathlength' 'm_bern' 1 ((PARAMETER UNKNOWN UNKNOWN UNKNOWN NONE
NONE) (INTEGER 4) 0 0 () (CONSTANT (INTEGER 4) 0 '32') () () '' () ())
22 'i4b' 'm_bern' 1 ((PARAMETER UNKNOWN UNKNOWN UNKNOWN NONE NONE) (
INTEGER 4) 0 0 () (CONSTANT (INTEGER 4) 0 '4') () () '' () ())
23 'i4ex' 'm_bern' 1 ((VARIABLE UNKNOWN UNKNOWN UNKNOWN NONE NONE) (
INTEGER 4) 0 0 () () () '' () ())
24 'init_key' 'm_bern' 1 ((PROCEDURE UNKNOWN MODULE-PROC DECL NONE NONE
SUBROUTINE) (PROCEDURE 0) 0 0 (25 NONE) () () '' () ())
26 'init_techn' 'd_par' 1 ((PROCEDURE UNKNOWN MODULE-PROC DECL NONE NONE
SUBROUTINE INVOKED) (PROCEDURE 0) 0 0 (27 NONE) () () '' () ())
28 'is_techn' 'd_par' 1 ((PROCEDURE UNKNOWN MODULE-PROC DECL NONE NONE
FUNCTION INVOKED) (LOGICAL 4) 0 0 (29 NONE 30 NONE 31 NONE 32 NONE 33
NONE 34 NONE 35 NONE 36 NONE 37 NONE 38 NONE 39 NONE 40 NONE) () () '' ()
())
41 'ispartyp' 'd_par' 1 ((PROCEDURE UNKNOWN MODULE-PROC DECL NONE NONE
FUNCTION) (LOGICAL 4) 0 0 (42 NONE 43 NONE) () () '' () ())
44 'keynamelength' 'm_bern' 1 ((PARAMETER UNKNOWN UNKNOWN UNKNOWN NONE
NONE) (INTEGER 4) 0 0 () (CONSTANT (INTEGER 4) 0 '32') () () '' () ())
45 'keyvaluelength' 'm_bern' 1 ((PARAMETER UNKNOWN UNKNOWN UNKNOWN NONE
NONE) (INTEGER 4) 0 0 () (CONSTANT (INTEGER 4) 0 '255') () () '' () ())
46 'kind' '(intrinsic)' 1 ((PROCEDURE UNKNOWN INTRINSIC UNKNOWN NONE
NONE FUNCTION) (UNKNOWN) 0 0 () () () '' () ())
47 'lfn001' 'm_bern' 1 ((VARIABLE UNKNOWN UNKNOWN UNKNOWN NONE NONE) (
INTEGER 4) 0 0 () () () '' () ())
48 'lfn002' 'm_bern' 1 ((VARIABLE UNKNOWN UNKNOWN UNKNOWN NONE NONE) (
INTEGER 4) 0 0 () () () '' () ())
49 'lfneph' 'm_bern' 1 ((VARIABLE UNKNOWN UNKNOWN UNKNOWN NONE NONE) (
INTEGER 4) 0 0 () () () '' () ())
50 'lfnerf' 'm_bern' 1 ((VARIABLE UNKNOWN UNKNOWN UNKNOWN NONE NONE) (
INTEGER 4) 0 0 () () () '' () ())
51 'lfnerr' 'm_bern' 1 ((VARIABLE UNKNOWN UNKNOWN UNKNOWN NONE NONE) (
INTEGER 4) 0 0 () () () '' () ())
52 'lfnkbd' 'm_bern' 1 ((VARIABLE UNKNOWN UNKNOWN UNKNOWN NONE NONE) (
INTEGER 4) 0 0 () () () '' () ())
53 'lfnloc' 'm_bern' 1 ((VARIABLE UNKNOWN UNKNOWN UNKNOWN NONE NONE) (
INTEGER 4) 0 0 () () () '' () ())
54 'lfnor1' 'm_bern' 1 ((VARIABLE UNKNOWN UNKNOWN UNKNOWN NONE NONE) (
INTEGER 4) 0 0 () () () '' () ())
55 'lfnorb' 'm_bern' 1 ((VARIABLE UNKNOWN UNKNOWN UNKNOWN NONE NONE) (
INTEGER 4) 0 0 () () () '' () ())
56 'lfnplt' 'm_bern' 1 ((VARIABLE UNKNOWN UNKNOWN UNKNOWN NONE NONE) (
INTEGER 4) 0 0 () () () '' () ())
57 'lfnprf' 'm_bern' 1 ((VARIABLE UNKNOWN UNKNOWN UNKNOWN NONE NONE) (
INTEGER 4) 0 0 () () () '' () ())
58 'lfnprt' 'm_bern' 1 ((VARIABLE UNKNOWN UNKNOWN UNKNOWN NONE NONE) (
INTEGER 4) 0 0 () () () '' () ())
59 'lfnres' 'm_bern' 1 ((VARIABLE UNKNOWN UNKNOWN UNKNOWN NONE NONE) (
INTEGER 4) 0 0 () () () '' () ())
60 'lfnrp1' 'm_bern' 1 ((VARIABLE UNKNOWN UNKNOWN UNKNOWN NONE NONE) (
INTEGER 4) 0 0 () () () '' () ())
61 'lfnrpr' 'm_bern' 1 ((VARIABLE UNKNOWN UNKNOWN UNKNOWN NONE NONE) (
INTEGER 4) 0 0 () () () '' () ())
62 'linelength' 'm_bern' 1 ((PARAMETER UNKNOWN UNKNOWN UNKNOWN NONE NONE)
(INTEGER 4) 0 0 () (CONSTANT (INTEGER 4) 0 '255') () () '' () ())
63 'linelength1024' 'm_bern' 1 ((PARAMETER UNKNOWN UNKNOWN UNKNOWN NONE
NONE) (INTEGER 4) 0 0 () (CONSTANT (INTEGER 4) 0 '1024') () () '' () ())
64 'longlinelength' 'm_bern' 1 ((PARAMETER UNKNOWN UNKNOWN UNKNOWN NONE
NONE) (INTEGER 4) 0 0 () (CONSTANT (INTEGER 4) 0 '512') () () '' () ())
65 'm_bern' 'm_bern' 1 ((MODULE UNKNOWN UNKNOWN UNKNOWN NONE NONE) (
UNKNOWN) 0 0 () () () '' () ())
66 'm_time' 'm_time' 1 ((MODULE UNKNOWN UNKNOWN UNKNOWN NONE NONE) (
UNKNOWN) 0 0 () () () '' () ())
67 'maxlcq' 'd_par' 1 ((PARAMETER UNKNOWN UNKNOWN UNKNOWN NONE NONE) (
INTEGER 4) 0 0 () (CONSTANT (INTEGER 4) 0 '7') () () '' () ())
68 'maxpartyp' 'd_par' 1 ((PARAMETER UNKNOWN UNKNOWN UNKNOWN NONE NONE)
(INTEGER 4) 0 0 () (CONSTANT (INTEGER 4) 0 '30') () () '' () ())
69 'merge_techn' 'd_par' 1 ((PROCEDURE UNKNOWN MODULE-PROC DECL NONE
NONE SUBROUTINE) (PROCEDURE 0) 0 0 (70 NONE 71 NONE) () () '' () ())
72 'partype_constant' 'd_par' 1 ((PARAMETER UNKNOWN UNKNOWN UNKNOWN NONE
NONE) (CHARACTER 1 ((CONSTANT (INTEGER 4) 0 '2'))) 0 0 () (CONSTANT (
CHARACTER 1 ((CONSTANT (INTEGER 4) 0 '2'))) 0 2 'CC') () () '' () ())
73 'partype_epochspecific' 'd_par' 1 ((PARAMETER UNKNOWN UNKNOWN UNKNOWN
NONE NONE) (CHARACTER 1 ((CONSTANT (INTEGER 4) 0 '2'))) 0 0 () (
CONSTANT (CHARACTER 1 ((CONSTANT (INTEGER 4) 0 '2'))) 0 2 'ES') () () ''
() ())
74 'partype_linear' 'd_par' 1 ((PARAMETER UNKNOWN UNKNOWN UNKNOWN NONE
NONE) (CHARACTER 1 ((CONSTANT (INTEGER 4) 0 '2'))) 0 0 () (CONSTANT (
CHARACTER 1 ((CONSTANT (INTEGER 4) 0 '2'))) 0 2 'L ') () () '' () ())
75 'partype_linearleftpoint' 'd_par' 1 ((PARAMETER UNKNOWN UNKNOWN
UNKNOWN NONE NONE) (CHARACTER 1 ((CONSTANT (INTEGER 4) 0 '2'))) 0 0 () (
CONSTANT (CHARACTER 1 ((CONSTANT (INTEGER 4) 0 '2'))) 0 2 'LL') () () ''
() ())
76 'partype_linearmiddlepoint' 'd_par' 1 ((PARAMETER UNKNOWN UNKNOWN
UNKNOWN NONE NONE) (CHARACTER 1 ((CONSTANT (INTEGER 4) 0 '2'))) 0 0 () (
CONSTANT (CHARACTER 1 ((CONSTANT (INTEGER 4) 0 '2'))) 0 2 'LM') () () ''
() ())
77 'partype_linearrightpoint' 'd_par' 1 ((PARAMETER UNKNOWN UNKNOWN
UNKNOWN NONE NONE) (CHARACTER 1 ((CONSTANT (INTEGER 4) 0 '2'))) 0 0 () (
CONSTANT (CHARACTER 1 ((CONSTANT (INTEGER 4) 0 '2'))) 0 2 'LR') () () ''
() ())
78 'partype_periodic' 'd_par' 1 ((PARAMETER UNKNOWN UNKNOWN UNKNOWN NONE
NONE) (CHARACTER 1 ((CONSTANT (INTEGER 4) 0 '2'))) 0 0 () (CONSTANT (
CHARACTER 1 ((CONSTANT (INTEGER 4) 0 '2'))) 0 2 'P ') () () '' () ())
79 'partype_periodiccos' 'd_par' 1 ((PARAMETER UNKNOWN UNKNOWN UNKNOWN
NONE NONE) (CHARACTER 1 ((CONSTANT (INTEGER 4) 0 '2'))) 0 0 () (
CONSTANT (CHARACTER 1 ((CONSTANT (INTEGER 4) 0 '2'))) 0 2 'PC') () () ''
() ())
80 'partype_periodicdrift' 'd_par' 1 ((PARAMETER UNKNOWN UNKNOWN UNKNOWN
NONE NONE) (CHARACTER 1 ((CONSTANT (INTEGER 4) 0 '2'))) 0 0 () (
CONSTANT (CHARACTER 1 ((CONSTANT (INTEGER 4) 0 '2'))) 0 2 'PD') () () ''
() ())
81 'partype_periodicoffset' 'd_par' 1 ((PARAMETER UNKNOWN UNKNOWN
UNKNOWN NONE NONE) (CHARACTER 1 ((CONSTANT (INTEGER 4) 0 '2'))) 0 0 () (
CONSTANT (CHARACTER 1 ((CONSTANT (INTEGER 4) 0 '2'))) 0 2 'PO') () () ''
() ())
82 'partype_periodicsin' 'd_par' 1 ((PARAMETER UNKNOWN UNKNOWN UNKNOWN
NONE NONE) (CHARACTER 1 ((CONSTANT (INTEGER 4) 0 '2'))) 0 0 () (
CONSTANT (CHARACTER 1 ((CONSTANT (INTEGER 4) 0 '2'))) 0 2 'PS') () () ''
() ())
83 'partypelength' 'd_par' 1 ((PARAMETER UNKNOWN UNKNOWN UNKNOWN NONE
NONE) (INTEGER 4) 0 0 () (CONSTANT (INTEGER 4) 0 '2') () () '' () ())
84 'pgmver' 'm_bern' 1 ((PARAMETER UNKNOWN UNKNOWN UNKNOWN NONE NONE) (
CHARACTER 1 ((CONSTANT (INTEGER 4) 0 '3'))) 0 0 () (CONSTANT (CHARACTER
1 ((CONSTANT (INTEGER 4) 0 '3'))) 0 3 '5.2') () () '' () ())
85 'program_dscr' 'm_bern' 1 ((VARIABLE UNKNOWN UNKNOWN UNKNOWN NONE
NONE) (CHARACTER 1 ((CONSTANT (INTEGER 4) 0 '80'))) 0 0 () () () '' () ())
86 'program_name' 'm_bern' 1 ((VARIABLE UNKNOWN UNKNOWN UNKNOWN NONE
NONE) (CHARACTER 1 ((CONSTANT (INTEGER 4) 0 '8'))) 0 0 () () () '' () ())
87 'r8b' 'm_bern' 1 ((PARAMETER UNKNOWN UNKNOWN UNKNOWN NONE NONE) (
INTEGER 4) 0 0 () (CONSTANT (INTEGER 4) 0 '8') () () '' () ())
88 'r8ex' 'm_bern' 1 ((VARIABLE UNKNOWN UNKNOWN UNKNOWN NONE NONE) (
REAL 8) 0 0 () () () '' () ())
89 'readpar' 'd_par' 1 ((PROCEDURE UNKNOWN MODULE-PROC DECL NONE NONE
FUNCTION) (DERIVED 90) 0 0 (91 NONE 92 NONE 93 NONE) () () '' () ())
94 'shortlinelength' 'm_bern' 1 ((PARAMETER UNKNOWN UNKNOWN UNKNOWN NONE
NONE) (INTEGER 4) 0 0 () (CONSTANT (INTEGER 4) 0 '80') () () '' () ())
95 'stafla2length' 'm_bern' 1 ((PARAMETER UNKNOWN UNKNOWN UNKNOWN NONE
NONE) (INTEGER 4) 0 0 () (CONSTANT (INTEGER 4) 0 '5') () () '' () ())
96 'staflaglength' 'm_bern' 1 ((PARAMETER UNKNOWN UNKNOWN UNKNOWN NONE
NONE) (INTEGER 4) 0 0 () (CONSTANT (INTEGER 4) 0 '1') () () '' () ())
97 'stanam2length' 'm_bern' 1 ((PARAMETER UNKNOWN UNKNOWN UNKNOWN NONE
NONE) (INTEGER 4) 0 0 () (CONSTANT (INTEGER 4) 0 '20') () () '' () ())
98 'stanamelength' 'm_bern' 1 ((PARAMETER UNKNOWN UNKNOWN UNKNOWN NONE
NONE) (INTEGER 4) 0 0 () (CONSTANT (INTEGER 4) 0 '16') () () '' () ())
99 't_key' 'm_bern' 1 ((DERIVED UNKNOWN UNKNOWN UNKNOWN NONE NONE) (
UNKNOWN) 0 0 () () () '' ((100 'name' (CHARACTER 1 ((CONSTANT (INTEGER 4)
0 '32'))) () () 0 0 0 ()) (101 'value' (CHARACTER 1 ((CONSTANT (INTEGER
4) 0 '255'))) (1 DEFERRED () ()) () 1 1 0 ())) PUBLIC ())
90 't_par' 'd_par' 1 ((DERIVED UNKNOWN UNKNOWN UNKNOWN NONE NONE) (
UNKNOWN) 0 0 () () () '' ((102 'locq' (INTEGER 4) (1 EXPLICIT (CONSTANT
(INTEGER 4) 0 '1') (CONSTANT (INTEGER 4) 0 '7')) () 1 0 0 ()) (103 'name'
(CHARACTER 1 ((CONSTANT (INTEGER 4) 0 '20'))) () () 0 0 0 ()) (104 'time'
(DERIVED 105) () () 0 0 0 ()) (106 'x0' (REAL 8) () () 0 0 0 ()) (107
'scale' (REAL 8) () () 0 0 0 ()) (108 'techn' (CHARACTER 1 ((CONSTANT (
INTEGER 4) 0 '1'))) (1 EXPLICIT (CONSTANT (INTEGER 4) 0 '1') (CONSTANT (
INTEGER 4) 0 '2')) () 1 0 0 ()) (109 'obstim' (DERIVED 110) () () 0 0 0
()) (111 'type' (CHARACTER 1 ((CONSTANT (INTEGER 4) 0 '2'))) () () 0 0 0
()) (112 'omega' (REAL 8) () () 0 0 0 ())) PUBLIC ())
113 't_par_v2' 'd_par' 1 ((DERIVED UNKNOWN UNKNOWN UNKNOWN NONE NONE) (
UNKNOWN) 0 0 () () () '' ((114 'locq' (INTEGER 4) (1 EXPLICIT (CONSTANT
(INTEGER 4) 0 '1') (CONSTANT (INTEGER 4) 0 '7')) () 1 0 0 ()) (115 'name'
(CHARACTER 1 ((CONSTANT (INTEGER 4) 0 '16'))) () () 0 0 0 ()) (116 'time'
(DERIVED 105) () () 0 0 0 ()) (117 'x0' (REAL 8) () () 0 0 0 ()) (118
'scale' (REAL 8) () () 0 0 0 ())) PUBLIC ())
105 't_time' 'm_time' 1 ((DERIVED UNKNOWN UNKNOWN UNKNOWN NONE NONE
SEQUENCE) (UNKNOWN) 0 0 () () () '' ((119 'mean' (REAL 8) () () 0 0 0 ())
(120 'half' (REAL 8) () () 0 0 0 ())) PUBLIC ())
110 't_timint' 'm_time' 1 ((DERIVED UNKNOWN UNKNOWN UNKNOWN NONE NONE) (
UNKNOWN) 0 0 () () () '' ((121 't' (REAL 8) (1 EXPLICIT (CONSTANT (
INTEGER 4) 0 '1') (CONSTANT (INTEGER 4) 0 '2')) () 1 0 0 ())) PUBLIC ())
122 'timstrglength' 'm_bern' 1 ((PARAMETER UNKNOWN UNKNOWN UNKNOWN NONE
NONE) (INTEGER 4) 0 0 () (CONSTANT (INTEGER 4) 0 '19') () () '' () ())
123 'timstrglength2' 'm_bern' 1 ((PARAMETER UNKNOWN UNKNOWN UNKNOWN NONE
NONE) (INTEGER 4) 0 0 () (CONSTANT (INTEGER 4) 0 '40') () () '' () ())
124 'writepar' 'd_par' 1 ((PROCEDURE UNKNOWN MODULE-PROC DECL NONE NONE
SUBROUTINE) (PROCEDURE 0) 0 0 (125 NONE 126 NONE 127 NONE) () () '' () ())
127 'par' '' 128 ((VARIABLE UNKNOWN UNKNOWN UNKNOWN NONE NONE DUMMY) (
DERIVED 90) 0 0 () () () '' () ())
126 'bin' '' 128 ((VARIABLE UNKNOWN UNKNOWN UNKNOWN NONE NONE DUMMY) (
INTEGER 4) 0 0 () () () '' () ())
125 'lfn' '' 128 ((VARIABLE UNKNOWN UNKNOWN UNKNOWN NONE NONE DUMMY) (
INTEGER 4) 0 0 () () () '' () ())
110 't_timint' 'm_time' 1 ((DERIVED UNKNOWN UNKNOWN UNKNOWN NONE NONE) (
UNKNOWN) 0 0 () () () '' ((121 't' (REAL 8) (1 EXPLICIT (CONSTANT (
INTEGER 4) 0 '1') (CONSTANT (INTEGER 4) 0 '2')) () 1 0 0 ())) PUBLIC ())
105 't_time' 'm_time' 1 ((DERIVED UNKNOWN UNKNOWN UNKNOWN NONE NONE
SEQUENCE) (UNKNOWN) 0 0 () () () '' ((119 'mean' (REAL 8) () () 0 0 0 ())
(120 'half' (REAL 8) () () 0 0 0 ())) PUBLIC ())
93 'version' '' 129 ((VARIABLE UNKNOWN UNKNOWN UNKNOWN NONE NONE DUMMY)
(INTEGER 4) 0 0 () () () '' () ())
92 'bin' '' 129 ((VARIABLE UNKNOWN UNKNOWN UNKNOWN NONE NONE DUMMY) (
INTEGER 4) 0 0 () () () '' () ())
91 'lfn' '' 129 ((VARIABLE UNKNOWN UNKNOWN UNKNOWN NONE NONE DUMMY) (
INTEGER 4) 0 0 () () () '' () ())
90 't_par' 'd_par' 1 ((DERIVED UNKNOWN UNKNOWN UNKNOWN NONE NONE) (
UNKNOWN) 0 0 () () () '' ((102 'locq' (INTEGER 4) (1 EXPLICIT (CONSTANT
(INTEGER 4) 0 '1') (CONSTANT (INTEGER 4) 0 '7')) () 1 0 0 ()) (103 'name'
(CHARACTER 1 ((CONSTANT (INTEGER 4) 0 '20'))) () () 0 0 0 ()) (104 'time'
(DERIVED 105) () () 0 0 0 ()) (106 'x0' (REAL 8) () () 0 0 0 ()) (107
'scale' (REAL 8) () () 0 0 0 ()) (108 'techn' (CHARACTER 1 ((CONSTANT (
INTEGER 4) 0 '1'))) (1 EXPLICIT (CONSTANT (INTEGER 4) 0 '1') (CONSTANT (
INTEGER 4) 0 '2')) () 1 0 0 ()) (109 'obstim' (DERIVED 110) () () 0 0 0
()) (111 'type' (CHARACTER 1 ((CONSTANT (INTEGER 4) 0 '2'))) () () 0 0 0
()) (112 'omega' (REAL 8) () () 0 0 0 ())) PUBLIC ())
71 'par2' '' 130 ((VARIABLE UNKNOWN UNKNOWN UNKNOWN NONE NONE DUMMY) (
DERIVED 90) 0 0 () () () '' () ())
70 'par1' '' 130 ((VARIABLE UNKNOWN UNKNOWN UNKNOWN NONE NONE DUMMY) (
DERIVED 90) 0 0 () () () '' () ())
43 'partyp' '' 131 ((VARIABLE UNKNOWN UNKNOWN UNKNOWN NONE NONE DUMMY) (
CHARACTER 1 ((CONSTANT (INTEGER 4) 0 '2'))) 0 0 () () () '' () ())
42 'par' '' 131 ((VARIABLE UNKNOWN UNKNOWN UNKNOWN NONE NONE DUMMY) (
DERIVED 90) 0 0 () () () '' () ())
40 'sbas' '' 132 ((VARIABLE UNKNOWN UNKNOWN UNKNOWN NONE NONE OPTIONAL
DUMMY) (INTEGER 4) 0 0 () () () '' () ())
39 'gal' '' 132 ((VARIABLE UNKNOWN UNKNOWN UNKNOWN NONE NONE OPTIONAL
DUMMY) (INTEGER 4) 0 0 () () () '' () ())
38 'galileo' '' 132 ((VARIABLE UNKNOWN UNKNOWN UNKNOWN NONE NONE
OPTIONAL DUMMY) (INTEGER 4) 0 0 () () () '' () ())
37 'glo' '' 132 ((VARIABLE UNKNOWN UNKNOWN UNKNOWN NONE NONE OPTIONAL
DUMMY) (INTEGER 4) 0 0 () () () '' () ())
36 'glonass' '' 132 ((VARIABLE UNKNOWN UNKNOWN UNKNOWN NONE NONE
OPTIONAL DUMMY) (INTEGER 4) 0 0 () () () '' () ())
35 'gps' '' 132 ((VARIABLE UNKNOWN UNKNOWN UNKNOWN NONE NONE OPTIONAL
DUMMY) (INTEGER 4) 0 0 () () () '' () ())
34 'doris' '' 132 ((VARIABLE UNKNOWN UNKNOWN UNKNOWN NONE NONE OPTIONAL
DUMMY) (INTEGER 4) 0 0 () () () '' () ())
33 'llr' '' 132 ((VARIABLE UNKNOWN UNKNOWN UNKNOWN NONE NONE OPTIONAL
DUMMY) (INTEGER 4) 0 0 () () () '' () ())
32 'slr' '' 132 ((VARIABLE UNKNOWN UNKNOWN UNKNOWN NONE NONE OPTIONAL
DUMMY) (INTEGER 4) 0 0 () () () '' () ())
31 'vlbi' '' 132 ((VARIABLE UNKNOWN UNKNOWN UNKNOWN NONE NONE OPTIONAL
DUMMY) (INTEGER 4) 0 0 () () () '' () ())
30 'gnss' '' 132 ((VARIABLE UNKNOWN UNKNOWN UNKNOWN NONE NONE OPTIONAL
DUMMY) (INTEGER 4) 0 0 () () () '' () ())
29 'par' '' 132 ((VARIABLE UNKNOWN UNKNOWN UNKNOWN NONE NONE DUMMY) (
DERIVED 90) 0 0 () () () '' () ())
27 'par' '' 133 ((VARIABLE UNKNOWN UNKNOWN UNKNOWN NONE NONE DUMMY) (
DERIVED 90) 0 0 () () () '' () ())
25 'key' '' 134 ((VARIABLE UNKNOWN UNKNOWN UNKNOWN NONE NONE DUMMY) (
DERIVED 99) 0 0 () () () '' () ())
14 'sbas' '' 135 ((VARIABLE UNKNOWN UNKNOWN UNKNOWN NONE NONE OPTIONAL
DUMMY) (INTEGER 4) 0 0 () () () '' () ())
13 'gal' '' 135 ((VARIABLE UNKNOWN UNKNOWN UNKNOWN NONE NONE OPTIONAL
DUMMY) (INTEGER 4) 0 0 () () () '' () ())
12 'galileo' '' 135 ((VARIABLE UNKNOWN UNKNOWN UNKNOWN NONE NONE
OPTIONAL DUMMY) (INTEGER 4) 0 0 () () () '' () ())
11 'glo' '' 135 ((VARIABLE UNKNOWN UNKNOWN UNKNOWN NONE NONE OPTIONAL
DUMMY) (INTEGER 4) 0 0 () () () '' () ())
10 'glonass' '' 135 ((VARIABLE UNKNOWN UNKNOWN UNKNOWN NONE NONE
OPTIONAL DUMMY) (INTEGER 4) 0 0 () () () '' () ())
9 'gps' '' 135 ((VARIABLE UNKNOWN UNKNOWN UNKNOWN NONE NONE OPTIONAL
DUMMY) (INTEGER 4) 0 0 () () () '' () ())
8 'doris' '' 135 ((VARIABLE UNKNOWN UNKNOWN UNKNOWN NONE NONE OPTIONAL
DUMMY) (INTEGER 4) 0 0 () () () '' () ())
7 'llr' '' 135 ((VARIABLE UNKNOWN UNKNOWN UNKNOWN NONE NONE OPTIONAL
DUMMY) (INTEGER 4) 0 0 () () () '' () ())
6 'slr' '' 135 ((VARIABLE UNKNOWN UNKNOWN UNKNOWN NONE NONE OPTIONAL
DUMMY) (INTEGER 4) 0 0 () () () '' () ())
5 'vlbi' '' 135 ((VARIABLE UNKNOWN UNKNOWN UNKNOWN NONE NONE OPTIONAL
DUMMY) (INTEGER 4) 0 0 () () () '' () ())
4 'gnss' '' 135 ((VARIABLE UNKNOWN UNKNOWN UNKNOWN NONE NONE OPTIONAL
DUMMY) (INTEGER 4) 0 0 () () () '' () ())
3 'par' '' 135 ((VARIABLE UNKNOWN UNKNOWN UNKNOWN NONE NONE DUMMY) (
DERIVED 90) 0 0 () () () '' () ())
)

('add_techn' 0 2 'backslash' 0 15 'char' 0 16 'd_par' 0 17 'fileextlength'
0 18 'filenamelength' 0 19 'filenamelength80' 0 20 'filepathlength' 0 21
'i4b' 0 22 'i4ex' 0 23 'init_key' 0 24 'init_techn' 0 26 'is_techn' 0 28
'ispartyp' 0 41 'keynamelength' 0 44 'keyvaluelength' 0 45 'kind' 0 46
'lfn001' 0 47 'lfn002' 0 48 'lfneph' 0 49 'lfnerf' 0 50 'lfnerr' 0 51
'lfnkbd' 0 52 'lfnloc' 0 53 'lfnor1' 0 54 'lfnorb' 0 55 'lfnplt' 0 56
'lfnprf' 0 57 'lfnprt' 0 58 'lfnres' 0 59 'lfnrp1' 0 60 'lfnrpr' 0 61
'linelength' 0 62 'linelength1024' 0 63 'longlinelength' 0 64 'm_bern' 0
65 'm_time' 0 66 'maxlcq' 0 67 'maxpartyp' 0 68 'merge_techn' 0 69
'partype_constant' 0 72 'partype_epochspecific' 0 73 'partype_linear' 0
74 'partype_linearleftpoint' 0 75 'partype_linearmiddlepoint' 0 76
'partype_linearrightpoint' 0 77 'partype_periodic' 0 78
'partype_periodiccos' 0 79 'partype_periodicdrift' 0 80
'partype_periodicoffset' 0 81 'partype_periodicsin' 0 82 'partypelength'
0 83 'pgmver' 0 84 'program_dscr' 0 85 'program_name' 0 86 'r8b' 0 87
'r8ex' 0 88 'readpar' 0 89 'shortlinelength' 0 94 'stafla2length' 0 95
'staflaglength' 0 96 'stanam2length' 0 97 'stanamelength' 0 98 't_key' 0
99 't_par' 0 90 't_par_v2' 0 113 't_time' 0 105 't_timint' 0 110
'timstrglength' 0 122 'timstrglength2' 0 123 'writepar' 0 124)
