G95 module created on Thu Jun 25 17:48:01 2020 from ./.fpp/D_PHAECC.f90
If you edit this, you'll get what you deserve.
module-version 9
(() () () () () () () () () () () () () () () () () () () () ())

()

()

()

()

(2 'alcantbu' 'd_phaecc' 1 ((PROCEDURE UNKNOWN MODULE-PROC DECL NONE
NONE SUBROUTINE INVOKED) (PROCEDURE 0) 0 0 (3 NONE 4 NONE 5 NONE) () () ''
() ())
6 'alcfrq' 'd_phaecc' 1 ((PROCEDURE UNKNOWN MODULE-PROC DECL NONE NONE
SUBROUTINE INVOKED) (PROCEDURE 0) 0 0 (7 NONE 8 NONE 9 NONE 10 NONE 11
NONE 12 NONE) () () '' () ())
13 'alcfrq2' 'd_phaecc' 1 ((PROCEDURE UNKNOWN MODULE-PROC DECL NONE NONE
SUBROUTINE) (PROCEDURE 0) 0 0 (14 NONE 15 NONE 16 NONE 17 NONE) () () ''
() ())
18 'antinfo' 'd_phaecc' 1 ((PROCEDURE UNKNOWN MODULE-PROC DECL NONE NONE
SUBROUTINE INVOKED) (PROCEDURE 0) 0 0 (19 NONE 20 NONE 21 NONE 22 NONE
23 NONE 24 NONE 25 NONE 26 NONE 27 NONE) () () '' () ())
28 'init_buf' 'd_phaecc' 1 ((PROCEDURE UNKNOWN MODULE-PROC DECL NONE
NONE SUBROUTINE) (PROCEDURE 0) 0 0 (29 NONE 30 NONE 31 NONE 32 NONE) ()
() '' () ())
33 'recant' 'd_phaecc' 1 ((VARIABLE UNKNOWN UNKNOWN UNKNOWN NONE NONE
DIMENSION POINTER) (DERIVED 34) 0 0 () (1 DEFERRED () ()) () '' () ())
35 'sat_off' 'd_phaecc' 1 ((PROCEDURE UNKNOWN MODULE-PROC DECL NONE NONE
SUBROUTINE) (PROCEDURE 0) 0 0 (36 NONE 37 NONE 38 NONE 39 NONE 40 NONE)
() () '' () ())
41 'sat_pcv' 'd_phaecc' 1 ((PROCEDURE UNKNOWN MODULE-PROC DECL NONE NONE
SUBROUTINE) (PROCEDURE 0) 0 0 (42 NONE 43 NONE 44 NONE 45 NONE 46 NONE
47 NONE 48 NONE) () () '' () ())
49 'satant' 'd_phaecc' 1 ((VARIABLE UNKNOWN UNKNOWN UNKNOWN NONE NONE
DIMENSION POINTER) (DERIVED 34) 0 0 () (1 DEFERRED () ()) () '' () ())
50 'sta_off' 'd_phaecc' 1 ((PROCEDURE UNKNOWN MODULE-PROC DECL NONE NONE
SUBROUTINE) (PROCEDURE 0) 0 0 (51 NONE 52 NONE 53 NONE 54 NONE 55 NONE
56 NONE 57 NONE) () () '' () ())
58 'sta_pcv' 'd_phaecc' 1 ((PROCEDURE UNKNOWN MODULE-PROC DECL NONE NONE
SUBROUTINE) (PROCEDURE 0) 0 0 (59 NONE 60 NONE 61 NONE 62 NONE 63 NONE
64 NONE 65 NONE 66 NONE 67 NONE) () () '' () ())
68 't_freq' 'd_phaecc' 1 ((DERIVED UNKNOWN UNKNOWN UNKNOWN NONE NONE) (
UNKNOWN) 0 0 () () () '' ((69 'freq' (INTEGER 4) () () 0 0 0 ()) (70 'off'
(REAL 8) (2 DEFERRED () () () ()) () 1 1 0 ()) (71 'pat' (REAL 8) (3
DEFERRED () () () () () ()) () 1 1 0 ()) (72 'fac' (REAL 8) (1 DEFERRED
() ()) () 1 1 0 ())) PUBLIC ())
34 't_phasfil' 'd_phaecc' 1 ((DERIVED UNKNOWN UNKNOWN UNKNOWN NONE NONE)
(UNKNOWN) 0 0 () () () '' ((73 'name' (CHARACTER 1 ((CONSTANT (INTEGER 4)
0 '20'))) () () 0 0 0 ()) (74 'numb' (INTEGER 4) () () 0 0 0 ()) (75 'sys'
(DERIVED 76) (1 DEFERRED () ()) () 1 1 0 ()) (77 'individ' (INTEGER 4) ()
() 0 0 0 ())) PUBLIC ())
76 't_sys' 'd_phaecc' 1 ((DERIVED UNKNOWN UNKNOWN UNKNOWN NONE NONE) (
UNKNOWN) 0 0 () () () '' ((78 'freq' (DERIVED 68) (1 DEFERRED () ()) ()
1 1 0 ()) (79 'nfreq' (INTEGER 4) () () 0 0 0 ()) (80 'typ' (INTEGER 4)
() () 0 0 0 ()) (81 'resolu' (INTEGER 4) (1 EXPLICIT (CONSTANT (INTEGER
4) 0 '1') (CONSTANT (INTEGER 4) 0 '4')) () 1 0 0 ()) (82 'sinex' (
CHARACTER 1 ((CONSTANT (INTEGER 4) 0 '10'))) () () 0 0 0 ()) (83 'method'
(CHARACTER 1 ((CONSTANT (INTEGER 4) 0 '20'))) () () 0 0 0 ()) (84 'date'
(CHARACTER 1 ((CONSTANT (INTEGER 4) 0 '10'))) () () 0 0 0 ()) (85 'remark'
(CHARACTER 1 ((CONSTANT (INTEGER 4) 0 '255'))) () () 0 0 0 ())) PUBLIC ())
86 'updmodel' 'd_phaecc' 1 ((PROCEDURE UNKNOWN MODULE-PROC DECL NONE
NONE SUBROUTINE) (PROCEDURE 0) 0 0 (87 NONE 88 NONE 89 NONE) () () '' ()
())
90 'wtphafil' 'd_phaecc' 1 ((PROCEDURE UNKNOWN MODULE-PROC DECL NONE
NONE SUBROUTINE) (PROCEDURE 0) 0 0 (91 NONE 92 NONE 93 NONE 94 NONE 95
NONE 96 NONE 97 NONE 98 NONE) () () '' () ())
98 'rindx' '' 99 ((VARIABLE UNKNOWN UNKNOWN UNKNOWN NONE NONE DIMENSION
OPTIONAL DUMMY) (INTEGER 4) 0 0 () (1 ASSUMED_SHAPE () ()) () '' () ())
97 'sindx' '' 99 ((VARIABLE UNKNOWN UNKNOWN UNKNOWN NONE NONE DIMENSION
OPTIONAL DUMMY) (INTEGER 4) 0 0 () (1 ASSUMED_SHAPE () ()) () '' () ())
96 'filinfo' '' 99 ((VARIABLE UNKNOWN UNKNOWN UNKNOWN NONE NONE DUMMY) (
CHARACTER 1 ((CONSTANT (INTEGER 4) 0 '60'))) 0 0 () () () '' () ())
95 'model' '' 99 ((VARIABLE UNKNOWN UNKNOWN UNKNOWN NONE NONE DUMMY) (
CHARACTER 1 ((CONSTANT (INTEGER 4) 0 '10'))) 0 0 () () () '' () ())
94 'title' '' 99 ((VARIABLE UNKNOWN UNKNOWN UNKNOWN NONE NONE DUMMY) (
CHARACTER 1 ((CONSTANT (INTEGER 4) 0 '80'))) 0 0 () () () '' () ())
93 'reant' '' 99 ((VARIABLE UNKNOWN UNKNOWN UNKNOWN NONE NONE DIMENSION
OPTIONAL POINTER DUMMY) (DERIVED 34) 0 0 () (1 DEFERRED () ()) () '' ()
())
92 'saant' '' 99 ((VARIABLE UNKNOWN UNKNOWN UNKNOWN NONE NONE DIMENSION
OPTIONAL POINTER DUMMY) (DERIVED 34) 0 0 () (1 DEFERRED () ()) () '' ()
())
91 'filphc' '' 99 ((VARIABLE UNKNOWN UNKNOWN UNKNOWN NONE NONE DUMMY) (
CHARACTER 1 ((CONSTANT (INTEGER 4) 0 '32'))) 0 0 () () () '' () ())
89 'filphc' '' 100 ((VARIABLE UNKNOWN UNKNOWN UNKNOWN NONE NONE DUMMY) (
CHARACTER 1 ((CONSTANT (INTEGER 4) 0 '32'))) 0 0 () () () '' () ())
88 'antbuf' '' 100 ((VARIABLE UNKNOWN UNKNOWN UNKNOWN NONE NONE
DIMENSION POINTER DUMMY) (DERIVED 34) 0 0 () (1 DEFERRED () ()) () '' ()
())
87 'antupd' '' 100 ((VARIABLE UNKNOWN UNKNOWN UNKNOWN NONE NONE
DIMENSION POINTER DUMMY) (DERIVED 34) 0 0 () (1 DEFERRED () ()) () '' ()
())
76 't_sys' 'd_phaecc' 1 ((DERIVED UNKNOWN UNKNOWN UNKNOWN NONE NONE) (
UNKNOWN) 0 0 () () () '' ((78 'freq' (DERIVED 68) (1 DEFERRED () ()) ()
1 1 0 ()) (79 'nfreq' (INTEGER 4) () () 0 0 0 ()) (80 'typ' (INTEGER 4)
() () 0 0 0 ()) (81 'resolu' (INTEGER 4) (1 EXPLICIT (CONSTANT (INTEGER
4) 0 '1') (CONSTANT (INTEGER 4) 0 '4')) () 1 0 0 ()) (82 'sinex' (
CHARACTER 1 ((CONSTANT (INTEGER 4) 0 '10'))) () () 0 0 0 ()) (83 'method'
(CHARACTER 1 ((CONSTANT (INTEGER 4) 0 '20'))) () () 0 0 0 ()) (84 'date'
(CHARACTER 1 ((CONSTANT (INTEGER 4) 0 '10'))) () () 0 0 0 ()) (85 'remark'
(CHARACTER 1 ((CONSTANT (INTEGER 4) 0 '255'))) () () 0 0 0 ())) PUBLIC ())
67 'corr' '' 101 ((VARIABLE UNKNOWN UNKNOWN UNKNOWN NONE NONE DUMMY) (
REAL 8) 0 0 () () () '' () ())
66 'azi' '' 101 ((VARIABLE UNKNOWN UNKNOWN UNKNOWN NONE NONE DUMMY) (
REAL 8) 0 0 () () () '' () ())
65 'zen' '' 101 ((VARIABLE UNKNOWN UNKNOWN UNKNOWN NONE NONE DUMMY) (
REAL 8) 0 0 () () () '' () ())
64 'sessid' '' 101 ((VARIABLE UNKNOWN UNKNOWN UNKNOWN NONE NONE OPTIONAL
DUMMY) (CHARACTER 1 ((CONSTANT (INTEGER 4) 0 '4'))) 0 0 () () () '' () ())
63 'rfrq' '' 101 ((VARIABLE UNKNOWN UNKNOWN UNKNOWN NONE NONE DUMMY) (
INTEGER 4) 0 0 () () () '' () ())
62 'prn' '' 101 ((VARIABLE UNKNOWN UNKNOWN UNKNOWN NONE NONE DUMMY) (
INTEGER 4) 0 0 () () () '' () ())
61 'sta' '' 101 ((VARIABLE UNKNOWN UNKNOWN UNKNOWN NONE NONE DUMMY) (
CHARACTER 1 ((CONSTANT (INTEGER 4) 0 '16'))) 0 0 () () () '' () ())
60 'antnum' '' 101 ((VARIABLE UNKNOWN UNKNOWN UNKNOWN NONE NONE DUMMY) (
INTEGER 4) 0 0 () () () '' () ())
59 'antnam' '' 101 ((VARIABLE UNKNOWN UNKNOWN UNKNOWN NONE NONE DUMMY) (
CHARACTER 1 ((CONSTANT (INTEGER 4) 0 '20'))) 0 0 () () () '' () ())
57 'offset' '' 102 ((VARIABLE UNKNOWN UNKNOWN UNKNOWN NONE NONE
DIMENSION DUMMY) (REAL 8) 0 0 () (1 EXPLICIT (CONSTANT (INTEGER 4) 0 '1')
(CONSTANT (INTEGER 4) 0 '3')) () '' () ())
56 'sessid' '' 102 ((VARIABLE UNKNOWN UNKNOWN UNKNOWN NONE NONE OPTIONAL
DUMMY) (CHARACTER 1 ((CONSTANT (INTEGER 4) 0 '4'))) 0 0 () () () '' () ())
55 'rfrq' '' 102 ((VARIABLE UNKNOWN UNKNOWN UNKNOWN NONE NONE DUMMY) (
INTEGER 4) 0 0 () () () '' () ())
54 'prn' '' 102 ((VARIABLE UNKNOWN UNKNOWN UNKNOWN NONE NONE DUMMY) (
INTEGER 4) 0 0 () () () '' () ())
53 'sta' '' 102 ((VARIABLE UNKNOWN UNKNOWN UNKNOWN NONE NONE DUMMY) (
CHARACTER 1 ((CONSTANT (INTEGER 4) 0 '16'))) 0 0 () () () '' () ())
52 'antnum' '' 102 ((VARIABLE UNKNOWN UNKNOWN UNKNOWN NONE NONE DUMMY) (
INTEGER 4) 0 0 () () () '' () ())
51 'antnam' '' 102 ((VARIABLE UNKNOWN UNKNOWN UNKNOWN NONE NONE DUMMY) (
CHARACTER 1 ((CONSTANT (INTEGER 4) 0 '20'))) 0 0 () () () '' () ())
48 'corr' '' 103 ((VARIABLE UNKNOWN UNKNOWN UNKNOWN NONE NONE DUMMY) (
REAL 8) 0 0 () () () '' () ())
47 'azi' '' 103 ((VARIABLE UNKNOWN UNKNOWN UNKNOWN NONE NONE DUMMY) (
REAL 8) 0 0 () () () '' () ())
46 'nad' '' 103 ((VARIABLE UNKNOWN UNKNOWN UNKNOWN NONE NONE DUMMY) (
REAL 8) 0 0 () () () '' () ())
45 'rfrq' '' 103 ((VARIABLE UNKNOWN UNKNOWN UNKNOWN NONE NONE DUMMY) (
INTEGER 4) 0 0 () () () '' () ())
44 'mea' '' 103 ((VARIABLE UNKNOWN UNKNOWN UNKNOWN NONE NONE DUMMY) (
CHARACTER 1 ((CONSTANT (INTEGER 4) 0 '4'))) 0 0 () () () '' () ())
43 'epo' '' 103 ((VARIABLE UNKNOWN UNKNOWN UNKNOWN NONE NONE DUMMY) (
REAL 8) 0 0 () () () '' () ())
42 'prn' '' 103 ((VARIABLE UNKNOWN UNKNOWN UNKNOWN NONE NONE DUMMY) (
INTEGER 4) 0 0 () () () '' () ())
40 'offset' '' 104 ((VARIABLE UNKNOWN UNKNOWN UNKNOWN NONE NONE
DIMENSION DUMMY) (REAL 8) 0 0 () (1 EXPLICIT (CONSTANT (INTEGER 4) 0 '1')
(CONSTANT (INTEGER 4) 0 '3')) () '' () ())
39 'rfrq' '' 104 ((VARIABLE UNKNOWN UNKNOWN UNKNOWN NONE NONE DUMMY) (
INTEGER 4) 0 0 () () () '' () ())
38 'mea' '' 104 ((VARIABLE UNKNOWN UNKNOWN UNKNOWN NONE NONE DUMMY) (
CHARACTER 1 ((CONSTANT (INTEGER 4) 0 '4'))) 0 0 () () () '' () ())
37 'epo' '' 104 ((VARIABLE UNKNOWN UNKNOWN UNKNOWN NONE NONE DUMMY) (
REAL 8) 0 0 () () () '' () ())
36 'prn' '' 104 ((VARIABLE UNKNOWN UNKNOWN UNKNOWN NONE NONE DUMMY) (
INTEGER 4) 0 0 () () () '' () ())
34 't_phasfil' 'd_phaecc' 1 ((DERIVED UNKNOWN UNKNOWN UNKNOWN NONE NONE)
(UNKNOWN) 0 0 () () () '' ((73 'name' (CHARACTER 1 ((CONSTANT (INTEGER 4)
0 '20'))) () () 0 0 0 ()) (74 'numb' (INTEGER 4) () () 0 0 0 ()) (75 'sys'
(DERIVED 76) (1 DEFERRED () ()) () 1 1 0 ()) (77 'individ' (INTEGER 4) ()
() 0 0 0 ())) PUBLIC ())
32 'err' '' 105 ((VARIABLE UNKNOWN UNKNOWN UNKNOWN NONE NONE OPTIONAL
DUMMY) (INTEGER 4) 0 0 () () () '' () ())
31 'all' '' 105 ((VARIABLE UNKNOWN UNKNOWN UNKNOWN NONE NONE OPTIONAL
DUMMY) (INTEGER 4) 0 0 () () () '' () ())
30 'antlist' '' 105 ((VARIABLE UNKNOWN UNKNOWN UNKNOWN NONE NONE
DIMENSION OPTIONAL DUMMY) (CHARACTER 1 ((CONSTANT (INTEGER 4) 0 '26')))
0 0 () (1 ASSUMED_SHAPE () ()) () '' () ())
29 'bufsize' '' 105 ((VARIABLE UNKNOWN UNKNOWN UNKNOWN NONE NONE
DIMENSION OPTIONAL DUMMY) (INTEGER 4) 0 0 () (1 EXPLICIT (CONSTANT (
INTEGER 4) 0 '1') (CONSTANT (INTEGER 4) 0 '2')) () '' () ())
27 'index' '' 106 ((VARIABLE UNKNOWN UNKNOWN UNKNOWN NONE NONE OPTIONAL
DUMMY) (INTEGER 4) 0 0 () () () '' () ())
26 'individ' '' 106 ((VARIABLE UNKNOWN UNKNOWN UNKNOWN NONE NONE
OPTIONAL DUMMY) (INTEGER 4) 0 0 () () () '' () ())
25 'adopted' '' 106 ((VARIABLE UNKNOWN UNKNOWN UNKNOWN NONE NONE
OPTIONAL DUMMY) (INTEGER 4) 0 0 () () () '' () ())
24 'model' '' 106 ((VARIABLE UNKNOWN UNKNOWN UNKNOWN NONE NONE OPTIONAL
DUMMY) (CHARACTER 1 ((CONSTANT (INTEGER 4) 0 '1'))) 0 0 () () () '' () ())
23 'typ' '' 106 ((VARIABLE UNKNOWN UNKNOWN UNKNOWN NONE NONE OPTIONAL
DUMMY) (CHARACTER 1 ((CONSTANT (INTEGER 4) 0 '1'))) 0 0 () () () '' () ())
22 'sinex' '' 106 ((VARIABLE UNKNOWN UNKNOWN UNKNOWN NONE NONE OPTIONAL
DUMMY) (CHARACTER 1 ((CONSTANT (INTEGER 4) 0 '10'))) 0 0 () () () '' ()
())
21 'isys' '' 106 ((VARIABLE UNKNOWN UNKNOWN UNKNOWN NONE NONE DUMMY) (
INTEGER 4) 0 0 () () () '' () ())
20 'antnum' '' 106 ((VARIABLE UNKNOWN UNKNOWN UNKNOWN NONE NONE DUMMY) (
INTEGER 4) 0 0 () () () '' () ())
19 'antnam' '' 106 ((VARIABLE UNKNOWN UNKNOWN UNKNOWN NONE NONE DUMMY) (
CHARACTER 1 ((CONSTANT (INTEGER 4) 0 '20'))) 0 0 () () () '' () ())
17 'resolu' '' 107 ((VARIABLE UNKNOWN UNKNOWN UNKNOWN NONE NONE
DIMENSION DUMMY) (INTEGER 4) 0 0 () (1 EXPLICIT (CONSTANT (INTEGER 4) 0
'1') (CONSTANT (INTEGER 4) 0 '4')) () '' () ())
16 'typ' '' 107 ((VARIABLE UNKNOWN UNKNOWN UNKNOWN NONE NONE DUMMY) (
INTEGER 4) 0 0 () () () '' () ())
15 'nfreq' '' 107 ((VARIABLE UNKNOWN UNKNOWN UNKNOWN NONE NONE DUMMY) (
INTEGER 4) 0 0 () () () '' () ())
14 'freq' '' 107 ((VARIABLE UNKNOWN UNKNOWN UNKNOWN NONE NONE
ALLOCATABLE DIMENSION DUMMY) (DERIVED 68) 0 0 () (1 ASSUMED_SHAPE () ())
() '' () ())
12 'iant' '' 108 ((VARIABLE UNKNOWN UNKNOWN UNKNOWN NONE NONE DUMMY) (
INTEGER 4) 0 0 () () () '' () ())
11 'antbuf' '' 108 ((VARIABLE UNKNOWN UNKNOWN UNKNOWN NONE NONE
DIMENSION POINTER DUMMY) (DERIVED 34) 0 0 () (1 DEFERRED () ()) () '' ()
())
10 'resolu' '' 108 ((VARIABLE UNKNOWN UNKNOWN UNKNOWN NONE NONE
DIMENSION DUMMY) (INTEGER 4) 0 0 () (1 EXPLICIT (CONSTANT (INTEGER 4) 0
'1') (CONSTANT (INTEGER 4) 0 '4')) () '' () ())
9 'typ' '' 108 ((VARIABLE UNKNOWN UNKNOWN UNKNOWN NONE NONE DUMMY) (
INTEGER 4) 0 0 () () () '' () ())
8 'nfreq' '' 108 ((VARIABLE UNKNOWN UNKNOWN UNKNOWN NONE NONE DUMMY) (
INTEGER 4) 0 0 () () () '' () ())
7 'isys' '' 108 ((VARIABLE UNKNOWN UNKNOWN UNKNOWN NONE NONE DUMMY) (
INTEGER 4) 0 0 () () () '' () ())
5 'antbuf' '' 109 ((VARIABLE UNKNOWN UNKNOWN UNKNOWN NONE NONE DIMENSION
POINTER DUMMY) (DERIVED 34) 0 0 () (1 DEFERRED () ()) () '' () ())
4 'nsys' '' 109 ((VARIABLE UNKNOWN UNKNOWN UNKNOWN NONE NONE DUMMY) (
INTEGER 4) 0 0 () () () '' () ())
3 'nant' '' 109 ((VARIABLE UNKNOWN UNKNOWN UNKNOWN NONE NONE DUMMY) (
INTEGER 4) 0 0 () () () '' () ())
)

('alcantbu' 0 2 'alcfrq' 0 6 'alcfrq2' 0 13 'antinfo' 0 18 'init_buf' 0
28 'recant' 0 33 'sat_off' 0 35 'sat_pcv' 0 41 'satant' 0 49 'sta_off' 0
50 'sta_pcv' 0 58 't_freq' 0 68 't_phasfil' 0 34 't_sys' 0 76 'updmodel'
0 86 'wtphafil' 0 90)
