G95 module created on Thu Jun 25 17:49:22 2020 from ./.fpp/D_PSDFIL.f90
If you edit this, you'll get what you deserve.
module-version 9
(() () () () () () () () () () () () () () () () () () () () ())

()

()

()

()

(2 'getpsd' 'd_psdfil' 1 ((PROCEDURE UNKNOWN MODULE-PROC DECL NONE NONE
FUNCTION) (DERIVED 3) 0 0 (4 NONE 5 NONE 6 NONE) () () '' () ())
3 't_psdsta' 'd_psdfil' 1 ((DERIVED UNKNOWN UNKNOWN UNKNOWN NONE NONE) (
UNKNOWN) 0 0 () () () '' ((7 'stanam' (CHARACTER 1 ((CONSTANT (INTEGER 4)
0 '16'))) () () 0 0 0 ()) (8 'npsd' (INTEGER 4) () () 0 0 0 ()) (9
'psdrec' (DERIVED 10) (1 EXPLICIT (CONSTANT (INTEGER 4) 0 '1') (
CONSTANT (INTEGER 4) 0 '20')) () 1 0 0 ())) PUBLIC ())
10 't_psdrec' 'd_psdfil' 1 ((DERIVED UNKNOWN UNKNOWN UNKNOWN NONE NONE)
(UNKNOWN) 0 0 () () () '' ((11 'epoch' (REAL 8) () () 0 0 0 ()) (12 'type'
(INTEGER 4) (1 EXPLICIT (CONSTANT (INTEGER 4) 0 '1') (CONSTANT (INTEGER
4) 0 '3')) () 1 0 0 ()) (13 'psdcor' (REAL 8) (2 EXPLICIT (CONSTANT (
INTEGER 4) 0 '1') (CONSTANT (INTEGER 4) 0 '3') (CONSTANT (INTEGER 4) 0 '1')
(CONSTANT (INTEGER 4) 0 '4')) () 1 0 0 ())) PUBLIC ())
6 'epoch' '' 14 ((VARIABLE UNKNOWN UNKNOWN UNKNOWN NONE NONE DUMMY) (
REAL 8) 0 0 () () () '' () ())
5 'stanam' '' 14 ((VARIABLE UNKNOWN UNKNOWN UNKNOWN NONE NONE DUMMY) (
CHARACTER 1 ((CONSTANT (INTEGER 4) 0 '16'))) 0 0 () () () '' () ())
4 'filnam' '' 14 ((VARIABLE UNKNOWN UNKNOWN UNKNOWN NONE NONE DUMMY) (
CHARACTER 1 ((CONSTANT (INTEGER 4) 0 '32'))) 0 0 () () () '' () ())
3 't_psdsta' 'd_psdfil' 1 ((DERIVED UNKNOWN UNKNOWN UNKNOWN NONE NONE) (
UNKNOWN) 0 0 () () () '' ((7 'stanam' (CHARACTER 1 ((CONSTANT (INTEGER 4)
0 '16'))) () () 0 0 0 ()) (8 'npsd' (INTEGER 4) () () 0 0 0 ()) (9
'psdrec' (DERIVED 10) (1 EXPLICIT (CONSTANT (INTEGER 4) 0 '1') (
CONSTANT (INTEGER 4) 0 '20')) () 1 0 0 ())) PUBLIC ())
)

('getpsd' 0 2 't_psdsta' 0 3)
