G95 module created on Thu Jun 25 17:48:51 2020 from ./.fpp/D_RESFIL.f90
If you edit this, you'll get what you deserve.
module-version 9
(() () () () () () () () () () () () () () () () () () () () ())

()

()

()

()

(2 'backslash' 'm_bern' 1 ((PARAMETER UNKNOWN UNKNOWN UNKNOWN NONE NONE)
(CHARACTER 1 ((CONSTANT (INTEGER 4) 0 '1'))) 0 0 () (CONSTANT (
CHARACTER 1 ((CONSTANT (INTEGER 4) 0 '1'))) 0 1 '\') () () '' () ())
3 'char' '(intrinsic)' 1 ((PROCEDURE UNKNOWN INTRINSIC UNKNOWN NONE NONE
FUNCTION) (UNKNOWN) 0 0 () () () '' () ())
4 'd_resfil' 'd_resfil' 1 ((MODULE UNKNOWN UNKNOWN UNKNOWN NONE NONE) (
UNKNOWN) 0 0 () () () '' () ())
5 'fileextlength' 'm_bern' 1 ((PARAMETER UNKNOWN UNKNOWN UNKNOWN NONE
NONE) (INTEGER 4) 0 0 () (CONSTANT (INTEGER 4) 0 '3') () () '' () ())
6 'filenamelength' 'm_bern' 1 ((PARAMETER UNKNOWN UNKNOWN UNKNOWN NONE
NONE) (INTEGER 4) 0 0 () (CONSTANT (INTEGER 4) 0 '32') () () '' () ())
7 'filenamelength80' 'm_bern' 1 ((PARAMETER UNKNOWN UNKNOWN UNKNOWN NONE
NONE) (INTEGER 4) 0 0 () (CONSTANT (INTEGER 4) 0 '80') () () '' () ())
8 'filepathlength' 'm_bern' 1 ((PARAMETER UNKNOWN UNKNOWN UNKNOWN NONE
NONE) (INTEGER 4) 0 0 () (CONSTANT (INTEGER 4) 0 '32') () () '' () ())
9 'i4b' 'm_bern' 1 ((PARAMETER UNKNOWN UNKNOWN UNKNOWN NONE NONE) (
INTEGER 4) 0 0 () (CONSTANT (INTEGER 4) 0 '4') () () '' () ())
10 'i4ex' 'm_bern' 1 ((VARIABLE UNKNOWN UNKNOWN UNKNOWN NONE NONE) (
INTEGER 4) 0 0 () () () '' () ())
11 'init_filhead' 'd_resfil' 1 ((PROCEDURE UNKNOWN MODULE-PROC DECL NONE
NONE SUBROUTINE) (PROCEDURE 0) 0 0 (12 NONE) () () '' () ())
13 'init_key' 'm_bern' 1 ((PROCEDURE UNKNOWN MODULE-PROC DECL NONE NONE
SUBROUTINE) (PROCEDURE 0) 0 0 (14 NONE) () () '' () ())
15 'init_reshead' 'd_resfil' 1 ((PROCEDURE UNKNOWN MODULE-PROC DECL NONE
NONE SUBROUTINE) (PROCEDURE 0) 0 0 (16 NONE) () () '' () ())
17 'keynamelength' 'm_bern' 1 ((PARAMETER UNKNOWN UNKNOWN UNKNOWN NONE
NONE) (INTEGER 4) 0 0 () (CONSTANT (INTEGER 4) 0 '32') () () '' () ())
18 'keyvaluelength' 'm_bern' 1 ((PARAMETER UNKNOWN UNKNOWN UNKNOWN NONE
NONE) (INTEGER 4) 0 0 () (CONSTANT (INTEGER 4) 0 '255') () () '' () ())
19 'kind' '(intrinsic)' 1 ((PROCEDURE UNKNOWN INTRINSIC UNKNOWN NONE
NONE FUNCTION) (UNKNOWN) 0 0 () () () '' () ())
20 'lfn001' 'm_bern' 1 ((VARIABLE UNKNOWN UNKNOWN UNKNOWN NONE NONE) (
INTEGER 4) 0 0 () () () '' () ())
21 'lfn002' 'm_bern' 1 ((VARIABLE UNKNOWN UNKNOWN UNKNOWN NONE NONE) (
INTEGER 4) 0 0 () () () '' () ())
22 'lfneph' 'm_bern' 1 ((VARIABLE UNKNOWN UNKNOWN UNKNOWN NONE NONE) (
INTEGER 4) 0 0 () () () '' () ())
23 'lfnerf' 'm_bern' 1 ((VARIABLE UNKNOWN UNKNOWN UNKNOWN NONE NONE) (
INTEGER 4) 0 0 () () () '' () ())
24 'lfnerr' 'm_bern' 1 ((VARIABLE UNKNOWN UNKNOWN UNKNOWN NONE NONE) (
INTEGER 4) 0 0 () () () '' () ())
25 'lfnkbd' 'm_bern' 1 ((VARIABLE UNKNOWN UNKNOWN UNKNOWN NONE NONE) (
INTEGER 4) 0 0 () () () '' () ())
26 'lfnloc' 'm_bern' 1 ((VARIABLE UNKNOWN UNKNOWN UNKNOWN NONE NONE) (
INTEGER 4) 0 0 () () () '' () ())
27 'lfnor1' 'm_bern' 1 ((VARIABLE UNKNOWN UNKNOWN UNKNOWN NONE NONE) (
INTEGER 4) 0 0 () () () '' () ())
28 'lfnorb' 'm_bern' 1 ((VARIABLE UNKNOWN UNKNOWN UNKNOWN NONE NONE) (
INTEGER 4) 0 0 () () () '' () ())
29 'lfnplt' 'm_bern' 1 ((VARIABLE UNKNOWN UNKNOWN UNKNOWN NONE NONE) (
INTEGER 4) 0 0 () () () '' () ())
30 'lfnprf' 'm_bern' 1 ((VARIABLE UNKNOWN UNKNOWN UNKNOWN NONE NONE) (
INTEGER 4) 0 0 () () () '' () ())
31 'lfnprt' 'm_bern' 1 ((VARIABLE UNKNOWN UNKNOWN UNKNOWN NONE NONE) (
INTEGER 4) 0 0 () () () '' () ())
32 'lfnres' 'm_bern' 1 ((VARIABLE UNKNOWN UNKNOWN UNKNOWN NONE NONE) (
INTEGER 4) 0 0 () () () '' () ())
33 'lfnrp1' 'm_bern' 1 ((VARIABLE UNKNOWN UNKNOWN UNKNOWN NONE NONE) (
INTEGER 4) 0 0 () () () '' () ())
34 'lfnrpr' 'm_bern' 1 ((VARIABLE UNKNOWN UNKNOWN UNKNOWN NONE NONE) (
INTEGER 4) 0 0 () () () '' () ())
35 'linelength' 'm_bern' 1 ((PARAMETER UNKNOWN UNKNOWN UNKNOWN NONE NONE)
(INTEGER 4) 0 0 () (CONSTANT (INTEGER 4) 0 '255') () () '' () ())
36 'linelength1024' 'm_bern' 1 ((PARAMETER UNKNOWN UNKNOWN UNKNOWN NONE
NONE) (INTEGER 4) 0 0 () (CONSTANT (INTEGER 4) 0 '1024') () () '' () ())
37 'longlinelength' 'm_bern' 1 ((PARAMETER UNKNOWN UNKNOWN UNKNOWN NONE
NONE) (INTEGER 4) 0 0 () (CONSTANT (INTEGER 4) 0 '512') () () '' () ())
38 'm_bern' 'm_bern' 1 ((MODULE UNKNOWN UNKNOWN UNKNOWN NONE NONE) (
UNKNOWN) 0 0 () () () '' () ())
39 'pgmver' 'm_bern' 1 ((PARAMETER UNKNOWN UNKNOWN UNKNOWN NONE NONE) (
CHARACTER 1 ((CONSTANT (INTEGER 4) 0 '3'))) 0 0 () (CONSTANT (CHARACTER
1 ((CONSTANT (INTEGER 4) 0 '3'))) 0 3 '5.2') () () '' () ())
40 'program_dscr' 'm_bern' 1 ((VARIABLE UNKNOWN UNKNOWN UNKNOWN NONE
NONE) (CHARACTER 1 ((CONSTANT (INTEGER 4) 0 '80'))) 0 0 () () () '' () ())
41 'program_name' 'm_bern' 1 ((VARIABLE UNKNOWN UNKNOWN UNKNOWN NONE
NONE) (CHARACTER 1 ((CONSTANT (INTEGER 4) 0 '8'))) 0 0 () () () '' () ())
42 'r8b' 'm_bern' 1 ((PARAMETER UNKNOWN UNKNOWN UNKNOWN NONE NONE) (
INTEGER 4) 0 0 () (CONSTANT (INTEGER 4) 0 '8') () () '' () ())
43 'r8ex' 'm_bern' 1 ((VARIABLE UNKNOWN UNKNOWN UNKNOWN NONE NONE) (
REAL 8) 0 0 () () () '' () ())
44 'reshed_codspp' 'd_resfil' 1 ((PARAMETER UNKNOWN UNKNOWN UNKNOWN NONE
NONE) (DERIVED 45) 0 0 () (STRUCTURE (DERIVED 45) 0 45 0 (((CONSTANT (
INTEGER 4) 0 '1') ()) ((CONSTANT (CHARACTER 1 ((CONSTANT (INTEGER 4) 0 '6')))
0 6 'CODSPP') ()) ((CONSTANT (INTEGER 4) 0 '0') ()) ((CONSTANT (INTEGER
4) 0 '0') ()) ((CONSTANT (INTEGER 4) 0 '0') ()) ((CONSTANT (INTEGER 4) 0
'1') ()) ((CONSTANT (INTEGER 4) 0 '99') ()) ((CONSTANT (INTEGER 4) 0 '0')
()) ((CONSTANT (INTEGER 4) 0 '0') ())) ()) () () '' () ())
46 'reshed_gpsest0' 'd_resfil' 1 ((PARAMETER UNKNOWN UNKNOWN UNKNOWN
NONE NONE) (DERIVED 45) 0 0 () (STRUCTURE (DERIVED 45) 0 45 0 (((
CONSTANT (INTEGER 4) 0 '1') ()) ((CONSTANT (CHARACTER 1 ((CONSTANT (
INTEGER 4) 0 '6'))) 0 6 'GPSEST') ()) ((CONSTANT (INTEGER 4) 0 '0') ())
((CONSTANT (INTEGER 4) 0 '0') ()) ((CONSTANT (INTEGER 4) 0 '0') ()) ((
CONSTANT (INTEGER 4) 0 '1') ()) ((CONSTANT (INTEGER 4) 0 '99') ()) ((
CONSTANT (INTEGER 4) 0 '0') ()) ((CONSTANT (INTEGER 4) 0 '-1') ())) ())
() () '' () ())
47 'reshed_gpsest1' 'd_resfil' 1 ((PARAMETER UNKNOWN UNKNOWN UNKNOWN
NONE NONE) (DERIVED 45) 0 0 () (STRUCTURE (DERIVED 45) 0 45 0 (((
CONSTANT (INTEGER 4) 0 '1') ()) ((CONSTANT (CHARACTER 1 ((CONSTANT (
INTEGER 4) 0 '6'))) 0 6 'GPSEST') ()) ((CONSTANT (INTEGER 4) 0 '1') ())
((CONSTANT (INTEGER 4) 0 '1') ()) ((CONSTANT (INTEGER 4) 0 '0') ()) ((
CONSTANT (INTEGER 4) 0 '1') ()) ((CONSTANT (INTEGER 4) 0 '99') ()) ((
CONSTANT (INTEGER 4) 0 '0') ()) ((CONSTANT (INTEGER 4) 0 '0') ())) ()) ()
() '' () ())
48 'reshed_ionest' 'd_resfil' 1 ((PARAMETER UNKNOWN UNKNOWN UNKNOWN NONE
NONE) (DERIVED 45) 0 0 () (STRUCTURE (DERIVED 45) 0 45 0 (((CONSTANT (
INTEGER 4) 0 '1') ()) ((CONSTANT (CHARACTER 1 ((CONSTANT (INTEGER 4) 0 '6')))
0 6 'IONEST') ()) ((CONSTANT (INTEGER 4) 0 '0') ()) ((CONSTANT (INTEGER
4) 0 '0') ()) ((CONSTANT (INTEGER 4) 0 '0') ()) ((CONSTANT (INTEGER 4) 0
'1') ()) ((CONSTANT (INTEGER 4) 0 '99') ()) ((CONSTANT (INTEGER 4) 0 '0')
()) ((CONSTANT (INTEGER 4) 0 '0') ())) ()) () () '' () ())
49 'reshed_mauprp0' 'd_resfil' 1 ((PARAMETER UNKNOWN UNKNOWN UNKNOWN
NONE NONE) (DERIVED 45) 0 0 () (STRUCTURE (DERIVED 45) 0 45 0 (((
CONSTANT (INTEGER 4) 0 '1') ()) ((CONSTANT (CHARACTER 1 ((CONSTANT (
INTEGER 4) 0 '6'))) 0 6 'MAUPRP') ()) ((CONSTANT (INTEGER 4) 0 '1') ())
((CONSTANT (INTEGER 4) 0 '0') ()) ((CONSTANT (INTEGER 4) 0 '1') ()) ((
CONSTANT (INTEGER 4) 0 '2') ()) ((CONSTANT (INTEGER 4) 0 '99') ()) ((
CONSTANT (INTEGER 4) 0 '4') ()) ((CONSTANT (INTEGER 4) 0 '0') ())) ()) ()
() '' () ())
50 'reshed_mauprp1' 'd_resfil' 1 ((PARAMETER UNKNOWN UNKNOWN UNKNOWN
NONE NONE) (DERIVED 45) 0 0 () (STRUCTURE (DERIVED 45) 0 45 0 (((
CONSTANT (INTEGER 4) 0 '1') ()) ((CONSTANT (CHARACTER 1 ((CONSTANT (
INTEGER 4) 0 '6'))) 0 6 'MAUPRP') ()) ((CONSTANT (INTEGER 4) 0 '1') ())
((CONSTANT (INTEGER 4) 0 '1') ()) ((CONSTANT (INTEGER 4) 0 '1') ()) ((
CONSTANT (INTEGER 4) 0 '2') ()) ((CONSTANT (INTEGER 4) 0 '99') ()) ((
CONSTANT (INTEGER 4) 0 '3') ()) ((CONSTANT (INTEGER 4) 0 '0') ())) ()) ()
() '' () ())
51 'reshed_orbgen' 'd_resfil' 1 ((PARAMETER UNKNOWN UNKNOWN UNKNOWN NONE
NONE) (DERIVED 45) 0 0 () (STRUCTURE (DERIVED 45) 0 45 0 (((CONSTANT (
INTEGER 4) 0 '1') ()) ((CONSTANT (CHARACTER 1 ((CONSTANT (INTEGER 4) 0 '6')))
0 6 'ORBGEN') ()) ((CONSTANT (INTEGER 4) 0 '0') ()) ((CONSTANT (INTEGER
4) 0 '0') ()) ((CONSTANT (INTEGER 4) 0 '0') ()) ((CONSTANT (INTEGER 4) 0
'1') ()) ((CONSTANT (INTEGER 4) 0 '99') ()) ((CONSTANT (INTEGER 4) 0 '0')
()) ((CONSTANT (INTEGER 4) 0 '0') ())) ()) () () '' () ())
52 'shortlinelength' 'm_bern' 1 ((PARAMETER UNKNOWN UNKNOWN UNKNOWN NONE
NONE) (INTEGER 4) 0 0 () (CONSTANT (INTEGER 4) 0 '80') () () '' () ())
53 'stafla2length' 'm_bern' 1 ((PARAMETER UNKNOWN UNKNOWN UNKNOWN NONE
NONE) (INTEGER 4) 0 0 () (CONSTANT (INTEGER 4) 0 '5') () () '' () ())
54 'staflaglength' 'm_bern' 1 ((PARAMETER UNKNOWN UNKNOWN UNKNOWN NONE
NONE) (INTEGER 4) 0 0 () (CONSTANT (INTEGER 4) 0 '1') () () '' () ())
55 'stanam2length' 'm_bern' 1 ((PARAMETER UNKNOWN UNKNOWN UNKNOWN NONE
NONE) (INTEGER 4) 0 0 () (CONSTANT (INTEGER 4) 0 '20') () () '' () ())
56 'stanamelength' 'm_bern' 1 ((PARAMETER UNKNOWN UNKNOWN UNKNOWN NONE
NONE) (INTEGER 4) 0 0 () (CONSTANT (INTEGER 4) 0 '16') () () '' () ())
45 't_descr' 'd_resfil' 1 ((DERIVED UNKNOWN UNKNOWN UNKNOWN NONE NONE) (
UNKNOWN) 0 0 () () () '' ((57 'irecfmt' (INTEGER 4) () () 0 0 0 ()) (58
'pgname' (CHARACTER 1 ((CONSTANT (INTEGER 4) 0 '10'))) () () 0 0 0 ()) (
59 'nresat' (INTEGER 4) () () 0 0 0 ()) (60 'nresta' (INTEGER 4) () () 0
0 0 ()) (61 'nresep' (INTEGER 4) () () 0 0 0 ()) (62 'ityp' (INTEGER 4)
() () 0 0 0 ()) (63 'ndiff' (INTEGER 4) () () 0 0 0 ()) (64 'npar' (
INTEGER 4) () () 0 0 0 ()) (65 'ielvaz' (INTEGER 4) () () 0 0 0 ()))
PUBLIC ())
66 't_filhead' 'd_resfil' 1 ((DERIVED UNKNOWN UNKNOWN UNKNOWN NONE NONE)
(UNKNOWN) 0 0 () () () '' ((67 'meatyp' (INTEGER 4) () () 0 0 0 ()) (68
'nfrfil' (INTEGER 4) () () 0 0 0 ()) (69 'icarr' (INTEGER 4) (1 EXPLICIT
(CONSTANT (INTEGER 4) 0 '1') (CONSTANT (INTEGER 4) 0 '3')) () 1 0 0 ())
(70 'stanam' (CHARACTER 1 ((CONSTANT (INTEGER 4) 0 '16'))) (1 EXPLICIT (
CONSTANT (INTEGER 4) 0 '1') (CONSTANT (INTEGER 4) 0 '2')) () 1 0 0 ()) (
71 'csess' (CHARACTER 1 ((CONSTANT (INTEGER 4) 0 '4'))) (1 EXPLICIT (
CONSTANT (INTEGER 4) 0 '1') (CONSTANT (INTEGER 4) 0 '2')) () 1 0 0 ()) (
72 'ideltt' (INTEGER 4) () () 0 0 0 ()) (73 'timref' (REAL 8) () () 0 0
0 ()) (74 'nsatel' (INTEGER 4) () () 0 0 0 ()) (75 'numsat' (INTEGER 4)
(1 DEFERRED () ()) () 1 1 0 ())) PUBLIC ())
76 't_key' 'm_bern' 1 ((DERIVED UNKNOWN UNKNOWN UNKNOWN NONE NONE) (
UNKNOWN) 0 0 () () () '' ((77 'name' (CHARACTER 1 ((CONSTANT (INTEGER 4)
0 '32'))) () () 0 0 0 ()) (78 'value' (CHARACTER 1 ((CONSTANT (INTEGER 4)
0 '255'))) (1 DEFERRED () ()) () 1 1 0 ())) PUBLIC ())
79 't_reshead' 'd_resfil' 1 ((DERIVED UNKNOWN UNKNOWN UNKNOWN NONE NONE)
(UNKNOWN) 0 0 () () () '' ((80 'title' (CHARACTER 1 ((CONSTANT (INTEGER
4) 0 '80'))) () () 0 0 0 ()) (81 'dsc' (DERIVED 45) () () 0 0 0 ()) (82
'nfil' (INTEGER 4) () () 0 0 0 ()) (83 'filhead' (DERIVED 66) (1
DEFERRED () ()) () 1 1 0 ())) PUBLIC ())
84 't_resrec' 'd_resfil' 1 ((DERIVED UNKNOWN UNKNOWN UNKNOWN NONE NONE)
(UNKNOWN) 0 0 () () () '' ((85 'ifile' (INTEGER 4) () () 0 0 0 ()) (86
'iepoch' (INTEGER 4) () () 0 0 0 ()) (87 'ifreq' (INTEGER 4) () () 0 0 0
()) (88 'svnnum' (INTEGER 4) (1 EXPLICIT (CONSTANT (INTEGER 4) 0 '1') (
CONSTANT (INTEGER 4) 0 '2')) () 1 0 0 ()) (89 'value' (REAL 8) () () 0 0
0 ()) (90 'resflg' (CHARACTER 1 ((CONSTANT (INTEGER 4) 0 '1'))) () () 0
0 0 ())) PUBLIC ())
91 'timstrglength' 'm_bern' 1 ((PARAMETER UNKNOWN UNKNOWN UNKNOWN NONE
NONE) (INTEGER 4) 0 0 () (CONSTANT (INTEGER 4) 0 '19') () () '' () ())
92 'timstrglength2' 'm_bern' 1 ((PARAMETER UNKNOWN UNKNOWN UNKNOWN NONE
NONE) (INTEGER 4) 0 0 () (CONSTANT (INTEGER 4) 0 '40') () () '' () ())
45 't_descr' 'd_resfil' 1 ((DERIVED UNKNOWN UNKNOWN UNKNOWN NONE NONE) (
UNKNOWN) 0 0 () () () '' ((57 'irecfmt' (INTEGER 4) () () 0 0 0 ()) (58
'pgname' (CHARACTER 1 ((CONSTANT (INTEGER 4) 0 '10'))) () () 0 0 0 ()) (
59 'nresat' (INTEGER 4) () () 0 0 0 ()) (60 'nresta' (INTEGER 4) () () 0
0 0 ()) (61 'nresep' (INTEGER 4) () () 0 0 0 ()) (62 'ityp' (INTEGER 4)
() () 0 0 0 ()) (63 'ndiff' (INTEGER 4) () () 0 0 0 ()) (64 'npar' (
INTEGER 4) () () 0 0 0 ()) (65 'ielvaz' (INTEGER 4) () () 0 0 0 ()))
PUBLIC ())
16 'reshead' '' 93 ((VARIABLE UNKNOWN UNKNOWN UNKNOWN NONE NONE DUMMY) (
DERIVED 79) 0 0 () () () '' () ())
14 'key' '' 94 ((VARIABLE UNKNOWN UNKNOWN UNKNOWN NONE NONE DUMMY) (
DERIVED 76) 0 0 () () () '' () ())
12 'filhead' '' 95 ((VARIABLE UNKNOWN UNKNOWN UNKNOWN NONE NONE DUMMY) (
DERIVED 66) 0 0 () () () '' () ())
)

('backslash' 0 2 'char' 0 3 'd_resfil' 0 4 'fileextlength' 0 5
'filenamelength' 0 6 'filenamelength80' 0 7 'filepathlength' 0 8 'i4b' 0
9 'i4ex' 0 10 'init_filhead' 0 11 'init_key' 0 13 'init_reshead' 0 15
'keynamelength' 0 17 'keyvaluelength' 0 18 'kind' 0 19 'lfn001' 0 20
'lfn002' 0 21 'lfneph' 0 22 'lfnerf' 0 23 'lfnerr' 0 24 'lfnkbd' 0 25
'lfnloc' 0 26 'lfnor1' 0 27 'lfnorb' 0 28 'lfnplt' 0 29 'lfnprf' 0 30
'lfnprt' 0 31 'lfnres' 0 32 'lfnrp1' 0 33 'lfnrpr' 0 34 'linelength' 0
35 'linelength1024' 0 36 'longlinelength' 0 37 'm_bern' 0 38 'pgmver' 0
39 'program_dscr' 0 40 'program_name' 0 41 'r8b' 0 42 'r8ex' 0 43
'reshed_codspp' 0 44 'reshed_gpsest0' 0 46 'reshed_gpsest1' 0 47
'reshed_ionest' 0 48 'reshed_mauprp0' 0 49 'reshed_mauprp1' 0 50
'reshed_orbgen' 0 51 'shortlinelength' 0 52 'stafla2length' 0 53
'staflaglength' 0 54 'stanam2length' 0 55 'stanamelength' 0 56 't_descr'
0 45 't_filhead' 0 66 't_key' 0 76 't_reshead' 0 79 't_resrec' 0 84
'timstrglength' 0 91 'timstrglength2' 0 92)
