G95 module created on Thu Jun 25 17:48:26 2020 from ./.fpp/D_RGBFIL.f90
If you edit this, you'll get what you deserve.
module-version 9
(() () () () () () () () () () () () () () () () () () ()
() ())

()

()

()

()

(2 't_epoch' 'm_epoch' 1 ((DERIVED UNKNOWN UNKNOWN UNKNOWN NONE NONE) (
UNKNOWN) 0 0 () () () '' ((3 'day' (INTEGER 4) () () 0 0 0 ()) (4 'frac'
(REAL 8) () () 0 0 0 ())) PUBLIC ())
5 'backslash' 'm_bern' 1 ((PARAMETER UNKNOWN UNKNOWN UNKNOWN NONE NONE)
(CHARACTER 1 ((CONSTANT (INTEGER 4) 0 '1'))) 0 0 () (CONSTANT (
CHARACTER 1 ((CONSTANT (INTEGER 4) 0 '1'))) 0 1 '\') () () '' () ())
6 'char' '(intrinsic)' 1 ((PROCEDURE UNKNOWN INTRINSIC UNKNOWN NONE NONE
FUNCTION) (UNKNOWN) 0 0 () () () '' () ())
7 'currentversion' 'd_rgbfil' 1 ((PARAMETER UNKNOWN UNKNOWN UNKNOWN NONE
NONE) (REAL 8) 0 0 () (CONSTANT (REAL 8) 0 '4503599627370496' 0 1023) ()
() '' () ())
8 'd_rgbfil' 'd_rgbfil' 1 ((MODULE UNKNOWN UNKNOWN UNKNOWN NONE NONE) (
UNKNOWN) 0 0 () () () '' () ())
9 'datasnx' 'd_rgbfil' 1 ((VARIABLE UNKNOWN UNKNOWN UNKNOWN NONE NONE
DIMENSION) (CHARACTER 1 ((CONSTANT (INTEGER 4) 0 '1'))) 0 0 () (1
EXPLICIT (CONSTANT (INTEGER 4) 0 '0') (CONSTANT (INTEGER 4) 0 '6')) () ''
() ())
10 'fileextlength' 'm_bern' 1 ((PARAMETER UNKNOWN UNKNOWN UNKNOWN NONE
NONE) (INTEGER 4) 0 0 () (CONSTANT (INTEGER 4) 0 '3') () () '' () ())
11 'filenamelength' 'm_bern' 1 ((PARAMETER UNKNOWN UNKNOWN UNKNOWN NONE
NONE) (INTEGER 4) 0 0 () (CONSTANT (INTEGER 4) 0 '32') () () '' () ())
12 'filenamelength80' 'm_bern' 1 ((PARAMETER UNKNOWN UNKNOWN UNKNOWN
NONE NONE) (INTEGER 4) 0 0 () (CONSTANT (INTEGER 4) 0 '80') () () '' ()
())
13 'filepathlength' 'm_bern' 1 ((PARAMETER UNKNOWN UNKNOWN UNKNOWN NONE
NONE) (INTEGER 4) 0 0 () (CONSTANT (INTEGER 4) 0 '32') () () '' () ())
14 'flagbsw' 'd_rgbfil' 1 ((VARIABLE UNKNOWN UNKNOWN UNKNOWN NONE NONE
DIMENSION) (CHARACTER 1 ((CONSTANT (INTEGER 4) 0 '6'))) 0 0 () (1
EXPLICIT (CONSTANT (INTEGER 4) 0 '1') (CONSTANT (INTEGER 4) 0 '6')) () ''
() ())
15 'i4b' 'm_bern' 1 ((PARAMETER UNKNOWN UNKNOWN UNKNOWN NONE NONE) (
INTEGER 4) 0 0 () (CONSTANT (INTEGER 4) 0 '4') () () '' () ())
16 'i4ex' 'm_bern' 1 ((VARIABLE UNKNOWN UNKNOWN UNKNOWN NONE NONE) (
INTEGER 4) 0 0 () () () '' () ())
17 'init_key' 'm_bern' 1 ((PROCEDURE UNKNOWN MODULE-PROC DECL NONE NONE
SUBROUTINE) (PROCEDURE 0) 0 0 (18 NONE) () () '' () ())
19 'init_slrfil' 'd_rgbfil' 1 ((PROCEDURE UNKNOWN MODULE-PROC DECL NONE
NONE SUBROUTINE) (PROCEDURE 0) 0 0 (20 NONE) () () '' () ())
21 'keynamelength' 'm_bern' 1 ((PARAMETER UNKNOWN UNKNOWN UNKNOWN NONE
NONE) (INTEGER 4) 0 0 () (CONSTANT (INTEGER 4) 0 '32') () () '' () ())
22 'keyvaluelength' 'm_bern' 1 ((PARAMETER UNKNOWN UNKNOWN UNKNOWN NONE
NONE) (INTEGER 4) 0 0 () (CONSTANT (INTEGER 4) 0 '255') () () '' () ())
23 'kind' '(intrinsic)' 1 ((PROCEDURE UNKNOWN INTRINSIC UNKNOWN NONE
NONE FUNCTION) (UNKNOWN) 0 0 () () () '' () ())
24 'lfn001' 'm_bern' 1 ((VARIABLE UNKNOWN UNKNOWN UNKNOWN NONE NONE) (
INTEGER 4) 0 0 () () () '' () ())
25 'lfn002' 'm_bern' 1 ((VARIABLE UNKNOWN UNKNOWN UNKNOWN NONE NONE) (
INTEGER 4) 0 0 () () () '' () ())
26 'lfneph' 'm_bern' 1 ((VARIABLE UNKNOWN UNKNOWN UNKNOWN NONE NONE) (
INTEGER 4) 0 0 () () () '' () ())
27 'lfnerf' 'm_bern' 1 ((VARIABLE UNKNOWN UNKNOWN UNKNOWN NONE NONE) (
INTEGER 4) 0 0 () () () '' () ())
28 'lfnerr' 'm_bern' 1 ((VARIABLE UNKNOWN UNKNOWN UNKNOWN NONE NONE) (
INTEGER 4) 0 0 () () () '' () ())
29 'lfnkbd' 'm_bern' 1 ((VARIABLE UNKNOWN UNKNOWN UNKNOWN NONE NONE) (
INTEGER 4) 0 0 () () () '' () ())
30 'lfnloc' 'm_bern' 1 ((VARIABLE UNKNOWN UNKNOWN UNKNOWN NONE NONE) (
INTEGER 4) 0 0 () () () '' () ())
31 'lfnor1' 'm_bern' 1 ((VARIABLE UNKNOWN UNKNOWN UNKNOWN NONE NONE) (
INTEGER 4) 0 0 () () () '' () ())
32 'lfnorb' 'm_bern' 1 ((VARIABLE UNKNOWN UNKNOWN UNKNOWN NONE NONE) (
INTEGER 4) 0 0 () () () '' () ())
33 'lfnplt' 'm_bern' 1 ((VARIABLE UNKNOWN UNKNOWN UNKNOWN NONE NONE) (
INTEGER 4) 0 0 () () () '' () ())
34 'lfnprf' 'm_bern' 1 ((VARIABLE UNKNOWN UNKNOWN UNKNOWN NONE NONE) (
INTEGER 4) 0 0 () () () '' () ())
35 'lfnprt' 'm_bern' 1 ((VARIABLE UNKNOWN UNKNOWN UNKNOWN NONE NONE) (
INTEGER 4) 0 0 () () () '' () ())
36 'lfnres' 'm_bern' 1 ((VARIABLE UNKNOWN UNKNOWN UNKNOWN NONE NONE) (
INTEGER 4) 0 0 () () () '' () ())
37 'lfnrp1' 'm_bern' 1 ((VARIABLE UNKNOWN UNKNOWN UNKNOWN NONE NONE) (
INTEGER 4) 0 0 () () () '' () ())
38 'lfnrpr' 'm_bern' 1 ((VARIABLE UNKNOWN UNKNOWN UNKNOWN NONE NONE) (
INTEGER 4) 0 0 () () () '' () ())
39 'linelength' 'm_bern' 1 ((PARAMETER UNKNOWN UNKNOWN UNKNOWN NONE NONE)
(INTEGER 4) 0 0 () (CONSTANT (INTEGER 4) 0 '255') () () '' () ())
40 'linelength1024' 'm_bern' 1 ((PARAMETER UNKNOWN UNKNOWN UNKNOWN NONE
NONE) (INTEGER 4) 0 0 () (CONSTANT (INTEGER 4) 0 '1024') () () '' () ())
41 'longlinelength' 'm_bern' 1 ((PARAMETER UNKNOWN UNKNOWN UNKNOWN NONE
NONE) (INTEGER 4) 0 0 () (CONSTANT (INTEGER 4) 0 '512') () () '' () ())
42 'm_bern' 'm_bern' 1 ((MODULE UNKNOWN UNKNOWN UNKNOWN NONE NONE) (
UNKNOWN) 0 0 () () () '' () ())
43 'm_epoch' 'm_epoch' 1 ((MODULE UNKNOWN UNKNOWN UNKNOWN NONE NONE) (
UNKNOWN) 0 0 () () () '' () ())
44 'ndataflg' 'd_rgbfil' 1 ((PARAMETER UNKNOWN UNKNOWN UNKNOWN NONE NONE)
(INTEGER 4) 0 0 () (CONSTANT (INTEGER 4) 0 '6') () () '' () ())
45 'pgmver' 'm_bern' 1 ((PARAMETER UNKNOWN UNKNOWN UNKNOWN NONE NONE) (
CHARACTER 1 ((CONSTANT (INTEGER 4) 0 '3'))) 0 0 () (CONSTANT (CHARACTER
1 ((CONSTANT (INTEGER 4) 0 '3'))) 0 3 '5.2') () () '' () ())
46 'program_dscr' 'm_bern' 1 ((VARIABLE UNKNOWN UNKNOWN UNKNOWN NONE
NONE) (CHARACTER 1 ((CONSTANT (INTEGER 4) 0 '80'))) 0 0 () () () '' () ())
47 'program_name' 'm_bern' 1 ((VARIABLE UNKNOWN UNKNOWN UNKNOWN NONE
NONE) (CHARACTER 1 ((CONSTANT (INTEGER 4) 0 '8'))) 0 0 () () () '' () ())
48 'r8b' 'm_bern' 1 ((PARAMETER UNKNOWN UNKNOWN UNKNOWN NONE NONE) (
INTEGER 4) 0 0 () (CONSTANT (INTEGER 4) 0 '8') () () '' () ())
49 'r8ex' 'm_bern' 1 ((VARIABLE UNKNOWN UNKNOWN UNKNOWN NONE NONE) (
REAL 8) 0 0 () () () '' () ())
50 'rgbsnx' 'd_rgbfil' 1 ((VARIABLE UNKNOWN UNKNOWN UNKNOWN NONE NONE
DIMENSION) (CHARACTER 1 ((CONSTANT (INTEGER 4) 0 '2'))) 0 0 () (1
EXPLICIT (CONSTANT (INTEGER 4) 0 '1') (CONSTANT (INTEGER 4) 0 '6')) () ''
() ())
51 'shortlinelength' 'm_bern' 1 ((PARAMETER UNKNOWN UNKNOWN UNKNOWN NONE
NONE) (INTEGER 4) 0 0 () (CONSTANT (INTEGER 4) 0 '80') () () '' () ())
52 'stafla2length' 'm_bern' 1 ((PARAMETER UNKNOWN UNKNOWN UNKNOWN NONE
NONE) (INTEGER 4) 0 0 () (CONSTANT (INTEGER 4) 0 '5') () () '' () ())
53 'staflaglength' 'm_bern' 1 ((PARAMETER UNKNOWN UNKNOWN UNKNOWN NONE
NONE) (INTEGER 4) 0 0 () (CONSTANT (INTEGER 4) 0 '1') () () '' () ())
54 'stanam2length' 'm_bern' 1 ((PARAMETER UNKNOWN UNKNOWN UNKNOWN NONE
NONE) (INTEGER 4) 0 0 () (CONSTANT (INTEGER 4) 0 '20') () () '' () ())
55 'stanamelength' 'm_bern' 1 ((PARAMETER UNKNOWN UNKNOWN UNKNOWN NONE
NONE) (INTEGER 4) 0 0 () (CONSTANT (INTEGER 4) 0 '16') () () '' () ())
56 't_key' 'm_bern' 1 ((DERIVED UNKNOWN UNKNOWN UNKNOWN NONE NONE) (
UNKNOWN) 0 0 () () () '' ((57 'name' (CHARACTER 1 ((CONSTANT (INTEGER 4)
0 '32'))) () () 0 0 0 ()) (58 'value' (CHARACTER 1 ((CONSTANT (INTEGER 4)
0 '255'))) (1 DEFERRED () ()) () 1 1 0 ())) PUBLIC ())
59 't_rgb' 'd_rgbfil' 1 ((DERIVED UNKNOWN UNKNOWN UNKNOWN NONE NONE) (
UNKNOWN) 0 0 () () () '' ((60 'corrtyp' (CHARACTER 1 ((CONSTANT (
INTEGER 4) 0 '3'))) () () 0 0 0 ()) (61 'stanam' (CHARACTER 1 ((
CONSTANT (INTEGER 4) 0 '20'))) () () 0 0 0 ()) (62 'satnum' (INTEGER 4)
() () 0 0 0 ()) (63 'wlchar' (CHARACTER 1 ((CONSTANT (INTEGER 4) 0 '1')))
() () 0 0 0 ()) (64 'wlind' (INTEGER 4) () () 0 0 0 ()) (65 'value' (
REAL 8) () () 0 0 0 ()) (66 'sigma' (REAL 8) () () 0 0 0 ()) (67 'timwin'
(DERIVED 68) () () 0 0 0 ()) (69 'solflag' (CHARACTER 1 ((CONSTANT (
INTEGER 4) 0 '6'))) () () 0 0 0 ()) (70 'remark' (CHARACTER 1 ((
CONSTANT (INTEGER 4) 0 '23'))) () () 0 0 0 ())) PUBLIC ())
71 't_slrinfo' 'd_rgbfil' 1 ((DERIVED UNKNOWN UNKNOWN UNKNOWN NONE NONE)
(UNKNOWN) 0 0 () () () '' ((72 'slrfile' (CHARACTER 1 ((CONSTANT (
INTEGER 4) 0 '32'))) () () 0 0 0 ()) (73 'headline' (CHARACTER 1 ((
CONSTANT (INTEGER 4) 0 '255'))) (1 EXPLICIT (CONSTANT (INTEGER 4) 0 '1')
(CONSTANT (INTEGER 4) 0 '7')) () 1 0 0 ()) (74 'version' (REAL 8) () ()
0 0 0 ()) (75 'rgb' (DERIVED 59) (1 DEFERRED () ()) () 1 1 0 ()) (76
'nrgb' (INTEGER 4) () () 0 0 0 ())) PUBLIC ())
68 't_timwin' 'm_epoch' 1 ((DERIVED UNKNOWN UNKNOWN UNKNOWN NONE NONE) (
UNKNOWN) 0 0 () () () '' ((77 't' (DERIVED 2) (1 EXPLICIT (CONSTANT (
INTEGER 4) 0 '1') (CONSTANT (INTEGER 4) 0 '2')) () 1 0 0 ())) PUBLIC ())
78 'timstrglength' 'm_bern' 1 ((PARAMETER UNKNOWN UNKNOWN UNKNOWN NONE
NONE) (INTEGER 4) 0 0 () (CONSTANT (INTEGER 4) 0 '19') () () '' () ())
79 'timstrglength2' 'm_bern' 1 ((PARAMETER UNKNOWN UNKNOWN UNKNOWN NONE
NONE) (INTEGER 4) 0 0 () (CONSTANT (INTEGER 4) 0 '40') () () '' () ())
80 'typbsw' 'd_rgbfil' 1 ((VARIABLE UNKNOWN UNKNOWN UNKNOWN NONE NONE
DIMENSION) (CHARACTER 1 ((CONSTANT (INTEGER 4) 0 '3'))) 0 0 () (1
EXPLICIT (CONSTANT (INTEGER 4) 0 '1') (CONSTANT (INTEGER 4) 0 '6')) () ''
() ())
81 'wtslrfil' 'd_rgbfil' 1 ((PROCEDURE UNKNOWN MODULE-PROC DECL NONE
NONE SUBROUTINE) (PROCEDURE 0) 0 0 (82 NONE) () () '' () ())
82 'slrinfo' '' 83 ((VARIABLE UNKNOWN UNKNOWN UNKNOWN NONE NONE DUMMY) (
DERIVED 71) 0 0 () () () '' () ())
68 't_timwin' 'm_epoch' 1 ((DERIVED UNKNOWN UNKNOWN UNKNOWN NONE NONE) (
UNKNOWN) 0 0 () () () '' ((77 't' (DERIVED 2) (1 EXPLICIT (CONSTANT (
INTEGER 4) 0 '1') (CONSTANT (INTEGER 4) 0 '2')) () 1 0 0 ())) PUBLIC ())
20 'slrinfo' '' 84 ((VARIABLE UNKNOWN UNKNOWN UNKNOWN NONE NONE DUMMY) (
DERIVED 71) 0 0 () () () '' () ())
18 'key' '' 85 ((VARIABLE UNKNOWN UNKNOWN UNKNOWN NONE NONE DUMMY) (
DERIVED 56) 0 0 () () () '' () ())
)

('backslash' 0 5 'char' 0 6 'currentversion' 0 7 'd_rgbfil' 0 8 'datasnx'
0 9 'fileextlength' 0 10 'filenamelength' 0 11 'filenamelength80' 0 12
'filepathlength' 0 13 'flagbsw' 0 14 'i4b' 0 15 'i4ex' 0 16 'init_key' 0
17 'init_slrfil' 0 19 'keynamelength' 0 21 'keyvaluelength' 0 22 'kind'
0 23 'lfn001' 0 24 'lfn002' 0 25 'lfneph' 0 26 'lfnerf' 0 27 'lfnerr' 0
28 'lfnkbd' 0 29 'lfnloc' 0 30 'lfnor1' 0 31 'lfnorb' 0 32 'lfnplt' 0 33
'lfnprf' 0 34 'lfnprt' 0 35 'lfnres' 0 36 'lfnrp1' 0 37 'lfnrpr' 0 38
'linelength' 0 39 'linelength1024' 0 40 'longlinelength' 0 41 'm_bern' 0
42 'm_epoch' 0 43 'ndataflg' 0 44 'pgmver' 0 45 'program_dscr' 0 46
'program_name' 0 47 'r8b' 0 48 'r8ex' 0 49 'rgbsnx' 0 50 'shortlinelength'
0 51 'stafla2length' 0 52 'staflaglength' 0 53 'stanam2length' 0 54
'stanamelength' 0 55 't_key' 0 56 't_rgb' 0 59 't_slrinfo' 0 71 't_timwin'
0 68 'timstrglength' 0 78 'timstrglength2' 0 79 'typbsw' 0 80 'wtslrfil'
0 81)
