G95 module created on Thu Jun 25 17:48:42 2020 from ./.fpp/D_SATDYNMOD.f90
If you edit this, you'll get what you deserve.
module-version 9
(() () () () () () () () () () () () () () () () () () () () ())

()

()

()

()

(2 'backslash' 'm_bern' 1 ((PARAMETER UNKNOWN UNKNOWN UNKNOWN NONE NONE)
(CHARACTER 1 ((CONSTANT (INTEGER 4) 0 '1'))) 0 0 () (CONSTANT (
CHARACTER 1 ((CONSTANT (INTEGER 4) 0 '1'))) 0 1 '\') () () '' () ())
3 'char' '(intrinsic)' 1 ((PROCEDURE UNKNOWN INTRINSIC UNKNOWN NONE NONE
FUNCTION) (UNKNOWN) 0 0 () () () '' () ())
4 'd_satdynmod' 'd_satdynmod' 1 ((MODULE UNKNOWN UNKNOWN UNKNOWN NONE
NONE) (UNKNOWN) 0 0 () () () '' () ())
5 'fileextlength' 'm_bern' 1 ((PARAMETER UNKNOWN UNKNOWN UNKNOWN NONE
NONE) (INTEGER 4) 0 0 () (CONSTANT (INTEGER 4) 0 '3') () () '' () ())
6 'filenamelength' 'm_bern' 1 ((PARAMETER UNKNOWN UNKNOWN UNKNOWN NONE
NONE) (INTEGER 4) 0 0 () (CONSTANT (INTEGER 4) 0 '32') () () '' () ())
7 'filenamelength80' 'm_bern' 1 ((PARAMETER UNKNOWN UNKNOWN UNKNOWN NONE
NONE) (INTEGER 4) 0 0 () (CONSTANT (INTEGER 4) 0 '80') () () '' () ())
8 'filepathlength' 'm_bern' 1 ((PARAMETER UNKNOWN UNKNOWN UNKNOWN NONE
NONE) (INTEGER 4) 0 0 () (CONSTANT (INTEGER 4) 0 '32') () () '' () ())
9 'i4b' 'm_bern' 1 ((PARAMETER UNKNOWN UNKNOWN UNKNOWN NONE NONE) (
INTEGER 4) 0 0 () (CONSTANT (INTEGER 4) 0 '4') () () '' () ())
10 'i4ex' 'm_bern' 1 ((VARIABLE UNKNOWN UNKNOWN UNKNOWN NONE NONE) (
INTEGER 4) 0 0 () () () '' () ())
11 'init_key' 'm_bern' 1 ((PROCEDURE UNKNOWN MODULE-PROC DECL NONE NONE
SUBROUTINE) (PROCEDURE 0) 0 0 (12 NONE) () () '' () ())
13 'keynamelength' 'm_bern' 1 ((PARAMETER UNKNOWN UNKNOWN UNKNOWN NONE
NONE) (INTEGER 4) 0 0 () (CONSTANT (INTEGER 4) 0 '32') () () '' () ())
14 'keyvaluelength' 'm_bern' 1 ((PARAMETER UNKNOWN UNKNOWN UNKNOWN NONE
NONE) (INTEGER 4) 0 0 () (CONSTANT (INTEGER 4) 0 '255') () () '' () ())
15 'kind' '(intrinsic)' 1 ((PROCEDURE UNKNOWN INTRINSIC UNKNOWN NONE
NONE FUNCTION) (UNKNOWN) 0 0 () () () '' () ())
16 'lfn001' 'm_bern' 1 ((VARIABLE UNKNOWN UNKNOWN UNKNOWN NONE NONE) (
INTEGER 4) 0 0 () () () '' () ())
17 'lfn002' 'm_bern' 1 ((VARIABLE UNKNOWN UNKNOWN UNKNOWN NONE NONE) (
INTEGER 4) 0 0 () () () '' () ())
18 'lfneph' 'm_bern' 1 ((VARIABLE UNKNOWN UNKNOWN UNKNOWN NONE NONE) (
INTEGER 4) 0 0 () () () '' () ())
19 'lfnerf' 'm_bern' 1 ((VARIABLE UNKNOWN UNKNOWN UNKNOWN NONE NONE) (
INTEGER 4) 0 0 () () () '' () ())
20 'lfnerr' 'm_bern' 1 ((VARIABLE UNKNOWN UNKNOWN UNKNOWN NONE NONE) (
INTEGER 4) 0 0 () () () '' () ())
21 'lfnkbd' 'm_bern' 1 ((VARIABLE UNKNOWN UNKNOWN UNKNOWN NONE NONE) (
INTEGER 4) 0 0 () () () '' () ())
22 'lfnloc' 'm_bern' 1 ((VARIABLE UNKNOWN UNKNOWN UNKNOWN NONE NONE) (
INTEGER 4) 0 0 () () () '' () ())
23 'lfnor1' 'm_bern' 1 ((VARIABLE UNKNOWN UNKNOWN UNKNOWN NONE NONE) (
INTEGER 4) 0 0 () () () '' () ())
24 'lfnorb' 'm_bern' 1 ((VARIABLE UNKNOWN UNKNOWN UNKNOWN NONE NONE) (
INTEGER 4) 0 0 () () () '' () ())
25 'lfnplt' 'm_bern' 1 ((VARIABLE UNKNOWN UNKNOWN UNKNOWN NONE NONE) (
INTEGER 4) 0 0 () () () '' () ())
26 'lfnprf' 'm_bern' 1 ((VARIABLE UNKNOWN UNKNOWN UNKNOWN NONE NONE) (
INTEGER 4) 0 0 () () () '' () ())
27 'lfnprt' 'm_bern' 1 ((VARIABLE UNKNOWN UNKNOWN UNKNOWN NONE NONE) (
INTEGER 4) 0 0 () () () '' () ())
28 'lfnres' 'm_bern' 1 ((VARIABLE UNKNOWN UNKNOWN UNKNOWN NONE NONE) (
INTEGER 4) 0 0 () () () '' () ())
29 'lfnrp1' 'm_bern' 1 ((VARIABLE UNKNOWN UNKNOWN UNKNOWN NONE NONE) (
INTEGER 4) 0 0 () () () '' () ())
30 'lfnrpr' 'm_bern' 1 ((VARIABLE UNKNOWN UNKNOWN UNKNOWN NONE NONE) (
INTEGER 4) 0 0 () () () '' () ())
31 'linelength' 'm_bern' 1 ((PARAMETER UNKNOWN UNKNOWN UNKNOWN NONE NONE)
(INTEGER 4) 0 0 () (CONSTANT (INTEGER 4) 0 '255') () () '' () ())
32 'linelength1024' 'm_bern' 1 ((PARAMETER UNKNOWN UNKNOWN UNKNOWN NONE
NONE) (INTEGER 4) 0 0 () (CONSTANT (INTEGER 4) 0 '1024') () () '' () ())
33 'longlinelength' 'm_bern' 1 ((PARAMETER UNKNOWN UNKNOWN UNKNOWN NONE
NONE) (INTEGER 4) 0 0 () (CONSTANT (INTEGER 4) 0 '512') () () '' () ())
34 'm_accoff' 'd_satdynmod' 1 ((VARIABLE UNKNOWN UNKNOWN UNKNOWN NONE
NONE DIMENSION) (REAL 8) 0 0 () (1 EXPLICIT (CONSTANT (INTEGER 4) 0 '1')
(CONSTANT (INTEGER 4) 0 '3')) () '' () ())
35 'm_albedo' 'd_satdynmod' 1 ((VARIABLE UNKNOWN UNKNOWN UNKNOWN NONE
NONE) (REAL 8) 0 0 () () () '' () ())
36 'm_ap' 'd_satdynmod' 1 ((VARIABLE UNKNOWN UNKNOWN UNKNOWN NONE NONE
DIMENSION) (REAL 8) 0 0 () (1 EXPLICIT (CONSTANT (INTEGER 4) 0 '1') (
CONSTANT (INTEGER 4) 0 '7')) () '' () ())
37 'm_bern' 'm_bern' 1 ((MODULE UNKNOWN UNKNOWN UNKNOWN NONE NONE) (
UNKNOWN) 0 0 () () () '' () ())
38 'm_cdrag' 'd_satdynmod' 1 ((VARIABLE UNKNOWN UNKNOWN UNKNOWN NONE
NONE) (REAL 8) 0 0 () () () '' () ())
39 'm_crad' 'd_satdynmod' 1 ((VARIABLE UNKNOWN UNKNOWN UNKNOWN NONE NONE)
(REAL 8) 0 0 () () () '' () ())
40 'm_dyncoe' 'd_satdynmod' 1 ((VARIABLE UNKNOWN UNKNOWN UNKNOWN NONE
NONE DIMENSION) (REAL 8) 0 0 () (2 EXPLICIT (CONSTANT (INTEGER 4) 0 '1')
(CONSTANT (INTEGER 4) 0 '3') (CONSTANT (INTEGER 4) 0 '1') (CONSTANT (
INTEGER 4) 0 '22')) () '' () ())
41 'm_f107' 'd_satdynmod' 1 ((VARIABLE UNKNOWN UNKNOWN UNKNOWN NONE NONE)
(REAL 8) 0 0 () () () '' () ())
42 'm_ishad' 'd_satdynmod' 1 ((VARIABLE UNKNOWN UNKNOWN UNKNOWN NONE
NONE) (INTEGER 4) 0 0 () () () '' () ())
43 'm_maxdim' 'm_maxdim' 1 ((MODULE UNKNOWN UNKNOWN UNKNOWN NONE NONE) (
UNKNOWN) 0 0 () () () '' () ())
44 'm_modtyp' 'd_satdynmod' 1 ((VARIABLE UNKNOWN UNKNOWN UNKNOWN NONE
NONE) (INTEGER 4) 0 0 () () () '' () ())
45 'm_nlat' 'd_satdynmod' 1 ((VARIABLE UNKNOWN UNKNOWN UNKNOWN NONE NONE)
(INTEGER 4) 0 0 () () () '' () ())
46 'm_nlon' 'd_satdynmod' 1 ((VARIABLE UNKNOWN UNKNOWN UNKNOWN NONE NONE)
(INTEGER 4) 0 0 () () () '' () ())
47 'm_qdm' 'd_satdynmod' 1 ((VARIABLE UNKNOWN UNKNOWN UNKNOWN NONE NONE)
(REAL 8) 0 0 () () () '' () ())
48 'm_qdmrad' 'd_satdynmod' 1 ((VARIABLE UNKNOWN UNKNOWN UNKNOWN NONE
NONE) (REAL 8) 0 0 () () () '' () ())
49 'm_rprfac' 'd_satdynmod' 1 ((VARIABLE UNKNOWN UNKNOWN UNKNOWN NONE
NONE) (REAL 8) 0 0 () () () '' () ())
50 'm_rswdyx' 'd_satdynmod' 1 ((VARIABLE UNKNOWN UNKNOWN UNKNOWN NONE
NONE) (INTEGER 4) 0 0 () () () '' () ())
51 'm_sclacc' 'd_satdynmod' 1 ((VARIABLE UNKNOWN UNKNOWN UNKNOWN NONE
NONE DIMENSION) (REAL 8) 0 0 () (1 EXPLICIT (CONSTANT (INTEGER 4) 0 '1')
(CONSTANT (INTEGER 4) 0 '3')) () '' () ())
52 'm_scldrg' 'd_satdynmod' 1 ((VARIABLE UNKNOWN UNKNOWN UNKNOWN NONE
NONE) (REAL 8) 0 0 () () () '' () ())
53 'm_scldrp' 'd_satdynmod' 1 ((VARIABLE UNKNOWN UNKNOWN UNKNOWN NONE
NONE) (REAL 8) 0 0 () () () '' () ())
54 'm_scltid' 'd_satdynmod' 1 ((VARIABLE UNKNOWN UNKNOWN UNKNOWN NONE
NONE) (REAL 8) 0 0 () () () '' () ())
55 'maxempterm' 'd_satdynmod' 1 ((PARAMETER UNKNOWN UNKNOWN UNKNOWN NONE
NONE) (INTEGER 4) 0 0 () (CONSTANT (INTEGER 4) 0 '22') () () '' () ())
56 'maxpot' 'm_maxdim' 1 ((PARAMETER UNKNOWN UNKNOWN UNKNOWN NONE NONE)
(INTEGER 4) 0 0 () (CONSTANT (INTEGER 4) 0 '140') () () '' () ())
57 'pgmver' 'm_bern' 1 ((PARAMETER UNKNOWN UNKNOWN UNKNOWN NONE NONE) (
CHARACTER 1 ((CONSTANT (INTEGER 4) 0 '3'))) 0 0 () (CONSTANT (CHARACTER
1 ((CONSTANT (INTEGER 4) 0 '3'))) 0 3 '5.2') () () '' () ())
58 'program_dscr' 'm_bern' 1 ((VARIABLE UNKNOWN UNKNOWN UNKNOWN NONE
NONE) (CHARACTER 1 ((CONSTANT (INTEGER 4) 0 '80'))) 0 0 () () () '' () ())
59 'program_name' 'm_bern' 1 ((VARIABLE UNKNOWN UNKNOWN UNKNOWN NONE
NONE) (CHARACTER 1 ((CONSTANT (INTEGER 4) 0 '8'))) 0 0 () () () '' () ())
60 'r8b' 'm_bern' 1 ((PARAMETER UNKNOWN UNKNOWN UNKNOWN NONE NONE) (
INTEGER 4) 0 0 () (CONSTANT (INTEGER 4) 0 '8') () () '' () ())
61 'r8ex' 'm_bern' 1 ((VARIABLE UNKNOWN UNKNOWN UNKNOWN NONE NONE) (
REAL 8) 0 0 () () () '' () ())
62 'shortlinelength' 'm_bern' 1 ((PARAMETER UNKNOWN UNKNOWN UNKNOWN NONE
NONE) (INTEGER 4) 0 0 () (CONSTANT (INTEGER 4) 0 '80') () () '' () ())
63 'stafla2length' 'm_bern' 1 ((PARAMETER UNKNOWN UNKNOWN UNKNOWN NONE
NONE) (INTEGER 4) 0 0 () (CONSTANT (INTEGER 4) 0 '5') () () '' () ())
64 'staflaglength' 'm_bern' 1 ((PARAMETER UNKNOWN UNKNOWN UNKNOWN NONE
NONE) (INTEGER 4) 0 0 () (CONSTANT (INTEGER 4) 0 '1') () () '' () ())
65 'stanam2length' 'm_bern' 1 ((PARAMETER UNKNOWN UNKNOWN UNKNOWN NONE
NONE) (INTEGER 4) 0 0 () (CONSTANT (INTEGER 4) 0 '20') () () '' () ())
66 'stanamelength' 'm_bern' 1 ((PARAMETER UNKNOWN UNKNOWN UNKNOWN NONE
NONE) (INTEGER 4) 0 0 () (CONSTANT (INTEGER 4) 0 '16') () () '' () ())
67 't_key' 'm_bern' 1 ((DERIVED UNKNOWN UNKNOWN UNKNOWN NONE NONE) (
UNKNOWN) 0 0 () () () '' ((68 'name' (CHARACTER 1 ((CONSTANT (INTEGER 4)
0 '32'))) () () 0 0 0 ()) (69 'value' (CHARACTER 1 ((CONSTANT (INTEGER 4)
0 '255'))) (1 DEFERRED () ()) () 1 1 0 ())) PUBLIC ())
70 'timstrglength' 'm_bern' 1 ((PARAMETER UNKNOWN UNKNOWN UNKNOWN NONE
NONE) (INTEGER 4) 0 0 () (CONSTANT (INTEGER 4) 0 '19') () () '' () ())
71 'timstrglength2' 'm_bern' 1 ((PARAMETER UNKNOWN UNKNOWN UNKNOWN NONE
NONE) (INTEGER 4) 0 0 () (CONSTANT (INTEGER 4) 0 '40') () () '' () ())
12 'key' '' 72 ((VARIABLE UNKNOWN UNKNOWN UNKNOWN NONE NONE DUMMY) (
DERIVED 67) 0 0 () () () '' () ())
)

('backslash' 0 2 'char' 0 3 'd_satdynmod' 0 4 'fileextlength' 0 5
'filenamelength' 0 6 'filenamelength80' 0 7 'filepathlength' 0 8 'i4b' 0
9 'i4ex' 0 10 'init_key' 0 11 'keynamelength' 0 13 'keyvaluelength' 0 14
'kind' 0 15 'lfn001' 0 16 'lfn002' 0 17 'lfneph' 0 18 'lfnerf' 0 19
'lfnerr' 0 20 'lfnkbd' 0 21 'lfnloc' 0 22 'lfnor1' 0 23 'lfnorb' 0 24
'lfnplt' 0 25 'lfnprf' 0 26 'lfnprt' 0 27 'lfnres' 0 28 'lfnrp1' 0 29
'lfnrpr' 0 30 'linelength' 0 31 'linelength1024' 0 32 'longlinelength' 0
33 'm_accoff' 0 34 'm_albedo' 0 35 'm_ap' 0 36 'm_bern' 0 37 'm_cdrag' 0
38 'm_crad' 0 39 'm_dyncoe' 0 40 'm_f107' 0 41 'm_ishad' 0 42 'm_maxdim'
0 43 'm_modtyp' 0 44 'm_nlat' 0 45 'm_nlon' 0 46 'm_qdm' 0 47 'm_qdmrad'
0 48 'm_rprfac' 0 49 'm_rswdyx' 0 50 'm_sclacc' 0 51 'm_scldrg' 0 52
'm_scldrp' 0 53 'm_scltid' 0 54 'maxempterm' 0 55 'maxpot' 0 56 'pgmver'
0 57 'program_dscr' 0 58 'program_name' 0 59 'r8b' 0 60 'r8ex' 0 61
'shortlinelength' 0 62 'stafla2length' 0 63 'staflaglength' 0 64
'stanam2length' 0 65 'stanamelength' 0 66 't_key' 0 67 'timstrglength' 0
70 'timstrglength2' 0 71)
