G95 module created on Thu Jun 25 17:47:58 2020 from ./.fpp/D_STACRX.f90
If you edit this, you'll get what you deserve.
module-version 9
(() () () () () () () () () () () () () () () () () () () () ())

()

()

()

()

(2 'd_stacrx' 'd_stacrx' 1 ((MODULE UNKNOWN UNKNOWN UNKNOWN NONE NONE) (
UNKNOWN) 0 0 () () () '' () ())
3 'i4b' 'm_bern' 1 ((PARAMETER UNKNOWN UNKNOWN UNKNOWN NONE NONE) (
INTEGER 4) 0 0 () (CONSTANT (INTEGER 4) 0 '4') () () '' () ())
4 'init_stacrux' 'd_stacrx' 1 ((PROCEDURE UNKNOWN MODULE-PROC DECL NONE
NONE SUBROUTINE) (PROCEDURE 0) 0 0 (5 NONE) () () '' () ())
6 'm_bern' 'm_bern' 1 ((MODULE UNKNOWN UNKNOWN UNKNOWN NONE NONE) (
UNKNOWN) 0 0 () () () '' () ())
7 'm_time' 'm_time' 1 ((MODULE UNKNOWN UNKNOWN UNKNOWN NONE NONE) (
UNKNOWN) 0 0 () () () '' () ())
8 'mtypeair' 'd_stacrx' 1 ((VARIABLE UNKNOWN UNKNOWN UNKNOWN NONE NONE)
(CHARACTER 1 ((CONSTANT (INTEGER 4) 0 '20'))) 0 0 () () () '' () ())
9 'mtypegrd' 'd_stacrx' 1 ((VARIABLE UNKNOWN UNKNOWN UNKNOWN NONE NONE)
(CHARACTER 1 ((CONSTANT (INTEGER 4) 0 '20'))) 0 0 () () () '' () ())
10 'mtypeship' 'd_stacrx' 1 ((VARIABLE UNKNOWN UNKNOWN UNKNOWN NONE NONE)
(CHARACTER 1 ((CONSTANT (INTEGER 4) 0 '20'))) 0 0 () () () '' () ())
11 'mtypeslr' 'd_stacrx' 1 ((VARIABLE UNKNOWN UNKNOWN UNKNOWN NONE NONE)
(CHARACTER 1 ((CONSTANT (INTEGER 4) 0 '20'))) 0 0 () () () '' () ())
12 'mtypespace' 'd_stacrx' 1 ((VARIABLE UNKNOWN UNKNOWN UNKNOWN NONE
NONE) (CHARACTER 1 ((CONSTANT (INTEGER 4) 0 '20'))) 0 0 () () () '' () ())
13 'r8b' 'm_bern' 1 ((PARAMETER UNKNOWN UNKNOWN UNKNOWN NONE NONE) (
INTEGER 4) 0 0 () (CONSTANT (INTEGER 4) 0 '8') () () '' () ())
14 'stanamelength' 'm_bern' 1 ((PARAMETER UNKNOWN UNKNOWN UNKNOWN NONE
NONE) (INTEGER 4) 0 0 () (CONSTANT (INTEGER 4) 0 '16') () () '' () ())
15 't_coovel' 'd_stacrx' 1 ((DERIVED UNKNOWN UNKNOWN UNKNOWN NONE NONE)
(UNKNOWN) 0 0 () () () '' ((16 'stanam' (CHARACTER 1 ((CONSTANT (
INTEGER 4) 0 '16'))) (1 EXPLICIT (CONSTANT (INTEGER 4) 0 '1') (CONSTANT
(INTEGER 4) 0 '2')) () 1 0 0 ()) (17 'constr' (REAL 8) (1 EXPLICIT (
CONSTANT (INTEGER 4) 0 '1') (CONSTANT (INTEGER 4) 0 '6')) () 1 0 0 ()))
PUBLIC ())
18 't_renamsta' 'd_stacrx' 1 ((DERIVED UNKNOWN UNKNOWN UNKNOWN NONE NONE)
(UNKNOWN) 0 0 () () () '' ((19 'stanam' (CHARACTER 1 ((CONSTANT (
INTEGER 4) 0 '16'))) () () 0 0 0 ()) (20 'flg' (CHARACTER 1 ((CONSTANT (
INTEGER 4) 0 '3'))) () () 0 0 0 ()) (21 'timint' (DERIVED 22) () () 0 0
0 ()) (23 'oldnam' (CHARACTER 1 ((CONSTANT (INTEGER 4) 0 '16'))) () () 0
0 0 ()) (24 'remark' (CHARACTER 1 ((CONSTANT (INTEGER 4) 0 '24'))) () ()
0 0 0 ())) PUBLIC ())
25 't_stacrux' 'd_stacrx' 1 ((DERIVED UNKNOWN UNKNOWN UNKNOWN NONE NONE)
(UNKNOWN) 0 0 () () () '' ((26 'nrenam' (INTEGER 4) () () 0 0 0 ()) (27
'ninfo' (INTEGER 4) () () 0 0 0 ()) (28 'nprob' (INTEGER 4) () () 0 0 0
()) (29 'ncoovel' (INTEGER 4) () () 0 0 0 ()) (30 'nrelpar' (INTEGER 4)
() () 0 0 0 ()) (31 'nstatype' (INTEGER 4) () () 0 0 0 ()) (32 'version'
(REAL 8) () () 0 0 0 ()) (33 'technique' (CHARACTER 1 ((CONSTANT (
INTEGER 4) 0 '30'))) () () 0 0 0 ()) (34 'renamsta' (DERIVED 18) (1
DEFERRED () ()) () 1 1 0 ()) (35 'stainfo' (DERIVED 36) (1 DEFERRED () ())
() 1 1 0 ()) (37 'staprob' (DERIVED 38) (1 DEFERRED () ()) () 1 1 0 ())
(39 'coovel' (DERIVED 15) (1 DEFERRED () ()) () 1 1 0 ()) (40 'starelpar'
(DERIVED 41) (1 DEFERRED () ()) () 1 1 0 ()) (42 'statype' (DERIVED 43)
(1 DEFERRED () ()) () 1 1 0 ())) PUBLIC ())
36 't_stainfo' 'd_stacrx' 1 ((DERIVED UNKNOWN UNKNOWN UNKNOWN NONE NONE)
(UNKNOWN) 0 0 () () () '' ((44 'stanam' (CHARACTER 1 ((CONSTANT (
INTEGER 4) 0 '16'))) () () 0 0 0 ()) (45 'flg' (CHARACTER 1 ((CONSTANT (
INTEGER 4) 0 '3'))) () () 0 0 0 ()) (46 'timint' (DERIVED 22) () () 0 0
0 ()) (47 'recnam' (CHARACTER 1 ((CONSTANT (INTEGER 4) 0 '20'))) () () 0
0 0 ()) (48 'antnam' (CHARACTER 1 ((CONSTANT (INTEGER 4) 0 '20'))) () ()
0 0 0 ()) (49 'recser' (CHARACTER 1 ((CONSTANT (INTEGER 4) 0 '20'))) ()
() 0 0 0 ()) (50 'antser' (CHARACTER 1 ((CONSTANT (INTEGER 4) 0 '20')))
() () 0 0 0 ()) (51 'recnum' (INTEGER 4) () () 0 0 0 ()) (52 'antnum' (
INTEGER 4) () () 0 0 0 ()) (53 'antecc' (REAL 8) (1 EXPLICIT (CONSTANT (
INTEGER 4) 0 '1') (CONSTANT (INTEGER 4) 0 '3')) () 1 0 0 ()) (54 'descri'
(CHARACTER 1 ((CONSTANT (INTEGER 4) 0 '22'))) () () 0 0 0 ()) (55 'remark'
(CHARACTER 1 ((CONSTANT (INTEGER 4) 0 '24'))) () () 0 0 0 ()) (56 'cdpsod'
(CHARACTER 1 ((CONSTANT (INTEGER 4) 0 '8'))) () () 0 0 0 ())) PUBLIC ())
38 't_staprob' 'd_stacrx' 1 ((DERIVED UNKNOWN UNKNOWN UNKNOWN NONE NONE)
(UNKNOWN) 0 0 () () () '' ((57 'stanam' (CHARACTER 1 ((CONSTANT (
INTEGER 4) 0 '16'))) () () 0 0 0 ()) (58 'flg' (CHARACTER 1 ((CONSTANT (
INTEGER 4) 0 '3'))) () () 0 0 0 ()) (59 'timint' (DERIVED 22) () () 0 0
0 ()) (60 'remark' (CHARACTER 1 ((CONSTANT (INTEGER 4) 0 '60'))) () () 0
0 0 ())) PUBLIC ())
41 't_starelpar' 'd_stacrx' 1 ((DERIVED UNKNOWN UNKNOWN UNKNOWN NONE
NONE) (UNKNOWN) 0 0 () () () '' ((61 'stanam' (CHARACTER 1 ((CONSTANT (
INTEGER 4) 0 '16'))) (1 EXPLICIT (CONSTANT (INTEGER 4) 0 '1') (CONSTANT
(INTEGER 4) 0 '2')) () 1 0 0 ()) (62 'flg' (CHARACTER 1 ((CONSTANT (
INTEGER 4) 0 '3'))) () () 0 0 0 ()) (63 'timwin' (DERIVED 22) () () 0 0
0 ()) (64 'partyp' (CHARACTER 1 ((CONSTANT (INTEGER 4) 0 '8'))) () () 0
0 0 ()) (65 'sys' (CHARACTER 1 ((CONSTANT (INTEGER 4) 0 '3'))) (1
EXPLICIT (CONSTANT (INTEGER 4) 0 '1') (CONSTANT (INTEGER 4) 0 '2')) () 1
0 0 ()) (66 'loctie' (REAL 8) (1 EXPLICIT (CONSTANT (INTEGER 4) 0 '1') (
CONSTANT (INTEGER 4) 0 '3')) () 1 0 0 ()) (67 'constr' (REAL 8) (1
EXPLICIT (CONSTANT (INTEGER 4) 0 '1') (CONSTANT (INTEGER 4) 0 '3')) () 1
0 0 ()) (68 'correl' (REAL 8) (1 EXPLICIT (CONSTANT (INTEGER 4) 0 '1') (
CONSTANT (INTEGER 4) 0 '3')) () 1 0 0 ()) (69 'remark' (CHARACTER 1 ((
CONSTANT (INTEGER 4) 0 '24'))) () () 0 0 0 ()) (70 'applied' (LOGICAL 4)
() () 0 0 0 ())) PUBLIC ())
43 't_statype' 'd_stacrx' 1 ((DERIVED UNKNOWN UNKNOWN UNKNOWN NONE NONE)
(UNKNOWN) 0 0 () () () '' ((71 'stanam' (CHARACTER 1 ((CONSTANT (
INTEGER 4) 0 '16'))) () () 0 0 0 ()) (72 'flg' (CHARACTER 1 ((CONSTANT (
INTEGER 4) 0 '3'))) () () 0 0 0 ()) (73 'timint' (DERIVED 22) () () 0 0
0 ()) (74 'markertype' (CHARACTER 1 ((CONSTANT (INTEGER 4) 0 '20'))) ()
() 0 0 0 ()) (75 'remark' (CHARACTER 1 ((CONSTANT (INTEGER 4) 0 '24')))
() () 0 0 0 ())) PUBLIC ())
22 't_timint' 'm_time' 1 ((DERIVED UNKNOWN UNKNOWN UNKNOWN NONE NONE) (
UNKNOWN) 0 0 () () () '' ((76 't' (REAL 8) (1 EXPLICIT (CONSTANT (
INTEGER 4) 0 '1') (CONSTANT (INTEGER 4) 0 '2')) () 1 0 0 ())) PUBLIC ())
77 'undef_c' 'd_stacrx' 1 ((PARAMETER UNKNOWN UNKNOWN UNKNOWN NONE NONE)
(CHARACTER 1 ((CONSTANT (INTEGER 4) 0 '20'))) 0 0 () (CONSTANT (
CHARACTER 1 ((CONSTANT (INTEGER 4) 0 '20'))) 0 20 ' *** UNDEFINED ***  ')
() () '' () ())
78 'undef_e' 'd_stacrx' 1 ((PARAMETER UNKNOWN UNKNOWN UNKNOWN NONE NONE)
(REAL 8) 0 0 () (CONSTANT (REAL 8) 0 '8796092142598698' 0 1032) () () ''
() ())
79 'undef_i' 'd_stacrx' 1 ((PARAMETER UNKNOWN UNKNOWN UNKNOWN NONE NONE)
(INTEGER 4) 0 0 () (CONSTANT (INTEGER 4) 0 '999999') () () '' () ())
80 'undef_s' 'd_stacrx' 1 ((PARAMETER UNKNOWN UNKNOWN UNKNOWN NONE NONE)
(REAL 8) 0 0 () (CONSTANT (REAL 8) 0 '7036873714078958' 0 1029) () () ''
() ())
81 'undef_t' 'd_stacrx' 1 ((PARAMETER UNKNOWN UNKNOWN UNKNOWN NONE NONE)
(REAL 8) 0 0 () (CONSTANT (REAL 8) 0 '6871947672912805' 0 1039) () () ''
() ())
43 't_statype' 'd_stacrx' 1 ((DERIVED UNKNOWN UNKNOWN UNKNOWN NONE NONE)
(UNKNOWN) 0 0 () () () '' ((71 'stanam' (CHARACTER 1 ((CONSTANT (
INTEGER 4) 0 '16'))) () () 0 0 0 ()) (72 'flg' (CHARACTER 1 ((CONSTANT (
INTEGER 4) 0 '3'))) () () 0 0 0 ()) (73 'timint' (DERIVED 22) () () 0 0
0 ()) (74 'markertype' (CHARACTER 1 ((CONSTANT (INTEGER 4) 0 '20'))) ()
() 0 0 0 ()) (75 'remark' (CHARACTER 1 ((CONSTANT (INTEGER 4) 0 '24')))
() () 0 0 0 ())) PUBLIC ())
41 't_starelpar' 'd_stacrx' 1 ((DERIVED UNKNOWN UNKNOWN UNKNOWN NONE
NONE) (UNKNOWN) 0 0 () () () '' ((61 'stanam' (CHARACTER 1 ((CONSTANT (
INTEGER 4) 0 '16'))) (1 EXPLICIT (CONSTANT (INTEGER 4) 0 '1') (CONSTANT
(INTEGER 4) 0 '2')) () 1 0 0 ()) (62 'flg' (CHARACTER 1 ((CONSTANT (
INTEGER 4) 0 '3'))) () () 0 0 0 ()) (63 'timwin' (DERIVED 22) () () 0 0
0 ()) (64 'partyp' (CHARACTER 1 ((CONSTANT (INTEGER 4) 0 '8'))) () () 0
0 0 ()) (65 'sys' (CHARACTER 1 ((CONSTANT (INTEGER 4) 0 '3'))) (1
EXPLICIT (CONSTANT (INTEGER 4) 0 '1') (CONSTANT (INTEGER 4) 0 '2')) () 1
0 0 ()) (66 'loctie' (REAL 8) (1 EXPLICIT (CONSTANT (INTEGER 4) 0 '1') (
CONSTANT (INTEGER 4) 0 '3')) () 1 0 0 ()) (67 'constr' (REAL 8) (1
EXPLICIT (CONSTANT (INTEGER 4) 0 '1') (CONSTANT (INTEGER 4) 0 '3')) () 1
0 0 ()) (68 'correl' (REAL 8) (1 EXPLICIT (CONSTANT (INTEGER 4) 0 '1') (
CONSTANT (INTEGER 4) 0 '3')) () 1 0 0 ()) (69 'remark' (CHARACTER 1 ((
CONSTANT (INTEGER 4) 0 '24'))) () () 0 0 0 ()) (70 'applied' (LOGICAL 4)
() () 0 0 0 ())) PUBLIC ())
38 't_staprob' 'd_stacrx' 1 ((DERIVED UNKNOWN UNKNOWN UNKNOWN NONE NONE)
(UNKNOWN) 0 0 () () () '' ((57 'stanam' (CHARACTER 1 ((CONSTANT (
INTEGER 4) 0 '16'))) () () 0 0 0 ()) (58 'flg' (CHARACTER 1 ((CONSTANT (
INTEGER 4) 0 '3'))) () () 0 0 0 ()) (59 'timint' (DERIVED 22) () () 0 0
0 ()) (60 'remark' (CHARACTER 1 ((CONSTANT (INTEGER 4) 0 '60'))) () () 0
0 0 ())) PUBLIC ())
36 't_stainfo' 'd_stacrx' 1 ((DERIVED UNKNOWN UNKNOWN UNKNOWN NONE NONE)
(UNKNOWN) 0 0 () () () '' ((44 'stanam' (CHARACTER 1 ((CONSTANT (
INTEGER 4) 0 '16'))) () () 0 0 0 ()) (45 'flg' (CHARACTER 1 ((CONSTANT (
INTEGER 4) 0 '3'))) () () 0 0 0 ()) (46 'timint' (DERIVED 22) () () 0 0
0 ()) (47 'recnam' (CHARACTER 1 ((CONSTANT (INTEGER 4) 0 '20'))) () () 0
0 0 ()) (48 'antnam' (CHARACTER 1 ((CONSTANT (INTEGER 4) 0 '20'))) () ()
0 0 0 ()) (49 'recser' (CHARACTER 1 ((CONSTANT (INTEGER 4) 0 '20'))) ()
() 0 0 0 ()) (50 'antser' (CHARACTER 1 ((CONSTANT (INTEGER 4) 0 '20')))
() () 0 0 0 ()) (51 'recnum' (INTEGER 4) () () 0 0 0 ()) (52 'antnum' (
INTEGER 4) () () 0 0 0 ()) (53 'antecc' (REAL 8) (1 EXPLICIT (CONSTANT (
INTEGER 4) 0 '1') (CONSTANT (INTEGER 4) 0 '3')) () 1 0 0 ()) (54 'descri'
(CHARACTER 1 ((CONSTANT (INTEGER 4) 0 '22'))) () () 0 0 0 ()) (55 'remark'
(CHARACTER 1 ((CONSTANT (INTEGER 4) 0 '24'))) () () 0 0 0 ()) (56 'cdpsod'
(CHARACTER 1 ((CONSTANT (INTEGER 4) 0 '8'))) () () 0 0 0 ())) PUBLIC ())
22 't_timint' 'm_time' 1 ((DERIVED UNKNOWN UNKNOWN UNKNOWN NONE NONE) (
UNKNOWN) 0 0 () () () '' ((76 't' (REAL 8) (1 EXPLICIT (CONSTANT (
INTEGER 4) 0 '1') (CONSTANT (INTEGER 4) 0 '2')) () 1 0 0 ())) PUBLIC ())
5 'stacrux' '' 82 ((VARIABLE UNKNOWN UNKNOWN UNKNOWN NONE NONE DUMMY) (
DERIVED 25) 0 0 () () () '' () ())
)

('d_stacrx' 0 2 'i4b' 0 3 'init_stacrux' 0 4 'm_bern' 0 6 'm_time' 0 7
'mtypeair' 0 8 'mtypegrd' 0 9 'mtypeship' 0 10 'mtypeslr' 0 11
'mtypespace' 0 12 'r8b' 0 13 'stanamelength' 0 14 't_coovel' 0 15
't_renamsta' 0 18 't_stacrux' 0 25 't_stainfo' 0 36 't_staprob' 0 38
't_starelpar' 0 41 't_statype' 0 43 't_timint' 0 22 'undef_c' 0 77
'undef_e' 0 78 'undef_i' 0 79 'undef_s' 0 80 'undef_t' 0 81)
