G95 module created on Thu Jun 25 17:49:31 2020 from ./.fpp/GTWEIGHT.f90
If you edit this, you'll get what you deserve.
module-version 9
(() () () () () () () () () () () () () () () () () () () () ())

()

()

()

()

(2 'f_gtweight' 'f_gtweight' 1 ((MODULE UNKNOWN UNKNOWN UNKNOWN NONE
NONE) (UNKNOWN) 0 0 () () () '' () ())
3 'gtweight' 'f_gtweight' 1 ((PROCEDURE UNKNOWN MODULE-PROC DECL NONE
NONE FUNCTION) (REAL 8) 0 0 (4 NONE 5 NONE) () () '' () ())
5 'typflg' '' 6 ((VARIABLE UNKNOWN UNKNOWN UNKNOWN NONE NONE DUMMY) (
CHARACTER 1 ((CONSTANT (INTEGER 4) 0 '1'))) 0 0 () () () '' () ())
4 'par' '' 6 ((VARIABLE UNKNOWN UNKNOWN UNKNOWN NONE NONE DUMMY) (
DERIVED 7) 0 0 () () () '' () ())
7 't_par' 'd_par' 6 ((DERIVED UNKNOWN UNKNOWN UNKNOWN NONE NONE) (
UNKNOWN) 0 0 () () () '' ((8 'locq' (INTEGER 4) (1 EXPLICIT (CONSTANT (
INTEGER 4) 0 '1') (CONSTANT (INTEGER 4) 0 '7')) () 1 0 0 ()) (9 'name' (
CHARACTER 1 ((CONSTANT (INTEGER 4) 0 '20'))) () () 0 0 0 ()) (10 'time'
(DERIVED 11) () () 0 0 0 ()) (12 'x0' (REAL 8) () () 0 0 0 ()) (13 'scale'
(REAL 8) () () 0 0 0 ()) (14 'techn' (CHARACTER 1 ((CONSTANT (INTEGER 4)
0 '1'))) (1 EXPLICIT (CONSTANT (INTEGER 4) 0 '1') (CONSTANT (INTEGER 4)
0 '2')) () 1 0 0 ()) (15 'obstim' (DERIVED 16) () () 0 0 0 ()) (17 'type'
(CHARACTER 1 ((CONSTANT (INTEGER 4) 0 '2'))) () () 0 0 0 ()) (18 'omega'
(REAL 8) () () 0 0 0 ())) PUBLIC ())
16 't_timint' 'm_time' 6 ((DERIVED UNKNOWN UNKNOWN UNKNOWN NONE NONE) (
UNKNOWN) 0 0 () () () '' ((19 't' (REAL 8) (1 EXPLICIT (CONSTANT (
INTEGER 4) 0 '1') (CONSTANT (INTEGER 4) 0 '2')) () 1 0 0 ())) PUBLIC ())
11 't_time' 'm_time' 6 ((DERIVED UNKNOWN UNKNOWN UNKNOWN NONE NONE
SEQUENCE) (UNKNOWN) 0 0 () () () '' ((20 'mean' (REAL 8) () () 0 0 0 ())
(21 'half' (REAL 8) () () 0 0 0 ())) PUBLIC ())
)

('f_gtweight' 0 2 'gtweight' 0 3)
