G95 module created on Thu Jun 25 17:48:13 2020 from ./.fpp/LINCOUNT.f90
If you edit this, you'll get what you deserve.
module-version 9
(() () () () () () () () () () () () () () () () () () () () ())

()

()

()

()

(2 'f_lincount' 'f_lincount' 1 ((MODULE UNKNOWN UNKNOWN UNKNOWN NONE
NONE) (UNKNOWN) 0 0 () () () '' () ())
3 'lincount' 'f_lincount' 1 ((PROCEDURE UNKNOWN MODULE-PROC DECL NONE
NONE FUNCTION) (INTEGER 4) 0 0 (4 NONE 5 NONE 6 NONE) () () '' () ())
6 'ncomment' '' 7 ((VARIABLE UNKNOWN UNKNOWN UNKNOWN NONE NONE OPTIONAL
DUMMY) (INTEGER 4) 0 0 () () () '' () ())
5 'nulline' '' 7 ((VARIABLE UNKNOWN UNKNOWN UNKNOWN NONE NONE DUMMY) (
INTEGER 4) 0 0 () () () '' () ())
4 'keyword' '' 7 ((VARIABLE UNKNOWN UNKNOWN UNKNOWN NONE NONE DUMMY) (
CHARACTER 1 (())) 0 0 () () () '' () ())
)

('f_lincount' 0 2 'lincount' 0 3)
