G95 module created on Thu Jun 25 17:48:40 2020 from ./.fpp/MODSVN.f
If you edit this, you'll get what you deserve.
module-version 9
(() () () () () () () () () () () () () () () () () () () () ())

()

()

()

()

(2 'f_modsvn' 'f_modsvn' 1 ((MODULE UNKNOWN UNKNOWN UNKNOWN NONE NONE) (
UNKNOWN) 0 0 () () () '' () ())
3 'modsvn' 'f_modsvn' 1 ((PROCEDURE UNKNOWN MODULE-PROC DECL NONE NONE
FUNCTION) (INTEGER 4) 0 0 (4 NONE) () () '' () ())
4 'numsvn' '' 5 ((VARIABLE UNKNOWN UNKNOWN UNKNOWN NONE NONE DUMMY) (
INTEGER 4) 0 0 () () () '' () ())
)

('f_modsvn' 0 2 'modsvn' 0 3)
