G95 module created on Thu Jun 25 17:48:28 2020 from ./.fpp/NEXTLINE.f90
If you edit this, you'll get what you deserve.
module-version 9
(() () () () () () () () () () () () () () () () () () () () ())

()

()

()

()

(2 'f_nextline' 'f_nextline' 1 ((MODULE UNKNOWN UNKNOWN UNKNOWN NONE
NONE) (UNKNOWN) 0 0 () () () '' () ())
3 'nextline' 'f_nextline' 1 ((PROCEDURE UNKNOWN MODULE-PROC DECL NONE
NONE FUNCTION) (CHARACTER 1 ((CONSTANT (INTEGER 4) 0 '255'))) 0 0 (4
NONE 5 NONE) () () '' () ())
5 'adjflg' '' 6 ((VARIABLE IN UNKNOWN UNKNOWN NONE NONE DUMMY) (INTEGER
4) 0 0 () () () '' () ())
4 'lfn' '' 6 ((VARIABLE IN UNKNOWN UNKNOWN NONE NONE DUMMY) (INTEGER 4)
0 0 () () () '' () ())
)

('f_nextline' 0 2 'nextline' 0 3)
