G95 module created on Thu Jun 25 17:49:55 2020 from ./.fpp/NUMKEYS.f90
If you edit this, you'll get what you deserve.
module-version 9
(() () () () () () () () () () () () () () () () () () () () ())

()

()

()

()

(2 'f_numkeys' 'f_numkeys' 1 ((MODULE UNKNOWN UNKNOWN UNKNOWN NONE NONE)
(UNKNOWN) 0 0 () () () '' () ())
3 'numkeys' 'f_numkeys' 1 ((PROCEDURE UNKNOWN MODULE-PROC DECL NONE NONE
FUNCTION) (INTEGER 4) 0 0 (4 NONE) () () '' () ())
4 'keyname' '' 5 ((VARIABLE IN UNKNOWN UNKNOWN NONE NONE DUMMY) (
CHARACTER 1 (())) 0 0 () () () '' () ())
)

('f_numkeys' 0 2 'numkeys' 0 3)
