G95 module created on Thu Jun 25 17:48:33 2020 from ./.fpp/PARFAC.f90
If you edit this, you'll get what you deserve.
module-version 9
(() () () () () () () () () () () () () () () () () () () () ())

()

()

()

()

(2 'f_parfac' 'f_parfac' 1 ((MODULE UNKNOWN UNKNOWN UNKNOWN NONE NONE) (
UNKNOWN) 0 0 () () () '' () ())
3 'parfac' 'f_parfac' 1 ((PROCEDURE UNKNOWN MODULE-PROC DECL NONE NONE
FUNCTION) (REAL 8) 0 0 (4 NONE 5 NONE 6 NONE 7 NONE 8 NONE) () () '' ()
())
8 'partyp' '' 9 ((VARIABLE UNKNOWN UNKNOWN UNKNOWN NONE NONE OPTIONAL
DUMMY) (DERIVED 10) 0 0 () () () '' () ())
10 't_partyp' 'p_gpsest' 9 ((DERIVED UNKNOWN UNKNOWN UNKNOWN NONE NONE)
(UNKNOWN) 0 0 () () () '' ((11 'type' (CHARACTER 1 ((CONSTANT (INTEGER 4)
0 '2'))) () () 0 0 0 ()) (12 'omega' (REAL 8) () () 0 0 0 ())) PUBLIC ())
7 'dtobs' '' 9 ((VARIABLE UNKNOWN UNKNOWN UNKNOWN NONE NONE DUMMY) (
REAL 8) 0 0 () () () '' () ())
6 'dtpar' '' 9 ((VARIABLE UNKNOWN UNKNOWN UNKNOWN NONE NONE DUMMY) (
REAL 8) 0 0 () () () '' () ())
5 'tpar' '' 9 ((VARIABLE UNKNOWN UNKNOWN UNKNOWN NONE NONE DUMMY) (REAL
8) 0 0 () () () '' () ())
4 'tobs' '' 9 ((VARIABLE UNKNOWN UNKNOWN UNKNOWN NONE NONE DUMMY) (REAL
8) 0 0 () () () '' () ())
)

('f_parfac' 0 2 'parfac' 0 3)
