G95 module created on Thu Jun 25 17:49:42 2020 from ./.fpp/SINSTATI.f90
If you edit this, you'll get what you deserve.
module-version 9
(() () () () () () () () () () () () () () () () () () () () ())

()

()

()

()

(2 'f_sinstati' 'f_sinstati' 1 ((MODULE UNKNOWN UNKNOWN UNKNOWN NONE
NONE) (UNKNOWN) 0 0 () () () '' () ())
3 'sinstati' 'f_sinstati' 1 ((PROCEDURE UNKNOWN MODULE-PROC DECL NONE
NONE FUNCTION) (INTEGER 4) 0 0 (4 NONE 5 NONE 6 NONE 7 NONE 8 NONE 9
NONE 10 NONE 11 NONE 12 NONE 13 NONE 14 NONE 15 NONE 16 NONE 17 NONE 18
NONE 19 NONE 20 NONE 21 NONE 22 NONE 23 NONE 24 NONE 25 NONE 26 NONE 27
NONE 28 NONE 29 NONE 30 NONE) () () '' () ())
30 'pcvmod' '' 31 ((VARIABLE UNKNOWN UNKNOWN UNKNOWN NONE NONE DUMMY) (
CHARACTER 1 ((CONSTANT (INTEGER 4) 0 '1'))) 0 0 () () () '' () ())
29 'pcvtyp' '' 31 ((VARIABLE UNKNOWN UNKNOWN UNKNOWN NONE NONE DUMMY) (
CHARACTER 1 ((CONSTANT (INTEGER 4) 0 '1'))) 0 0 () () () '' () ())
28 'eldepmod' '' 31 ((VARIABLE UNKNOWN UNKNOWN UNKNOWN NONE NONE DUMMY)
(CHARACTER 1 ((CONSTANT (INTEGER 4) 0 '10'))) 0 0 () () () '' () ())
27 'antoffset' '' 31 ((VARIABLE UNKNOWN UNKNOWN UNKNOWN NONE NONE
DIMENSION DUMMY) (REAL 8) 0 0 () (2 EXPLICIT (CONSTANT (INTEGER 4) 0 '1')
(CONSTANT (INTEGER 4) 0 '3') (CONSTANT (INTEGER 4) 0 '1') (CONSTANT (
INTEGER 4) 0 '2')) () '' () ())
26 'freqcode' '' 31 ((VARIABLE UNKNOWN UNKNOWN UNKNOWN NONE NONE
DIMENSION DUMMY) (INTEGER 4) 0 0 () (1 EXPLICIT (CONSTANT (INTEGER 4) 0
'1') (CONSTANT (INTEGER 4) 0 '2')) () '' () ())
25 'satanttyp' '' 31 ((VARIABLE UNKNOWN UNKNOWN UNKNOWN NONE NONE DUMMY)
(CHARACTER 1 ((CONSTANT (INTEGER 4) 0 '20'))) 0 0 () () () '' () ())
24 'cosparid' '' 31 ((VARIABLE UNKNOWN UNKNOWN UNKNOWN NONE NONE DUMMY)
(CHARACTER 1 ((CONSTANT (INTEGER 4) 0 '9'))) 0 0 () () () '' () ())
23 'isat' '' 31 ((VARIABLE UNKNOWN UNKNOWN UNKNOWN NONE NONE DUMMY) (
INTEGER 4) 0 0 () () () '' () ())
22 'staflg' '' 31 ((VARIABLE UNKNOWN UNKNOWN UNKNOWN NONE NONE DIMENSION
DUMMY) (INTEGER 4) 0 0 () (1 EXPLICIT (CONSTANT (INTEGER 4) 0 '1') (
VARIABLE (INTEGER 4) 0 4 ((COMPONENT 32 'misc') (COMPONENT 33
'nstat_sinex')))) () '' () ())
33 't_misc' 'd_neq' 31 ((DERIVED UNKNOWN UNKNOWN UNKNOWN NONE NONE) (
UNKNOWN) 0 0 () () () '' ((34 'title' (CHARACTER 1 ((CONSTANT (INTEGER 4)
0 '132'))) (1 EXPLICIT (CONSTANT (INTEGER 4) 0 '1') (CONSTANT (INTEGER 4)
0 '2')) () 1 0 0 ()) (35 'datum' (CHARACTER 1 ((CONSTANT (INTEGER 4) 0
'16'))) () () 0 0 0 ()) (36 'nutmod' (CHARACTER 1 ((CONSTANT (INTEGER 4)
0 '16'))) () () 0 0 0 ()) (37 'submod' (CHARACTER 1 ((CONSTANT (INTEGER
4) 0 '16'))) () () 0 0 0 ()) (38 'orbfil' (CHARACTER 1 ((CONSTANT (
INTEGER 4) 0 '32'))) (1 EXPLICIT (CONSTANT (INTEGER 4) 0 '1') (CONSTANT
(INTEGER 4) 0 '2')) () 1 0 0 ()) (39 'gravfil' (CHARACTER 1 ((CONSTANT (
INTEGER 4) 0 '32'))) () () 0 0 0 ()) (40 'nobs' (REAL 8) () () 0 0 0 ())
(41 'npar' (INTEGER 4) () () 0 0 0 ()) (42 'ltpl' (REAL 8) () () 0 0 0 ())
(43 'nparms' (REAL 8) () () 0 0 0 ()) (44 'npseu' (INTEGER 4) () () 0 0
0 ()) (45 'npseuel' (INTEGER 4) () () 0 0 0 ()) (46 'nftot' (INTEGER 4)
() () 0 0 0 ()) (47 'nsmpnq' (INTEGER 4) () () 0 0 0 ()) (48 'ielvnq' (
INTEGER 4) () () 0 0 0 ()) (49 'itropo' (INTEGER 4) () () 0 0 0 ()) (50
'iextra' (INTEGER 4) () () 0 0 0 ()) (51 'itrmap' (INTEGER 4) () () 0 0
0 ()) (52 'itrgrd' (INTEGER 4) () () 0 0 0 ()) (53 'nanoff' (INTEGER 4)
() () 0 0 0 ()) (54 'nsaoff' (INTEGER 4) (1 EXPLICIT (CONSTANT (INTEGER
4) 0 '1') (CONSTANT (INTEGER 4) 0 '260')) () 1 0 0 ()) (55 'satoff' (
INTEGER 4) (2 EXPLICIT (CONSTANT (INTEGER 4) 0 '1') (CONSTANT (INTEGER 4)
0 '130') (CONSTANT (INTEGER 4) 0 '1') (CONSTANT (INTEGER 4) 0 '260')) ()
1 0 0 ()) (56 'nstat_sinex' (INTEGER 4) () () 0 0 0 ()) (57 'sinex' (
DERIVED 58) (1 EXPLICIT (CONSTANT (INTEGER 4) 0 '1') (CONSTANT (INTEGER
4) 0 '2000')) () 1 0 0 ()) (59 'grdneq' (CHARACTER 1 ((CONSTANT (
INTEGER 4) 0 '12'))) (1 EXPLICIT (CONSTANT (INTEGER 4) 0 '1') (CONSTANT
(INTEGER 4) 0 '3')) () 1 0 0 ()) (60 'nobst' (INTEGER 4) () () 0 0 0 ())
(61 'obst' (DERIVED 62) (1 EXPLICIT (CONSTANT (INTEGER 4) 0 '1') (
CONSTANT (INTEGER 4) 0 '30000')) () 1 0 0 ())) PUBLIC ())
62 't_obst' 'd_neq' 31 ((DERIVED UNKNOWN UNKNOWN UNKNOWN NONE NONE) (
UNKNOWN) 0 0 () () () '' ((63 'obstyp' (CHARACTER 1 ((CONSTANT (INTEGER
4) 0 '3'))) (1 EXPLICIT (CONSTANT (INTEGER 4) 0 '1') (CONSTANT (INTEGER
4) 0 '4')) () 1 0 0 ())) PUBLIC ())
58 't_sinex' 'd_neq' 31 ((DERIVED UNKNOWN UNKNOWN UNKNOWN NONE NONE) (
UNKNOWN) 0 0 () () () '' ((64 'timint' (DERIVED 65) () () 0 0 0 ()) (66
'stname' (CHARACTER 1 ((CONSTANT (INTEGER 4) 0 '16'))) () () 0 0 0 ()) (
67 'antecc' (REAL 8) (1 EXPLICIT (CONSTANT (INTEGER 4) 0 '1') (CONSTANT
(INTEGER 4) 0 '3')) () 1 0 0 ()) (68 'antpcv' (DERIVED 69) (1 EXPLICIT (
CONSTANT (INTEGER 4) 0 '0') (CONSTANT (INTEGER 4) 0 '5')) () 1 0 0 ()) (
70 'antnum' (INTEGER 4) () () 0 0 0 ()) (71 'antsta' (CHARACTER 1 ((
CONSTANT (INTEGER 4) 0 '20'))) () () 0 0 0 ()) (72 'antrec' (CHARACTER 1
((CONSTANT (INTEGER 4) 0 '20'))) () () 0 0 0 ())) PUBLIC ())
69 't_sinex_pcv' 'd_neq' 31 ((DERIVED UNKNOWN UNKNOWN UNKNOWN NONE NONE)
(UNKNOWN) 0 0 () () () '' ((73 'nfrq' (INTEGER 4) () () 0 0 0 ()) (74
'antphs' (REAL 8) (2 EXPLICIT (CONSTANT (INTEGER 4) 0 '1') (CONSTANT (
INTEGER 4) 0 '3') (CONSTANT (INTEGER 4) 0 '1') (CONSTANT (INTEGER 4) 0 '2'))
() 1 0 0 ()) (75 'adopted' (INTEGER 4) () () 0 0 0 ()) (76 'individ' (
INTEGER 4) () () 0 0 0 ()) (77 'atxstr' (CHARACTER 1 ((CONSTANT (
INTEGER 4) 0 '10'))) () () 0 0 0 ())) PUBLIC ())
65 't_timint' 'm_time' 31 ((DERIVED UNKNOWN UNKNOWN UNKNOWN NONE NONE) (
UNKNOWN) 0 0 () () () '' ((78 't' (REAL 8) (1 EXPLICIT (CONSTANT (
INTEGER 4) 0 '1') (CONSTANT (INTEGER 4) 0 '2')) () 1 0 0 ())) PUBLIC ())
32 't_neq' 'd_neq' 31 ((DERIVED UNKNOWN UNKNOWN UNKNOWN NONE NONE) (
UNKNOWN) 0 0 () () () '' ((79 'version' (INTEGER 4) () () 0 0 0 ()) (80
'misc' (DERIVED 33) () () 0 0 0 ()) (81 'par' (DERIVED 82) (1 DEFERRED ()
()) () 1 1 0 ()) (83 'anor' (REAL 8) (1 DEFERRED () ()) () 1 1 0 ()) (
84 'bnor' (REAL 8) (1 DEFERRED () ()) () 1 1 0 ()) (85 'xxx' (REAL 8) (
1 DEFERRED () ()) () 1 1 0 ())) PUBLIC ())
82 't_par' 'd_par' 31 ((DERIVED UNKNOWN UNKNOWN UNKNOWN NONE NONE) (
UNKNOWN) 0 0 () () () '' ((86 'locq' (INTEGER 4) (1 EXPLICIT (CONSTANT (
INTEGER 4) 0 '1') (CONSTANT (INTEGER 4) 0 '7')) () 1 0 0 ()) (87 'name'
(CHARACTER 1 ((CONSTANT (INTEGER 4) 0 '20'))) () () 0 0 0 ()) (88 'time'
(DERIVED 89) () () 0 0 0 ()) (90 'x0' (REAL 8) () () 0 0 0 ()) (91 'scale'
(REAL 8) () () 0 0 0 ()) (92 'techn' (CHARACTER 1 ((CONSTANT (INTEGER 4)
0 '1'))) (1 EXPLICIT (CONSTANT (INTEGER 4) 0 '1') (CONSTANT (INTEGER 4)
0 '2')) () 1 0 0 ()) (93 'obstim' (DERIVED 65) () () 0 0 0 ()) (94 'type'
(CHARACTER 1 ((CONSTANT (INTEGER 4) 0 '2'))) () () 0 0 0 ()) (95 'omega'
(REAL 8) () () 0 0 0 ())) PUBLIC ())
89 't_time' 'm_time' 31 ((DERIVED UNKNOWN UNKNOWN UNKNOWN NONE NONE
SEQUENCE) (UNKNOWN) 0 0 () () () '' ((96 'mean' (REAL 8) () () 0 0 0 ())
(97 'half' (REAL 8) () () 0 0 0 ())) PUBLIC ())
21 'ell' '' 31 ((VARIABLE UNKNOWN UNKNOWN UNKNOWN NONE NONE DIMENSION
DUMMY) (REAL 8) 0 0 () (1 EXPLICIT (CONSTANT (INTEGER 4) 0 '1') (
CONSTANT (INTEGER 4) 0 '3')) () '' () ())
20 'xyz' '' 31 ((VARIABLE UNKNOWN UNKNOWN UNKNOWN NONE NONE DIMENSION
DUMMY) (REAL 8) 0 0 () (1 EXPLICIT (CONSTANT (INTEGER 4) 0 '1') (
CONSTANT (INTEGER 4) 0 '3')) () '' () ())
19 'antnum' '' 31 ((VARIABLE UNKNOWN UNKNOWN UNKNOWN NONE NONE DUMMY) (
CHARACTER 1 (())) 0 0 () () () '' () ())
18 'reftime' '' 31 ((VARIABLE UNKNOWN UNKNOWN UNKNOWN NONE NONE DUMMY) (
CHARACTER 1 (())) 0 0 () () () '' () ())
17 'meantime' '' 31 ((VARIABLE UNKNOWN UNKNOWN UNKNOWN NONE NONE DUMMY)
(CHARACTER 1 (())) 0 0 () () () '' () ())
16 'endtime' '' 31 ((VARIABLE UNKNOWN UNKNOWN UNKNOWN NONE NONE DUMMY) (
CHARACTER 1 (())) 0 0 () () () '' () ())
15 'starttime' '' 31 ((VARIABLE UNKNOWN UNKNOWN UNKNOWN NONE NONE DUMMY)
(CHARACTER 1 (())) 0 0 () () () '' () ())
14 'refsys' '' 31 ((VARIABLE UNKNOWN UNKNOWN UNKNOWN NONE NONE DUMMY) (
CHARACTER 1 (())) 0 0 () () () '' () ())
13 'firmware' '' 31 ((VARIABLE UNKNOWN UNKNOWN UNKNOWN NONE NONE DUMMY)
(CHARACTER 1 (())) 0 0 () () () '' () ())
12 'sernumber' '' 31 ((VARIABLE UNKNOWN UNKNOWN UNKNOWN NONE NONE DUMMY)
(CHARACTER 1 (())) 0 0 () () () '' () ())
11 'technique' '' 31 ((VARIABLE UNKNOWN UNKNOWN UNKNOWN NONE NONE DUMMY)
(CHARACTER 1 (())) 0 0 () () () '' () ())
10 'solid' '' 31 ((VARIABLE UNKNOWN UNKNOWN UNKNOWN NONE NONE DUMMY) (
CHARACTER 1 (())) 0 0 () () () '' () ())
9 'domes' '' 31 ((VARIABLE UNKNOWN UNKNOWN UNKNOWN NONE NONE DUMMY) (
CHARACTER 1 (())) 0 0 () () () '' () ())
8 'pointcode' '' 31 ((VARIABLE UNKNOWN UNKNOWN UNKNOWN NONE NONE DUMMY)
(CHARACTER 1 (())) 0 0 () () () '' () ())
7 'sitecode' '' 31 ((VARIABLE UNKNOWN UNKNOWN UNKNOWN NONE NONE DUMMY) (
CHARACTER 1 ((CONSTANT (INTEGER 4) 0 '4'))) 0 0 () () () '' () ())
6 'ipar' '' 31 ((VARIABLE IN UNKNOWN UNKNOWN NONE NONE DUMMY) (INTEGER 4)
0 0 () () () '' () ())
5 'isel' '' 31 ((VARIABLE IN UNKNOWN UNKNOWN NONE NONE DUMMY) (INTEGER 4)
0 0 () () () '' () ())
4 'neq' '' 31 ((VARIABLE UNKNOWN UNKNOWN UNKNOWN NONE NONE DUMMY) (
DERIVED 32) 0 0 () () () '' () ())
)

('f_sinstati' 0 2 'sinstati' 0 3)
