G95 module created on Thu Jun 25 17:48:26 2020 from ./.fpp/SVNSYS.f90
If you edit this, you'll get what you deserve.
module-version 9
(() () () () () () () () () () () () () () () () () () () () ())

()

()

()

()

(2 'f_svnsys' 'f_svnsys' 1 ((MODULE UNKNOWN UNKNOWN UNKNOWN NONE NONE) (
UNKNOWN) 0 0 () () () '' () ())
3 'svnsys' 'f_svnsys' 1 ((PROCEDURE UNKNOWN MODULE-PROC DECL NONE NONE
FUNCTION) (LOGICAL 4) 0 0 (4 NONE 5 NONE 6 NONE) () () '' () ())
6 'satnum' '' 7 ((VARIABLE UNKNOWN UNKNOWN UNKNOWN NONE NONE DIMENSION
DUMMY) (INTEGER 4) 0 0 () (1 ASSUMED_SIZE (CONSTANT (INTEGER 4) 0 '1') ())
() '' () ())
5 'nsat' '' 7 ((VARIABLE UNKNOWN UNKNOWN UNKNOWN NONE NONE DUMMY) (
INTEGER 4) 0 0 () () () '' () ())
4 'isvtyp' '' 7 ((VARIABLE UNKNOWN UNKNOWN UNKNOWN NONE NONE DUMMY) (
INTEGER 4) 0 0 () () () '' () ())
)

('f_svnsys' 0 2 'svnsys' 0 3)
