G95 module created on Thu Jun 25 17:49:18 2020 from ./.fpp/UT1_UT1R.f90
If you edit this, you'll get what you deserve.
module-version 9
(() () () () () () () () () () () () () () () () () () () () ())

()

()

()

()

(2 'f_ut1_ut1r' 'f_ut1_ut1r' 1 ((MODULE UNKNOWN UNKNOWN UNKNOWN NONE
NONE) (UNKNOWN) 0 0 () () () '' () ())
3 'ut1_ut1r' 'f_ut1_ut1r' 1 ((PROCEDURE UNKNOWN MODULE-PROC DECL NONE
NONE FUNCTION) (REAL 8) 0 0 (4 NONE) () () '' () ())
4 'par' '' 5 ((VARIABLE UNKNOWN UNKNOWN UNKNOWN NONE NONE DUMMY) (
DERIVED 6) 0 0 () () () '' () ())
6 't_par' 'd_par' 5 ((DERIVED UNKNOWN UNKNOWN UNKNOWN NONE NONE) (
UNKNOWN) 0 0 () () () '' ((7 'locq' (INTEGER 4) (1 EXPLICIT (CONSTANT (
INTEGER 4) 0 '1') (CONSTANT (INTEGER 4) 0 '7')) () 1 0 0 ()) (8 'name' (
CHARACTER 1 ((CONSTANT (INTEGER 4) 0 '20'))) () () 0 0 0 ()) (9 'time' (
DERIVED 10) () () 0 0 0 ()) (11 'x0' (REAL 8) () () 0 0 0 ()) (12 'scale'
(REAL 8) () () 0 0 0 ()) (13 'techn' (CHARACTER 1 ((CONSTANT (INTEGER 4)
0 '1'))) (1 EXPLICIT (CONSTANT (INTEGER 4) 0 '1') (CONSTANT (INTEGER 4)
0 '2')) () 1 0 0 ()) (14 'obstim' (DERIVED 15) () () 0 0 0 ()) (16 'type'
(CHARACTER 1 ((CONSTANT (INTEGER 4) 0 '2'))) () () 0 0 0 ()) (17 'omega'
(REAL 8) () () 0 0 0 ())) PUBLIC ())
15 't_timint' 'm_time' 5 ((DERIVED UNKNOWN UNKNOWN UNKNOWN NONE NONE) (
UNKNOWN) 0 0 () () () '' ((18 't' (REAL 8) (1 EXPLICIT (CONSTANT (
INTEGER 4) 0 '1') (CONSTANT (INTEGER 4) 0 '2')) () 1 0 0 ())) PUBLIC ())
10 't_time' 'm_time' 5 ((DERIVED UNKNOWN UNKNOWN UNKNOWN NONE NONE
SEQUENCE) (UNKNOWN) 0 0 () () () '' ((19 'mean' (REAL 8) () () 0 0 0 ())
(20 'half' (REAL 8) () () 0 0 0 ())) PUBLIC ())
)

('f_ut1_ut1r' 0 2 'ut1_ut1r' 0 3)
