G95 module created on Thu Jun 25 17:47:57 2020 from ./.fpp/L_BASFUN.f90
If you edit this, you'll get what you deserve.
module-version 9
(() () () () () () () () () () () () () () () () () () () () ())

()

()

()

()

(2 'dmod' 'l_basfun' 1 ((PROCEDURE UNKNOWN MODULE-PROC DECL NONE NONE
FUNCTION) (REAL 8) 0 0 (3 NONE 4 NONE) () () '' () ())
5 'l_basfun' 'l_basfun' 1 ((MODULE UNKNOWN UNKNOWN UNKNOWN NONE NONE) (
UNKNOWN) 0 0 () () () '' () ())
4 'p' '' 6 ((VARIABLE IN UNKNOWN UNKNOWN NONE NONE DUMMY) (REAL 8) 0 0 ()
() () '' () ())
3 'a' '' 6 ((VARIABLE IN UNKNOWN UNKNOWN NONE NONE DUMMY) (REAL 8) 0 0 ()
() () '' () ())
)

('dmod' 0 2 'l_basfun' 0 5)
