G95 module created on Thu Jun 25 17:48:16 2020 from ./.fpp/M_EPOCH.f90
If you edit this, you'll get what you deserve.
module-version 9
(() () (2 3 4) (5 6) () (7) () () () () () () (8 9) (10 11) (12) (13)
(14) (15) () () (16 17))

(('epochtoreal' '' 18) ('intersect' '' 19) ('realtoepoch' '' 20) (
'tminus' '' 21))

()

()

()

(22 'isinwin' 'm_epoch' 1 ((PROCEDURE UNKNOWN MODULE-PROC DECL NONE NONE
FUNCTION) (LOGICAL 4) 0 0 (23 NONE 24 NONE 25 NONE) () () '' () ())
26 't_epoch' 'm_epoch' 1 ((DERIVED UNKNOWN UNKNOWN UNKNOWN NONE NONE) (
UNKNOWN) 0 0 () () () '' ((27 'day' (INTEGER 4) () () 0 0 0 ()) (28 'frac'
(REAL 8) () () 0 0 0 ())) PUBLIC ())
29 't_timwin' 'm_epoch' 1 ((DERIVED UNKNOWN UNKNOWN UNKNOWN NONE NONE) (
UNKNOWN) 0 0 () () () '' ((30 't' (DERIVED 26) (1 EXPLICIT (CONSTANT (
INTEGER 4) 0 '1') (CONSTANT (INTEGER 4) 0 '2')) () 1 0 0 ())) PUBLIC ())
25 'dt' '' 31 ((VARIABLE IN UNKNOWN UNKNOWN NONE NONE OPTIONAL DUMMY) (
REAL 8) 0 0 () () () '' () ())
24 'timwin' '' 31 ((VARIABLE IN UNKNOWN UNKNOWN NONE NONE DUMMY) (
DERIVED 29) 0 0 () () () '' () ())
23 'epoch' '' 31 ((VARIABLE IN UNKNOWN UNKNOWN NONE NONE DUMMY) (
DERIVED 26) 0 0 () () () '' () ())
21 'subepoch2epoch' 'm_epoch' 1 ((PROCEDURE UNKNOWN MODULE-PROC DECL
NONE NONE FUNCTION INVOKED) (DERIVED 26) 0 0 (32 NONE 33 NONE) () () ''
() ())
33 'epoch2' '' 34 ((VARIABLE IN UNKNOWN UNKNOWN NONE NONE DUMMY) (
DERIVED 26) 0 0 () () () '' () ())
32 'epoch1' '' 34 ((VARIABLE IN UNKNOWN UNKNOWN NONE NONE DUMMY) (
DERIVED 26) 0 0 () () () '' () ())
20 'real2epoch' 'm_epoch' 1 ((PROCEDURE UNKNOWN MODULE-PROC DECL NONE
NONE FUNCTION INVOKED) (DERIVED 26) 0 0 (35 NONE) () () '' () ())
35 'repoch' '' 36 ((VARIABLE IN UNKNOWN UNKNOWN NONE NONE DUMMY) (REAL 8)
0 0 () () () '' () ())
19 'intersectwin' 'm_epoch' 1 ((PROCEDURE UNKNOWN MODULE-PROC DECL NONE
NONE FUNCTION INVOKED) (LOGICAL 4) 0 0 (37 NONE 38 NONE) () () '' () ())
38 'timwin2' '' 39 ((VARIABLE IN UNKNOWN UNKNOWN NONE NONE DUMMY) (
DERIVED 29) 0 0 () () () '' () ())
37 'timwin1' '' 39 ((VARIABLE IN UNKNOWN UNKNOWN NONE NONE DUMMY) (
DERIVED 29) 0 0 () () () '' () ())
18 'epoch2real' 'm_epoch' 1 ((PROCEDURE UNKNOWN MODULE-PROC DECL NONE
NONE FUNCTION INVOKED) (REAL 8) 0 0 (40 NONE) () () '' () ())
40 'epoch' '' 41 ((VARIABLE IN UNKNOWN UNKNOWN NONE NONE DUMMY) (
DERIVED 26) 0 0 () () () '' () ())
17 'epochasgnreal' 'm_epoch' 1 ((PROCEDURE UNKNOWN MODULE-PROC DECL NONE
NONE SUBROUTINE INVOKED) (PROCEDURE 0) 0 0 (42 NONE 43 NONE) () () '' ()
())
43 'repoch' '' 44 ((VARIABLE IN UNKNOWN UNKNOWN NONE NONE DUMMY) (REAL 8)
0 0 () () () '' () ())
42 'epoch' '' 44 ((VARIABLE OUT UNKNOWN UNKNOWN NONE NONE DUMMY) (
DERIVED 26) 0 0 () () () '' () ())
16 'realasgnepoch' 'm_epoch' 1 ((PROCEDURE UNKNOWN MODULE-PROC DECL NONE
NONE SUBROUTINE INVOKED) (PROCEDURE 0) 0 0 (45 NONE 46 NONE) () () '' ()
())
46 'epoch' '' 47 ((VARIABLE IN UNKNOWN UNKNOWN NONE NONE DUMMY) (
DERIVED 26) 0 0 () () () '' () ())
45 'repoch' '' 47 ((VARIABLE OUT UNKNOWN UNKNOWN NONE NONE DUMMY) (REAL
8) 0 0 () () () '' () ())
15 'le' 'm_epoch' 1 ((PROCEDURE UNKNOWN MODULE-PROC DECL NONE NONE
FUNCTION INVOKED) (LOGICAL 4) 0 0 (48 NONE 49 NONE) () () '' () ())
49 'epoch2' '' 50 ((VARIABLE IN UNKNOWN UNKNOWN NONE NONE DUMMY) (
DERIVED 26) 0 0 () () () '' () ())
48 'epoch1' '' 50 ((VARIABLE IN UNKNOWN UNKNOWN NONE NONE DUMMY) (
DERIVED 26) 0 0 () () () '' () ())
14 'lt' 'm_epoch' 1 ((PROCEDURE UNKNOWN MODULE-PROC DECL NONE NONE
FUNCTION INVOKED) (LOGICAL 4) 0 0 (51 NONE 52 NONE) () () '' () ())
52 'epoch2' '' 53 ((VARIABLE IN UNKNOWN UNKNOWN NONE NONE DUMMY) (
DERIVED 26) 0 0 () () () '' () ())
51 'epoch1' '' 53 ((VARIABLE IN UNKNOWN UNKNOWN NONE NONE DUMMY) (
DERIVED 26) 0 0 () () () '' () ())
13 'ge' 'm_epoch' 1 ((PROCEDURE UNKNOWN MODULE-PROC DECL NONE NONE
FUNCTION INVOKED) (LOGICAL 4) 0 0 (54 NONE 55 NONE) () () '' () ())
55 'epoch2' '' 56 ((VARIABLE IN UNKNOWN UNKNOWN NONE NONE DUMMY) (
DERIVED 26) 0 0 () () () '' () ())
54 'epoch1' '' 56 ((VARIABLE IN UNKNOWN UNKNOWN NONE NONE DUMMY) (
DERIVED 26) 0 0 () () () '' () ())
12 'gt' 'm_epoch' 1 ((PROCEDURE UNKNOWN MODULE-PROC DECL NONE NONE
FUNCTION INVOKED) (LOGICAL 4) 0 0 (57 NONE 58 NONE) () () '' () ())
58 'epoch2' '' 59 ((VARIABLE IN UNKNOWN UNKNOWN NONE NONE DUMMY) (
DERIVED 26) 0 0 () () () '' () ())
57 'epoch1' '' 59 ((VARIABLE IN UNKNOWN UNKNOWN NONE NONE DUMMY) (
DERIVED 26) 0 0 () () () '' () ())
11 'neepo' 'm_epoch' 1 ((PROCEDURE UNKNOWN MODULE-PROC DECL NONE NONE
FUNCTION INVOKED) (LOGICAL 4) 0 0 (60 NONE 61 NONE) () () '' () ())
61 'epoch2' '' 62 ((VARIABLE IN UNKNOWN UNKNOWN NONE NONE DUMMY) (
DERIVED 26) 0 0 () () () '' () ())
60 'epoch1' '' 62 ((VARIABLE IN UNKNOWN UNKNOWN NONE NONE DUMMY) (
DERIVED 26) 0 0 () () () '' () ())
10 'newin' 'm_epoch' 1 ((PROCEDURE UNKNOWN MODULE-PROC DECL NONE NONE
FUNCTION INVOKED) (LOGICAL 4) 0 0 (63 NONE 64 NONE) () () '' () ())
64 'win2' '' 65 ((VARIABLE IN UNKNOWN UNKNOWN NONE NONE DUMMY) (DERIVED
29) 0 0 () () () '' () ())
63 'win1' '' 65 ((VARIABLE IN UNKNOWN UNKNOWN NONE NONE DUMMY) (DERIVED
29) 0 0 () () () '' () ())
9 'eqepo' 'm_epoch' 1 ((PROCEDURE UNKNOWN MODULE-PROC DECL NONE NONE
FUNCTION INVOKED) (LOGICAL 4) 0 0 (66 NONE 67 NONE) () () '' () ())
67 'epoch2' '' 68 ((VARIABLE IN UNKNOWN UNKNOWN NONE NONE DUMMY) (
DERIVED 26) 0 0 () () () '' () ())
66 'epoch1' '' 68 ((VARIABLE IN UNKNOWN UNKNOWN NONE NONE DUMMY) (
DERIVED 26) 0 0 () () () '' () ())
8 'eqwin' 'm_epoch' 1 ((PROCEDURE UNKNOWN MODULE-PROC DECL NONE NONE
FUNCTION INVOKED) (LOGICAL 4) 0 0 (69 NONE 70 NONE) () () '' () ())
70 'win2' '' 71 ((VARIABLE IN UNKNOWN UNKNOWN NONE NONE DUMMY) (DERIVED
29) 0 0 () () () '' () ())
69 'win1' '' 71 ((VARIABLE IN UNKNOWN UNKNOWN NONE NONE DUMMY) (DERIVED
29) 0 0 () () () '' () ())
7 'divide' 'm_epoch' 1 ((PROCEDURE UNKNOWN MODULE-PROC DECL NONE NONE
FUNCTION INVOKED) (DERIVED 26) 0 0 (72 NONE 73 NONE) () () '' () ())
73 'div' '' 74 ((VARIABLE IN UNKNOWN UNKNOWN NONE NONE DUMMY) (INTEGER 4)
0 0 () () () '' () ())
72 'epoch' '' 74 ((VARIABLE IN UNKNOWN UNKNOWN NONE NONE DUMMY) (
DERIVED 26) 0 0 () () () '' () ())
6 'subfrac' 'm_epoch' 1 ((PROCEDURE UNKNOWN MODULE-PROC DECL NONE NONE
FUNCTION INVOKED) (DERIVED 26) 0 0 (75 NONE 76 NONE) () () '' () ())
76 'frac' '' 77 ((VARIABLE IN UNKNOWN UNKNOWN NONE NONE DUMMY) (REAL 8)
0 0 () () () '' () ())
75 'epoch' '' 77 ((VARIABLE IN UNKNOWN UNKNOWN NONE NONE DUMMY) (
DERIVED 26) 0 0 () () () '' () ())
5 'subepoch2real' 'm_epoch' 1 ((PROCEDURE UNKNOWN MODULE-PROC DECL NONE
NONE FUNCTION INVOKED) (REAL 8) 0 0 (78 NONE 79 NONE) () () '' () ())
79 'epoch2' '' 80 ((VARIABLE IN UNKNOWN UNKNOWN NONE NONE DUMMY) (
DERIVED 26) 0 0 () () () '' () ())
78 'epoch1' '' 80 ((VARIABLE IN UNKNOWN UNKNOWN NONE NONE DUMMY) (
DERIVED 26) 0 0 () () () '' () ())
4 'addfrac' 'm_epoch' 1 ((PROCEDURE UNKNOWN MODULE-PROC DECL NONE NONE
FUNCTION INVOKED) (DERIVED 26) 0 0 (81 NONE 82 NONE) () () '' () ())
82 'frac' '' 83 ((VARIABLE IN UNKNOWN UNKNOWN NONE NONE DUMMY) (REAL 8)
0 0 () () () '' () ())
81 'epoch' '' 83 ((VARIABLE IN UNKNOWN UNKNOWN NONE NONE DUMMY) (
DERIVED 26) 0 0 () () () '' () ())
3 'addepoch' 'm_epoch' 1 ((PROCEDURE UNKNOWN MODULE-PROC DECL NONE NONE
FUNCTION INVOKED) (DERIVED 26) 0 0 (84 NONE 85 NONE) () () '' () ())
85 'epoch2' '' 86 ((VARIABLE IN UNKNOWN UNKNOWN NONE NONE DUMMY) (
DERIVED 26) 0 0 () () () '' () ())
84 'epoch1' '' 86 ((VARIABLE IN UNKNOWN UNKNOWN NONE NONE DUMMY) (
DERIVED 26) 0 0 () () () '' () ())
2 'addtimwin' 'm_epoch' 1 ((PROCEDURE UNKNOWN MODULE-PROC DECL NONE NONE
FUNCTION INVOKED) (DERIVED 29) 0 0 (87 NONE 88 NONE) () () '' () ())
88 'timwin2' '' 89 ((VARIABLE IN UNKNOWN UNKNOWN NONE NONE DUMMY) (
DERIVED 29) 0 0 () () () '' () ())
87 'timwin1' '' 89 ((VARIABLE IN UNKNOWN UNKNOWN NONE NONE DUMMY) (
DERIVED 29) 0 0 () () () '' () ())
)

('isinwin' 0 22 't_epoch' 0 26 't_timwin' 0 29)
