G95 module created on Thu Jun 25 17:48:42 2020 from ./.fpp/P_ADDNEQ.f90
If you edit this, you'll get what you deserve.
module-version 9
(() () () () () () () () () () () () () () () () () () () () ())

()

()

()

()

(2 't_renamsta' 'd_stacrx' 1 ((DERIVED UNKNOWN UNKNOWN UNKNOWN NONE NONE)
(UNKNOWN) 0 0 () () () '' ((3 'stanam' (CHARACTER 1 ((CONSTANT (INTEGER
4) 0 '16'))) () () 0 0 0 ()) (4 'flg' (CHARACTER 1 ((CONSTANT (INTEGER 4)
0 '3'))) () () 0 0 0 ()) (5 'timint' (DERIVED 6) () () 0 0 0 ()) (7
'oldnam' (CHARACTER 1 ((CONSTANT (INTEGER 4) 0 '16'))) () () 0 0 0 ()) (
8 'remark' (CHARACTER 1 ((CONSTANT (INTEGER 4) 0 '24'))) () () 0 0 0 ()))
PUBLIC ())
9 't_stainfo' 'd_stacrx' 1 ((DERIVED UNKNOWN UNKNOWN UNKNOWN NONE NONE)
(UNKNOWN) 0 0 () () () '' ((10 'stanam' (CHARACTER 1 ((CONSTANT (
INTEGER 4) 0 '16'))) () () 0 0 0 ()) (11 'flg' (CHARACTER 1 ((CONSTANT (
INTEGER 4) 0 '3'))) () () 0 0 0 ()) (12 'timint' (DERIVED 6) () () 0 0 0
()) (13 'recnam' (CHARACTER 1 ((CONSTANT (INTEGER 4) 0 '20'))) () () 0 0
0 ()) (14 'antnam' (CHARACTER 1 ((CONSTANT (INTEGER 4) 0 '20'))) () () 0
0 0 ()) (15 'recser' (CHARACTER 1 ((CONSTANT (INTEGER 4) 0 '20'))) () ()
0 0 0 ()) (16 'antser' (CHARACTER 1 ((CONSTANT (INTEGER 4) 0 '20'))) ()
() 0 0 0 ()) (17 'recnum' (INTEGER 4) () () 0 0 0 ()) (18 'antnum' (
INTEGER 4) () () 0 0 0 ()) (19 'antecc' (REAL 8) (1 EXPLICIT (CONSTANT (
INTEGER 4) 0 '1') (CONSTANT (INTEGER 4) 0 '3')) () 1 0 0 ()) (20 'descri'
(CHARACTER 1 ((CONSTANT (INTEGER 4) 0 '22'))) () () 0 0 0 ()) (21 'remark'
(CHARACTER 1 ((CONSTANT (INTEGER 4) 0 '24'))) () () 0 0 0 ()) (22 'cdpsod'
(CHARACTER 1 ((CONSTANT (INTEGER 4) 0 '8'))) () () 0 0 0 ())) PUBLIC ())
23 't_staprob' 'd_stacrx' 1 ((DERIVED UNKNOWN UNKNOWN UNKNOWN NONE NONE)
(UNKNOWN) 0 0 () () () '' ((24 'stanam' (CHARACTER 1 ((CONSTANT (
INTEGER 4) 0 '16'))) () () 0 0 0 ()) (25 'flg' (CHARACTER 1 ((CONSTANT (
INTEGER 4) 0 '3'))) () () 0 0 0 ()) (26 'timint' (DERIVED 6) () () 0 0 0
()) (27 'remark' (CHARACTER 1 ((CONSTANT (INTEGER 4) 0 '60'))) () () 0 0
0 ())) PUBLIC ())
28 't_coovel' 'd_stacrx' 1 ((DERIVED UNKNOWN UNKNOWN UNKNOWN NONE NONE)
(UNKNOWN) 0 0 () () () '' ((29 'stanam' (CHARACTER 1 ((CONSTANT (
INTEGER 4) 0 '16'))) (1 EXPLICIT (CONSTANT (INTEGER 4) 0 '1') (CONSTANT
(INTEGER 4) 0 '2')) () 1 0 0 ()) (30 'constr' (REAL 8) (1 EXPLICIT (
CONSTANT (INTEGER 4) 0 '1') (CONSTANT (INTEGER 4) 0 '6')) () 1 0 0 ()))
PUBLIC ())
31 't_statype' 'd_stacrx' 1 ((DERIVED UNKNOWN UNKNOWN UNKNOWN NONE NONE)
(UNKNOWN) 0 0 () () () '' ((32 'stanam' (CHARACTER 1 ((CONSTANT (
INTEGER 4) 0 '16'))) () () 0 0 0 ()) (33 'flg' (CHARACTER 1 ((CONSTANT (
INTEGER 4) 0 '3'))) () () 0 0 0 ()) (34 'timint' (DERIVED 6) () () 0 0 0
()) (35 'markertype' (CHARACTER 1 ((CONSTANT (INTEGER 4) 0 '20'))) () ()
0 0 0 ()) (36 'remark' (CHARACTER 1 ((CONSTANT (INTEGER 4) 0 '24'))) ()
() 0 0 0 ())) PUBLIC ())
37 't_starelpar' 'd_stacrx' 1 ((DERIVED UNKNOWN UNKNOWN UNKNOWN NONE
NONE) (UNKNOWN) 0 0 () () () '' ((38 'stanam' (CHARACTER 1 ((CONSTANT (
INTEGER 4) 0 '16'))) (1 EXPLICIT (CONSTANT (INTEGER 4) 0 '1') (CONSTANT
(INTEGER 4) 0 '2')) () 1 0 0 ()) (39 'flg' (CHARACTER 1 ((CONSTANT (
INTEGER 4) 0 '3'))) () () 0 0 0 ()) (40 'timwin' (DERIVED 6) () () 0 0 0
()) (41 'partyp' (CHARACTER 1 ((CONSTANT (INTEGER 4) 0 '8'))) () () 0 0
0 ()) (42 'sys' (CHARACTER 1 ((CONSTANT (INTEGER 4) 0 '3'))) (1 EXPLICIT
(CONSTANT (INTEGER 4) 0 '1') (CONSTANT (INTEGER 4) 0 '2')) () 1 0 0 ())
(43 'loctie' (REAL 8) (1 EXPLICIT (CONSTANT (INTEGER 4) 0 '1') (
CONSTANT (INTEGER 4) 0 '3')) () 1 0 0 ()) (44 'constr' (REAL 8) (1
EXPLICIT (CONSTANT (INTEGER 4) 0 '1') (CONSTANT (INTEGER 4) 0 '3')) () 1
0 0 ()) (45 'correl' (REAL 8) (1 EXPLICIT (CONSTANT (INTEGER 4) 0 '1') (
CONSTANT (INTEGER 4) 0 '3')) () 1 0 0 ()) (46 'remark' (CHARACTER 1 ((
CONSTANT (INTEGER 4) 0 '24'))) () () 0 0 0 ()) (47 'applied' (LOGICAL 4)
() () 0 0 0 ())) PUBLIC ())
48 't_ref' 'd_clkrnx' 1 ((DERIVED UNKNOWN UNKNOWN UNKNOWN NONE NONE) (
UNKNOWN) 0 0 () () () '' ((49 'nref' (INTEGER 4) () () 0 0 0 ()) (50 'clk'
(DERIVED 51) (1 DEFERRED () ()) () 1 1 0 ()) (52 'refwin' (DERIVED 6) ()
() 0 0 0 ())) PUBLIC ())
51 't_refclk' 'd_clkrnx' 1 ((DERIVED UNKNOWN UNKNOWN UNKNOWN NONE NONE)
(UNKNOWN) 0 0 () () () '' ((53 'name' (CHARACTER 1 ((CONSTANT (INTEGER 4)
0 '16'))) () () 0 0 0 ()) (54 'sigma' (REAL 8) () () 0 0 0 ()) (55 'idx'
(INTEGER 4) () () 0 0 0 ()) (56 'idx0' (INTEGER 4) () () 0 0 0 ()))
PUBLIC ())
57 'clkhed' 'p_addneq' 1 ((VARIABLE UNKNOWN UNKNOWN UNKNOWN NONE NONE) (
DERIVED 58) 0 0 () () () '' () ())
59 'comstat' 'p_addneq' 1 ((VARIABLE UNKNOWN UNKNOWN UNKNOWN NONE NONE)
(DERIVED 60) 0 0 () () () '' () ())
61 'd_clkrnx' 'd_clkrnx' 1 ((MODULE UNKNOWN UNKNOWN UNKNOWN NONE NONE) (
UNKNOWN) 0 0 () () () '' () ())
62 'd_grid' 'd_grid' 1 ((MODULE UNKNOWN UNKNOWN UNKNOWN NONE NONE) (
UNKNOWN) 0 0 () () () '' () ())
63 'd_neq' 'd_neq' 1 ((MODULE UNKNOWN UNKNOWN UNKNOWN NONE NONE) (
UNKNOWN) 0 0 () () () '' () ())
64 'd_par' 'd_par' 1 ((MODULE UNKNOWN UNKNOWN UNKNOWN NONE NONE) (
UNKNOWN) 0 0 () () () '' () ())
65 'd_stacrx' 'd_stacrx' 1 ((MODULE UNKNOWN UNKNOWN UNKNOWN NONE NONE) (
UNKNOWN) 0 0 () () () '' () ())
66 'filenamelength' 'm_bern' 1 ((PARAMETER UNKNOWN UNKNOWN UNKNOWN NONE
NONE) (INTEGER 4) 0 0 () (CONSTANT (INTEGER 4) 0 '32') () () '' () ())
67 'hlmfil' 'p_addneq' 1 ((VARIABLE UNKNOWN UNKNOWN UNKNOWN NONE NONE) (
DERIVED 68) 0 0 () () () '' () ())
69 'i4b' 'm_bern' 1 ((PARAMETER UNKNOWN UNKNOWN UNKNOWN NONE NONE) (
INTEGER 4) 0 0 () (CONSTANT (INTEGER 4) 0 '4') () () '' () ())
70 'keyvaluelength' 'm_bern' 1 ((PARAMETER UNKNOWN UNKNOWN UNKNOWN NONE
NONE) (INTEGER 4) 0 0 () (CONSTANT (INTEGER 4) 0 '255') () () '' () ())
71 'm_bern' 'm_bern' 1 ((MODULE UNKNOWN UNKNOWN UNKNOWN NONE NONE) (
UNKNOWN) 0 0 () () () '' () ())
72 'm_global' 'm_global' 1 ((MODULE UNKNOWN UNKNOWN UNKNOWN NONE NONE) (
UNKNOWN) 0 0 () () () '' () ())
73 'm_maxdim' 'm_maxdim' 1 ((MODULE UNKNOWN UNKNOWN UNKNOWN NONE NONE) (
UNKNOWN) 0 0 () () () '' () ())
74 'm_time' 'm_time' 1 ((MODULE UNKNOWN UNKNOWN UNKNOWN NONE NONE) (
UNKNOWN) 0 0 () () () '' () ())
75 'maxarc' 'p_addneq' 1 ((PARAMETER UNKNOWN UNKNOWN UNKNOWN NONE NONE)
(INTEGER 4) 0 0 () (CONSTANT (INTEGER 4) 0 '1') () () '' () ())
76 'maxcmp' 'p_addneq' 1 ((PARAMETER UNKNOWN UNKNOWN UNKNOWN NONE NONE)
(INTEGER 4) 0 0 () (CONSTANT (INTEGER 4) 0 '1') () () '' () ())
77 'maxcoe' 'p_addneq' 1 ((PARAMETER UNKNOWN UNKNOWN UNKNOWN NONE NONE)
(INTEGER 4) 0 0 () (CONSTANT (INTEGER 4) 0 '15000') () () '' () ())
78 'maxdyn' 'p_addneq' 1 ((PARAMETER UNKNOWN UNKNOWN UNKNOWN NONE NONE)
(INTEGER 4) 0 0 () (CONSTANT (INTEGER 4) 0 '12') () () '' () ())
79 'maxerp' 'p_addneq' 1 ((PARAMETER UNKNOWN UNKNOWN UNKNOWN NONE NONE)
(INTEGER 4) 0 0 () (CONSTANT (INTEGER 4) 0 '5') () () '' () ())
80 'maxlcq' 'd_par' 1 ((PARAMETER UNKNOWN UNKNOWN UNKNOWN NONE NONE) (
INTEGER 4) 0 0 () (CONSTANT (INTEGER 4) 0 '7') () () '' () ())
81 'maxlin' 'p_addneq' 1 ((PARAMETER UNKNOWN UNKNOWN UNKNOWN NONE NONE)
(INTEGER 4) 0 0 () (CONSTANT (INTEGER 4) 0 '200') () () '' () ())
82 'maxman' 'p_addneq' 1 ((PARAMETER UNKNOWN UNKNOWN UNKNOWN NONE NONE)
(INTEGER 4) 0 0 () (CONSTANT (INTEGER 4) 0 '100') () () '' () ())
83 'maxoff' 'p_addneq' 1 ((PARAMETER UNKNOWN UNKNOWN UNKNOWN NONE NONE)
(INTEGER 4) 0 0 () (CONSTANT (INTEGER 4) 0 '260') () () '' () ())
84 'maxorb' 'p_addneq' 1 ((PARAMETER UNKNOWN UNKNOWN UNKNOWN NONE NONE)
(INTEGER 4) 0 0 () (CONSTANT (INTEGER 4) 0 '15') () () '' () ())
85 'maxprint' 'p_addneq' 1 ((PARAMETER UNKNOWN UNKNOWN UNKNOWN NONE NONE)
(INTEGER 4) 0 0 () (CONSTANT (INTEGER 4) 0 '10') () () '' () ())
86 'maxsat' 'm_maxdim' 1 ((PARAMETER UNKNOWN UNKNOWN UNKNOWN NONE NONE)
(INTEGER 4) 0 0 () (CONSTANT (INTEGER 4) 0 '130') () () '' () ())
87 'maxspv' 'p_addneq' 1 ((PARAMETER UNKNOWN UNKNOWN UNKNOWN NONE NONE)
(INTEGER 4) 0 0 () (CONSTANT (INTEGER 4) 0 '260') () () '' () ())
88 'maxstasin' 'd_neq' 1 ((PARAMETER UNKNOWN UNKNOWN UNKNOWN NONE NONE)
(INTEGER 4) 0 0 () (CONSTANT (INTEGER 4) 0 '2000') () () '' () ())
89 'maxstc' 'p_addneq' 1 ((PARAMETER UNKNOWN UNKNOWN UNKNOWN NONE NONE)
(INTEGER 4) 0 0 () (CONSTANT (INTEGER 4) 0 '60') () () '' () ())
90 'maxstd' 'p_addneq' 1 ((PARAMETER UNKNOWN UNKNOWN UNKNOWN NONE NONE)
(INTEGER 4) 0 0 () (CONSTANT (INTEGER 4) 0 '30') () () '' () ())
91 'maxstp' 'p_addneq' 1 ((PARAMETER UNKNOWN UNKNOWN UNKNOWN NONE NONE)
(INTEGER 4) 0 0 () (CONSTANT (INTEGER 4) 0 '30') () () '' () ())
92 'maxsys' 'm_global' 1 ((PARAMETER UNKNOWN UNKNOWN UNKNOWN NONE NONE)
(INTEGER 4) 0 0 () (CONSTANT (INTEGER 4) 0 '6') () () '' () ())
93 'opt' 'p_addneq' 1 ((VARIABLE UNKNOWN UNKNOWN UNKNOWN NONE NONE) (
DERIVED 94) 0 0 () () () '' () ())
95 'p_addneq' 'p_addneq' 1 ((MODULE UNKNOWN UNKNOWN UNKNOWN NONE NONE) (
UNKNOWN) 0 0 () () () '' () ())
96 'partypelength' 'd_par' 1 ((PARAMETER UNKNOWN UNKNOWN UNKNOWN NONE
NONE) (INTEGER 4) 0 0 () (CONSTANT (INTEGER 4) 0 '2') () () '' () ())
97 'prtcrx' 'p_addneq' 1 ((PARAMETER UNKNOWN UNKNOWN UNKNOWN NONE NONE)
(INTEGER 4) 0 0 () (CONSTANT (INTEGER 4) 0 '3') () () '' () ())
98 'prtext' 'p_addneq' 1 ((PARAMETER UNKNOWN UNKNOWN UNKNOWN NONE NONE)
(INTEGER 4) 0 0 () (CONSTANT (INTEGER 4) 0 '2') () () '' () ())
99 'prtparlst' 'p_addneq' 1 ((PARAMETER UNKNOWN UNKNOWN UNKNOWN NONE
NONE) (INTEGER 4) 0 0 () (CONSTANT (INTEGER 4) 0 '1') () () '' () ())
100 'r8b' 'm_bern' 1 ((PARAMETER UNKNOWN UNKNOWN UNKNOWN NONE NONE) (
INTEGER 4) 0 0 () (CONSTANT (INTEGER 4) 0 '8') () () '' () ())
101 'stainfo' 'p_addneq' 1 ((VARIABLE UNKNOWN UNKNOWN UNKNOWN NONE NONE)
(DERIVED 102) 0 0 () () () '' () ())
103 'stanamelength' 'm_bern' 1 ((PARAMETER UNKNOWN UNKNOWN UNKNOWN NONE
NONE) (INTEGER 4) 0 0 () (CONSTANT (INTEGER 4) 0 '16') () () '' () ())
58 't_clkhead' 'd_clkrnx' 1 ((DERIVED UNKNOWN UNKNOWN UNKNOWN NONE NONE)
(UNKNOWN) 0 0 () () () '' ((104 'rnxvers' (REAL 8) () () 0 0 0 ()) (105
'ncomment' (INTEGER 4) () () 0 0 0 ()) (106 'comment' (CHARACTER 1 ((
CONSTANT (INTEGER 4) 0 '60'))) (1 DEFERRED () ()) () 1 1 0 ()) (107
'prognam' (CHARACTER 1 ((CONSTANT (INTEGER 4) 0 '20'))) () () 0 0 0 ())
(108 'runby' (CHARACTER 1 ((CONSTANT (INTEGER 4) 0 '20'))) () () 0 0 0 ())
(109 'crdate' (CHARACTER 1 ((CONSTANT (INTEGER 4) 0 '20'))) () () 0 0 0
()) (110 'leapsec' (INTEGER 4) () () 0 0 0 ()) (111 'numtyp' (INTEGER 4)
() () 0 0 0 ()) (112 'dattyp' (CHARACTER 1 ((CONSTANT (INTEGER 4) 0 '2')))
(1 DEFERRED () ()) () 1 1 0 ()) (113 'clk0name' (CHARACTER 1 ((CONSTANT
(INTEGER 4) 0 '16'))) () () 0 0 0 ()) (114 'calname' (CHARACTER 1 ((
CONSTANT (INTEGER 4) 0 '60'))) () () 0 0 0 ()) (115 'ac' (CHARACTER 1 (
(CONSTANT (INTEGER 4) 0 '3'))) () () 0 0 0 ()) (116 'acname' (CHARACTER
1 ((CONSTANT (INTEGER 4) 0 '55'))) () () 0 0 0 ()) (117 'timsys' (
CHARACTER 1 ((CONSTANT (INTEGER 4) 0 '3'))) () () 0 0 0 ()) (118 'pgmnam'
(CHARACTER 1 ((CONSTANT (INTEGER 4) 0 '17'))) () () 0 0 0 ()) (119
'dcbstr' (CHARACTER 1 ((CONSTANT (INTEGER 4) 0 '40'))) () () 0 0 0 ()) (
120 'pcvstr' (CHARACTER 1 ((CONSTANT (INTEGER 4) 0 '40'))) () () 0 0 0 ())
(121 'tfirst' (REAL 8) () () 0 0 0 ()) (122 'numref' (INTEGER 4) () () 0
0 0 ()) (123 'ref' (DERIVED 48) (1 DEFERRED () ()) () 1 1 0 ()) (124
'trfname' (CHARACTER 1 ((CONSTANT (INTEGER 4) 0 '50'))) () () 0 0 0 ())
(125 'nsta' (INTEGER 4) () () 0 0 0 ()) (126 'nsat' (INTEGER 4) () () 0
0 0 ()) (127 'clkname' (CHARACTER 1 ((CONSTANT (INTEGER 4) 0 '16'))) (1
DEFERRED () ()) () 1 1 0 ()) (128 'stacoord' (REAL 8) (2 DEFERRED () ()
() ()) () 1 1 0 ())) PUBLIC ())
60 't_comstat' 'p_addneq' 1 ((DERIVED UNKNOWN UNKNOWN UNKNOWN NONE NONE)
(UNKNOWN) 0 0 () () () '' ((129 'elimi' (INTEGER 4) () () 0 0 0 ()) (
130 'rms' (REAL 8) () () 0 0 0 ()) (131 'taecml' (REAL 8) (3 DEFERRED ()
() () () () ()) () 1 1 0 ()) (132 'nflsta' (INTEGER 4) (1 EXPLICIT (
CONSTANT (INTEGER 4) 0 '1') (CONSTANT (INTEGER 4) 0 '2000')) () 1 0 0 ())
(133 'indfil' (INTEGER 4) (2 DEFERRED () () () ()) () 1 1 0 ()) (134
'datcre' (CHARACTER 1 ((CONSTANT (INTEGER 4) 0 '9'))) (1 DEFERRED () ())
() 1 1 0 ()) (135 'timcre' (CHARACTER 1 ((CONSTANT (INTEGER 4) 0 '5')))
(1 DEFERRED () ()) () 1 1 0 ()) (136 'nparl' (INTEGER 4) (1 DEFERRED ()
()) () 1 1 0 ()) (137 'titind' (CHARACTER 1 ((CONSTANT (INTEGER 4) 0 '132')))
(1 DEFERRED () ()) () 1 1 0 ()) (138 'loctie' (INTEGER 4) () () 0 0 0 ()))
PUBLIC ())
139 't_dx' 'p_addneq' 1 ((DERIVED UNKNOWN UNKNOWN UNKNOWN NONE NONE) (
UNKNOWN) 0 0 () () () '' ((140 'flag' (LOGICAL 4) () () 0 0 0 ()) (141
'diff' (REAL 8) () () 0 0 0 ()) (142 't' (DERIVED 143) () () 0 0 0 ()) (
144 'rms' (REAL 8) (1 EXPLICIT (CONSTANT (INTEGER 4) 0 '1') (CONSTANT (
INTEGER 4) 0 '3')) () 1 0 0 ())) PUBLIC ())
145 't_elimi' 'p_addneq' 1 ((DERIVED UNKNOWN UNKNOWN UNKNOWN NONE NONE)
(UNKNOWN) 0 0 () () () '' ((146 'locq' (INTEGER 4) (1 EXPLICIT (
CONSTANT (INTEGER 4) 0 '1') (CONSTANT (INTEGER 4) 0 '7')) () 1 0 0 ()) (
147 'name' (CHARACTER 1 ((CONSTANT (INTEGER 4) 0 '20'))) () () 0 0 0 ())
(148 'part' (INTEGER 4) () () 0 0 0 ()) (149 'mode' (INTEGER 4) () () 0
0 0 ()) (150 'excp' (INTEGER 4) (1 DEFERRED () ()) () 1 1 0 ()) (151
'deltat' (REAL 8) () () 0 0 0 ()) (152 'eliwin' (DERIVED 6) () () 0 0 0
()) (153 'wparam' (LOGICAL 4) () () 0 0 0 ()) (154 'descr' (CHARACTER 1
((CONSTANT (INTEGER 4) 0 '255'))) () () 0 0 0 ())) PUBLIC ())
68 't_hlmfil' 'p_addneq' 1 ((DERIVED UNKNOWN UNKNOWN UNKNOWN NONE NONE)
(UNKNOWN) 0 0 () () () '' ((155 'nneq' (INTEGER 4) () () 0 0 0 ()) (156
'filnam' (CHARACTER 1 ((CONSTANT (INTEGER 4) 0 '32'))) (1 DEFERRED () ())
() 1 1 0 ()) (157 'ihelm' (INTEGER 4) (2 DEFERRED () () () ()) () 1 1 0
()) (158 'rhelm' (REAL 8) (2 DEFERRED () () () ()) () 1 1 0 ()) (159
'indgrp' (INTEGER 4) (1 DEFERRED () ()) () 1 1 0 ()) (160 'grpnam' (
CHARACTER 1 ((CONSTANT (INTEGER 4) 0 '3'))) (1 DEFERRED () ()) () 1 1 0
()) (161 'fact' (REAL 8) (1 DEFERRED () ()) () 1 1 0 ())) PUBLIC ())
162 't_man' 'p_addneq' 1 ((DERIVED UNKNOWN UNKNOWN UNKNOWN NONE NONE) (
UNKNOWN) 0 0 () () () '' ((163 'satman' (INTEGER 4) () () 0 0 0 ()) (
164 'timman' (REAL 8) () () 0 0 0 ())) PUBLIC ())
165 't_namlst' 'p_addneq' 1 ((DERIVED UNKNOWN UNKNOWN UNKNOWN NONE NONE)
(UNKNOWN) 0 0 () () () '' ((166 'nsta' (INTEGER 4) () () 0 0 0 ()) (167
'nam2' (CHARACTER 1 ((CONSTANT (INTEGER 4) 0 '20'))) (1 DEFERRED () ())
() 1 1 0 ()) (168 'nam' (CHARACTER 1 ((CONSTANT (INTEGER 4) 0 '16'))) (
1 DEFERRED () ()) () 1 1 0 ()) (169 'num' (INTEGER 4) (1 DEFERRED () ())
() 1 1 0 ())) PUBLIC ())
94 't_opt' 'p_addneq' 1 ((DERIVED UNKNOWN UNKNOWN UNKNOWN NONE NONE) (
UNKNOWN) 0 0 () () () '' ((170 'title' (CHARACTER 1 ((CONSTANT (INTEGER
4) 0 '80'))) () () 0 0 0 ()) (171 'const' (CHARACTER 1 ((CONSTANT (
INTEGER 4) 0 '32'))) () () 0 0 0 ()) (172 'datumfil' (CHARACTER 1 ((
CONSTANT (INTEGER 4) 0 '32'))) () () 0 0 0 ()) (173 'stacrux' (
CHARACTER 1 ((CONSTANT (INTEGER 4) 0 '32'))) () () 0 0 0 ()) (174
'satcrux' (CHARACTER 1 ((CONSTANT (INTEGER 4) 0 '32'))) () () 0 0 0 ())
(175 'satell' (CHARACTER 1 ((CONSTANT (INTEGER 4) 0 '32'))) () () 0 0 0
()) (176 'phasecc' (CHARACTER 1 ((CONSTANT (INTEGER 4) 0 '32'))) () () 0
0 0 ()) (177 'pole' (CHARACTER 1 ((CONSTANT (INTEGER 4) 0 '32'))) () ()
0 0 0 ()) (178 'sinexin' (CHARACTER 1 ((CONSTANT (INTEGER 4) 0 '32'))) ()
() 0 0 0 ()) (179 'ionexcf' (CHARACTER 1 ((CONSTANT (INTEGER 4) 0 '32')))
() () 0 0 0 ()) (180 'coord' (CHARACTER 1 ((CONSTANT (INTEGER 4) 0 '32')))
() () 0 0 0 ()) (181 'velapr' (CHARACTER 1 ((CONSTANT (INTEGER 4) 0 '32')))
() () 0 0 0 ()) (182 'covcomi' (CHARACTER 1 ((CONSTANT (INTEGER 4) 0 '32')))
() () 0 0 0 ()) (183 'gccinp' (CHARACTER 1 ((CONSTANT (INTEGER 4) 0 '32')))
() () 0 0 0 ()) (184 'gccout' (CHARACTER 1 ((CONSTANT (INTEGER 4) 0 '32')))
() () 0 0 0 ()) (185 'dcbinp' (CHARACTER 1 ((CONSTANT (INTEGER 4) 0 '32')))
() () 0 0 0 ()) (186 'rgbinp' (CHARACTER 1 ((CONSTANT (INTEGER 4) 0 '32')))
() () 0 0 0 ()) (187 'ionos' (CHARACTER 1 ((CONSTANT (INTEGER 4) 0 '32')))
() () 0 0 0 ()) (188 'neqout' (CHARACTER 1 ((CONSTANT (INTEGER 4) 0 '32')))
() () 0 0 0 ()) (189 'coordrs' (CHARACTER 1 ((CONSTANT (INTEGER 4) 0 '32')))
() () 0 0 0 ()) (190 'velors' (CHARACTER 1 ((CONSTANT (INTEGER 4) 0 '32')))
() () 0 0 0 ()) (191 'sinexrs' (CHARACTER 1 ((CONSTANT (INTEGER 4) 0 '32')))
() () 0 0 0 ()) (192 'paramin' (CHARACTER 1 ((CONSTANT (INTEGER 4) 0 '32')))
() () 0 0 0 ()) (193 'paramrs' (CHARACTER 1 ((CONSTANT (INTEGER 4) 0 '32')))
() () 0 0 0 ()) (194 'tropsav' (CHARACTER 1 ((CONSTANT (INTEGER 4) 0 '32')))
() () 0 0 0 ()) (195 'tropsnx' (CHARACTER 1 ((CONSTANT (INTEGER 4) 0 '32')))
() () 0 0 0 ()) (196 'dcbout' (CHARACTER 1 ((CONSTANT (INTEGER 4) 0 '32')))
() () 0 0 0 ()) (197 'gravout' (CHARACTER 1 ((CONSTANT (INTEGER 4) 0 '32')))
() () 0 0 0 (CONSTANT (CHARACTER 1 ((CONSTANT (INTEGER 4) 0 '32'))) 0 32
'                                ')) (198 'ionosrs' (CHARACTER 1 ((
CONSTANT (INTEGER 4) 0 '32'))) () () 0 0 0 ()) (199 'ionexrs' (
CHARACTER 1 ((CONSTANT (INTEGER 4) 0 '32'))) () () 0 0 0 ()) (200 'polers'
(CHARACTER 1 ((CONSTANT (INTEGER 4) 0 '32'))) () () 0 0 0 ()) (201
'ierspol' (CHARACTER 1 ((CONSTANT (INTEGER 4) 0 '32'))) () () 0 0 0 ())
(202 'plotrs' (CHARACTER 1 ((CONSTANT (INTEGER 4) 0 '32'))) () () 0 0 0
()) (203 'covarrs' (CHARACTER 1 ((CONSTANT (INTEGER 4) 0 '32'))) () () 0
0 0 ()) (204 'covttrs' (CHARACTER 1 ((CONSTANT (INTEGER 4) 0 '32'))) ()
() 0 0 0 ()) (205 'rgbout' (CHARACTER 1 ((CONSTANT (INTEGER 4) 0 '32')))
() () 0 0 0 ()) (206 'wgtout' (CHARACTER 1 ((CONSTANT (INTEGER 4) 0 '32')))
() () 0 0 0 ()) (207 'sysout' (CHARACTER 1 ((CONSTANT (INTEGER 4) 0 '32')))
() () 0 0 0 ()) (208 'syserr' (CHARACTER 1 ((CONSTANT (INTEGER 4) 0 '32')))
() () 0 0 0 ()) (209 'auxfil' (CHARACTER 1 ((CONSTANT (INTEGER 4) 0 '32')))
() () 0 0 0 ()) (210 'maxpar' (INTEGER 4) () () 0 0 0 ()) (211
'neqfilename' (CHARACTER 1 ((CONSTANT (INTEGER 4) 0 '32'))) (1 DEFERRED
() ()) () 1 1 0 ()) (212 'orbfil' (CHARACTER 1 ((CONSTANT (INTEGER 4) 0
'32'))) (2 DEFERRED () () () ()) () 1 1 0 ()) (213 'noinv' (LOGICAL 4) ()
() 0 0 0 ()) (214 'req' (DERIVED 215) (1 DEFERRED () ()) () 1 1 0 ()) (
216 'elimi' (DERIVED 145) (1 DEFERRED () ()) () 1 1 0 ()) (217 'nstcep'
(INTEGER 4) () () 0 0 0 ()) (218 'rsw' (INTEGER 4) (1 EXPLICIT (
CONSTANT (INTEGER 4) 0 '1') (CONSTANT (INTEGER 4) 0 '3')) () 1 0 0 ()) (
219 'sigrsw' (REAL 8) (1 EXPLICIT (CONSTANT (INTEGER 4) 0 '1') (
CONSTANT (INTEGER 4) 0 '3')) () 1 0 0 ()) (220 'numstc' (INTEGER 4) () ()
0 0 0 ()) (221 'svnstc' (INTEGER 4) (1 EXPLICIT (CONSTANT (INTEGER 4) 0
'1') (CONSTANT (INTEGER 4) 0 '130')) () 1 0 0 ()) (222 'dtstc' (REAL 8)
() () 0 0 0 ()) (223 'numdyn' (INTEGER 4) () () 0 0 0 ()) (224 'svndyn'
(INTEGER 4) (1 EXPLICIT (CONSTANT (INTEGER 4) 0 '1') (CONSTANT (INTEGER
4) 0 '130')) () 1 0 0 ()) (225 'numgap' (INTEGER 4) () () 0 0 0 ()) (
226 'svngap' (INTEGER 4) (1 EXPLICIT (CONSTANT (INTEGER 4) 0 '1') (
CONSTANT (INTEGER 4) 0 '130')) () 1 0 0 ()) (227 'numnac' (INTEGER 4) ()
() 0 0 0 ()) (228 'newarc' (INTEGER 4) (2 EXPLICIT (CONSTANT (INTEGER 4)
0 '1') (CONSTANT (INTEGER 4) 0 '2') (CONSTANT (INTEGER 4) 0 '1') (
CONSTANT (INTEGER 4) 0 '3900')) () 1 0 0 ()) (229 'sigma0' (REAL 8) () ()
0 0 0 ()) (230 'sigma' (DERIVED 231) (1 DEFERRED () ()) () 1 1 0 ()) (
232 'trafo' (INTEGER 4) () () 0 0 0 ()) (233 'splitdyn' (INTEGER 4) () ()
0 0 0 ()) (234 'polestep' (INTEGER 4) () () 0 0 0 ()) (235 'indvsol' (
INTEGER 4) () () 0 0 0 ()) (236 'iphelm' (INTEGER 4) (1 EXPLICIT (
CONSTANT (INTEGER 4) 0 '1') (CONSTANT (INTEGER 4) 0 '7')) () 1 0 0 ()) (
237 'minsol' (INTEGER 4) () () 0 0 0 ()) (238 'badsol' (REAL 8) (2
EXPLICIT (CONSTANT (INTEGER 4) 0 '1') (CONSTANT (INTEGER 4) 0 '2') (
CONSTANT (INTEGER 4) 0 '1') (CONSTANT (INTEGER 4) 0 '3')) () 1 0 0 ()) (
239 'blkret' (REAL 8) () () 0 0 0 ()) (240 'timrefcrd' (REAL 8) () () 0
0 0 ()) (241 'helmsig' (REAL 8) (2 EXPLICIT (CONSTANT (INTEGER 4) 0 '1')
(CONSTANT (INTEGER 4) 0 '3') (CONSTANT (INTEGER 4) 0 '1') (CONSTANT (
INTEGER 4) 0 '7')) () 1 0 0 ()) (242 'trpexceptday' (INTEGER 4) () () 0
0 0 ()) (243 'prt' (INTEGER 4) (1 EXPLICIT (CONSTANT (INTEGER 4) 0 '1')
(CONSTANT (INTEGER 4) 0 '10')) () 1 0 0 ()) (244 'setupgcc' (INTEGER 4)
() () 0 0 0 ()) (245 'ieuref' (INTEGER 4) () () 0 0 0 ()) (246 'antred'
(INTEGER 4) () () 0 0 0 ()) (247 'erprep' (INTEGER 4) () () 0 0 0 ()) (
248 'stasort' (INTEGER 4) (1 EXPLICIT (CONSTANT (INTEGER 4) 0 '1') (
CONSTANT (INTEGER 4) 0 '2')) () 1 0 0 ()) (249 'snxinc' (INTEGER 4) () ()
0 0 0 ()) (250 'snxreg' (REAL 8) () () 0 0 0 ()) (251 'dtrelsig' (REAL 8)
(1 EXPLICIT (CONSTANT (INTEGER 4) 0 '1') (CONSTANT (INTEGER 4) 0 '3')) ()
1 0 0 ()) (252 'noabc' (INTEGER 4) () () 0 0 0 ()) (253 'chrono' (
INTEGER 4) () () 0 0 0 ()) (254 'step2' (INTEGER 4) () () 0 0 0 ()) (
255 'step2_t' (REAL 8) (1 EXPLICIT (CONSTANT (INTEGER 4) 0 '1') (
CONSTANT (INTEGER 4) 0 '2')) () 1 0 0 ()) (256 'sincont' (INTEGER 4) ()
() 0 0 0 ()) (257 'covmode' (INTEGER 4) () () 0 0 0 ()) (258 'stackrgb'
(INTEGER 4) () () 0 0 0 ()) (259 'saoopt' (INTEGER 4) (1 EXPLICIT (
CONSTANT (INTEGER 4) 0 '1') (CONSTANT (INTEGER 4) 0 '2')) () 1 0 0 ()) (
260 'sapopt' (INTEGER 4) (1 EXPLICIT (CONSTANT (INTEGER 4) 0 '1') (
CONSTANT (INTEGER 4) 0 '2')) () 1 0 0 ()) (261 'grdload' (DERIVED 262) (
1 EXPLICIT (CONSTANT (INTEGER 4) 0 '1') (CONSTANT (INTEGER 4) 0 '3')) ()
1 0 0 ()) (263 'hoi' (DERIVED 264) (1 EXPLICIT (CONSTANT (INTEGER 4) 0 '1')
(CONSTANT (INTEGER 4) 0 '3')) () 1 0 0 ()) (265 'helmert' (DERIVED 266)
(1 EXPLICIT (CONSTANT (INTEGER 4) 0 '1') (CONSTANT (INTEGER 4) 0 '7')) ()
1 0 0 ()) (267 'chgrecnam' (INTEGER 4) () () 0 0 0 ()) (268 'chgantnam'
(INTEGER 4) () () 0 0 0 ()) (269 'chgrecnum' (INTEGER 4) () () 0 0 0 ())
(270 'chgantnum' (INTEGER 4) () () 0 0 0 ()) (271 'chgantecc' (INTEGER 4)
() () 0 0 0 ()) (272 'isbout' (CHARACTER 1 ((CONSTANT (INTEGER 4) 0 '32')))
() () 0 0 0 ()) (273 'rcormgps' (INTEGER 4) () () 0 0 0 ()) (274
'rcotofrq' (INTEGER 4) () () 0 0 0 ()) (275 'rcofromppp' (INTEGER 4) ()
() 0 0 0 ()) (276 'maxifb' (REAL 8) () () 0 0 0 ()) (277 'gtradat' (
INTEGER 4) () () 0 0 0 ()) (278 'gtrpdat' (INTEGER 4) () () 0 0 0 ()) (
279 'gspstack' (INTEGER 4) () () 0 0 0 ())) PUBLIC ())
266 't_opthelm' 'p_addneq' 1 ((DERIVED UNKNOWN UNKNOWN UNKNOWN NONE NONE)
(UNKNOWN) 0 0 () () () '' ((280 'stack' (INTEGER 4) () () 0 0 0 ()))
PUBLIC ())
264 't_opthoi' 'p_addneq' 1 ((DERIVED UNKNOWN UNKNOWN UNKNOWN NONE NONE)
(UNKNOWN) 0 0 () () () '' ((281 'x0' (REAL 8) () () 0 0 0 ()) (282 'stack'
(LOGICAL 4) () () 0 0 0 ())) PUBLIC ())
262 't_optload' 'p_addneq' 1 ((DERIVED UNKNOWN UNKNOWN UNKNOWN NONE NONE)
(UNKNOWN) 0 0 () () () '' ((283 'keyw' (CHARACTER 1 ((CONSTANT (INTEGER
4) 0 '12'))) () () 0 0 0 ()) (284 'nsta' (INTEGER 4) () () 0 0 0 ()) (
285 'stalst' (CHARACTER 1 ((CONSTANT (INTEGER 4) 0 '16'))) (1 DEFERRED ()
()) () 1 1 0 ()) (286 'staclu' (INTEGER 4) (1 DEFERRED () ()) () 1 1 0 ())
(287 'npar' (INTEGER 4) () () 0 0 0 ()) (288 'x0' (INTEGER 4) () () 0 0
0 ())) PUBLIC ())
289 't_orb' 'p_addneq' 1 ((DERIVED UNKNOWN UNKNOWN UNKNOWN NONE NONE) (
UNKNOWN) 0 0 () () () '' ((290 'title' (CHARACTER 1 ((CONSTANT (INTEGER
4) 0 '80'))) () () 0 0 0 ()) (291 'nseff' (INTEGER 4) () () 0 0 0 ()) (
292 'svneff' (INTEGER 4) (1 EXPLICIT (CONSTANT (INTEGER 4) 0 '1') (
CONSTANT (INTEGER 4) 0 '130')) () 1 0 0 ()) (293 'nstoch' (INTEGER 4) ()
() 0 0 0 ()) (294 'arcnum' (INTEGER 4) (2 EXPLICIT (CONSTANT (INTEGER 4)
0 '1') (CONSTANT (INTEGER 4) 0 '130') (CONSTANT (INTEGER 4) 0 '1') (
CONSTANT (INTEGER 4) 0 '30')) () 1 0 0 ()) (295 'manovr' (INTEGER 4) (1
EXPLICIT (CONSTANT (INTEGER 4) 0 '1') (CONSTANT (INTEGER 4) 0 '130')) ()
1 0 0 ()) (296 'ele' (REAL 8) (3 EXPLICIT (CONSTANT (INTEGER 4) 0 '1') (
CONSTANT (INTEGER 4) 0 '7') (CONSTANT (INTEGER 4) 0 '1') (CONSTANT (
INTEGER 4) 0 '130') (CONSTANT (INTEGER 4) 0 '1') (CONSTANT (INTEGER 4) 0
'30')) () 1 0 0 ()) (297 'rpress' (REAL 8) (3 EXPLICIT (CONSTANT (
INTEGER 4) 0 '1') (CONSTANT (INTEGER 4) 0 '12') (CONSTANT (INTEGER 4) 0
'1') (CONSTANT (INTEGER 4) 0 '130') (CONSTANT (INTEGER 4) 0 '1') (
CONSTANT (INTEGER 4) 0 '30')) () 1 0 0 ()) (298 'drpr' (REAL 8) (3
EXPLICIT (CONSTANT (INTEGER 4) 0 '1') (CONSTANT (INTEGER 4) 0 '12') (
CONSTANT (INTEGER 4) 0 '1') (CONSTANT (INTEGER 4) 0 '130') (CONSTANT (
INTEGER 4) 0 '1') (CONSTANT (INTEGER 4) 0 '30')) () 1 0 0 ()) (299 'tosc'
(REAL 8) (1 EXPLICIT (CONSTANT (INTEGER 4) 0 '1') (CONSTANT (INTEGER 4)
0 '30')) () 1 0 0 ()) (300 'tstoch' (REAL 8) (1 EXPLICIT (CONSTANT (
INTEGER 4) 0 '1') (CONSTANT (INTEGER 4) 0 '1800')) () 1 0 0 ()) (301
'kmat' (REAL 8) (4 EXPLICIT (CONSTANT (INTEGER 4) 0 '1') (CONSTANT (
INTEGER 4) 0 '6') (CONSTANT (INTEGER 4) 0 '1') (CONSTANT (INTEGER 4) 0 '6')
(CONSTANT (INTEGER 4) 0 '1') (CONSTANT (INTEGER 4) 0 '130') (CONSTANT (
INTEGER 4) 0 '1') (CONSTANT (INTEGER 4) 0 '30')) () 1 0 0 ()) (302 'lmat'
(REAL 8) (4 EXPLICIT (CONSTANT (INTEGER 4) 0 '1') (CONSTANT (INTEGER 4)
0 '6') (CONSTANT (INTEGER 4) 0 '1') (CONSTANT (INTEGER 4) 0 '12') (
CONSTANT (INTEGER 4) 0 '1') (CONSTANT (INTEGER 4) 0 '130') (CONSTANT (
INTEGER 4) 0 '1') (CONSTANT (INTEGER 4) 0 '30')) () 1 0 0 ()) (303 'mmat'
(REAL 8) (5 EXPLICIT (CONSTANT (INTEGER 4) 0 '1') (CONSTANT (INTEGER 4)
0 '6') (CONSTANT (INTEGER 4) 0 '1') (CONSTANT (INTEGER 4) 0 '12') (
CONSTANT (INTEGER 4) 0 '1') (CONSTANT (INTEGER 4) 0 '130') (CONSTANT (
INTEGER 4) 0 '1') (CONSTANT (INTEGER 4) 0 '30') (CONSTANT (INTEGER 4) 0
'1') (CONSTANT (INTEGER 4) 0 '30')) () 1 0 0 ()) (304 'drho' (REAL 8) (
3 EXPLICIT (CONSTANT (INTEGER 4) 0 '1') (CONSTANT (INTEGER 4) 0 '6') (
CONSTANT (INTEGER 4) 0 '1') (CONSTANT (INTEGER 4) 0 '130') (CONSTANT (
INTEGER 4) 0 '1') (CONSTANT (INTEGER 4) 0 '30')) () 1 0 0 ()) (305 'drhot'
(REAL 8) (3 EXPLICIT (CONSTANT (INTEGER 4) 0 '1') (CONSTANT (INTEGER 4)
0 '6') (CONSTANT (INTEGER 4) 0 '1') (CONSTANT (INTEGER 4) 0 '130') (
CONSTANT (INTEGER 4) 0 '1') (CONSTANT (INTEGER 4) 0 '30')) () 1 0 0 ())
(306 'nman' (INTEGER 4) () () 0 0 0 ()) (307 'man' (DERIVED 162) (1
EXPLICIT (CONSTANT (INTEGER 4) 0 '1') (CONSTANT (INTEGER 4) 0 '100')) ()
1 0 0 ())) PUBLIC ())
308 't_paratm' 'p_addneq' 1 ((DERIVED UNKNOWN UNKNOWN UNKNOWN NONE NONE)
(UNKNOWN) 0 0 () () () '' ((309 'ntro' (INTEGER 4) () () 0 0 0 ()) (310
'nmodel' (INTEGER 4) () () 0 0 0 ()) (311 'trpmod' (DERIVED 312) (1
DEFERRED () ()) () 1 1 0 ()) (313 'nion' (INTEGER 4) () () 0 0 0 ()) (
314 'nhoi' (INTEGER 4) () () 0 0 0 ())) PUBLIC ())
315 't_parerp' 'p_addneq' 1 ((DERIVED UNKNOWN UNKNOWN UNKNOWN NONE NONE)
(UNKNOWN) 0 0 () () () '' ((316 'nerp' (INTEGER 4) () () 0 0 0 ()) (317
'erp' (INTEGER 4) (1 EXPLICIT (CONSTANT (INTEGER 4) 0 '1') (CONSTANT (
INTEGER 4) 0 '5')) () 1 0 0 ())) PUBLIC ())
318 't_pargcc' 'p_addneq' 1 ((DERIVED UNKNOWN UNKNOWN UNKNOWN NONE NONE)
(UNKNOWN) 0 0 () () () '' ((319 'ngcc' (INTEGER 4) () () 0 0 0 ()) (320
'gcc' (INTEGER 4) (1 EXPLICIT (CONSTANT (INTEGER 4) 0 '1') (CONSTANT (
INTEGER 4) 0 '3')) () 1 0 0 ())) PUBLIC ())
321 't_pargsp' 'p_addneq' 1 ((DERIVED UNKNOWN UNKNOWN UNKNOWN NONE NONE)
(UNKNOWN) 0 0 () () () '' ((322 'ntra' (INTEGER 4) () () 0 0 0 ()) (323
'nsystra' (INTEGER 4) () () 0 0 0 ()) (324 'systra' (INTEGER 4) (1
EXPLICIT (CONSTANT (INTEGER 4) 0 '1') (CONSTANT (INTEGER 4) 0 '6')) () 1
0 0 ()) (325 'ntrp' (INTEGER 4) () () 0 0 0 ()) (326 'nsystrp' (INTEGER
4) () () 0 0 0 ()) (327 'systrp' (INTEGER 4) (1 EXPLICIT (CONSTANT (
INTEGER 4) 0 '1') (CONSTANT (INTEGER 4) 0 '6')) () 1 0 0 ())) PUBLIC ())
328 't_parhlm' 'p_addneq' 1 ((DERIVED UNKNOWN UNKNOWN UNKNOWN NONE NONE)
(UNKNOWN) 0 0 () () () '' ((329 'nhlm' (INTEGER 4) () () 0 0 0 ()))
PUBLIC ())
330 't_parorb' 'p_addneq' 1 ((DERIVED UNKNOWN UNKNOWN UNKNOWN NONE NONE)
(UNKNOWN) 0 0 () () () '' ((331 'norb' (INTEGER 4) () () 0 0 0 ()) (332
'seqorb' (INTEGER 4) (1 EXPLICIT (CONSTANT (INTEGER 4) 0 '1') (CONSTANT
(INTEGER 4) 0 '15')) () 1 0 0 ()) (333 'epoorb' (REAL 8) (1 DEFERRED ()
()) () 1 1 0 ())) PUBLIC ())
334 't_parrao' 'p_addneq' 1 ((DERIVED UNKNOWN UNKNOWN UNKNOWN NONE NONE)
(UNKNOWN) 0 0 () () () '' ((335 'nrao' (INTEGER 4) () () 0 0 0 ()) (336
'rao' (INTEGER 4) (1 EXPLICIT (CONSTANT (INTEGER 4) 0 '1') (CONSTANT (
INTEGER 4) 0 '3')) () 1 0 0 ())) PUBLIC ())
337 't_parrap' 'p_addneq' 1 ((DERIVED UNKNOWN UNKNOWN UNKNOWN NONE NONE)
(UNKNOWN) 0 0 () () () '' ((338 'nrapgrd' (INTEGER 4) () () 0 0 0 ()) (
339 'nrapshm' (INTEGER 4) () () 0 0 0 ())) PUBLIC ())
340 't_parrco' 'p_addneq' 1 ((DERIVED UNKNOWN UNKNOWN UNKNOWN NONE NONE)
(UNKNOWN) 0 0 () () () '' ((341 'issta' (INTEGER 4) () () 0 0 0 ()) (
342 'isfrq' (INTEGER 4) () () 0 0 0 ()) (343 'issat' (INTEGER 4) () () 0
0 0 ())) PUBLIC ())
344 't_parrgb' 'p_addneq' 1 ((DERIVED UNKNOWN UNKNOWN UNKNOWN NONE NONE)
(UNKNOWN) 0 0 () () () '' ((345 'nrgb' (INTEGER 4) () () 0 0 0 ()))
PUBLIC ())
346 't_parsao' 'p_addneq' 1 ((DERIVED UNKNOWN UNKNOWN UNKNOWN NONE NONE)
(UNKNOWN) 0 0 () () () '' ((347 'nanoff' (INTEGER 4) () () 0 0 0 ()) (
348 'nsaoff' (INTEGER 4) (1 DEFERRED () ()) () 1 1 0 ()) (349 'satoff' (
INTEGER 4) (2 DEFERRED () () () ()) () 1 1 0 ()) (350 'santoff' (
INTEGER 4) (2 EXPLICIT (CONSTANT (INTEGER 4) 0 '1') (CONSTANT (INTEGER 4)
0 '260') (CONSTANT (INTEGER 4) 0 '1') (CONSTANT (INTEGER 4) 0 '3')) () 1
0 0 ()) (351 'nrqoff' (INTEGER 4) () () 0 0 0 ()) (352 'grpoff' (
INTEGER 4) (1 EXPLICIT (CONSTANT (INTEGER 4) 0 '1') (CONSTANT (INTEGER 4)
0 '260')) () 1 0 0 ()) (353 'gnroff' (INTEGER 4) (1 EXPLICIT (CONSTANT (
INTEGER 4) 0 '1') (CONSTANT (INTEGER 4) 0 '260')) () 1 0 0 ()) (354
'ncoreq' (INTEGER 4) (1 EXPLICIT (CONSTANT (INTEGER 4) 0 '1') (CONSTANT
(INTEGER 4) 0 '260')) () 1 0 0 ()) (355 'timoff' (REAL 8) (2 EXPLICIT (
CONSTANT (INTEGER 4) 0 '1') (CONSTANT (INTEGER 4) 0 '2') (CONSTANT (
INTEGER 4) 0 '1') (CONSTANT (INTEGER 4) 0 '260')) () 1 0 0 ())) PUBLIC ())
356 't_parsap' 'p_addneq' 1 ((DERIVED UNKNOWN UNKNOWN UNKNOWN NONE NONE)
(UNKNOWN) 0 0 () () () '' ((357 'nanspv' (INTEGER 4) () () 0 0 0 ()) (
358 'nsaspv' (INTEGER 4) (1 DEFERRED () ()) () 1 1 0 ()) (359 'satspv' (
INTEGER 4) (2 DEFERRED () () () ()) () 1 1 0 ()) (360 'gnrspv' (INTEGER
4) (1 EXPLICIT (CONSTANT (INTEGER 4) 0 '1') (CONSTANT (INTEGER 4) 0 '260'))
() 1 0 0 ()) (361 'nptspv' (INTEGER 4) (2 EXPLICIT (CONSTANT (INTEGER 4)
0 '1') (CONSTANT (INTEGER 4) 0 '2') (CONSTANT (INTEGER 4) 0 '1') (
CONSTANT (INTEGER 4) 0 '260')) () 1 0 0 ()) (362 'timspv' (REAL 8) (2
EXPLICIT (CONSTANT (INTEGER 4) 0 '1') (CONSTANT (INTEGER 4) 0 '2') (
CONSTANT (INTEGER 4) 0 '1') (CONSTANT (INTEGER 4) 0 '260')) () 1 0 0 ()))
PUBLIC ())
312 't_partrp' 'p_addneq' 1 ((DERIVED UNKNOWN UNKNOWN UNKNOWN NONE NONE)
(UNKNOWN) 0 0 () () () '' ((363 'fromto' (INTEGER 4) (1 EXPLICIT (
CONSTANT (INTEGER 4) 0 '1') (CONSTANT (INTEGER 4) 0 '2')) () 1 0 0 ()) (
364 'itropo' (INTEGER 4) () () 0 0 0 ()) (365 'iextra' (INTEGER 4) () ()
0 0 0 ()) (366 'itrmap' (INTEGER 4) () () 0 0 0 ()) (367 'itrgrd' (
INTEGER 4) () () 0 0 0 ())) PUBLIC ())
215 't_req' 'p_addneq' 1 ((DERIVED UNKNOWN UNKNOWN UNKNOWN NONE NONE) (
UNKNOWN) 0 0 () () () '' ((368 'locq' (INTEGER 4) (1 EXPLICIT (CONSTANT
(INTEGER 4) 0 '1') (CONSTANT (INTEGER 4) 0 '7')) () 1 0 0 ()) (369 'name'
(CHARACTER 1 ((CONSTANT (INTEGER 4) 0 '20'))) () () 0 0 0 ()) (370
'timint' (DERIVED 6) () () 0 0 0 ()) (371 'type' (CHARACTER 1 ((
CONSTANT (INTEGER 4) 0 '2'))) () () 0 0 0 (CONSTANT (CHARACTER 1 ((
CONSTANT (INTEGER 4) 0 '2'))) 0 2 '  ')) (372 'omega' (REAL 8) () () 0 0
0 (CONSTANT (REAL 8) 0 '0' 0 0))) PUBLIC ())
231 't_sigma' 'p_addneq' 1 ((DERIVED UNKNOWN UNKNOWN UNKNOWN NONE NONE)
(UNKNOWN) 0 0 () () () '' ((373 'locq' (INTEGER 4) (1 EXPLICIT (
CONSTANT (INTEGER 4) 0 '1') (CONSTANT (INTEGER 4) 0 '7')) () 1 0 0 ()) (
374 'name' (CHARACTER 1 ((CONSTANT (INTEGER 4) 0 '20'))) () () 0 0 0 ())
(375 'value' (REAL 8) () () 0 0 0 ()) (376 'typflg' (CHARACTER 1 ((
CONSTANT (INTEGER 4) 0 '1'))) () () 0 0 0 ())) PUBLIC ())
102 't_stacrux' 'd_stacrx' 1 ((DERIVED UNKNOWN UNKNOWN UNKNOWN NONE NONE)
(UNKNOWN) 0 0 () () () '' ((377 'nrenam' (INTEGER 4) () () 0 0 0 ()) (
378 'ninfo' (INTEGER 4) () () 0 0 0 ()) (379 'nprob' (INTEGER 4) () () 0
0 0 ()) (380 'ncoovel' (INTEGER 4) () () 0 0 0 ()) (381 'nrelpar' (
INTEGER 4) () () 0 0 0 ()) (382 'nstatype' (INTEGER 4) () () 0 0 0 ()) (
383 'version' (REAL 8) () () 0 0 0 ()) (384 'technique' (CHARACTER 1 ((
CONSTANT (INTEGER 4) 0 '30'))) () () 0 0 0 ()) (385 'renamsta' (DERIVED
2) (1 DEFERRED () ()) () 1 1 0 ()) (386 'stainfo' (DERIVED 9) (1
DEFERRED () ()) () 1 1 0 ()) (387 'staprob' (DERIVED 23) (1 DEFERRED ()
()) () 1 1 0 ()) (388 'coovel' (DERIVED 28) (1 DEFERRED () ()) () 1 1 0
()) (389 'starelpar' (DERIVED 37) (1 DEFERRED () ()) () 1 1 0 ()) (390
'statype' (DERIVED 31) (1 DEFERRED () ()) () 1 1 0 ())) PUBLIC ())
143 't_time' 'm_time' 1 ((DERIVED UNKNOWN UNKNOWN UNKNOWN NONE NONE
SEQUENCE) (UNKNOWN) 0 0 () () () '' ((391 'mean' (REAL 8) () () 0 0 0 ())
(392 'half' (REAL 8) () () 0 0 0 ())) PUBLIC ())
6 't_timint' 'm_time' 1 ((DERIVED UNKNOWN UNKNOWN UNKNOWN NONE NONE) (
UNKNOWN) 0 0 () () () '' ((393 't' (REAL 8) (1 EXPLICIT (CONSTANT (
INTEGER 4) 0 '1') (CONSTANT (INTEGER 4) 0 '2')) () 1 0 0 ())) PUBLIC ())
394 'typlen' 'd_grid' 1 ((PARAMETER UNKNOWN UNKNOWN UNKNOWN NONE NONE) (
INTEGER 4) 0 0 () (CONSTANT (INTEGER 4) 0 '12') () () '' () ())
312 't_partrp' 'p_addneq' 1 ((DERIVED UNKNOWN UNKNOWN UNKNOWN NONE NONE)
(UNKNOWN) 0 0 () () () '' ((363 'fromto' (INTEGER 4) (1 EXPLICIT (
CONSTANT (INTEGER 4) 0 '1') (CONSTANT (INTEGER 4) 0 '2')) () 1 0 0 ()) (
364 'itropo' (INTEGER 4) () () 0 0 0 ()) (365 'iextra' (INTEGER 4) () ()
0 0 0 ()) (366 'itrmap' (INTEGER 4) () () 0 0 0 ()) (367 'itrgrd' (
INTEGER 4) () () 0 0 0 ())) PUBLIC ())
266 't_opthelm' 'p_addneq' 1 ((DERIVED UNKNOWN UNKNOWN UNKNOWN NONE NONE)
(UNKNOWN) 0 0 () () () '' ((280 'stack' (INTEGER 4) () () 0 0 0 ()))
PUBLIC ())
264 't_opthoi' 'p_addneq' 1 ((DERIVED UNKNOWN UNKNOWN UNKNOWN NONE NONE)
(UNKNOWN) 0 0 () () () '' ((281 'x0' (REAL 8) () () 0 0 0 ()) (282 'stack'
(LOGICAL 4) () () 0 0 0 ())) PUBLIC ())
262 't_optload' 'p_addneq' 1 ((DERIVED UNKNOWN UNKNOWN UNKNOWN NONE NONE)
(UNKNOWN) 0 0 () () () '' ((283 'keyw' (CHARACTER 1 ((CONSTANT (INTEGER
4) 0 '12'))) () () 0 0 0 ()) (284 'nsta' (INTEGER 4) () () 0 0 0 ()) (
285 'stalst' (CHARACTER 1 ((CONSTANT (INTEGER 4) 0 '16'))) (1 DEFERRED ()
()) () 1 1 0 ()) (286 'staclu' (INTEGER 4) (1 DEFERRED () ()) () 1 1 0 ())
(287 'npar' (INTEGER 4) () () 0 0 0 ()) (288 'x0' (INTEGER 4) () () 0 0
0 ())) PUBLIC ())
231 't_sigma' 'p_addneq' 1 ((DERIVED UNKNOWN UNKNOWN UNKNOWN NONE NONE)
(UNKNOWN) 0 0 () () () '' ((373 'locq' (INTEGER 4) (1 EXPLICIT (
CONSTANT (INTEGER 4) 0 '1') (CONSTANT (INTEGER 4) 0 '7')) () 1 0 0 ()) (
374 'name' (CHARACTER 1 ((CONSTANT (INTEGER 4) 0 '20'))) () () 0 0 0 ())
(375 'value' (REAL 8) () () 0 0 0 ()) (376 'typflg' (CHARACTER 1 ((
CONSTANT (INTEGER 4) 0 '1'))) () () 0 0 0 ())) PUBLIC ())
215 't_req' 'p_addneq' 1 ((DERIVED UNKNOWN UNKNOWN UNKNOWN NONE NONE) (
UNKNOWN) 0 0 () () () '' ((368 'locq' (INTEGER 4) (1 EXPLICIT (CONSTANT
(INTEGER 4) 0 '1') (CONSTANT (INTEGER 4) 0 '7')) () 1 0 0 ()) (369 'name'
(CHARACTER 1 ((CONSTANT (INTEGER 4) 0 '20'))) () () 0 0 0 ()) (370
'timint' (DERIVED 6) () () 0 0 0 ()) (371 'type' (CHARACTER 1 ((
CONSTANT (INTEGER 4) 0 '2'))) () () 0 0 0 (CONSTANT (CHARACTER 1 ((
CONSTANT (INTEGER 4) 0 '2'))) 0 2 '  ')) (372 'omega' (REAL 8) () () 0 0
0 (CONSTANT (REAL 8) 0 '0' 0 0))) PUBLIC ())
143 't_time' 'm_time' 1 ((DERIVED UNKNOWN UNKNOWN UNKNOWN NONE NONE
SEQUENCE) (UNKNOWN) 0 0 () () () '' ((391 'mean' (REAL 8) () () 0 0 0 ())
(392 'half' (REAL 8) () () 0 0 0 ())) PUBLIC ())
102 't_stacrux' 'd_stacrx' 1 ((DERIVED UNKNOWN UNKNOWN UNKNOWN NONE NONE)
(UNKNOWN) 0 0 () () () '' ((377 'nrenam' (INTEGER 4) () () 0 0 0 ()) (
378 'ninfo' (INTEGER 4) () () 0 0 0 ()) (379 'nprob' (INTEGER 4) () () 0
0 0 ()) (380 'ncoovel' (INTEGER 4) () () 0 0 0 ()) (381 'nrelpar' (
INTEGER 4) () () 0 0 0 ()) (382 'nstatype' (INTEGER 4) () () 0 0 0 ()) (
383 'version' (REAL 8) () () 0 0 0 ()) (384 'technique' (CHARACTER 1 ((
CONSTANT (INTEGER 4) 0 '30'))) () () 0 0 0 ()) (385 'renamsta' (DERIVED
2) (1 DEFERRED () ()) () 1 1 0 ()) (386 'stainfo' (DERIVED 9) (1
DEFERRED () ()) () 1 1 0 ()) (387 'staprob' (DERIVED 23) (1 DEFERRED ()
()) () 1 1 0 ()) (388 'coovel' (DERIVED 28) (1 DEFERRED () ()) () 1 1 0
()) (389 'starelpar' (DERIVED 37) (1 DEFERRED () ()) () 1 1 0 ()) (390
'statype' (DERIVED 31) (1 DEFERRED () ()) () 1 1 0 ())) PUBLIC ())
94 't_opt' 'p_addneq' 1 ((DERIVED UNKNOWN UNKNOWN UNKNOWN NONE NONE) (
UNKNOWN) 0 0 () () () '' ((170 'title' (CHARACTER 1 ((CONSTANT (INTEGER
4) 0 '80'))) () () 0 0 0 ()) (171 'const' (CHARACTER 1 ((CONSTANT (
INTEGER 4) 0 '32'))) () () 0 0 0 ()) (172 'datumfil' (CHARACTER 1 ((
CONSTANT (INTEGER 4) 0 '32'))) () () 0 0 0 ()) (173 'stacrux' (
CHARACTER 1 ((CONSTANT (INTEGER 4) 0 '32'))) () () 0 0 0 ()) (174
'satcrux' (CHARACTER 1 ((CONSTANT (INTEGER 4) 0 '32'))) () () 0 0 0 ())
(175 'satell' (CHARACTER 1 ((CONSTANT (INTEGER 4) 0 '32'))) () () 0 0 0
()) (176 'phasecc' (CHARACTER 1 ((CONSTANT (INTEGER 4) 0 '32'))) () () 0
0 0 ()) (177 'pole' (CHARACTER 1 ((CONSTANT (INTEGER 4) 0 '32'))) () ()
0 0 0 ()) (178 'sinexin' (CHARACTER 1 ((CONSTANT (INTEGER 4) 0 '32'))) ()
() 0 0 0 ()) (179 'ionexcf' (CHARACTER 1 ((CONSTANT (INTEGER 4) 0 '32')))
() () 0 0 0 ()) (180 'coord' (CHARACTER 1 ((CONSTANT (INTEGER 4) 0 '32')))
() () 0 0 0 ()) (181 'velapr' (CHARACTER 1 ((CONSTANT (INTEGER 4) 0 '32')))
() () 0 0 0 ()) (182 'covcomi' (CHARACTER 1 ((CONSTANT (INTEGER 4) 0 '32')))
() () 0 0 0 ()) (183 'gccinp' (CHARACTER 1 ((CONSTANT (INTEGER 4) 0 '32')))
() () 0 0 0 ()) (184 'gccout' (CHARACTER 1 ((CONSTANT (INTEGER 4) 0 '32')))
() () 0 0 0 ()) (185 'dcbinp' (CHARACTER 1 ((CONSTANT (INTEGER 4) 0 '32')))
() () 0 0 0 ()) (186 'rgbinp' (CHARACTER 1 ((CONSTANT (INTEGER 4) 0 '32')))
() () 0 0 0 ()) (187 'ionos' (CHARACTER 1 ((CONSTANT (INTEGER 4) 0 '32')))
() () 0 0 0 ()) (188 'neqout' (CHARACTER 1 ((CONSTANT (INTEGER 4) 0 '32')))
() () 0 0 0 ()) (189 'coordrs' (CHARACTER 1 ((CONSTANT (INTEGER 4) 0 '32')))
() () 0 0 0 ()) (190 'velors' (CHARACTER 1 ((CONSTANT (INTEGER 4) 0 '32')))
() () 0 0 0 ()) (191 'sinexrs' (CHARACTER 1 ((CONSTANT (INTEGER 4) 0 '32')))
() () 0 0 0 ()) (192 'paramin' (CHARACTER 1 ((CONSTANT (INTEGER 4) 0 '32')))
() () 0 0 0 ()) (193 'paramrs' (CHARACTER 1 ((CONSTANT (INTEGER 4) 0 '32')))
() () 0 0 0 ()) (194 'tropsav' (CHARACTER 1 ((CONSTANT (INTEGER 4) 0 '32')))
() () 0 0 0 ()) (195 'tropsnx' (CHARACTER 1 ((CONSTANT (INTEGER 4) 0 '32')))
() () 0 0 0 ()) (196 'dcbout' (CHARACTER 1 ((CONSTANT (INTEGER 4) 0 '32')))
() () 0 0 0 ()) (197 'gravout' (CHARACTER 1 ((CONSTANT (INTEGER 4) 0 '32')))
() () 0 0 0 (CONSTANT (CHARACTER 1 ((CONSTANT (INTEGER 4) 0 '32'))) 0 32
'                                ')) (198 'ionosrs' (CHARACTER 1 ((
CONSTANT (INTEGER 4) 0 '32'))) () () 0 0 0 ()) (199 'ionexrs' (
CHARACTER 1 ((CONSTANT (INTEGER 4) 0 '32'))) () () 0 0 0 ()) (200 'polers'
(CHARACTER 1 ((CONSTANT (INTEGER 4) 0 '32'))) () () 0 0 0 ()) (201
'ierspol' (CHARACTER 1 ((CONSTANT (INTEGER 4) 0 '32'))) () () 0 0 0 ())
(202 'plotrs' (CHARACTER 1 ((CONSTANT (INTEGER 4) 0 '32'))) () () 0 0 0
()) (203 'covarrs' (CHARACTER 1 ((CONSTANT (INTEGER 4) 0 '32'))) () () 0
0 0 ()) (204 'covttrs' (CHARACTER 1 ((CONSTANT (INTEGER 4) 0 '32'))) ()
() 0 0 0 ()) (205 'rgbout' (CHARACTER 1 ((CONSTANT (INTEGER 4) 0 '32')))
() () 0 0 0 ()) (206 'wgtout' (CHARACTER 1 ((CONSTANT (INTEGER 4) 0 '32')))
() () 0 0 0 ()) (207 'sysout' (CHARACTER 1 ((CONSTANT (INTEGER 4) 0 '32')))
() () 0 0 0 ()) (208 'syserr' (CHARACTER 1 ((CONSTANT (INTEGER 4) 0 '32')))
() () 0 0 0 ()) (209 'auxfil' (CHARACTER 1 ((CONSTANT (INTEGER 4) 0 '32')))
() () 0 0 0 ()) (210 'maxpar' (INTEGER 4) () () 0 0 0 ()) (211
'neqfilename' (CHARACTER 1 ((CONSTANT (INTEGER 4) 0 '32'))) (1 DEFERRED
() ()) () 1 1 0 ()) (212 'orbfil' (CHARACTER 1 ((CONSTANT (INTEGER 4) 0
'32'))) (2 DEFERRED () () () ()) () 1 1 0 ()) (213 'noinv' (LOGICAL 4) ()
() 0 0 0 ()) (214 'req' (DERIVED 215) (1 DEFERRED () ()) () 1 1 0 ()) (
216 'elimi' (DERIVED 145) (1 DEFERRED () ()) () 1 1 0 ()) (217 'nstcep'
(INTEGER 4) () () 0 0 0 ()) (218 'rsw' (INTEGER 4) (1 EXPLICIT (
CONSTANT (INTEGER 4) 0 '1') (CONSTANT (INTEGER 4) 0 '3')) () 1 0 0 ()) (
219 'sigrsw' (REAL 8) (1 EXPLICIT (CONSTANT (INTEGER 4) 0 '1') (
CONSTANT (INTEGER 4) 0 '3')) () 1 0 0 ()) (220 'numstc' (INTEGER 4) () ()
0 0 0 ()) (221 'svnstc' (INTEGER 4) (1 EXPLICIT (CONSTANT (INTEGER 4) 0
'1') (CONSTANT (INTEGER 4) 0 '130')) () 1 0 0 ()) (222 'dtstc' (REAL 8)
() () 0 0 0 ()) (223 'numdyn' (INTEGER 4) () () 0 0 0 ()) (224 'svndyn'
(INTEGER 4) (1 EXPLICIT (CONSTANT (INTEGER 4) 0 '1') (CONSTANT (INTEGER
4) 0 '130')) () 1 0 0 ()) (225 'numgap' (INTEGER 4) () () 0 0 0 ()) (
226 'svngap' (INTEGER 4) (1 EXPLICIT (CONSTANT (INTEGER 4) 0 '1') (
CONSTANT (INTEGER 4) 0 '130')) () 1 0 0 ()) (227 'numnac' (INTEGER 4) ()
() 0 0 0 ()) (228 'newarc' (INTEGER 4) (2 EXPLICIT (CONSTANT (INTEGER 4)
0 '1') (CONSTANT (INTEGER 4) 0 '2') (CONSTANT (INTEGER 4) 0 '1') (
CONSTANT (INTEGER 4) 0 '3900')) () 1 0 0 ()) (229 'sigma0' (REAL 8) () ()
0 0 0 ()) (230 'sigma' (DERIVED 231) (1 DEFERRED () ()) () 1 1 0 ()) (
232 'trafo' (INTEGER 4) () () 0 0 0 ()) (233 'splitdyn' (INTEGER 4) () ()
0 0 0 ()) (234 'polestep' (INTEGER 4) () () 0 0 0 ()) (235 'indvsol' (
INTEGER 4) () () 0 0 0 ()) (236 'iphelm' (INTEGER 4) (1 EXPLICIT (
CONSTANT (INTEGER 4) 0 '1') (CONSTANT (INTEGER 4) 0 '7')) () 1 0 0 ()) (
237 'minsol' (INTEGER 4) () () 0 0 0 ()) (238 'badsol' (REAL 8) (2
EXPLICIT (CONSTANT (INTEGER 4) 0 '1') (CONSTANT (INTEGER 4) 0 '2') (
CONSTANT (INTEGER 4) 0 '1') (CONSTANT (INTEGER 4) 0 '3')) () 1 0 0 ()) (
239 'blkret' (REAL 8) () () 0 0 0 ()) (240 'timrefcrd' (REAL 8) () () 0
0 0 ()) (241 'helmsig' (REAL 8) (2 EXPLICIT (CONSTANT (INTEGER 4) 0 '1')
(CONSTANT (INTEGER 4) 0 '3') (CONSTANT (INTEGER 4) 0 '1') (CONSTANT (
INTEGER 4) 0 '7')) () 1 0 0 ()) (242 'trpexceptday' (INTEGER 4) () () 0
0 0 ()) (243 'prt' (INTEGER 4) (1 EXPLICIT (CONSTANT (INTEGER 4) 0 '1')
(CONSTANT (INTEGER 4) 0 '10')) () 1 0 0 ()) (244 'setupgcc' (INTEGER 4)
() () 0 0 0 ()) (245 'ieuref' (INTEGER 4) () () 0 0 0 ()) (246 'antred'
(INTEGER 4) () () 0 0 0 ()) (247 'erprep' (INTEGER 4) () () 0 0 0 ()) (
248 'stasort' (INTEGER 4) (1 EXPLICIT (CONSTANT (INTEGER 4) 0 '1') (
CONSTANT (INTEGER 4) 0 '2')) () 1 0 0 ()) (249 'snxinc' (INTEGER 4) () ()
0 0 0 ()) (250 'snxreg' (REAL 8) () () 0 0 0 ()) (251 'dtrelsig' (REAL 8)
(1 EXPLICIT (CONSTANT (INTEGER 4) 0 '1') (CONSTANT (INTEGER 4) 0 '3')) ()
1 0 0 ()) (252 'noabc' (INTEGER 4) () () 0 0 0 ()) (253 'chrono' (
INTEGER 4) () () 0 0 0 ()) (254 'step2' (INTEGER 4) () () 0 0 0 ()) (
255 'step2_t' (REAL 8) (1 EXPLICIT (CONSTANT (INTEGER 4) 0 '1') (
CONSTANT (INTEGER 4) 0 '2')) () 1 0 0 ()) (256 'sincont' (INTEGER 4) ()
() 0 0 0 ()) (257 'covmode' (INTEGER 4) () () 0 0 0 ()) (258 'stackrgb'
(INTEGER 4) () () 0 0 0 ()) (259 'saoopt' (INTEGER 4) (1 EXPLICIT (
CONSTANT (INTEGER 4) 0 '1') (CONSTANT (INTEGER 4) 0 '2')) () 1 0 0 ()) (
260 'sapopt' (INTEGER 4) (1 EXPLICIT (CONSTANT (INTEGER 4) 0 '1') (
CONSTANT (INTEGER 4) 0 '2')) () 1 0 0 ()) (261 'grdload' (DERIVED 262) (
1 EXPLICIT (CONSTANT (INTEGER 4) 0 '1') (CONSTANT (INTEGER 4) 0 '3')) ()
1 0 0 ()) (263 'hoi' (DERIVED 264) (1 EXPLICIT (CONSTANT (INTEGER 4) 0 '1')
(CONSTANT (INTEGER 4) 0 '3')) () 1 0 0 ()) (265 'helmert' (DERIVED 266)
(1 EXPLICIT (CONSTANT (INTEGER 4) 0 '1') (CONSTANT (INTEGER 4) 0 '7')) ()
1 0 0 ()) (267 'chgrecnam' (INTEGER 4) () () 0 0 0 ()) (268 'chgantnam'
(INTEGER 4) () () 0 0 0 ()) (269 'chgrecnum' (INTEGER 4) () () 0 0 0 ())
(270 'chgantnum' (INTEGER 4) () () 0 0 0 ()) (271 'chgantecc' (INTEGER 4)
() () 0 0 0 ()) (272 'isbout' (CHARACTER 1 ((CONSTANT (INTEGER 4) 0 '32')))
() () 0 0 0 ()) (273 'rcormgps' (INTEGER 4) () () 0 0 0 ()) (274
'rcotofrq' (INTEGER 4) () () 0 0 0 ()) (275 'rcofromppp' (INTEGER 4) ()
() 0 0 0 ()) (276 'maxifb' (REAL 8) () () 0 0 0 ()) (277 'gtradat' (
INTEGER 4) () () 0 0 0 ()) (278 'gtrpdat' (INTEGER 4) () () 0 0 0 ()) (
279 'gspstack' (INTEGER 4) () () 0 0 0 ())) PUBLIC ())
68 't_hlmfil' 'p_addneq' 1 ((DERIVED UNKNOWN UNKNOWN UNKNOWN NONE NONE)
(UNKNOWN) 0 0 () () () '' ((155 'nneq' (INTEGER 4) () () 0 0 0 ()) (156
'filnam' (CHARACTER 1 ((CONSTANT (INTEGER 4) 0 '32'))) (1 DEFERRED () ())
() 1 1 0 ()) (157 'ihelm' (INTEGER 4) (2 DEFERRED () () () ()) () 1 1 0
()) (158 'rhelm' (REAL 8) (2 DEFERRED () () () ()) () 1 1 0 ()) (159
'indgrp' (INTEGER 4) (1 DEFERRED () ()) () 1 1 0 ()) (160 'grpnam' (
CHARACTER 1 ((CONSTANT (INTEGER 4) 0 '3'))) (1 DEFERRED () ()) () 1 1 0
()) (161 'fact' (REAL 8) (1 DEFERRED () ()) () 1 1 0 ())) PUBLIC ())
60 't_comstat' 'p_addneq' 1 ((DERIVED UNKNOWN UNKNOWN UNKNOWN NONE NONE)
(UNKNOWN) 0 0 () () () '' ((129 'elimi' (INTEGER 4) () () 0 0 0 ()) (
130 'rms' (REAL 8) () () 0 0 0 ()) (131 'taecml' (REAL 8) (3 DEFERRED ()
() () () () ()) () 1 1 0 ()) (132 'nflsta' (INTEGER 4) (1 EXPLICIT (
CONSTANT (INTEGER 4) 0 '1') (CONSTANT (INTEGER 4) 0 '2000')) () 1 0 0 ())
(133 'indfil' (INTEGER 4) (2 DEFERRED () () () ()) () 1 1 0 ()) (134
'datcre' (CHARACTER 1 ((CONSTANT (INTEGER 4) 0 '9'))) (1 DEFERRED () ())
() 1 1 0 ()) (135 'timcre' (CHARACTER 1 ((CONSTANT (INTEGER 4) 0 '5')))
(1 DEFERRED () ()) () 1 1 0 ()) (136 'nparl' (INTEGER 4) (1 DEFERRED ()
()) () 1 1 0 ()) (137 'titind' (CHARACTER 1 ((CONSTANT (INTEGER 4) 0 '132')))
(1 DEFERRED () ()) () 1 1 0 ()) (138 'loctie' (INTEGER 4) () () 0 0 0 ()))
PUBLIC ())
58 't_clkhead' 'd_clkrnx' 1 ((DERIVED UNKNOWN UNKNOWN UNKNOWN NONE NONE)
(UNKNOWN) 0 0 () () () '' ((104 'rnxvers' (REAL 8) () () 0 0 0 ()) (105
'ncomment' (INTEGER 4) () () 0 0 0 ()) (106 'comment' (CHARACTER 1 ((
CONSTANT (INTEGER 4) 0 '60'))) (1 DEFERRED () ()) () 1 1 0 ()) (107
'prognam' (CHARACTER 1 ((CONSTANT (INTEGER 4) 0 '20'))) () () 0 0 0 ())
(108 'runby' (CHARACTER 1 ((CONSTANT (INTEGER 4) 0 '20'))) () () 0 0 0 ())
(109 'crdate' (CHARACTER 1 ((CONSTANT (INTEGER 4) 0 '20'))) () () 0 0 0
()) (110 'leapsec' (INTEGER 4) () () 0 0 0 ()) (111 'numtyp' (INTEGER 4)
() () 0 0 0 ()) (112 'dattyp' (CHARACTER 1 ((CONSTANT (INTEGER 4) 0 '2')))
(1 DEFERRED () ()) () 1 1 0 ()) (113 'clk0name' (CHARACTER 1 ((CONSTANT
(INTEGER 4) 0 '16'))) () () 0 0 0 ()) (114 'calname' (CHARACTER 1 ((
CONSTANT (INTEGER 4) 0 '60'))) () () 0 0 0 ()) (115 'ac' (CHARACTER 1 (
(CONSTANT (INTEGER 4) 0 '3'))) () () 0 0 0 ()) (116 'acname' (CHARACTER
1 ((CONSTANT (INTEGER 4) 0 '55'))) () () 0 0 0 ()) (117 'timsys' (
CHARACTER 1 ((CONSTANT (INTEGER 4) 0 '3'))) () () 0 0 0 ()) (118 'pgmnam'
(CHARACTER 1 ((CONSTANT (INTEGER 4) 0 '17'))) () () 0 0 0 ()) (119
'dcbstr' (CHARACTER 1 ((CONSTANT (INTEGER 4) 0 '40'))) () () 0 0 0 ()) (
120 'pcvstr' (CHARACTER 1 ((CONSTANT (INTEGER 4) 0 '40'))) () () 0 0 0 ())
(121 'tfirst' (REAL 8) () () 0 0 0 ()) (122 'numref' (INTEGER 4) () () 0
0 0 ()) (123 'ref' (DERIVED 48) (1 DEFERRED () ()) () 1 1 0 ()) (124
'trfname' (CHARACTER 1 ((CONSTANT (INTEGER 4) 0 '50'))) () () 0 0 0 ())
(125 'nsta' (INTEGER 4) () () 0 0 0 ()) (126 'nsat' (INTEGER 4) () () 0
0 0 ()) (127 'clkname' (CHARACTER 1 ((CONSTANT (INTEGER 4) 0 '16'))) (1
DEFERRED () ()) () 1 1 0 ()) (128 'stacoord' (REAL 8) (2 DEFERRED () ()
() ()) () 1 1 0 ())) PUBLIC ())
51 't_refclk' 'd_clkrnx' 1 ((DERIVED UNKNOWN UNKNOWN UNKNOWN NONE NONE)
(UNKNOWN) 0 0 () () () '' ((53 'name' (CHARACTER 1 ((CONSTANT (INTEGER 4)
0 '16'))) () () 0 0 0 ()) (54 'sigma' (REAL 8) () () 0 0 0 ()) (55 'idx'
(INTEGER 4) () () 0 0 0 ()) (56 'idx0' (INTEGER 4) () () 0 0 0 ()))
PUBLIC ())
6 't_timint' 'm_time' 1 ((DERIVED UNKNOWN UNKNOWN UNKNOWN NONE NONE) (
UNKNOWN) 0 0 () () () '' ((393 't' (REAL 8) (1 EXPLICIT (CONSTANT (
INTEGER 4) 0 '1') (CONSTANT (INTEGER 4) 0 '2')) () 1 0 0 ())) PUBLIC ())
)

('clkhed' 0 57 'comstat' 0 59 'd_clkrnx' 0 61 'd_grid' 0 62 'd_neq' 0 63
'd_par' 0 64 'd_stacrx' 0 65 'filenamelength' 0 66 'hlmfil' 0 67 'i4b' 0
69 'keyvaluelength' 0 70 'm_bern' 0 71 'm_global' 0 72 'm_maxdim' 0 73
'm_time' 0 74 'maxarc' 0 75 'maxcmp' 0 76 'maxcoe' 0 77 'maxdyn' 0 78
'maxerp' 0 79 'maxlcq' 0 80 'maxlin' 0 81 'maxman' 0 82 'maxoff' 0 83
'maxorb' 0 84 'maxprint' 0 85 'maxsat' 0 86 'maxspv' 0 87 'maxstasin' 0
88 'maxstc' 0 89 'maxstd' 0 90 'maxstp' 0 91 'maxsys' 0 92 'opt' 0 93
'p_addneq' 0 95 'partypelength' 0 96 'prtcrx' 0 97 'prtext' 0 98
'prtparlst' 0 99 'r8b' 0 100 'stainfo' 0 101 'stanamelength' 0 103
't_clkhead' 0 58 't_comstat' 0 60 't_dx' 0 139 't_elimi' 0 145 't_hlmfil'
0 68 't_man' 0 162 't_namlst' 0 165 't_opt' 0 94 't_opthelm' 0 266
't_opthoi' 0 264 't_optload' 0 262 't_orb' 0 289 't_paratm' 0 308
't_parerp' 0 315 't_pargcc' 0 318 't_pargsp' 0 321 't_parhlm' 0 328
't_parorb' 0 330 't_parrao' 0 334 't_parrap' 0 337 't_parrco' 0 340
't_parrgb' 0 344 't_parsao' 0 346 't_parsap' 0 356 't_partrp' 0 312
't_req' 0 215 't_sigma' 0 231 't_stacrux' 0 102 't_time' 0 143 't_timint'
0 6 'typlen' 0 394)
