G95 module created on Thu Jun 25 17:49:33 2020 from ./.fpp/P_BPE2.f90
If you edit this, you'll get what you deserve.
module-version 9
(() () () () () () () () () () () () () () () () () () () () ())

()

()

()

()

(2 'done_pcf_v2' 'p_bpe2' 1 ((PROCEDURE UNKNOWN MODULE-PROC DECL NONE
NONE SUBROUTINE) (PROCEDURE 0) 0 0 (3 NONE) () () '' () ())
4 'init_pcf_v2' 'p_bpe2' 1 ((PROCEDURE UNKNOWN MODULE-PROC DECL NONE
NONE SUBROUTINE INVOKED) (PROCEDURE 0) 0 0 (5 NONE) () () '' () ())
6 'readpcf' 'p_bpe2' 1 ((PROCEDURE UNKNOWN MODULE-PROC DECL NONE NONE
SUBROUTINE) (PROCEDURE 0) 0 0 (7 NONE 8 NONE) () () '' () ())
9 't_job_v2' 'p_bpe2' 1 ((DERIVED UNKNOWN UNKNOWN UNKNOWN NONE NONE) (
UNKNOWN) 0 0 () () () '' ((10 'pid' (CHARACTER 1 ((CONSTANT (INTEGER 4)
0 '80'))) () () 0 0 0 ()) (11 'script' (CHARACTER 1 ((CONSTANT (INTEGER
4) 0 '80'))) () () 0 0 0 ()) (12 'option' (CHARACTER 1 ((CONSTANT (
INTEGER 4) 0 '80'))) () () 0 0 0 ())) PUBLIC ())
13 't_pcf_v2' 'p_bpe2' 1 ((DERIVED UNKNOWN UNKNOWN UNKNOWN NONE NONE) (
UNKNOWN) 0 0 () () () '' ((14 'ntxt' (INTEGER 4) () () 0 0 0 ()) (15 'txt'
(CHARACTER 1 ((CONSTANT (INTEGER 4) 0 '512'))) (1 DEFERRED () ()) () 1 1
0 ()) (16 'version' (INTEGER 4) () () 0 0 0 ()) (17 'njob' (INTEGER 4) ()
() 0 0 0 ()) (18 'job' (DERIVED 9) (1 DEFERRED () ()) () 1 1 0 ()) (19
'mxjob' (INTEGER 4) (1 EXPLICIT (CONSTANT (INTEGER 4) 0 '1') (CONSTANT (
INTEGER 4) 0 '3')) () 1 0 0 ()) (20 'nvar' (INTEGER 4) () () 0 0 0 ()) (
21 'var' (DERIVED 22) (1 DEFERRED () ()) () 1 1 0 ()) (23 'mxvar' (
INTEGER 4) (1 EXPLICIT (CONSTANT (INTEGER 4) 0 '1') (CONSTANT (INTEGER 4)
0 '3')) () 1 0 0 ())) PUBLIC ())
22 't_var_v2' 'p_bpe2' 1 ((DERIVED UNKNOWN UNKNOWN UNKNOWN NONE NONE) (
UNKNOWN) 0 0 () () () '' ((24 'varnam' (CHARACTER 1 ((CONSTANT (INTEGER
4) 0 '80'))) () () 0 0 0 ()) (25 'vardsc' (CHARACTER 1 ((CONSTANT (
INTEGER 4) 0 '255'))) () () 0 0 0 ()) (26 'vardef' (CHARACTER 1 ((
CONSTANT (INTEGER 4) 0 '80'))) () () 0 0 0 ())) PUBLIC ())
27 'writepcf' 'p_bpe2' 1 ((PROCEDURE UNKNOWN MODULE-PROC DECL NONE NONE
SUBROUTINE) (PROCEDURE 0) 0 0 (28 NONE 29 NONE) () () '' () ())
29 'pcf' '' 30 ((VARIABLE UNKNOWN UNKNOWN UNKNOWN NONE NONE DUMMY) (
DERIVED 13) 0 0 () () () '' () ())
28 'filnam' '' 30 ((VARIABLE UNKNOWN UNKNOWN UNKNOWN NONE NONE DUMMY) (
CHARACTER 1 (())) 0 0 () () () '' () ())
22 't_var_v2' 'p_bpe2' 1 ((DERIVED UNKNOWN UNKNOWN UNKNOWN NONE NONE) (
UNKNOWN) 0 0 () () () '' ((24 'varnam' (CHARACTER 1 ((CONSTANT (INTEGER
4) 0 '80'))) () () 0 0 0 ()) (25 'vardsc' (CHARACTER 1 ((CONSTANT (
INTEGER 4) 0 '255'))) () () 0 0 0 ()) (26 'vardef' (CHARACTER 1 ((
CONSTANT (INTEGER 4) 0 '80'))) () () 0 0 0 ())) PUBLIC ())
8 'pcf' '' 31 ((VARIABLE UNKNOWN UNKNOWN UNKNOWN NONE NONE DUMMY) (
DERIVED 13) 0 0 () () () '' () ())
7 'filnam' '' 31 ((VARIABLE UNKNOWN UNKNOWN UNKNOWN NONE NONE DUMMY) (
CHARACTER 1 (())) 0 0 () () () '' () ())
5 'pcf' '' 32 ((VARIABLE UNKNOWN UNKNOWN UNKNOWN NONE NONE DUMMY) (
DERIVED 13) 0 0 () () () '' () ())
3 'pcf' '' 33 ((VARIABLE UNKNOWN UNKNOWN UNKNOWN NONE NONE DUMMY) (
DERIVED 13) 0 0 () () () '' () ())
)

('done_pcf_v2' 0 2 'init_pcf_v2' 0 4 'readpcf' 0 6 't_job_v2' 0 9
't_pcf_v2' 0 13 't_var_v2' 0 22 'writepcf' 0 27)
