G95 module created on Thu Jun 25 17:49:25 2020 from ./.fpp/P_FODITS.f90
If you edit this, you'll get what you deserve.
module-version 9
(() () () () () () () () () () () () () () () () () () () () ())

(('isin' '' 2))

()

()

()

(2 'isinint' 'm_time' 1 ((PROCEDURE UNKNOWN MODULE-PROC DECL NONE NONE
FUNCTION INVOKED) (LOGICAL 4) 0 0 (3 NONE 4 NONE) () () '' () ())
5 't_coovel' 'd_stacrx' 1 ((DERIVED UNKNOWN UNKNOWN UNKNOWN NONE NONE) (
UNKNOWN) 0 0 () () () '' ((6 'stanam' (CHARACTER 1 ((CONSTANT (INTEGER 4)
0 '16'))) (1 EXPLICIT (CONSTANT (INTEGER 4) 0 '1') (CONSTANT (INTEGER 4)
0 '2')) () 1 0 0 ()) (7 'constr' (REAL 8) (1 EXPLICIT (CONSTANT (
INTEGER 4) 0 '1') (CONSTANT (INTEGER 4) 0 '6')) () 1 0 0 ())) PUBLIC ())
8 't_renamsta' 'd_stacrx' 1 ((DERIVED UNKNOWN UNKNOWN UNKNOWN NONE NONE)
(UNKNOWN) 0 0 () () () '' ((9 'stanam' (CHARACTER 1 ((CONSTANT (INTEGER
4) 0 '16'))) () () 0 0 0 ()) (10 'flg' (CHARACTER 1 ((CONSTANT (INTEGER
4) 0 '3'))) () () 0 0 0 ()) (11 'timint' (DERIVED 12) () () 0 0 0 ()) (
13 'oldnam' (CHARACTER 1 ((CONSTANT (INTEGER 4) 0 '16'))) () () 0 0 0 ())
(14 'remark' (CHARACTER 1 ((CONSTANT (INTEGER 4) 0 '24'))) () () 0 0 0 ()))
PUBLIC ())
15 't_stainfo' 'd_stacrx' 1 ((DERIVED UNKNOWN UNKNOWN UNKNOWN NONE NONE)
(UNKNOWN) 0 0 () () () '' ((16 'stanam' (CHARACTER 1 ((CONSTANT (
INTEGER 4) 0 '16'))) () () 0 0 0 ()) (17 'flg' (CHARACTER 1 ((CONSTANT (
INTEGER 4) 0 '3'))) () () 0 0 0 ()) (18 'timint' (DERIVED 12) () () 0 0
0 ()) (19 'recnam' (CHARACTER 1 ((CONSTANT (INTEGER 4) 0 '20'))) () () 0
0 0 ()) (20 'antnam' (CHARACTER 1 ((CONSTANT (INTEGER 4) 0 '20'))) () ()
0 0 0 ()) (21 'recser' (CHARACTER 1 ((CONSTANT (INTEGER 4) 0 '20'))) ()
() 0 0 0 ()) (22 'antser' (CHARACTER 1 ((CONSTANT (INTEGER 4) 0 '20')))
() () 0 0 0 ()) (23 'recnum' (INTEGER 4) () () 0 0 0 ()) (24 'antnum' (
INTEGER 4) () () 0 0 0 ()) (25 'antecc' (REAL 8) (1 EXPLICIT (CONSTANT (
INTEGER 4) 0 '1') (CONSTANT (INTEGER 4) 0 '3')) () 1 0 0 ()) (26 'descri'
(CHARACTER 1 ((CONSTANT (INTEGER 4) 0 '22'))) () () 0 0 0 ()) (27 'remark'
(CHARACTER 1 ((CONSTANT (INTEGER 4) 0 '24'))) () () 0 0 0 ()) (28 'cdpsod'
(CHARACTER 1 ((CONSTANT (INTEGER 4) 0 '8'))) () () 0 0 0 ())) PUBLIC ())
29 't_staprob' 'd_stacrx' 1 ((DERIVED UNKNOWN UNKNOWN UNKNOWN NONE NONE)
(UNKNOWN) 0 0 () () () '' ((30 'stanam' (CHARACTER 1 ((CONSTANT (
INTEGER 4) 0 '16'))) () () 0 0 0 ()) (31 'flg' (CHARACTER 1 ((CONSTANT (
INTEGER 4) 0 '3'))) () () 0 0 0 ()) (32 'timint' (DERIVED 12) () () 0 0
0 ()) (33 'remark' (CHARACTER 1 ((CONSTANT (INTEGER 4) 0 '60'))) () () 0
0 0 ())) PUBLIC ())
34 't_starelpar' 'd_stacrx' 1 ((DERIVED UNKNOWN UNKNOWN UNKNOWN NONE
NONE) (UNKNOWN) 0 0 () () () '' ((35 'stanam' (CHARACTER 1 ((CONSTANT (
INTEGER 4) 0 '16'))) (1 EXPLICIT (CONSTANT (INTEGER 4) 0 '1') (CONSTANT
(INTEGER 4) 0 '2')) () 1 0 0 ()) (36 'flg' (CHARACTER 1 ((CONSTANT (
INTEGER 4) 0 '3'))) () () 0 0 0 ()) (37 'timwin' (DERIVED 12) () () 0 0
0 ()) (38 'partyp' (CHARACTER 1 ((CONSTANT (INTEGER 4) 0 '8'))) () () 0
0 0 ()) (39 'sys' (CHARACTER 1 ((CONSTANT (INTEGER 4) 0 '3'))) (1
EXPLICIT (CONSTANT (INTEGER 4) 0 '1') (CONSTANT (INTEGER 4) 0 '2')) () 1
0 0 ()) (40 'loctie' (REAL 8) (1 EXPLICIT (CONSTANT (INTEGER 4) 0 '1') (
CONSTANT (INTEGER 4) 0 '3')) () 1 0 0 ()) (41 'constr' (REAL 8) (1
EXPLICIT (CONSTANT (INTEGER 4) 0 '1') (CONSTANT (INTEGER 4) 0 '3')) () 1
0 0 ()) (42 'correl' (REAL 8) (1 EXPLICIT (CONSTANT (INTEGER 4) 0 '1') (
CONSTANT (INTEGER 4) 0 '3')) () 1 0 0 ()) (43 'remark' (CHARACTER 1 ((
CONSTANT (INTEGER 4) 0 '24'))) () () 0 0 0 ()) (44 'applied' (LOGICAL 4)
() () 0 0 0 ())) PUBLIC ())
45 't_statype' 'd_stacrx' 1 ((DERIVED UNKNOWN UNKNOWN UNKNOWN NONE NONE)
(UNKNOWN) 0 0 () () () '' ((46 'stanam' (CHARACTER 1 ((CONSTANT (
INTEGER 4) 0 '16'))) () () 0 0 0 ()) (47 'flg' (CHARACTER 1 ((CONSTANT (
INTEGER 4) 0 '3'))) () () 0 0 0 ()) (48 'timint' (DERIVED 12) () () 0 0
0 ()) (49 'markertype' (CHARACTER 1 ((CONSTANT (INTEGER 4) 0 '20'))) ()
() 0 0 0 ()) (50 'remark' (CHARACTER 1 ((CONSTANT (INTEGER 4) 0 '24')))
() () 0 0 0 ())) PUBLIC ())
51 'alcerr' 's_alcerr' 1 ((PROCEDURE UNKNOWN MODULE-PROC DECL NONE NONE
SUBROUTINE INVOKED) (PROCEDURE 0) 0 0 (52 NONE 53 NONE 54 NONE 55 NONE)
() () '' () ())
56 'candnon' 'p_fodits' 1 ((PARAMETER UNKNOWN UNKNOWN UNKNOWN NONE NONE)
(INTEGER 4) 0 0 () (CONSTANT (INTEGER 4) 0 '0') () () '' () ())
57 'candsub' 'p_fodits' 1 ((PARAMETER UNKNOWN UNKNOWN UNKNOWN NONE NONE)
(INTEGER 4) 0 0 () (CONSTANT (INTEGER 4) 0 '-1') () () '' () ())
58 'candyes' 'p_fodits' 1 ((PARAMETER UNKNOWN UNKNOWN UNKNOWN NONE NONE)
(INTEGER 4) 0 0 () (CONSTANT (INTEGER 4) 0 '1') () () '' () ())
59 'd_const' 'd_const' 1 ((MODULE UNKNOWN UNKNOWN UNKNOWN NONE NONE) (
UNKNOWN) 0 0 () () () '' () ())
60 'd_stacrx' 'd_stacrx' 1 ((MODULE UNKNOWN UNKNOWN UNKNOWN NONE NONE) (
UNKNOWN) 0 0 () () () '' () ())
61 'defaultdval' 'p_fodits' 1 ((PARAMETER UNKNOWN UNKNOWN UNKNOWN NONE
NONE) (REAL 8) 0 0 () (CONSTANT (REAL 8) 0 '4611686018427388' 0 1013) ()
() '' () ())
62 'elemall' 'p_fodits' 1 ((PARAMETER UNKNOWN UNKNOWN UNKNOWN NONE NONE)
(INTEGER 4) 0 0 () (CONSTANT (INTEGER 4) 0 '3') () () '' () ())
63 'elemexl' 'p_fodits' 1 ((PARAMETER UNKNOWN UNKNOWN UNKNOWN NONE NONE)
(INTEGER 4) 0 0 () (CONSTANT (INTEGER 4) 0 '2') () () '' () ())
64 'eleminc' 'p_fodits' 1 ((PARAMETER UNKNOWN UNKNOWN UNKNOWN NONE NONE)
(INTEGER 4) 0 0 () (CONSTANT (INTEGER 4) 0 '1') () () '' () ())
65 'elemtst' 'p_fodits' 1 ((PARAMETER UNKNOWN UNKNOWN UNKNOWN NONE NONE)
(INTEGER 4) 0 0 () (CONSTANT (INTEGER 4) 0 '0') () () '' () ())
66 'elemvel' 'p_fodits' 1 ((PARAMETER UNKNOWN UNKNOWN UNKNOWN NONE NONE)
(INTEGER 4) 0 0 () (CONSTANT (INTEGER 4) 0 '4') () () '' () ())
67 'filenamelength' 'm_bern' 1 ((PARAMETER UNKNOWN UNKNOWN UNKNOWN NONE
NONE) (INTEGER 4) 0 0 () (CONSTANT (INTEGER 4) 0 '32') () () '' () ())
68 'filenamelength80' 'm_bern' 1 ((PARAMETER UNKNOWN UNKNOWN UNKNOWN
NONE NONE) (INTEGER 4) 0 0 () (CONSTANT (INTEGER 4) 0 '80') () () '' ()
())
69 'flagboh' 'p_fodits' 1 ((PARAMETER UNKNOWN UNKNOWN UNKNOWN NONE NONE)
(INTEGER 4) 0 0 () (CONSTANT (INTEGER 4) 0 '0') () () '' () ())
70 'flagest' 'p_fodits' 1 ((PARAMETER UNKNOWN UNKNOWN UNKNOWN NONE NONE)
(INTEGER 4) 0 0 () (CONSTANT (INTEGER 4) 0 '3') () () '' () ())
71 'flagnot' 'p_fodits' 1 ((PARAMETER UNKNOWN UNKNOWN UNKNOWN NONE NONE)
(INTEGER 4) 0 0 () (CONSTANT (INTEGER 4) 0 '4') () () '' () ())
72 'flagset' 'p_fodits' 1 ((PARAMETER UNKNOWN UNKNOWN UNKNOWN NONE NONE)
(INTEGER 4) 0 0 () (CONSTANT (INTEGER 4) 0 '2') () () '' () ())
73 'flagtst' 'p_fodits' 1 ((PARAMETER UNKNOWN UNKNOWN UNKNOWN NONE NONE)
(INTEGER 4) 0 0 () (CONSTANT (INTEGER 4) 0 '1') () () '' () ())
74 'flgstafileforfodits' 'p_fodits' 1 ((PARAMETER UNKNOWN UNKNOWN
UNKNOWN NONE NONE) (CHARACTER 1 ((CONSTANT (INTEGER 4) 0 '3'))) 0 0 () (
CONSTANT (CHARACTER 1 ((CONSTANT (INTEGER 4) 0 '3'))) 0 3 '003') () () ''
() ())
75 'i4b' 'm_bern' 1 ((PARAMETER UNKNOWN UNKNOWN UNKNOWN NONE NONE) (
INTEGER 4) 0 0 () (CONSTANT (INTEGER 4) 0 '4') () () '' () ())
76 'infoddef' 'p_fodits' 1 ((PARAMETER UNKNOWN UNKNOWN UNKNOWN NONE NONE)
(INTEGER 4) 0 0 () (CONSTANT (INTEGER 4) 0 '5') () () '' () ())
77 'infoerqf' 'p_fodits' 1 ((PARAMETER UNKNOWN UNKNOWN UNKNOWN NONE NONE)
(INTEGER 4) 0 0 () (CONSTANT (INTEGER 4) 0 '2') () () '' () ())
78 'infoevlf' 'p_fodits' 1 ((PARAMETER UNKNOWN UNKNOWN UNKNOWN NONE NONE)
(INTEGER 4) 0 0 () (CONSTANT (INTEGER 4) 0 '3') () () '' () ())
79 'infoinit' 'p_fodits' 1 ((PARAMETER UNKNOWN UNKNOWN UNKNOWN NONE NONE)
(INTEGER 4) 0 0 () (CONSTANT (INTEGER 4) 0 '9') () () '' () ())
80 'infopanl' 'p_fodits' 1 ((PARAMETER UNKNOWN UNKNOWN UNKNOWN NONE NONE)
(INTEGER 4) 0 0 () (CONSTANT (INTEGER 4) 0 '4') () () '' () ())
81 'infostaf' 'p_fodits' 1 ((PARAMETER UNKNOWN UNKNOWN UNKNOWN NONE NONE)
(INTEGER 4) 0 0 () (CONSTANT (INTEGER 4) 0 '1') () () '' () ())
82 'infounkw' 'p_fodits' 1 ((PARAMETER UNKNOWN UNKNOWN UNKNOWN NONE NONE)
(INTEGER 4) 0 0 () (CONSTANT (INTEGER 4) 0 '0') () () '' () ())
83 'init_datfil' 'p_fodits' 1 ((PROCEDURE UNKNOWN MODULE-PROC DECL NONE
NONE SUBROUTINE) (PROCEDURE 0) 0 0 (84 NONE) () () '' () ())
85 'init_score' 'p_fodits' 1 ((PROCEDURE UNKNOWN MODULE-PROC DECL NONE
NONE SUBROUTINE) (PROCEDURE 0) 0 0 (86 NONE) () () '' () ())
87 'init_stacrux' 'd_stacrx' 1 ((PROCEDURE UNKNOWN MODULE-PROC DECL NONE
NONE SUBROUTINE INVOKED) (PROCEDURE 0) 0 0 (88 NONE) () () '' () ())
89 'inpcrd' 'p_fodits' 1 ((PARAMETER UNKNOWN UNKNOWN UNKNOWN NONE NONE)
(INTEGER 4) 0 0 () (CONSTANT (INTEGER 4) 0 '1') () () '' () ())
90 'inpres' 'p_fodits' 1 ((PARAMETER UNKNOWN UNKNOWN UNKNOWN NONE NONE)
(INTEGER 4) 0 0 () (CONSTANT (INTEGER 4) 0 '0') () () '' () ())
91 'lfnerr' 'm_bern' 1 ((VARIABLE UNKNOWN UNKNOWN UNKNOWN NONE NONE) (
INTEGER 4) 0 0 () () () '' () ())
92 'lfnprt' 'm_bern' 1 ((VARIABLE UNKNOWN UNKNOWN UNKNOWN NONE NONE) (
INTEGER 4) 0 0 () () () '' () ())
93 'liter' 'p_fodits' 1 ((PARAMETER UNKNOWN UNKNOWN UNKNOWN NONE NONE) (
INTEGER 4) 0 0 () (CONSTANT (INTEGER 4) 0 '2') () () '' () ())
94 'lscrn' 'p_fodits' 1 ((PARAMETER UNKNOWN UNKNOWN UNKNOWN NONE NONE) (
INTEGER 4) 0 0 () (CONSTANT (INTEGER 4) 0 '1') () () '' () ())
95 'm_bern' 'm_bern' 1 ((MODULE UNKNOWN UNKNOWN UNKNOWN NONE NONE) (
UNKNOWN) 0 0 () () () '' () ())
96 'm_time' 'm_time' 1 ((MODULE UNKNOWN UNKNOWN UNKNOWN NONE NONE) (
UNKNOWN) 0 0 () () () '' () ())
97 'mamod' 'p_fodits' 1 ((PARAMETER UNKNOWN UNKNOWN UNKNOWN NONE NONE) (
INTEGER 4) 0 0 () (CONSTANT (INTEGER 4) 0 '0') () () '' () ())
98 'mapri' 'p_fodits' 1 ((PARAMETER UNKNOWN UNKNOWN UNKNOWN NONE NONE) (
INTEGER 4) 0 0 () (CONSTANT (INTEGER 4) 0 '2') () () '' () ())
99 'miden' 'p_fodits' 1 ((PARAMETER UNKNOWN UNKNOWN UNKNOWN NONE NONE) (
INTEGER 4) 0 0 () (CONSTANT (INTEGER 4) 0 '3') () () '' () ())
100 'mremfin' 'p_fodits' 1 ((PARAMETER UNKNOWN UNKNOWN UNKNOWN NONE NONE)
(INTEGER 4) 0 0 () (CONSTANT (INTEGER 4) 0 '4') () () '' () ())
101 'mremo' 'p_fodits' 1 ((PARAMETER UNKNOWN UNKNOWN UNKNOWN NONE NONE)
(INTEGER 4) 0 0 () (CONSTANT (INTEGER 4) 0 '1') () () '' () ())
102 'nmaxrenaming' 'p_fodits' 1 ((PARAMETER UNKNOWN UNKNOWN UNKNOWN NONE
NONE) (INTEGER 4) 0 0 () (CONSTANT (INTEGER 4) 0 '50') () () '' () ())
103 'nonsignificant' 'p_fodits' 1 ((PARAMETER UNKNOWN UNKNOWN UNKNOWN
NONE NONE) (INTEGER 4) 0 0 () (CONSTANT (INTEGER 4) 0 '0') () () '' () ())
104 'nonvelocstr' 'p_fodits' 1 ((PARAMETER UNKNOWN UNKNOWN UNKNOWN NONE
NONE) (INTEGER 4) 0 0 () (CONSTANT (INTEGER 4) 0 '0') () () '' () ())
105 'p_fodits' 'p_fodits' 1 ((MODULE UNKNOWN UNKNOWN UNKNOWN NONE NONE)
(UNKNOWN) 0 0 () () () '' () ())
106 'pi' 'd_const' 1 ((VARIABLE UNKNOWN UNKNOWN UNKNOWN NONE NONE) (
REAL 8) 0 0 () () () '' () ())
107 'r8b' 'm_bern' 1 ((PARAMETER UNKNOWN UNKNOWN UNKNOWN NONE NONE) (
INTEGER 4) 0 0 () (CONSTANT (INTEGER 4) 0 '8') () () '' () ())
108 's_alcerr' 's_alcerr' 1 ((MODULE UNKNOWN UNKNOWN UNKNOWN NONE NONE)
(UNKNOWN) 0 0 () () () '' () ())
109 'scorechkpresevntinmod' 'p_fodits' 1 ((PROCEDURE UNKNOWN MODULE-PROC
DECL NONE NONE SUBROUTINE) (PROCEDURE 0) 0 0 (110 NONE 111 NONE 112 NONE
113 NONE) () () '' () ())
114 'scoreflagtonum' 'p_fodits' 1 ((PROCEDURE UNKNOWN MODULE-PROC DECL
NONE NONE FUNCTION) (INTEGER 4) 0 0 (115 NONE) () () '' () ())
116 'scoregetvalmodmjd' 'p_fodits' 1 ((PROCEDURE UNKNOWN MODULE-PROC
DECL NONE NONE SUBROUTINE) (PROCEDURE 0) 0 0 (117 NONE 118 NONE 119 NONE
120 NONE 121 NONE) () () '' () ())
122 'scoreinitnewevnt' 'p_fodits' 1 ((PROCEDURE UNKNOWN MODULE-PROC DECL
NONE NONE SUBROUTINE) (PROCEDURE 0) 0 0 (123 NONE 124 NONE) () () '' ()
())
125 'scoremodaddevnt' 'p_fodits' 1 ((PROCEDURE UNKNOWN MODULE-PROC DECL
NONE NONE SUBROUTINE) (PROCEDURE 0) 0 0 (126 NONE 127 NONE 128 NONE) ()
() '' () ())
129 'scoremoddelevnt' 'p_fodits' 1 ((PROCEDURE UNKNOWN MODULE-PROC DECL
NONE NONE SUBROUTINE) (PROCEDURE 0) 0 0 (130 NONE 131 NONE 132 NONE) ()
() '' () ())
133 'scoremodsortelem' 'p_fodits' 1 ((PROCEDURE UNKNOWN MODULE-PROC DECL
NONE NONE SUBROUTINE) (PROCEDURE 0) 0 0 (134 NONE 135 NONE 136 NONE) ()
() '' () ())
137 'scorenumtoflag' 'p_fodits' 1 ((PROCEDURE UNKNOWN MODULE-PROC DECL
NONE NONE FUNCTION) (CHARACTER 1 ((CONSTANT (INTEGER 4) 0 '3'))) 0 0 (
138 NONE) () () '' () ())
139 'scorenumtotype' 'p_fodits' 1 ((PROCEDURE UNKNOWN MODULE-PROC DECL
NONE NONE FUNCTION) (CHARACTER 1 ((CONSTANT (INTEGER 4) 0 '4'))) 0 0 (
140 NONE) () () '' () ())
141 'scoresorteventststdown' 'p_fodits' 1 ((PROCEDURE UNKNOWN
MODULE-PROC DECL NONE NONE SUBROUTINE) (PROCEDURE 0) 0 0 (142 NONE 143
NONE) () () '' () ())
144 'scoresorteventststup' 'p_fodits' 1 ((PROCEDURE UNKNOWN MODULE-PROC
DECL NONE NONE SUBROUTINE) (PROCEDURE 0) 0 0 (145 NONE 146 NONE) () () ''
() ())
147 'scoretstaddcrit' 'p_fodits' 1 ((PROCEDURE UNKNOWN MODULE-PROC DECL
NONE NONE SUBROUTINE) (PROCEDURE 0) 0 0 (148 NONE 149 NONE 150 NONE 151
NONE) () () '' () ())
152 'scoretypetonum' 'p_fodits' 1 ((PROCEDURE UNKNOWN MODULE-PROC DECL
NONE NONE FUNCTION) (INTEGER 4) 0 0 (153 NONE) () () '' () ())
154 'scorewriteelemline' 'p_fodits' 1 ((PROCEDURE UNKNOWN MODULE-PROC
DECL NONE NONE SUBROUTINE) (PROCEDURE 0) 0 0 (155 NONE 156 NONE 157 NONE)
() () '' () ())
158 'shortlinelength' 'm_bern' 1 ((PARAMETER UNKNOWN UNKNOWN UNKNOWN
NONE NONE) (INTEGER 4) 0 0 () (CONSTANT (INTEGER 4) 0 '80') () () '' ()
())
159 'significant' 'p_fodits' 1 ((PARAMETER UNKNOWN UNKNOWN UNKNOWN NONE
NONE) (INTEGER 4) 0 0 () (CONSTANT (INTEGER 4) 0 '1') () () '' () ())
160 'stanamelength' 'm_bern' 1 ((PARAMETER UNKNOWN UNKNOWN UNKNOWN NONE
NONE) (INTEGER 4) 0 0 () (CONSTANT (INTEGER 4) 0 '16') () () '' () ())
161 't_ctr' 'p_fodits' 1 ((DERIVED UNKNOWN UNKNOWN UNKNOWN NONE NONE) (
UNKNOWN) 0 0 () () () '' ((162 'niterloop' (INTEGER 4) () () 0 0 0 ()) (
163 'modnumiter' (REAL 8) (1 DEFERRED () ()) () 1 1 0 ()) (164
'modnumiteroutl' (REAL 8) (1 DEFERRED () ()) () 1 1 0 ()) (165 'nscrnloop'
(INTEGER 4) () () 0 0 0 ()) (166 'modnumscrn' (REAL 8) (1 DEFERRED () ())
() 1 1 0 ()) (167 'modnumscrnoutl' (REAL 8) (1 DEFERRED () ()) () 1 1 0
()) (168 'nremoloop' (INTEGER 4) () () 0 0 0 ())) PUBLIC ())
169 't_datfil' 'p_fodits' 1 ((DERIVED UNKNOWN UNKNOWN UNKNOWN NONE NONE)
(UNKNOWN) 0 0 () () () '' ((170 'stain' (DERIVED 171) () () 0 0 0 ()) (
172 'evlin' (DERIVED 173) () () 0 0 0 ()) (174 'erqin' (DERIVED 175) ()
() 0 0 0 ()) (176 'staout' (DERIVED 171) () () 0 0 0 ()) (177 'evlout' (
DERIVED 173) () () 0 0 0 ())) PUBLIC ())
178 't_datumdef' 'p_fodits' 1 ((DERIVED UNKNOWN UNKNOWN UNKNOWN NONE
NONE) (UNKNOWN) 0 0 () () () '' ((179 'mjd' (REAL 8) (1 DEFERRED () ())
() 1 1 0 ()) (180 'hlmpar' (REAL 8) (2 DEFERRED () () () ()) () 1 1 0 ())
(181 'rmshlmpar' (REAL 8) (2 DEFERRED () () () ()) () 1 1 0 ()) (182
'rmshlmtra' (REAL 8) (1 DEFERRED () ()) () 1 1 0 ()) (183 'totsta' (
INTEGER 4) (1 DEFERRED () ()) () 1 1 0 ()) (184 'refsta' (INTEGER 4) (1
DEFERRED () ()) () 1 1 0 ()) (185 'rejsta' (INTEGER 4) (1 DEFERRED () ())
() 1 1 0 ()) (186 'hlmparoffst' (REAL 8) (1 EXPLICIT (CONSTANT (INTEGER
4) 0 '1') (CONSTANT (INTEGER 4) 0 '7')) () 1 0 0 ()) (187 'hlmparoffstrms'
(REAL 8) (1 EXPLICIT (CONSTANT (INTEGER 4) 0 '1') (CONSTANT (INTEGER 4)
0 '7')) () 1 0 0 ()) (188 'hlmpardrift' (REAL 8) (1 EXPLICIT (CONSTANT (
INTEGER 4) 0 '1') (CONSTANT (INTEGER 4) 0 '7')) () 1 0 0 ()) (189
'hlmpardriftrms' (REAL 8) (1 EXPLICIT (CONSTANT (INTEGER 4) 0 '1') (
CONSTANT (INTEGER 4) 0 '7')) () 1 0 0 ())) PUBLIC ())
175 't_erq' 'p_fodits' 1 ((DERIVED UNKNOWN UNKNOWN UNKNOWN NONE NONE) (
UNKNOWN) 0 0 () () () '' ((190 'nerq' (INTEGER 4) () () 0 0 0 ()) (191
'erq' (DERIVED 192) (1 DEFERRED () ()) () 1 1 0 ())) PUBLIC ())
192 't_erq_nr' 'p_fodits' 1 ((DERIVED UNKNOWN UNKNOWN UNKNOWN NONE NONE)
(UNKNOWN) 0 0 () () () '' ((193 'mjd' (REAL 8) () () 0 0 0 ()) (194 'lat'
(REAL 8) () () 0 0 0 ()) (195 'lon' (REAL 8) () () 0 0 0 ()) (196 'crdxyz'
(REAL 8) (1 EXPLICIT (CONSTANT (INTEGER 4) 0 '1') (CONSTANT (INTEGER 4)
0 '3')) () 1 0 0 ()) (197 'dep' (INTEGER 4) () () 0 0 0 ()) (198 'mag' (
REAL 8) () () 0 0 0 ()) (199 'magdescr' (CHARACTER 1 ((CONSTANT (
INTEGER 4) 0 '5'))) () () 0 0 0 ())) PUBLIC ())
173 't_evl' 'p_fodits' 1 ((DERIVED UNKNOWN UNKNOWN UNKNOWN NONE NONE) (
UNKNOWN) 0 0 () () () '' ((200 'nsta' (INTEGER 4) () () 0 0 0 ()) (201
'sta' (DERIVED 202) (1 DEFERRED () ()) () 1 1 0 ())) PUBLIC ())
202 't_evl_sta' 'p_fodits' 1 ((DERIVED UNKNOWN UNKNOWN UNKNOWN NONE NONE)
(UNKNOWN) 0 0 () () () '' ((203 'name' (CHARACTER 1 ((CONSTANT (INTEGER
4) 0 '16'))) () () 0 0 0 ()) (204 'nevnt' (INTEGER 4) () () 0 0 0 ()) (
205 'evnt' (DERIVED 206) (1 DEFERRED () ()) () 1 1 0 ())) PUBLIC ())
206 't_evl_sta_evnt' 'p_fodits' 1 ((DERIVED UNKNOWN UNKNOWN UNKNOWN NONE
NONE) (UNKNOWN) 0 0 () () () '' ((207 'type' (CHARACTER 1 ((CONSTANT (
INTEGER 4) 0 '4'))) () () 0 0 0 ()) (208 'omega' (REAL 8) () () 0 0 0 ())
(209 'timint' (DERIVED 12) () () 0 0 0 ()) (210 'flag' (CHARACTER 1 ((
CONSTANT (INTEGER 4) 0 '3'))) () () 0 0 0 ()) (211 'remark' (CHARACTER 1
((CONSTANT (INTEGER 4) 0 '8'))) () () 0 0 0 ()) (212 'par' (REAL 8) (1
EXPLICIT (CONSTANT (INTEGER 4) 0 '1') (CONSTANT (INTEGER 4) 0 '3')) () 1
0 0 ()) (213 'val' (REAL 8) () () 0 0 0 ()) (214 'dval' (REAL 8) () () 0
0 0 ()) (215 'sttst' (REAL 8) () () 0 0 0 ()) (216 'sitst' (INTEGER 4) ()
() 0 0 0 ()) (217 'phi' (REAL 8) (1 EXPLICIT (CONSTANT (INTEGER 4) 0 '1')
(CONSTANT (INTEGER 4) 0 '3')) () 1 0 0 ())) PUBLIC ())
218 't_evnt' 'p_fodits' 1 ((DERIVED UNKNOWN UNKNOWN UNKNOWN NONE NONE) (
UNKNOWN) 0 0 () () () '' ((219 'type' (INTEGER 4) () () 0 0 0 ()) (220
'info' (INTEGER 4) () () 0 0 0 ()) (221 'mjd' (REAL 8) () () 0 0 0 ()) (
222 'omega' (REAL 8) () () 0 0 0 ()) (223 'timint' (DERIVED 12) () () 0
0 0 ()) (224 'flag' (INTEGER 4) () () 0 0 0 ()) (225 'remark' (
CHARACTER 1 ((CONSTANT (INTEGER 4) 0 '8'))) () () 0 0 0 ()) (226 'index'
(INTEGER 4) () () 0 0 0 ()) (227 'cand' (INTEGER 4) () () 0 0 0 ()) (
228 'par' (REAL 8) (1 EXPLICIT (CONSTANT (INTEGER 4) 0 '1') (CONSTANT (
INTEGER 4) 0 '3')) () 1 0 0 ()) (229 'val' (REAL 8) () () 0 0 0 ()) (
230 'dval' (REAL 8) () () 0 0 0 ()) (231 'vltst' (REAL 8) () () 0 0 0 ())
(232 'sttst' (REAL 8) () () 0 0 0 ()) (233 'sitst' (INTEGER 4) () () 0 0
0 ()) (234 'rename' (CHARACTER 1 ((CONSTANT (INTEGER 4) 0 '2'))) () () 0
0 0 ()) (235 'recchg' (CHARACTER 1 ((CONSTANT (INTEGER 4) 0 '20'))) (1
EXPLICIT (CONSTANT (INTEGER 4) 0 '1') (CONSTANT (INTEGER 4) 0 '2')) () 1
0 0 ()) (236 'antchg' (CHARACTER 1 ((CONSTANT (INTEGER 4) 0 '20'))) (1
EXPLICIT (CONSTANT (INTEGER 4) 0 '1') (CONSTANT (INTEGER 4) 0 '2')) () 1
0 0 ()) (237 'eccchg' (REAL 8) (2 EXPLICIT (CONSTANT (INTEGER 4) 0 '1')
(CONSTANT (INTEGER 4) 0 '3') (CONSTANT (INTEGER 4) 0 '1') (CONSTANT (
INTEGER 4) 0 '2')) () 1 0 0 ()) (238 'mjd2' (REAL 8) () () 0 0 0 ()) (
239 'dpar' (REAL 8) (1 EXPLICIT (CONSTANT (INTEGER 4) 0 '1') (CONSTANT (
INTEGER 4) 0 '3')) () 1 0 0 ()) (240 'phi' (REAL 8) (1 EXPLICIT (
CONSTANT (INTEGER 4) 0 '1') (CONSTANT (INTEGER 4) 0 '3')) () 1 0 0 ()) (
241 'ppar' (REAL 8) (2 EXPLICIT (CONSTANT (INTEGER 4) 0 '1') (CONSTANT (
INTEGER 4) 0 '3') (CONSTANT (INTEGER 4) 0 '1') (CONSTANT (INTEGER 4) 0 '2'))
() 1 0 0 ()) (242 'mod' (REAL 8) (1 EXPLICIT (CONSTANT (INTEGER 4) 0 '1')
(CONSTANT (INTEGER 4) 0 '3')) () 1 0 0 ())) PUBLIC ())
243 't_lsa' 'p_fodits' 1 ((DERIVED UNKNOWN UNKNOWN UNKNOWN NONE NONE) (
UNKNOWN) 0 0 () () () '' ((244 'nnpar' (INTEGER 4) () () 0 0 0 ()) (245
'nnmjd' (INTEGER 4) () () 0 0 0 ()) (246 'a' (REAL 8) (2 DEFERRED () ()
() ()) () 1 1 0 ()) (247 'qxx' (REAL 8) (2 DEFERRED () () () ()) () 1 1
0 ()) (248 'y' (REAL 8) (1 DEFERRED () ()) () 1 1 0 ()) (249 'x' (REAL 8)
(1 DEFERRED () ()) () 1 1 0 ()) (250 'mod' (REAL 8) (1 DEFERRED () ()) ()
1 1 0 ()) (251 'v' (REAL 8) (1 DEFERRED () ()) () 1 1 0 ()) (252 'p' (
REAL 8) (1 DEFERRED () ()) () 1 1 0 ()) (253 'iqyy' (REAL 8) (3 DEFERRED
() () () () () ()) () 1 1 0 ()) (254 'dof' (INTEGER 4) () () 0 0 0 ()) (
255 'detn' (REAL 8) () () 0 0 0 ()) (256 'vtv' (REAL 8) () () 0 0 0 ())
(257 'm0' (REAL 8) () () 0 0 0 ())) PUBLIC ())
258 't_lsb' 'p_fodits' 1 ((DERIVED UNKNOWN UNKNOWN UNKNOWN NONE NONE) (
UNKNOWN) 0 0 () () () '' ((259 'prevvtv' (REAL 8) () () 0 0 0 ()) (260
'm0' (REAL 8) () () 0 0 0 ())) PUBLIC ())
261 't_mdl' 'p_fodits' 1 ((DERIVED UNKNOWN UNKNOWN UNKNOWN NONE NONE) (
UNKNOWN) 0 0 () () () '' ((262 'evnt' (DERIVED 218) () () 0 0 0 ()) (
263 'napri' (INTEGER 4) () () 0 0 0 ()) (264 'apri' (DERIVED 218) (1
DEFERRED () ()) () 1 1 0 ()) (265 'niden' (INTEGER 4) () () 0 0 0 ()) (
266 'iden' (DERIVED 218) (1 DEFERRED () ()) () 1 1 0 ()) (267 'namod' (
INTEGER 4) () () 0 0 0 ()) (268 'amod' (DERIVED 218) (1 DEFERRED () ())
() 1 1 0 ()) (269 'outlmjd' (REAL 8) (1 DEFERRED () ()) () 1 1 0 ()))
PUBLIC ())
270 't_mod' 'p_fodits' 1 ((DERIVED UNKNOWN UNKNOWN UNKNOWN NONE NONE) (
UNKNOWN) 0 0 () () () '' ((271 'nevnt' (INTEGER 4) () () 0 0 0 ()) (272
'evnt' (DERIVED 218) (1 DEFERRED () ()) () 1 1 0 ())) PUBLIC ())
273 't_opt' 'p_fodits' 1 ((DERIVED UNKNOWN UNKNOWN UNKNOWN NONE NONE) (
UNKNOWN) 0 0 () () () '' ((274 'rdonlystanames' (INTEGER 4) () () 0 0 0
()) (275 'selinptstype' (INTEGER 4) () () 0 0 0 ()) (276 'inpltfile' (
CHARACTER 1 ((CONSTANT (INTEGER 4) 0 '32'))) () () 0 0 0 ()) (277
'inpltfilevciena' (INTEGER 4) () () 0 0 0 ()) (278 'inpltfilevim0' (
REAL 8) () () 0 0 0 ()) (279 'incrdfile' (CHARACTER 1 ((CONSTANT (
INTEGER 4) 0 '32'))) () () 0 0 0 ()) (280 'invelfile' (CHARACTER 1 ((
CONSTANT (INTEGER 4) 0 '32'))) () () 0 0 0 ()) (281 'ncrds' (INTEGER 4)
() () 0 0 0 ()) (282 'crdfilename' (CHARACTER 1 ((CONSTANT (INTEGER 4) 0
'32'))) (1 DEFERRED () ()) () 1 1 0 ()) (283 'inevlfile' (CHARACTER 1 (
(CONSTANT (INTEGER 4) 0 '32'))) () () 0 0 0 ()) (284 'instafile' (
CHARACTER 1 ((CONSTANT (INTEGER 4) 0 '32'))) () () 0 0 0 ()) (285
'inerqfile' (CHARACTER 1 ((CONSTANT (INTEGER 4) 0 '80'))) () () 0 0 0 ())
(286 'const' (CHARACTER 1 ((CONSTANT (INTEGER 4) 0 '32'))) () () 0 0 0 ())
(287 'datum' (CHARACTER 1 ((CONSTANT (INTEGER 4) 0 '32'))) () () 0 0 0 ())
(288 'gvarerqfacta' (REAL 8) () () 0 0 0 ()) (289 'gvarerqfactb' (REAL 8)
() () 0 0 0 ()) (290 'gvarerqmindist' (REAL 8) () () 0 0 0 ()) (291
'incrdfileaddplt' (INTEGER 4) () () 0 0 0 ()) (292 'invelfileaddplt' (
INTEGER 4) () () 0 0 0 ()) (293 'gvarmaxnriterstep' (INTEGER 4) () () 0
0 0 ()) (294 'gvarmaxnrscrnstep' (INTEGER 4) () () 0 0 0 ()) (295
'modnnewoutl' (INTEGER 4) () () 0 0 0 ()) (296 'modnoutlrms' (REAL 8) ()
() 0 0 0 ()) (297 'outevlfile' (CHARACTER 1 ((CONSTANT (INTEGER 4) 0 '32')))
() () 0 0 0 ()) (298 'outstafileforaddneq2' (CHARACTER 1 ((CONSTANT (
INTEGER 4) 0 '32'))) () () 0 0 0 ()) (299 'outpltfile' (CHARACTER 1 ((
CONSTANT (INTEGER 4) 0 '32'))) () () 0 0 0 ()) (300 'outfileverbose' (
INTEGER 4) () () 0 0 0 ()) (301 'outfileverboset' (INTEGER 4) () () 0 0
0 ()) (302 'outfileverbosett' (INTEGER 4) () () 0 0 0 ()) (303 'title' (
CHARACTER 1 ((CONSTANT (INTEGER 4) 0 '80'))) () () 0 0 0 ()) (304
'intruncstaname' (INTEGER 4) () () 0 0 0 ()) (305 'nstasel' (INTEGER 4)
() () 0 0 0 ()) (306 'instaselection' (CHARACTER 1 ((CONSTANT (INTEGER 4)
0 '16'))) (1 DEFERRED () ()) () 1 1 0 ()) (307 'inminnrobs' (INTEGER 4)
() () 0 0 0 ()) (308 'tstevltst' (INTEGER 4) () () 0 0 0 ()) (309
'tststarenamings' (INTEGER 4) () () 0 0 0 ()) (310 'tstrectypechanges' (
INTEGER 4) () () 0 0 0 ()) (311 'tstrecnumberchanges' (INTEGER 4) () ()
0 0 0 ()) (312 'tstanttypechanges' (INTEGER 4) () () 0 0 0 ()) (313
'tstantnumberchanges' (INTEGER 4) () () 0 0 0 ()) (314 'tsteccchanges' (
INTEGER 4) () () 0 0 0 ()) (315 'modpredattest' (INTEGER 4) () () 0 0 0
()) (316 'minintervforvel' (REAL 8) () () 0 0 0 ()) (317 'modperann' (
INTEGER 4) () () 0 0 0 ()) (318 'modaddena' (INTEGER 4) () () 0 0 0 ())
(319 'naddperparam' (INTEGER 4) () () 0 0 0 ()) (320 'modaddperparam' (
REAL 8) (1 DEFERRED () ()) () 1 1 0 ()) (321 'indatumcrdfile' (
CHARACTER 1 ((CONSTANT (INTEGER 4) 0 '32'))) () () 0 0 0 ()) (322
'indatumvelfile' (CHARACTER 1 ((CONSTANT (INTEGER 4) 0 '32'))) () () 0 0
0 ()) (323 'indatumfixfile' (CHARACTER 1 ((CONSTANT (INTEGER 4) 0 '32')))
() () 0 0 0 ()) (324 'dathlmtx' (INTEGER 4) () () 0 0 0 ()) (325
'dathlmty' (INTEGER 4) () () 0 0 0 ()) (326 'dathlmtz' (INTEGER 4) () ()
0 0 0 ()) (327 'dathlmrx' (INTEGER 4) () () 0 0 0 ()) (328 'dathlmry' (
INTEGER 4) () () 0 0 0 ()) (329 'dathlmrz' (INTEGER 4) () () 0 0 0 ()) (
330 'dathlmsc' (INTEGER 4) () () 0 0 0 ()) (331 'datrejectcrd' (INTEGER
4) () () 0 0 0 ()) (332 'datnlimitcrd' (REAL 8) () () 0 0 0 ()) (333
'datelimitcrd' (REAL 8) () () 0 0 0 ()) (334 'datulimitcrd' (REAL 8) ()
() 0 0 0 ()) (335 'datrejectoutlcrd' (INTEGER 4) () () 0 0 0 ()) (336
'modtestvalue' (REAL 8) () () 0 0 0 ()) (337 'modoutltestvalue' (REAL 8)
() () 0 0 0 ()) (338 'modjumpspac' (REAL 8) () () 0 0 0 ()) (339
'modjumpsing' (REAL 8) () () 0 0 0 ()) (340 'modjumphori' (REAL 8) () ()
0 0 0 ()) (341 'modjumpvert' (REAL 8) () () 0 0 0 ()) (342 'modvelospac'
(REAL 8) () () 0 0 0 ()) (343 'modvelosing' (REAL 8) () () 0 0 0 ()) (
344 'modvelohori' (REAL 8) () () 0 0 0 ()) (345 'modvelovert' (REAL 8) ()
() 0 0 0 ()) (346 'modoutlspac' (REAL 8) () () 0 0 0 ()) (347
'modoutlsing' (REAL 8) () () 0 0 0 ()) (348 'modoutlhori' (REAL 8) () ()
0 0 0 ()) (349 'modoutlvert' (REAL 8) () () 0 0 0 ()) (350 'modperispac'
(REAL 8) () () 0 0 0 ()) (351 'modperising' (REAL 8) () () 0 0 0 ()) (
352 'modperihori' (REAL 8) () () 0 0 0 ()) (353 'modperivert' (REAL 8) ()
() 0 0 0 ()) (354 'modnewjumpidentify' (INTEGER 4) () () 0 0 0 ()) (355
'modnewveloidentify' (INTEGER 4) () () 0 0 0 ()) (356 'modnewoutlidentify'
(INTEGER 4) () () 0 0 0 ()) (357 'modnewperiidentify' (INTEGER 4) () ()
0 0 0 ()) (358 'modaddveloaj' (INTEGER 4) () () 0 0 0 ()) (359 'sannlines'
(INTEGER 4) () () 0 0 0 ()) (360 'sanminperiod' (REAL 8) () () 0 0 0 ())
(361 'sanmaxperiod' (REAL 8) () () 0 0 0 ()) (362 'outtimref' (REAL 8) ()
() 0 0 0 ()) (363 'mintimeintlength' (REAL 8) () () 0 0 0 ()) (364
'minpercdatafix' (REAL 8) () () 0 0 0 ()) (365 'incrdfileforaddneq2' (
CHARACTER 1 ((CONSTANT (INTEGER 4) 0 '32'))) () () 0 0 0 ()) (366
'invelfileforaddneq2' (CHARACTER 1 ((CONSTANT (INTEGER 4) 0 '32'))) () ()
0 0 0 ()) (367 'infixfileforaddneq2' (CHARACTER 1 ((CONSTANT (INTEGER 4)
0 '32'))) () () 0 0 0 ()) (368 'insigfileforaddneq2' (CHARACTER 1 ((
CONSTANT (INTEGER 4) 0 '32'))) () () 0 0 0 ()) (369 'outcrdfileforaddneq2'
(CHARACTER 1 ((CONSTANT (INTEGER 4) 0 '32'))) () () 0 0 0 ()) (370
'outvelfileforaddneq2' (CHARACTER 1 ((CONSTANT (INTEGER 4) 0 '32'))) ()
() 0 0 0 ()) (371 'outfixfileforaddneq2' (CHARACTER 1 ((CONSTANT (
INTEGER 4) 0 '32'))) () () 0 0 0 ()) (372 'outsigfileforaddneq2' (
CHARACTER 1 ((CONSTANT (INTEGER 4) 0 '32'))) () () 0 0 0 ()) (373
'updstandays' (INTEGER 4) () () 0 0 0 ()) (374 'gvarcstrcrd' (REAL 8) ()
() 0 0 0 ()) (375 'gvarcstrvel' (REAL 8) () () 0 0 0 ())) PUBLIC ())
376 't_san' 'p_fodits' 1 ((DERIVED UNKNOWN UNKNOWN UNKNOWN NONE NONE) (
UNKNOWN) 0 0 () () () '' ((377 'nper' (INTEGER 4) () () 0 0 0 ()) (378
'per' (REAL 8) (1 DEFERRED () ()) () 1 1 0 ())) PUBLIC ())
379 't_score' 'p_fodits' 1 ((DERIVED UNKNOWN UNKNOWN UNKNOWN NONE NONE)
(UNKNOWN) 0 0 () () () '' ((380 'nsta' (INTEGER 4) () () 0 0 0 ()) (381
'nval' (INTEGER 4) () () 0 0 0 ()) (382 'ntotmjd' (INTEGER 4) () () 0 0
0 ()) (383 'begmjd' (REAL 8) () () 0 0 0 ()) (384 'endmjd' (REAL 8) () ()
0 0 0 ()) (385 'deltamjd' (REAL 8) () () 0 0 0 ()) (386 'intimrefcrd' (
REAL 8) () () 0 0 0 ()) (387 'outtimrefcrd' (REAL 8) () () 0 0 0 ()) (
388 'datumname' (CHARACTER 1 ((CONSTANT (INTEGER 4) 0 '16'))) () () 0 0
0 ()) (389 'sta' (DERIVED 390) (1 DEFERRED () ()) () 1 1 0 ()) (391 'mdl'
(DERIVED 261) () () 0 0 0 ()) (392 'lsa' (DERIVED 243) () () 0 0 0 ()) (
393 'lsb' (DERIVED 258) () () 0 0 0 ()) (394 'ctr' (DERIVED 161) () () 0
0 0 ()) (395 'san' (DERIVED 376) () () 0 0 0 ()) (396 'ddf' (DERIVED 178)
() () 0 0 0 ())) PUBLIC ())
390 't_score_stat' 'p_fodits' 1 ((DERIVED UNKNOWN UNKNOWN UNKNOWN NONE
NONE) (UNKNOWN) 0 0 () () () '' ((397 'name' (CHARACTER 1 ((CONSTANT (
INTEGER 4) 0 '16'))) () () 0 0 0 ()) (398 'irefsta' (INTEGER 4) () () 0
0 0 ()) (399 'nstasta' (INTEGER 4) () () 0 0 0 ()) (400 'stasta' (
DERIVED 401) (1 DEFERRED () ()) () 1 1 0 ()) (402 'outcrdxyz' (REAL 8) (
1 EXPLICIT (CONSTANT (INTEGER 4) 0 '1') (CONSTANT (INTEGER 4) 0 '3')) ()
1 0 0 ()) (403 'outvelxyz' (REAL 8) (1 EXPLICIT (CONSTANT (INTEGER 4) 0
'1') (CONSTANT (INTEGER 4) 0 '3')) () 1 0 0 ()) (404 'nitersteps' (
INTEGER 4) () () 0 0 0 ()) (405 'modrms' (REAL 8) () () 0 0 0 ()) (406
'singular' (INTEGER 4) () () 0 0 0 ()) (407 'ts' (DERIVED 408) () () 0 0
0 ()) (409 'mod' (DERIVED 270) () () 0 0 0 ()) (410 'upd' (DERIVED 411)
() () 0 0 0 ())) PUBLIC ())
171 't_stacrux' 'd_stacrx' 1 ((DERIVED UNKNOWN UNKNOWN UNKNOWN NONE NONE)
(UNKNOWN) 0 0 () () () '' ((412 'nrenam' (INTEGER 4) () () 0 0 0 ()) (
413 'ninfo' (INTEGER 4) () () 0 0 0 ()) (414 'nprob' (INTEGER 4) () () 0
0 0 ()) (415 'ncoovel' (INTEGER 4) () () 0 0 0 ()) (416 'nrelpar' (
INTEGER 4) () () 0 0 0 ()) (417 'nstatype' (INTEGER 4) () () 0 0 0 ()) (
418 'version' (REAL 8) () () 0 0 0 ()) (419 'technique' (CHARACTER 1 ((
CONSTANT (INTEGER 4) 0 '30'))) () () 0 0 0 ()) (420 'renamsta' (DERIVED
8) (1 DEFERRED () ()) () 1 1 0 ()) (421 'stainfo' (DERIVED 15) (1
DEFERRED () ()) () 1 1 0 ()) (422 'staprob' (DERIVED 29) (1 DEFERRED ()
()) () 1 1 0 ()) (423 'coovel' (DERIVED 5) (1 DEFERRED () ()) () 1 1 0 ())
(424 'starelpar' (DERIVED 34) (1 DEFERRED () ()) () 1 1 0 ()) (425
'statype' (DERIVED 45) (1 DEFERRED () ()) () 1 1 0 ())) PUBLIC ())
401 't_stasta' 'p_fodits' 1 ((DERIVED UNKNOWN UNKNOWN UNKNOWN NONE NONE)
(UNKNOWN) 0 0 () () () '' ((426 'rename' (CHARACTER 1 ((CONSTANT (
INTEGER 4) 0 '16'))) () () 0 0 0 ()) (427 'timint' (DERIVED 12) () () 0
0 0 ()) (428 'incrdxyz' (REAL 8) (1 EXPLICIT (CONSTANT (INTEGER 4) 0 '1')
(CONSTANT (INTEGER 4) 0 '3')) () 1 0 0 ()) (429 'incrdneu' (REAL 8) (1
EXPLICIT (CONSTANT (INTEGER 4) 0 '1') (CONSTANT (INTEGER 4) 0 '3')) () 1
0 0 ()) (430 'incrdflg' (CHARACTER 1 ((CONSTANT (INTEGER 4) 0 '1'))) ()
() 0 0 0 ()) (431 'invelxyz' (REAL 8) (1 EXPLICIT (CONSTANT (INTEGER 4)
0 '1') (CONSTANT (INTEGER 4) 0 '3')) () 1 0 0 ()) (432 'invelneu' (REAL
8) (1 EXPLICIT (CONSTANT (INTEGER 4) 0 '1') (CONSTANT (INTEGER 4) 0 '3'))
() 1 0 0 ()) (433 'invelflg' (CHARACTER 1 ((CONSTANT (INTEGER 4) 0 '5')))
() () 0 0 0 ()) (434 'invelplate' (CHARACTER 1 ((CONSTANT (INTEGER 4) 0
'4'))) () () 0 0 0 ())) PUBLIC ())
12 't_timint' 'm_time' 1 ((DERIVED UNKNOWN UNKNOWN UNKNOWN NONE NONE) (
UNKNOWN) 0 0 () () () '' ((435 't' (REAL 8) (1 EXPLICIT (CONSTANT (
INTEGER 4) 0 '1') (CONSTANT (INTEGER 4) 0 '2')) () 1 0 0 ())) PUBLIC ())
408 't_ts' 'p_fodits' 1 ((DERIVED UNKNOWN UNKNOWN UNKNOWN NONE NONE) (
UNKNOWN) 0 0 () () () '' ((436 'nval' (INTEGER 4) () () 0 0 0 ()) (437
'nmjd' (INTEGER 4) () () 0 0 0 ()) (438 'mjd' (REAL 8) (1 DEFERRED () ())
() 1 1 0 ()) (439 'val' (REAL 8) (2 DEFERRED () () () ()) () 1 1 0 ()) (
440 'dval' (REAL 8) (2 DEFERRED () () () ()) () 1 1 0 ()) (441 'vci' (
REAL 8) (3 DEFERRED () () () () () ()) () 1 1 0 ()) (442 'ddef' (REAL 8)
(2 DEFERRED () () () ()) () 1 1 0 ()) (443 'ddefrej' (INTEGER 4) (1
DEFERRED () ()) () 1 1 0 ())) PUBLIC ())
411 't_upd' 'p_fodits' 1 ((DERIVED UNKNOWN UNKNOWN UNKNOWN NONE NONE) (
UNKNOWN) 0 0 () () () '' ((444 'nren' (INTEGER 4) () () 0 0 0 ()) (445
'ren' (DERIVED 446) (1 DEFERRED () ()) () 1 1 0 ()) (447 'stastatusref'
(INTEGER 4) () () 0 0 0 ()) (448 'maxtimeinterv' (REAL 8) () () 0 0 0 ()))
PUBLIC ())
446 't_upd_ren' 'p_fodits' 1 ((DERIVED UNKNOWN UNKNOWN UNKNOWN NONE NONE)
(UNKNOWN) 0 0 () () () '' ((449 'type' (INTEGER 4) () () 0 0 0 ()) (450
'info' (INTEGER 4) () () 0 0 0 ()) (451 'timint' (DERIVED 12) () () 0 0
0 ()) (452 'rename' (CHARACTER 1 ((CONSTANT (INTEGER 4) 0 '2'))) () () 0
0 0 ()) (453 'cnstr' (INTEGER 4) () () 0 0 0 ()) (454 'group' (INTEGER 4)
() () 0 0 0 ()) (455 'grouplength' (REAL 8) () () 0 0 0 ()) (456
'groupnumdata' (INTEGER 4) () () 0 0 0 ()) (457 'remark' (CHARACTER 1 (
(CONSTANT (INTEGER 4) 0 '8'))) () () 0 0 0 ())) PUBLIC ())
458 'type3sepline' 'p_fodits' 1 ((PARAMETER UNKNOWN UNKNOWN UNKNOWN NONE
NONE) (CHARACTER 1 ((CONSTANT (INTEGER 4) 0 '16'))) 0 0 () (CONSTANT (
CHARACTER 1 ((CONSTANT (INTEGER 4) 0 '16'))) 0 16 'FODITS exclusion') ()
() '' () ())
459 'typejump' 'p_fodits' 1 ((PARAMETER UNKNOWN UNKNOWN UNKNOWN NONE
NONE) (INTEGER 4) 0 0 () (CONSTANT (INTEGER 4) 0 '1') () () '' () ())
460 'typejumpvelo' 'p_fodits' 1 ((PARAMETER UNKNOWN UNKNOWN UNKNOWN NONE
NONE) (INTEGER 4) 0 0 () (CONSTANT (INTEGER 4) 0 '6') () () '' () ())
461 'typenone' 'p_fodits' 1 ((PARAMETER UNKNOWN UNKNOWN UNKNOWN NONE
NONE) (INTEGER 4) 0 0 () (CONSTANT (INTEGER 4) 0 '0') () () '' () ())
462 'typeoutl' 'p_fodits' 1 ((PARAMETER UNKNOWN UNKNOWN UNKNOWN NONE
NONE) (INTEGER 4) 0 0 () (CONSTANT (INTEGER 4) 0 '3') () () '' () ())
463 'typeperi' 'p_fodits' 1 ((PARAMETER UNKNOWN UNKNOWN UNKNOWN NONE
NONE) (INTEGER 4) 0 0 () (CONSTANT (INTEGER 4) 0 '4') () () '' () ())
464 'typerate' 'p_fodits' 1 ((PARAMETER UNKNOWN UNKNOWN UNKNOWN NONE
NONE) (INTEGER 4) 0 0 () (CONSTANT (INTEGER 4) 0 '2') () () '' () ())
465 'typevelo' 'p_fodits' 1 ((PARAMETER UNKNOWN UNKNOWN UNKNOWN NONE
NONE) (INTEGER 4) 0 0 () (CONSTANT (INTEGER 4) 0 '5') () () '' () ())
466 'velorelcstr' 'p_fodits' 1 ((PARAMETER UNKNOWN UNKNOWN UNKNOWN NONE
NONE) (INTEGER 4) 0 0 () (CONSTANT (INTEGER 4) 0 '1') () () '' () ())
446 't_upd_ren' 'p_fodits' 1 ((DERIVED UNKNOWN UNKNOWN UNKNOWN NONE NONE)
(UNKNOWN) 0 0 () () () '' ((449 'type' (INTEGER 4) () () 0 0 0 ()) (450
'info' (INTEGER 4) () () 0 0 0 ()) (451 'timint' (DERIVED 12) () () 0 0
0 ()) (452 'rename' (CHARACTER 1 ((CONSTANT (INTEGER 4) 0 '2'))) () () 0
0 0 ()) (453 'cnstr' (INTEGER 4) () () 0 0 0 ()) (454 'group' (INTEGER 4)
() () 0 0 0 ()) (455 'grouplength' (REAL 8) () () 0 0 0 ()) (456
'groupnumdata' (INTEGER 4) () () 0 0 0 ()) (457 'remark' (CHARACTER 1 (
(CONSTANT (INTEGER 4) 0 '8'))) () () 0 0 0 ())) PUBLIC ())
411 't_upd' 'p_fodits' 1 ((DERIVED UNKNOWN UNKNOWN UNKNOWN NONE NONE) (
UNKNOWN) 0 0 () () () '' ((444 'nren' (INTEGER 4) () () 0 0 0 ()) (445
'ren' (DERIVED 446) (1 DEFERRED () ()) () 1 1 0 ()) (447 'stastatusref'
(INTEGER 4) () () 0 0 0 ()) (448 'maxtimeinterv' (REAL 8) () () 0 0 0 ()))
PUBLIC ())
408 't_ts' 'p_fodits' 1 ((DERIVED UNKNOWN UNKNOWN UNKNOWN NONE NONE) (
UNKNOWN) 0 0 () () () '' ((436 'nval' (INTEGER 4) () () 0 0 0 ()) (437
'nmjd' (INTEGER 4) () () 0 0 0 ()) (438 'mjd' (REAL 8) (1 DEFERRED () ())
() 1 1 0 ()) (439 'val' (REAL 8) (2 DEFERRED () () () ()) () 1 1 0 ()) (
440 'dval' (REAL 8) (2 DEFERRED () () () ()) () 1 1 0 ()) (441 'vci' (
REAL 8) (3 DEFERRED () () () () () ()) () 1 1 0 ()) (442 'ddef' (REAL 8)
(2 DEFERRED () () () ()) () 1 1 0 ()) (443 'ddefrej' (INTEGER 4) (1
DEFERRED () ()) () 1 1 0 ())) PUBLIC ())
401 't_stasta' 'p_fodits' 1 ((DERIVED UNKNOWN UNKNOWN UNKNOWN NONE NONE)
(UNKNOWN) 0 0 () () () '' ((426 'rename' (CHARACTER 1 ((CONSTANT (
INTEGER 4) 0 '16'))) () () 0 0 0 ()) (427 'timint' (DERIVED 12) () () 0
0 0 ()) (428 'incrdxyz' (REAL 8) (1 EXPLICIT (CONSTANT (INTEGER 4) 0 '1')
(CONSTANT (INTEGER 4) 0 '3')) () 1 0 0 ()) (429 'incrdneu' (REAL 8) (1
EXPLICIT (CONSTANT (INTEGER 4) 0 '1') (CONSTANT (INTEGER 4) 0 '3')) () 1
0 0 ()) (430 'incrdflg' (CHARACTER 1 ((CONSTANT (INTEGER 4) 0 '1'))) ()
() 0 0 0 ()) (431 'invelxyz' (REAL 8) (1 EXPLICIT (CONSTANT (INTEGER 4)
0 '1') (CONSTANT (INTEGER 4) 0 '3')) () 1 0 0 ()) (432 'invelneu' (REAL
8) (1 EXPLICIT (CONSTANT (INTEGER 4) 0 '1') (CONSTANT (INTEGER 4) 0 '3'))
() 1 0 0 ()) (433 'invelflg' (CHARACTER 1 ((CONSTANT (INTEGER 4) 0 '5')))
() () 0 0 0 ()) (434 'invelplate' (CHARACTER 1 ((CONSTANT (INTEGER 4) 0
'4'))) () () 0 0 0 ())) PUBLIC ())
390 't_score_stat' 'p_fodits' 1 ((DERIVED UNKNOWN UNKNOWN UNKNOWN NONE
NONE) (UNKNOWN) 0 0 () () () '' ((397 'name' (CHARACTER 1 ((CONSTANT (
INTEGER 4) 0 '16'))) () () 0 0 0 ()) (398 'irefsta' (INTEGER 4) () () 0
0 0 ()) (399 'nstasta' (INTEGER 4) () () 0 0 0 ()) (400 'stasta' (
DERIVED 401) (1 DEFERRED () ()) () 1 1 0 ()) (402 'outcrdxyz' (REAL 8) (
1 EXPLICIT (CONSTANT (INTEGER 4) 0 '1') (CONSTANT (INTEGER 4) 0 '3')) ()
1 0 0 ()) (403 'outvelxyz' (REAL 8) (1 EXPLICIT (CONSTANT (INTEGER 4) 0
'1') (CONSTANT (INTEGER 4) 0 '3')) () 1 0 0 ()) (404 'nitersteps' (
INTEGER 4) () () 0 0 0 ()) (405 'modrms' (REAL 8) () () 0 0 0 ()) (406
'singular' (INTEGER 4) () () 0 0 0 ()) (407 'ts' (DERIVED 408) () () 0 0
0 ()) (409 'mod' (DERIVED 270) () () 0 0 0 ()) (410 'upd' (DERIVED 411)
() () 0 0 0 ())) PUBLIC ())
206 't_evl_sta_evnt' 'p_fodits' 1 ((DERIVED UNKNOWN UNKNOWN UNKNOWN NONE
NONE) (UNKNOWN) 0 0 () () () '' ((207 'type' (CHARACTER 1 ((CONSTANT (
INTEGER 4) 0 '4'))) () () 0 0 0 ()) (208 'omega' (REAL 8) () () 0 0 0 ())
(209 'timint' (DERIVED 12) () () 0 0 0 ()) (210 'flag' (CHARACTER 1 ((
CONSTANT (INTEGER 4) 0 '3'))) () () 0 0 0 ()) (211 'remark' (CHARACTER 1
((CONSTANT (INTEGER 4) 0 '8'))) () () 0 0 0 ()) (212 'par' (REAL 8) (1
EXPLICIT (CONSTANT (INTEGER 4) 0 '1') (CONSTANT (INTEGER 4) 0 '3')) () 1
0 0 ()) (213 'val' (REAL 8) () () 0 0 0 ()) (214 'dval' (REAL 8) () () 0
0 0 ()) (215 'sttst' (REAL 8) () () 0 0 0 ()) (216 'sitst' (INTEGER 4) ()
() 0 0 0 ()) (217 'phi' (REAL 8) (1 EXPLICIT (CONSTANT (INTEGER 4) 0 '1')
(CONSTANT (INTEGER 4) 0 '3')) () 1 0 0 ())) PUBLIC ())
202 't_evl_sta' 'p_fodits' 1 ((DERIVED UNKNOWN UNKNOWN UNKNOWN NONE NONE)
(UNKNOWN) 0 0 () () () '' ((203 'name' (CHARACTER 1 ((CONSTANT (INTEGER
4) 0 '16'))) () () 0 0 0 ()) (204 'nevnt' (INTEGER 4) () () 0 0 0 ()) (
205 'evnt' (DERIVED 206) (1 DEFERRED () ()) () 1 1 0 ())) PUBLIC ())
192 't_erq_nr' 'p_fodits' 1 ((DERIVED UNKNOWN UNKNOWN UNKNOWN NONE NONE)
(UNKNOWN) 0 0 () () () '' ((193 'mjd' (REAL 8) () () 0 0 0 ()) (194 'lat'
(REAL 8) () () 0 0 0 ()) (195 'lon' (REAL 8) () () 0 0 0 ()) (196 'crdxyz'
(REAL 8) (1 EXPLICIT (CONSTANT (INTEGER 4) 0 '1') (CONSTANT (INTEGER 4)
0 '3')) () 1 0 0 ()) (197 'dep' (INTEGER 4) () () 0 0 0 ()) (198 'mag' (
REAL 8) () () 0 0 0 ()) (199 'magdescr' (CHARACTER 1 ((CONSTANT (
INTEGER 4) 0 '5'))) () () 0 0 0 ())) PUBLIC ())
175 't_erq' 'p_fodits' 1 ((DERIVED UNKNOWN UNKNOWN UNKNOWN NONE NONE) (
UNKNOWN) 0 0 () () () '' ((190 'nerq' (INTEGER 4) () () 0 0 0 ()) (191
'erq' (DERIVED 192) (1 DEFERRED () ()) () 1 1 0 ())) PUBLIC ())
173 't_evl' 'p_fodits' 1 ((DERIVED UNKNOWN UNKNOWN UNKNOWN NONE NONE) (
UNKNOWN) 0 0 () () () '' ((200 'nsta' (INTEGER 4) () () 0 0 0 ()) (201
'sta' (DERIVED 202) (1 DEFERRED () ()) () 1 1 0 ())) PUBLIC ())
171 't_stacrux' 'd_stacrx' 1 ((DERIVED UNKNOWN UNKNOWN UNKNOWN NONE NONE)
(UNKNOWN) 0 0 () () () '' ((412 'nrenam' (INTEGER 4) () () 0 0 0 ()) (
413 'ninfo' (INTEGER 4) () () 0 0 0 ()) (414 'nprob' (INTEGER 4) () () 0
0 0 ()) (415 'ncoovel' (INTEGER 4) () () 0 0 0 ()) (416 'nrelpar' (
INTEGER 4) () () 0 0 0 ()) (417 'nstatype' (INTEGER 4) () () 0 0 0 ()) (
418 'version' (REAL 8) () () 0 0 0 ()) (419 'technique' (CHARACTER 1 ((
CONSTANT (INTEGER 4) 0 '30'))) () () 0 0 0 ()) (420 'renamsta' (DERIVED
8) (1 DEFERRED () ()) () 1 1 0 ()) (421 'stainfo' (DERIVED 15) (1
DEFERRED () ()) () 1 1 0 ()) (422 'staprob' (DERIVED 29) (1 DEFERRED ()
()) () 1 1 0 ()) (423 'coovel' (DERIVED 5) (1 DEFERRED () ()) () 1 1 0 ())
(424 'starelpar' (DERIVED 34) (1 DEFERRED () ()) () 1 1 0 ()) (425
'statype' (DERIVED 45) (1 DEFERRED () ()) () 1 1 0 ())) PUBLIC ())
157 'm0' '' 467 ((VARIABLE IN UNKNOWN UNKNOWN NONE NONE DUMMY) (REAL 8)
0 0 () () () '' () ())
156 'label' '' 467 ((VARIABLE IN UNKNOWN UNKNOWN NONE NONE DUMMY) (
CHARACTER 1 ((CONSTANT (INTEGER 4) 0 '9'))) 0 0 () () () '' () ())
155 'evnt' '' 467 ((VARIABLE UNKNOWN UNKNOWN UNKNOWN NONE NONE DUMMY) (
DERIVED 218) 0 0 () () () '' () ())
153 'type' '' 468 ((VARIABLE IN UNKNOWN UNKNOWN NONE NONE DUMMY) (
CHARACTER 1 ((CONSTANT (INTEGER 4) 0 '4'))) 0 0 () () () '' () ())
151 'evnt' '' 469 ((VARIABLE UNKNOWN UNKNOWN UNKNOWN NONE NONE DUMMY) (
DERIVED 218) 0 0 () () () '' () ())
150 'mode' '' 469 ((VARIABLE IN UNKNOWN UNKNOWN NONE NONE DUMMY) (
INTEGER 4) 0 0 () () () '' () ())
149 'score' '' 469 ((VARIABLE UNKNOWN UNKNOWN UNKNOWN NONE NONE DUMMY) (
DERIVED 379) 0 0 () () () '' () ())
148 'opt' '' 469 ((VARIABLE UNKNOWN UNKNOWN UNKNOWN NONE NONE DUMMY) (
DERIVED 273) 0 0 () () () '' () ())
146 'nelem' '' 470 ((VARIABLE IN UNKNOWN UNKNOWN NONE NONE DUMMY) (
INTEGER 4) 0 0 () () () '' () ())
145 'evnt' '' 470 ((VARIABLE UNKNOWN UNKNOWN UNKNOWN NONE NONE DIMENSION
POINTER DUMMY) (DERIVED 218) 0 0 () (1 DEFERRED () ()) () '' () ())
143 'nelem' '' 471 ((VARIABLE IN UNKNOWN UNKNOWN NONE NONE DUMMY) (
INTEGER 4) 0 0 () () () '' () ())
142 'evnt' '' 471 ((VARIABLE UNKNOWN UNKNOWN UNKNOWN NONE NONE DIMENSION
POINTER DUMMY) (DERIVED 218) 0 0 () (1 DEFERRED () ()) () '' () ())
140 'num' '' 472 ((VARIABLE IN UNKNOWN UNKNOWN NONE NONE DUMMY) (
INTEGER 4) 0 0 () () () '' () ())
138 'num' '' 473 ((VARIABLE IN UNKNOWN UNKNOWN NONE NONE DUMMY) (
INTEGER 4) 0 0 () () () '' () ())
136 'nevnt' '' 474 ((VARIABLE UNKNOWN UNKNOWN UNKNOWN NONE NONE DUMMY) (
INTEGER 4) 0 0 () () () '' () ())
135 'evnt' '' 474 ((VARIABLE UNKNOWN UNKNOWN UNKNOWN NONE NONE DIMENSION
POINTER DUMMY) (DERIVED 218) 0 0 () (1 DEFERRED () ()) () '' () ())
134 'nval' '' 474 ((VARIABLE IN UNKNOWN UNKNOWN NONE NONE DUMMY) (
INTEGER 4) 0 0 () () () '' () ())
132 'jjevnt' '' 475 ((VARIABLE IN UNKNOWN UNKNOWN NONE NONE OPTIONAL
DUMMY) (INTEGER 4) 0 0 () () () '' () ())
131 'nevnt' '' 475 ((VARIABLE UNKNOWN UNKNOWN UNKNOWN NONE NONE DUMMY) (
INTEGER 4) 0 0 () () () '' () ())
130 'evnt' '' 475 ((VARIABLE UNKNOWN UNKNOWN UNKNOWN NONE NONE DIMENSION
POINTER DUMMY) (DERIVED 218) 0 0 () (1 DEFERRED () ()) () '' () ())
128 'nevnt' '' 476 ((VARIABLE UNKNOWN UNKNOWN UNKNOWN NONE NONE DUMMY) (
INTEGER 4) 0 0 () () () '' () ())
127 'evnt' '' 476 ((VARIABLE UNKNOWN UNKNOWN UNKNOWN NONE NONE DIMENSION
POINTER DUMMY) (DERIVED 218) 0 0 () (1 DEFERRED () ()) () '' () ())
126 'elem' '' 476 ((VARIABLE IN UNKNOWN UNKNOWN NONE NONE DUMMY) (
DERIVED 218) 0 0 () () () '' () ())
124 'evnt' '' 477 ((VARIABLE UNKNOWN UNKNOWN UNKNOWN NONE NONE DUMMY) (
DERIVED 218) 0 0 () () () '' () ())
123 'nval' '' 477 ((VARIABLE IN UNKNOWN UNKNOWN NONE NONE DUMMY) (
INTEGER 4) 0 0 () () () '' () ())
121 'valmod' '' 478 ((VARIABLE UNKNOWN UNKNOWN UNKNOWN NONE NONE
DIMENSION POINTER DUMMY) (REAL 8) 0 0 () (1 DEFERRED () ()) () '' () ())
120 'mjd' '' 478 ((VARIABLE IN UNKNOWN UNKNOWN NONE NONE DUMMY) (REAL 8)
0 0 () () () '' () ())
119 'nevnt' '' 478 ((VARIABLE IN UNKNOWN UNKNOWN NONE NONE DUMMY) (
INTEGER 4) 0 0 () () () '' () ())
118 'evnt' '' 478 ((VARIABLE UNKNOWN UNKNOWN UNKNOWN NONE NONE DIMENSION
POINTER DUMMY) (DERIVED 218) 0 0 () (1 DEFERRED () ()) () '' () ())
117 'nval' '' 478 ((VARIABLE IN UNKNOWN UNKNOWN NONE NONE DUMMY) (
INTEGER 4) 0 0 () () () '' () ())
115 'flag' '' 479 ((VARIABLE IN UNKNOWN UNKNOWN NONE NONE DUMMY) (
CHARACTER 1 ((CONSTANT (INTEGER 4) 0 '3'))) 0 0 () () () '' () ())
113 'jjevnt' '' 480 ((VARIABLE UNKNOWN UNKNOWN UNKNOWN NONE NONE DUMMY)
(INTEGER 4) 0 0 () () () '' () ())
112 'nevnt' '' 480 ((VARIABLE UNKNOWN UNKNOWN UNKNOWN NONE NONE DUMMY) (
INTEGER 4) 0 0 () () () '' () ())
111 'evnt' '' 480 ((VARIABLE UNKNOWN UNKNOWN UNKNOWN NONE NONE DIMENSION
POINTER DUMMY) (DERIVED 218) 0 0 () (1 DEFERRED () ()) () '' () ())
110 'elem' '' 480 ((VARIABLE UNKNOWN UNKNOWN UNKNOWN NONE NONE DUMMY) (
DERIVED 218) 0 0 () () () '' () ())
88 'stacrux' '' 481 ((VARIABLE UNKNOWN UNKNOWN UNKNOWN NONE NONE DUMMY)
(DERIVED 171) 0 0 () () () '' () ())
86 'score' '' 482 ((VARIABLE UNKNOWN UNKNOWN UNKNOWN NONE NONE DUMMY) (
DERIVED 379) 0 0 () () () '' () ())
84 'datfil' '' 483 ((VARIABLE UNKNOWN UNKNOWN UNKNOWN NONE NONE DUMMY) (
DERIVED 169) 0 0 () () () '' () ())
55 'srname' '' 484 ((VARIABLE UNKNOWN UNKNOWN UNKNOWN NONE NONE DUMMY) (
CHARACTER 1 (())) 0 0 () () () '' () ())
54 'varsiz' '' 484 ((VARIABLE UNKNOWN UNKNOWN UNKNOWN NONE NONE
DIMENSION DUMMY) (INTEGER 4) 0 0 () (1 ASSUMED_SHAPE () ()) () '' () ())
53 'varnam' '' 484 ((VARIABLE UNKNOWN UNKNOWN UNKNOWN NONE NONE DUMMY) (
CHARACTER 1 (())) 0 0 () () () '' () ())
52 'iostat' '' 484 ((VARIABLE UNKNOWN UNKNOWN UNKNOWN NONE NONE DUMMY) (
INTEGER 4) 0 0 () () () '' () ())
12 't_timint' 'm_time' 1 ((DERIVED UNKNOWN UNKNOWN UNKNOWN NONE NONE) (
UNKNOWN) 0 0 () () () '' ((435 't' (REAL 8) (1 EXPLICIT (CONSTANT (
INTEGER 4) 0 '1') (CONSTANT (INTEGER 4) 0 '2')) () 1 0 0 ())) PUBLIC ())
4 'timint' '' 485 ((VARIABLE IN UNKNOWN UNKNOWN NONE NONE DUMMY) (
DERIVED 12) 0 0 () () () '' () ())
3 'epoch' '' 485 ((VARIABLE IN UNKNOWN UNKNOWN NONE NONE DUMMY) (REAL 8)
0 0 () () () '' () ())
2 'isinint' 'm_time' 1 ((PROCEDURE UNKNOWN MODULE-PROC DECL NONE NONE
FUNCTION INVOKED) (LOGICAL 4) 0 0 (3 NONE 4 NONE) () () '' () ())
)

('alcerr' 0 51 'candnon' 0 56 'candsub' 0 57 'candyes' 0 58 'd_const' 0
59 'd_stacrx' 0 60 'defaultdval' 0 61 'elemall' 0 62 'elemexl' 0 63
'eleminc' 0 64 'elemtst' 0 65 'elemvel' 0 66 'filenamelength' 0 67
'filenamelength80' 0 68 'flagboh' 0 69 'flagest' 0 70 'flagnot' 0 71
'flagset' 0 72 'flagtst' 0 73 'flgstafileforfodits' 0 74 'i4b' 0 75
'infoddef' 0 76 'infoerqf' 0 77 'infoevlf' 0 78 'infoinit' 0 79 'infopanl'
0 80 'infostaf' 0 81 'infounkw' 0 82 'init_datfil' 0 83 'init_score' 0
85 'init_stacrux' 0 87 'inpcrd' 0 89 'inpres' 0 90 'lfnerr' 0 91 'lfnprt'
0 92 'liter' 0 93 'lscrn' 0 94 'm_bern' 0 95 'm_time' 0 96 'mamod' 0 97
'mapri' 0 98 'miden' 0 99 'mremfin' 0 100 'mremo' 0 101 'nmaxrenaming' 0
102 'nonsignificant' 0 103 'nonvelocstr' 0 104 'p_fodits' 0 105 'pi' 0
106 'r8b' 0 107 's_alcerr' 0 108 'scorechkpresevntinmod' 0 109
'scoreflagtonum' 0 114 'scoregetvalmodmjd' 0 116 'scoreinitnewevnt' 0
122 'scoremodaddevnt' 0 125 'scoremoddelevnt' 0 129 'scoremodsortelem' 0
133 'scorenumtoflag' 0 137 'scorenumtotype' 0 139 'scoresorteventststdown'
0 141 'scoresorteventststup' 0 144 'scoretstaddcrit' 0 147
'scoretypetonum' 0 152 'scorewriteelemline' 0 154 'shortlinelength' 0
158 'significant' 0 159 'stanamelength' 0 160 't_ctr' 0 161 't_datfil' 0
169 't_datumdef' 0 178 't_erq' 0 175 't_erq_nr' 0 192 't_evl' 0 173
't_evl_sta' 0 202 't_evl_sta_evnt' 0 206 't_evnt' 0 218 't_lsa' 0 243
't_lsb' 0 258 't_mdl' 0 261 't_mod' 0 270 't_opt' 0 273 't_san' 0 376
't_score' 0 379 't_score_stat' 0 390 't_stacrux' 0 171 't_stasta' 0 401
't_timint' 0 12 't_ts' 0 408 't_upd' 0 411 't_upd_ren' 0 446
'type3sepline' 0 458 'typejump' 0 459 'typejumpvelo' 0 460 'typenone' 0
461 'typeoutl' 0 462 'typeperi' 0 463 'typerate' 0 464 'typevelo' 0 465
'velorelcstr' 0 466)
