G95 module created on Thu Jun 25 17:48:42 2020 from ./.fpp/P_GRAVDET.f90
If you edit this, you'll get what you deserve.
module-version 9
(() () () () () () () () () () () () () () () () () () () () ())

()

()

()

()

(2 'filenamelength' 'm_bern' 1 ((PARAMETER UNKNOWN UNKNOWN UNKNOWN NONE
NONE) (INTEGER 4) 0 0 () (CONSTANT (INTEGER 4) 0 '32') () () '' () ())
3 'i4b' 'm_bern' 1 ((PARAMETER UNKNOWN UNKNOWN UNKNOWN NONE NONE) (
INTEGER 4) 0 0 () (CONSTANT (INTEGER 4) 0 '4') () () '' () ())
4 'init_covdat' 'p_gravdet' 1 ((PROCEDURE UNKNOWN MODULE-PROC DECL NONE
NONE SUBROUTINE) (PROCEDURE 0) 0 0 (5 NONE) () () '' () ())
6 'm_bern' 'm_bern' 1 ((MODULE UNKNOWN UNKNOWN UNKNOWN NONE NONE) (
UNKNOWN) 0 0 () () () '' () ())
7 'm_beta' 'p_gravdet' 1 ((VARIABLE UNKNOWN UNKNOWN UNKNOWN NONE NONE) (
REAL 8) 0 0 () () () '' () ())
8 'm_coe' 'p_gravdet' 1 ((VARIABLE UNKNOWN UNKNOWN UNKNOWN NONE NONE
DIMENSION) (REAL 8) 0 0 () (2 EXPLICIT (CONSTANT (INTEGER 4) 0 '1') (
CONSTANT (INTEGER 4) 0 '420') (CONSTANT (INTEGER 4) 0 '1') (CONSTANT (
INTEGER 4) 0 '9000')) () '' () ())
9 'm_constst' 'p_gravdet' 1 ((VARIABLE UNKNOWN UNKNOWN UNKNOWN NONE NONE)
(INTEGER 4) 0 0 () () () '' () ())
10 'm_elesat' 'p_gravdet' 1 ((VARIABLE UNKNOWN UNKNOWN UNKNOWN NONE NONE
DIMENSION) (REAL 8) 0 0 () (1 EXPLICIT (CONSTANT (INTEGER 4) 0 '1') (
CONSTANT (INTEGER 4) 0 '6')) () '' () ())
11 'm_epoch' 'm_epoch' 1 ((MODULE UNKNOWN UNKNOWN UNKNOWN NONE NONE) (
UNKNOWN) 0 0 () () () '' () ())
12 'm_estopt' 'p_gravdet' 1 ((VARIABLE UNKNOWN UNKNOWN UNKNOWN NONE NONE
DIMENSION) (INTEGER 4) 0 0 () (1 EXPLICIT (CONSTANT (INTEGER 4) 0 '1') (
CONSTANT (INTEGER 4) 0 '40')) () '' () ())
13 'm_fromto' 'p_gravdet' 1 ((VARIABLE UNKNOWN UNKNOWN UNKNOWN NONE NONE
DIMENSION) (REAL 8) 0 0 () (1 EXPLICIT (CONSTANT (INTEGER 4) 0 '1') (
CONSTANT (INTEGER 4) 0 '2')) () '' () ())
14 'm_ftsave' 'p_gravdet' 1 ((VARIABLE UNKNOWN UNKNOWN UNKNOWN NONE NONE
DIMENSION) (REAL 8) 0 0 () (2 EXPLICIT (CONSTANT (INTEGER 4) 0 '1') (
CONSTANT (INTEGER 4) 0 '2') (CONSTANT (INTEGER 4) 0 '1') (CONSTANT (
INTEGER 4) 0 '9000')) () '' () ())
15 'm_hsave' 'p_gravdet' 1 ((VARIABLE UNKNOWN UNKNOWN UNKNOWN NONE NONE
DIMENSION) (REAL 8) 0 0 () (1 EXPLICIT (CONSTANT (INTEGER 4) 0 '1') (
CONSTANT (INTEGER 4) 0 '9000')) () '' () ())
16 'm_iarc' 'p_gravdet' 1 ((VARIABLE UNKNOWN UNKNOWN UNKNOWN NONE NONE)
(INTEGER 4) 0 0 () () () '' () ())
17 'm_idim' 'p_gravdet' 1 ((VARIABLE UNKNOWN UNKNOWN UNKNOWN NONE NONE)
(INTEGER 4) 0 0 () () () '' () ())
18 'm_indeo' 'p_gravdet' 1 ((VARIABLE UNKNOWN UNKNOWN UNKNOWN NONE NONE)
(INTEGER 4) 0 0 () () () '' () ())
19 'm_intstep' 'p_gravdet' 1 ((VARIABLE UNKNOWN UNKNOWN UNKNOWN NONE
NONE) (INTEGER 4) 0 0 () () () '' () ())
20 'm_iorsys' 'p_gravdet' 1 ((VARIABLE UNKNOWN UNKNOWN UNKNOWN NONE NONE)
(INTEGER 4) 0 0 () () () '' () ())
21 'm_iter' 'p_gravdet' 1 ((VARIABLE UNKNOWN UNKNOWN UNKNOWN NONE NONE)
(INTEGER 4) 0 0 () () () '' () ())
22 'm_locq' 'p_gravdet' 1 ((VARIABLE UNKNOWN UNKNOWN UNKNOWN NONE NONE
DIMENSION) (INTEGER 4) 0 0 () (3 EXPLICIT (CONSTANT (INTEGER 4) 0 '1') (
CONSTANT (INTEGER 4) 0 '7') (CONSTANT (INTEGER 4) 0 '1') (CONSTANT (
INTEGER 4) 0 '16000') (CONSTANT (INTEGER 4) 0 '1') (CONSTANT (INTEGER 4)
0 '20')) () '' () ())
23 'm_maxdim' 'm_maxdim' 1 ((MODULE UNKNOWN UNKNOWN UNKNOWN NONE NONE) (
UNKNOWN) 0 0 () () () '' () ())
24 'm_maxzsd' 'p_gravdet' 1 ((VARIABLE UNKNOWN UNKNOWN UNKNOWN NONE NONE)
(REAL 8) 0 0 () () () '' () ())
25 'm_modeop' 'p_gravdet' 1 ((VARIABLE UNKNOWN UNKNOWN UNKNOWN NONE NONE)
(INTEGER 4) 0 0 () () () '' () ())
26 'm_ninter' 'p_gravdet' 1 ((VARIABLE UNKNOWN UNKNOWN UNKNOWN NONE NONE)
(INTEGER 4) 0 0 () () () '' () ())
27 'm_nitint' 'p_gravdet' 1 ((VARIABLE UNKNOWN UNKNOWN UNKNOWN NONE NONE)
(INTEGER 4) 0 0 () () () '' () ())
28 'm_numsat' 'p_gravdet' 1 ((VARIABLE UNKNOWN UNKNOWN UNKNOWN NONE NONE)
(INTEGER 4) 0 0 () () () '' () ())
29 'm_nvar' 'p_gravdet' 1 ((VARIABLE UNKNOWN UNKNOWN UNKNOWN NONE NONE)
(INTEGER 4) 0 0 () () () '' () ())
30 'm_poszsd' 'p_gravdet' 1 ((VARIABLE UNKNOWN UNKNOWN UNKNOWN NONE NONE)
(INTEGER 4) 0 0 () () () '' () ())
31 'm_prcopt' 'p_gravdet' 1 ((VARIABLE UNKNOWN UNKNOWN UNKNOWN NONE NONE
DIMENSION) (INTEGER 4) 0 0 () (1 EXPLICIT (CONSTANT (INTEGER 4) 0 '1') (
CONSTANT (INTEGER 4) 0 '30')) () '' () ())
32 'm_prn' 'p_gravdet' 1 ((VARIABLE UNKNOWN UNKNOWN UNKNOWN NONE NONE) (
INTEGER 4) 0 0 () () () '' () ())
33 'm_prtzsd' 'p_gravdet' 1 ((VARIABLE UNKNOWN UNKNOWN UNKNOWN NONE NONE)
(INTEGER 4) 0 0 () () () '' () ())
34 'm_q' 'p_gravdet' 1 ((VARIABLE UNKNOWN UNKNOWN UNKNOWN NONE NONE) (
INTEGER 4) 0 0 () () () '' () ())
35 'm_redprct' 'p_gravdet' 1 ((VARIABLE UNKNOWN UNKNOWN UNKNOWN NONE
NONE) (INTEGER 4) 0 0 () () () '' () ())
36 'm_simul' 'p_gravdet' 1 ((VARIABLE UNKNOWN UNKNOWN UNKNOWN NONE NONE)
(INTEGER 4) 0 0 () () () '' () ())
37 'm_t0save' 'p_gravdet' 1 ((VARIABLE UNKNOWN UNKNOWN UNKNOWN NONE NONE
DIMENSION) (REAL 8) 0 0 () (1 EXPLICIT (CONSTANT (INTEGER 4) 0 '1') (
CONSTANT (INTEGER 4) 0 '9000')) () '' () ())
38 'm_tolxv' 'p_gravdet' 1 ((VARIABLE UNKNOWN UNKNOWN UNKNOWN NONE NONE)
(REAL 8) 0 0 () () () '' () ())
39 'm_updstdin' 'p_gravdet' 1 ((VARIABLE UNKNOWN UNKNOWN UNKNOWN NONE
NONE) (CHARACTER 1 ((CONSTANT (INTEGER 4) 0 '32'))) 0 0 () () () '' () ())
40 'm_use_estpar' 'p_gravdet' 1 ((VARIABLE UNKNOWN UNKNOWN UNKNOWN NONE
NONE) (LOGICAL 4) 0 0 () () () '' () ())
41 'maxarc' 'p_gravdet' 1 ((PARAMETER UNKNOWN UNKNOWN UNKNOWN NONE NONE)
(INTEGER 4) 0 0 () (CONSTANT (INTEGER 4) 0 '20') () () '' () ())
42 'maxdim' 'p_gravdet' 1 ((PARAMETER UNKNOWN UNKNOWN UNKNOWN NONE NONE)
(INTEGER 4) 0 0 () (CONSTANT (INTEGER 4) 0 '7') () () '' () ())
43 'maxepo' 'p_gravdet' 1 ((PARAMETER UNKNOWN UNKNOWN UNKNOWN NONE NONE)
(INTEGER 4) 0 0 () (CONSTANT (INTEGER 4) 0 '110000') () () '' () ())
44 'maxint' 'p_gravdet' 1 ((PARAMETER UNKNOWN UNKNOWN UNKNOWN NONE NONE)
(INTEGER 4) 0 0 () (CONSTANT (INTEGER 4) 0 '9000') () () '' () ())
45 'maxlcq' 'p_gravdet' 1 ((PARAMETER UNKNOWN UNKNOWN UNKNOWN NONE NONE)
(INTEGER 4) 0 0 () (CONSTANT (INTEGER 4) 0 '7') () () '' () ())
46 'maxpar' 'p_gravdet' 1 ((PARAMETER UNKNOWN UNKNOWN UNKNOWN NONE NONE)
(INTEGER 4) 0 0 () (CONSTANT (INTEGER 4) 0 '16000') () () '' () ())
47 'maxq' 'p_gravdet' 1 ((PARAMETER UNKNOWN UNKNOWN UNKNOWN NONE NONE) (
INTEGER 4) 0 0 () (CONSTANT (INTEGER 4) 0 '20') () () '' () ())
48 'maxsat' 'm_maxdim' 1 ((PARAMETER UNKNOWN UNKNOWN UNKNOWN NONE NONE)
(INTEGER 4) 0 0 () (CONSTANT (INTEGER 4) 0 '130') () () '' () ())
49 'maxshd' 'p_gravdet' 1 ((PARAMETER UNKNOWN UNKNOWN UNKNOWN NONE NONE)
(INTEGER 4) 0 0 () (CONSTANT (INTEGER 4) 0 '500') () () '' () ())
50 'maxstc' 'p_gravdet' 1 ((PARAMETER UNKNOWN UNKNOWN UNKNOWN NONE NONE)
(INTEGER 4) 0 0 () (CONSTANT (INTEGER 4) 0 '3000') () () '' () ())
51 'p_gravdet' 'p_gravdet' 1 ((MODULE UNKNOWN UNKNOWN UNKNOWN NONE NONE)
(UNKNOWN) 0 0 () () () '' () ())
52 'pgname' 'p_gravdet' 1 ((PARAMETER UNKNOWN UNKNOWN UNKNOWN NONE NONE)
(CHARACTER 1 ((CONSTANT (INTEGER 4) 0 '7'))) 0 0 () (CONSTANT (
CHARACTER 1 ((CONSTANT (INTEGER 4) 0 '7'))) 0 7 'GRAVDET') () () '' () ())
53 'r8b' 'm_bern' 1 ((PARAMETER UNKNOWN UNKNOWN UNKNOWN NONE NONE) (
INTEGER 4) 0 0 () (CONSTANT (INTEGER 4) 0 '8') () () '' () ())
54 't_covdat' 'p_gravdet' 1 ((DERIVED UNKNOWN UNKNOWN UNKNOWN NONE NONE)
(UNKNOWN) 0 0 () () () '' ((55 'firstepoch' (DERIVED 56) () () 0 0 0 ())
(57 'rms' (REAL 8) () () 0 0 0 ()) (58 'istep' (INTEGER 4) () () 0 0 0 ())
(59 'ind1' (INTEGER 4) (1 DEFERRED () ()) () 1 1 0 ()) (60 'ind2' (
INTEGER 4) (1 DEFERRED () ()) () 1 1 0 ()) (61 'cov' (REAL 8) (1
DEFERRED () ()) () 1 1 0 ())) PUBLIC ())
56 't_epoch' 'm_epoch' 1 ((DERIVED UNKNOWN UNKNOWN UNKNOWN NONE NONE) (
UNKNOWN) 0 0 () () () '' ((62 'day' (INTEGER 4) () () 0 0 0 ()) (63 'frac'
(REAL 8) () () 0 0 0 ())) PUBLIC ())
56 't_epoch' 'm_epoch' 1 ((DERIVED UNKNOWN UNKNOWN UNKNOWN NONE NONE) (
UNKNOWN) 0 0 () () () '' ((62 'day' (INTEGER 4) () () 0 0 0 ()) (63 'frac'
(REAL 8) () () 0 0 0 ())) PUBLIC ())
5 'covdat' '' 64 ((VARIABLE UNKNOWN UNKNOWN UNKNOWN NONE NONE DUMMY) (
DERIVED 54) 0 0 () () () '' () ())
)

('filenamelength' 0 2 'i4b' 0 3 'init_covdat' 0 4 'm_bern' 0 6 'm_beta'
0 7 'm_coe' 0 8 'm_constst' 0 9 'm_elesat' 0 10 'm_epoch' 0 11 'm_estopt'
0 12 'm_fromto' 0 13 'm_ftsave' 0 14 'm_hsave' 0 15 'm_iarc' 0 16 'm_idim'
0 17 'm_indeo' 0 18 'm_intstep' 0 19 'm_iorsys' 0 20 'm_iter' 0 21
'm_locq' 0 22 'm_maxdim' 0 23 'm_maxzsd' 0 24 'm_modeop' 0 25 'm_ninter'
0 26 'm_nitint' 0 27 'm_numsat' 0 28 'm_nvar' 0 29 'm_poszsd' 0 30
'm_prcopt' 0 31 'm_prn' 0 32 'm_prtzsd' 0 33 'm_q' 0 34 'm_redprct' 0 35
'm_simul' 0 36 'm_t0save' 0 37 'm_tolxv' 0 38 'm_updstdin' 0 39
'm_use_estpar' 0 40 'maxarc' 0 41 'maxdim' 0 42 'maxepo' 0 43 'maxint' 0
44 'maxlcq' 0 45 'maxpar' 0 46 'maxq' 0 47 'maxsat' 0 48 'maxshd' 0 49
'maxstc' 0 50 'p_gravdet' 0 51 'pgname' 0 52 'r8b' 0 53 't_covdat' 0 54
't_epoch' 0 56)
