G95 module created on Thu Jun 25 17:49:40 2020 from ./.fpp/P_RESCHK.f90
If you edit this, you'll get what you deserve.
module-version 9
(() () () () () () () () () () () () () () () () () () () () ())

()

()

()

()

(2 'backslash' 'm_bern' 1 ((PARAMETER UNKNOWN UNKNOWN UNKNOWN NONE NONE)
(CHARACTER 1 ((CONSTANT (INTEGER 4) 0 '1'))) 0 0 () (CONSTANT (
CHARACTER 1 ((CONSTANT (INTEGER 4) 0 '1'))) 0 1 '\') () () '' () ())
3 'char' '(intrinsic)' 1 ((PROCEDURE UNKNOWN INTRINSIC UNKNOWN NONE NONE
FUNCTION) (UNKNOWN) 0 0 () () () '' () ())
4 'fileextlength' 'm_bern' 1 ((PARAMETER UNKNOWN UNKNOWN UNKNOWN NONE
NONE) (INTEGER 4) 0 0 () (CONSTANT (INTEGER 4) 0 '3') () () '' () ())
5 'filenamelength' 'm_bern' 1 ((PARAMETER UNKNOWN UNKNOWN UNKNOWN NONE
NONE) (INTEGER 4) 0 0 () (CONSTANT (INTEGER 4) 0 '32') () () '' () ())
6 'filenamelength80' 'm_bern' 1 ((PARAMETER UNKNOWN UNKNOWN UNKNOWN NONE
NONE) (INTEGER 4) 0 0 () (CONSTANT (INTEGER 4) 0 '80') () () '' () ())
7 'filepathlength' 'm_bern' 1 ((PARAMETER UNKNOWN UNKNOWN UNKNOWN NONE
NONE) (INTEGER 4) 0 0 () (CONSTANT (INTEGER 4) 0 '32') () () '' () ())
8 'i4b' 'm_bern' 1 ((PARAMETER UNKNOWN UNKNOWN UNKNOWN NONE NONE) (
INTEGER 4) 0 0 () (CONSTANT (INTEGER 4) 0 '4') () () '' () ())
9 'i4ex' 'm_bern' 1 ((VARIABLE UNKNOWN UNKNOWN UNKNOWN NONE NONE) (
INTEGER 4) 0 0 () () () '' () ())
10 'init_key' 'm_bern' 1 ((PROCEDURE UNKNOWN MODULE-PROC DECL NONE NONE
SUBROUTINE) (PROCEDURE 0) 0 0 (11 NONE) () () '' () ())
12 'keynamelength' 'm_bern' 1 ((PARAMETER UNKNOWN UNKNOWN UNKNOWN NONE
NONE) (INTEGER 4) 0 0 () (CONSTANT (INTEGER 4) 0 '32') () () '' () ())
13 'keyvaluelength' 'm_bern' 1 ((PARAMETER UNKNOWN UNKNOWN UNKNOWN NONE
NONE) (INTEGER 4) 0 0 () (CONSTANT (INTEGER 4) 0 '255') () () '' () ())
14 'kind' '(intrinsic)' 1 ((PROCEDURE UNKNOWN INTRINSIC UNKNOWN NONE
NONE FUNCTION) (UNKNOWN) 0 0 () () () '' () ())
15 'lfn001' 'm_bern' 1 ((VARIABLE UNKNOWN UNKNOWN UNKNOWN NONE NONE) (
INTEGER 4) 0 0 () () () '' () ())
16 'lfn002' 'm_bern' 1 ((VARIABLE UNKNOWN UNKNOWN UNKNOWN NONE NONE) (
INTEGER 4) 0 0 () () () '' () ())
17 'lfneph' 'm_bern' 1 ((VARIABLE UNKNOWN UNKNOWN UNKNOWN NONE NONE) (
INTEGER 4) 0 0 () () () '' () ())
18 'lfnerf' 'm_bern' 1 ((VARIABLE UNKNOWN UNKNOWN UNKNOWN NONE NONE) (
INTEGER 4) 0 0 () () () '' () ())
19 'lfnerr' 'm_bern' 1 ((VARIABLE UNKNOWN UNKNOWN UNKNOWN NONE NONE) (
INTEGER 4) 0 0 () () () '' () ())
20 'lfnkbd' 'm_bern' 1 ((VARIABLE UNKNOWN UNKNOWN UNKNOWN NONE NONE) (
INTEGER 4) 0 0 () () () '' () ())
21 'lfnloc' 'm_bern' 1 ((VARIABLE UNKNOWN UNKNOWN UNKNOWN NONE NONE) (
INTEGER 4) 0 0 () () () '' () ())
22 'lfnor1' 'm_bern' 1 ((VARIABLE UNKNOWN UNKNOWN UNKNOWN NONE NONE) (
INTEGER 4) 0 0 () () () '' () ())
23 'lfnorb' 'm_bern' 1 ((VARIABLE UNKNOWN UNKNOWN UNKNOWN NONE NONE) (
INTEGER 4) 0 0 () () () '' () ())
24 'lfnplt' 'm_bern' 1 ((VARIABLE UNKNOWN UNKNOWN UNKNOWN NONE NONE) (
INTEGER 4) 0 0 () () () '' () ())
25 'lfnprf' 'm_bern' 1 ((VARIABLE UNKNOWN UNKNOWN UNKNOWN NONE NONE) (
INTEGER 4) 0 0 () () () '' () ())
26 'lfnprt' 'm_bern' 1 ((VARIABLE UNKNOWN UNKNOWN UNKNOWN NONE NONE) (
INTEGER 4) 0 0 () () () '' () ())
27 'lfnres' 'm_bern' 1 ((VARIABLE UNKNOWN UNKNOWN UNKNOWN NONE NONE) (
INTEGER 4) 0 0 () () () '' () ())
28 'lfnrp1' 'm_bern' 1 ((VARIABLE UNKNOWN UNKNOWN UNKNOWN NONE NONE) (
INTEGER 4) 0 0 () () () '' () ())
29 'lfnrpr' 'm_bern' 1 ((VARIABLE UNKNOWN UNKNOWN UNKNOWN NONE NONE) (
INTEGER 4) 0 0 () () () '' () ())
30 'linelength' 'm_bern' 1 ((PARAMETER UNKNOWN UNKNOWN UNKNOWN NONE NONE)
(INTEGER 4) 0 0 () (CONSTANT (INTEGER 4) 0 '255') () () '' () ())
31 'linelength1024' 'm_bern' 1 ((PARAMETER UNKNOWN UNKNOWN UNKNOWN NONE
NONE) (INTEGER 4) 0 0 () (CONSTANT (INTEGER 4) 0 '1024') () () '' () ())
32 'longlinelength' 'm_bern' 1 ((PARAMETER UNKNOWN UNKNOWN UNKNOWN NONE
NONE) (INTEGER 4) 0 0 () (CONSTANT (INTEGER 4) 0 '512') () () '' () ())
33 'm_bern' 'm_bern' 1 ((MODULE UNKNOWN UNKNOWN UNKNOWN NONE NONE) (
UNKNOWN) 0 0 () () () '' () ())
34 'p_reschk' 'p_reschk' 1 ((MODULE UNKNOWN UNKNOWN UNKNOWN NONE NONE) (
UNKNOWN) 0 0 () () () '' () ())
35 'pgmver' 'm_bern' 1 ((PARAMETER UNKNOWN UNKNOWN UNKNOWN NONE NONE) (
CHARACTER 1 ((CONSTANT (INTEGER 4) 0 '3'))) 0 0 () (CONSTANT (CHARACTER
1 ((CONSTANT (INTEGER 4) 0 '3'))) 0 3 '5.2') () () '' () ())
36 'program_dscr' 'm_bern' 1 ((VARIABLE UNKNOWN UNKNOWN UNKNOWN NONE
NONE) (CHARACTER 1 ((CONSTANT (INTEGER 4) 0 '80'))) 0 0 () () () '' () ())
37 'program_name' 'm_bern' 1 ((VARIABLE UNKNOWN UNKNOWN UNKNOWN NONE
NONE) (CHARACTER 1 ((CONSTANT (INTEGER 4) 0 '8'))) 0 0 () () () '' () ())
38 'r8b' 'm_bern' 1 ((PARAMETER UNKNOWN UNKNOWN UNKNOWN NONE NONE) (
INTEGER 4) 0 0 () (CONSTANT (INTEGER 4) 0 '8') () () '' () ())
39 'r8ex' 'm_bern' 1 ((VARIABLE UNKNOWN UNKNOWN UNKNOWN NONE NONE) (
REAL 8) 0 0 () () () '' () ())
40 'shortlinelength' 'm_bern' 1 ((PARAMETER UNKNOWN UNKNOWN UNKNOWN NONE
NONE) (INTEGER 4) 0 0 () (CONSTANT (INTEGER 4) 0 '80') () () '' () ())
41 'stafla2length' 'm_bern' 1 ((PARAMETER UNKNOWN UNKNOWN UNKNOWN NONE
NONE) (INTEGER 4) 0 0 () (CONSTANT (INTEGER 4) 0 '5') () () '' () ())
42 'staflaglength' 'm_bern' 1 ((PARAMETER UNKNOWN UNKNOWN UNKNOWN NONE
NONE) (INTEGER 4) 0 0 () (CONSTANT (INTEGER 4) 0 '1') () () '' () ())
43 'stanam2length' 'm_bern' 1 ((PARAMETER UNKNOWN UNKNOWN UNKNOWN NONE
NONE) (INTEGER 4) 0 0 () (CONSTANT (INTEGER 4) 0 '20') () () '' () ())
44 'stanamelength' 'm_bern' 1 ((PARAMETER UNKNOWN UNKNOWN UNKNOWN NONE
NONE) (INTEGER 4) 0 0 () (CONSTANT (INTEGER 4) 0 '16') () () '' () ())
45 't_asplit' 'p_reschk' 1 ((DERIVED UNKNOWN UNKNOWN UNKNOWN NONE NONE)
(UNKNOWN) 0 0 () () () '' ((46 'satnum' (INTEGER 4) () () 0 0 0 ()) (47
'rms' (REAL 8) () () 0 0 0 ())) PUBLIC ())
48 't_badsat' 'p_reschk' 1 ((DERIVED UNKNOWN UNKNOWN UNKNOWN NONE NONE)
(UNKNOWN) 0 0 () () () '' ((49 'isat' (INTEGER 4) () () 0 0 0 ()) (50
'satnum' (INTEGER 4) () () 0 0 0 ()) (51 'flag' (INTEGER 4) () () 0 0 0
()) (52 'rmsratio' (REAL 8) () () 0 0 0 ())) PUBLIC ())
53 't_badsta' 'p_reschk' 1 ((DERIVED UNKNOWN UNKNOWN UNKNOWN NONE NONE)
(UNKNOWN) 0 0 () () () '' ((54 'stanam' (CHARACTER 1 ((CONSTANT (
INTEGER 4) 0 '20'))) () () 0 0 0 ()) (55 'filnam' (CHARACTER 1 ((
CONSTANT (INTEGER 4) 0 '32'))) () () 0 0 0 ()) (56 'nsta' (INTEGER 4) ()
() 0 0 0 ()) (57 'rmssum' (REAL 8) () () 0 0 0 ()) (58 'rmsratio' (REAL
8) () () 0 0 0 ())) PUBLIC ())
59 't_key' 'm_bern' 1 ((DERIVED UNKNOWN UNKNOWN UNKNOWN NONE NONE) (
UNKNOWN) 0 0 () () () '' ((60 'name' (CHARACTER 1 ((CONSTANT (INTEGER 4)
0 '32'))) () () 0 0 0 ()) (61 'value' (CHARACTER 1 ((CONSTANT (INTEGER 4)
0 '255'))) (1 DEFERRED () ()) () 1 1 0 ())) PUBLIC ())
62 't_reschk_opt' 'p_reschk' 1 ((DERIVED UNKNOWN UNKNOWN UNKNOWN NONE
NONE) (UNKNOWN) 0 0 () () () '' ((63 'satcrux' (CHARACTER 1 ((CONSTANT (
INTEGER 4) 0 '32'))) () () 0 0 0 ()) (64 'sesfile' (CHARACTER 1 ((
CONSTANT (INTEGER 4) 0 '32'))) () () 0 0 0 ()) (65 'abbpan' (CHARACTER 1
((CONSTANT (INTEGER 4) 0 '32'))) () () 0 0 0 ()) (66 'asplit' (
CHARACTER 1 ((CONSTANT (INTEGER 4) 0 '32'))) () () 0 0 0 ()) (67 'codxtr'
(CHARACTER 1 ((CONSTANT (INTEGER 4) 0 '32'))) () () 0 0 0 ()) (68 'resrms'
(CHARACTER 1 ((CONSTANT (INTEGER 4) 0 '32'))) () () 0 0 0 ()) (69 'delsta'
(CHARACTER 1 ((CONSTANT (INTEGER 4) 0 '32'))) () () 0 0 0 ()) (70 'sumout'
(CHARACTER 1 ((CONSTANT (INTEGER 4) 0 '32'))) () () 0 0 0 ()) (71 'title'
(CHARACTER 1 ((CONSTANT (INTEGER 4) 0 '80'))) () () 0 0 0 ()) (72
'summary' (INTEGER 4) () () 0 0 0 ()) (73 'iyear4' (INTEGER 4) () () 0 0
0 ()) (74 'badsta' (LOGICAL 4) () () 0 0 0 ()) (75 'ndiff' (INTEGER 4) ()
() 0 0 0 ()) (76 'maxsta0' (INTEGER 4) () () 0 0 0 ()) (77 'maxrms0' (
REAL 8) () () 0 0 0 ()) (78 'badsol0' (REAL 8) () () 0 0 0 ()) (79
'maxsta1' (INTEGER 4) () () 0 0 0 ()) (80 'maxrms1' (REAL 8) () () 0 0 0
()) (81 'dir_czh' (CHARACTER 1 ((CONSTANT (INTEGER 4) 0 '255'))) () () 0
0 0 ()) (82 'dir_czo' (CHARACTER 1 ((CONSTANT (INTEGER 4) 0 '255'))) ()
() 0 0 0 ()) (83 'dir_pzh' (CHARACTER 1 ((CONSTANT (INTEGER 4) 0 '255')))
() () 0 0 0 ()) (84 'dir_pzo' (CHARACTER 1 ((CONSTANT (INTEGER 4) 0 '255')))
() () 0 0 0 ()) (85 'ext_czh' (CHARACTER 1 ((CONSTANT (INTEGER 4) 0 '3')))
() () 0 0 0 ()) (86 'ext_czo' (CHARACTER 1 ((CONSTANT (INTEGER 4) 0 '3')))
() () 0 0 0 ()) (87 'ext_pzh' (CHARACTER 1 ((CONSTANT (INTEGER 4) 0 '3')))
() () 0 0 0 ()) (88 'ext_pzo' (CHARACTER 1 ((CONSTANT (INTEGER 4) 0 '3')))
() () 0 0 0 ()) (89 'mansat' (LOGICAL 4) () () 0 0 0 ()) (90 'maxrrms' (
REAL 8) () () 0 0 0 ()) (91 'maxdel' (REAL 8) () () 0 0 0 ()) (92
'maxarms' (REAL 8) () () 0 0 0 ()) (93 'maxorb' (REAL 8) () () 0 0 0 ())
(94 'maxmrms' (REAL 8) () () 0 0 0 ()) (95 'minobsg' (REAL 8) () () 0 0
0 ()) (96 'minobsr' (REAL 8) () () 0 0 0 ()) (97 'del1sat' (LOGICAL 4) ()
() 0 0 0 ()) (98 'tstmode' (LOGICAL 4) () () 0 0 0 ())) PUBLIC ())
99 't_rmssat' 'p_reschk' 1 ((DERIVED UNKNOWN UNKNOWN UNKNOWN NONE NONE)
(UNKNOWN) 0 0 () () () '' ((100 'satnum' (INTEGER 4) () () 0 0 0 ()) (
101 'rms' (REAL 8) (1 EXPLICIT (CONSTANT (INTEGER 4) 0 '1') (CONSTANT (
INTEGER 4) 0 '2')) () 1 0 0 ()) (102 'obs' (REAL 8) (1 EXPLICIT (
CONSTANT (INTEGER 4) 0 '1') (CONSTANT (INTEGER 4) 0 '2')) () 1 0 0 ()) (
103 'numobs' (INTEGER 4) (1 EXPLICIT (CONSTANT (INTEGER 4) 0 '1') (
CONSTANT (INTEGER 4) 0 '2')) () 1 0 0 ()) (104 'satarc' (REAL 8) (1
EXPLICIT (CONSTANT (INTEGER 4) 0 '1') (CONSTANT (INTEGER 4) 0 '2')) () 1
0 0 ())) PUBLIC ())
105 't_rmssta' 'p_reschk' 1 ((DERIVED UNKNOWN UNKNOWN UNKNOWN NONE NONE)
(UNKNOWN) 0 0 () () () '' ((106 'stanam' (CHARACTER 1 ((CONSTANT (
INTEGER 4) 0 '20'))) (1 EXPLICIT (CONSTANT (INTEGER 4) 0 '1') (CONSTANT
(INTEGER 4) 0 '2')) () 1 0 0 ()) (107 'filnam' (CHARACTER 1 ((CONSTANT (
INTEGER 4) 0 '32'))) (1 EXPLICIT (CONSTANT (INTEGER 4) 0 '1') (CONSTANT
(INTEGER 4) 0 '2')) () 1 0 0 ()) (108 'rms' (REAL 8) () () 0 0 0 ()))
PUBLIC ())
109 't_satcrx' 'p_reschk' 1 ((DERIVED UNKNOWN UNKNOWN UNKNOWN NONE NONE)
(UNKNOWN) 0 0 () () () '' ((110 'satnum' (INTEGER 4) () () 0 0 0 ()) (
111 'iline' (INTEGER 4) () () 0 0 0 ()) (112 'iobbad' (INTEGER 4) () ()
0 0 0 ()) (113 'iacbad' (INTEGER 4) () () 0 0 0 ()) (114 'timbad' (REAL
8) (1 EXPLICIT (CONSTANT (INTEGER 4) 0 '1') (CONSTANT (INTEGER 4) 0 '2'))
() 1 0 0 ())) PUBLIC ())
115 'timstrglength' 'm_bern' 1 ((PARAMETER UNKNOWN UNKNOWN UNKNOWN NONE
NONE) (INTEGER 4) 0 0 () (CONSTANT (INTEGER 4) 0 '19') () () '' () ())
116 'timstrglength2' 'm_bern' 1 ((PARAMETER UNKNOWN UNKNOWN UNKNOWN NONE
NONE) (INTEGER 4) 0 0 () (CONSTANT (INTEGER 4) 0 '40') () () '' () ())
11 'key' '' 117 ((VARIABLE UNKNOWN UNKNOWN UNKNOWN NONE NONE DUMMY) (
DERIVED 59) 0 0 () () () '' () ())
)

('backslash' 0 2 'char' 0 3 'fileextlength' 0 4 'filenamelength' 0 5
'filenamelength80' 0 6 'filepathlength' 0 7 'i4b' 0 8 'i4ex' 0 9
'init_key' 0 10 'keynamelength' 0 12 'keyvaluelength' 0 13 'kind' 0 14
'lfn001' 0 15 'lfn002' 0 16 'lfneph' 0 17 'lfnerf' 0 18 'lfnerr' 0 19
'lfnkbd' 0 20 'lfnloc' 0 21 'lfnor1' 0 22 'lfnorb' 0 23 'lfnplt' 0 24
'lfnprf' 0 25 'lfnprt' 0 26 'lfnres' 0 27 'lfnrp1' 0 28 'lfnrpr' 0 29
'linelength' 0 30 'linelength1024' 0 31 'longlinelength' 0 32 'm_bern' 0
33 'p_reschk' 0 34 'pgmver' 0 35 'program_dscr' 0 36 'program_name' 0 37
'r8b' 0 38 'r8ex' 0 39 'shortlinelength' 0 40 'stafla2length' 0 41
'staflaglength' 0 42 'stanam2length' 0 43 'stanamelength' 0 44 't_asplit'
0 45 't_badsat' 0 48 't_badsta' 0 53 't_key' 0 59 't_reschk_opt' 0 62
't_rmssat' 0 99 't_rmssta' 0 105 't_satcrx' 0 109 'timstrglength' 0 115
'timstrglength2' 0 116)
