G95 module created on Thu Jun 25 17:49:22 2020 from ./.fpp/P_RNXGRA.f90
If you edit this, you'll get what you deserve.
module-version 9
(() () () () () () () () () () () () () () () () () () () () ())

()

()

()

()

(2 'd_rinex3' 'd_rinex3' 1 ((MODULE UNKNOWN UNKNOWN UNKNOWN NONE NONE) (
UNKNOWN) 0 0 () () () '' () ())
3 'filenamelength' 'm_bern' 1 ((PARAMETER UNKNOWN UNKNOWN UNKNOWN NONE
NONE) (INTEGER 4) 0 0 () (CONSTANT (INTEGER 4) 0 '32') () () '' () ())
4 'i4b' 'm_bern' 1 ((PARAMETER UNKNOWN UNKNOWN UNKNOWN NONE NONE) (
INTEGER 4) 0 0 () (CONSTANT (INTEGER 4) 0 '4') () () '' () ())
5 'm_bern' 'm_bern' 1 ((MODULE UNKNOWN UNKNOWN UNKNOWN NONE NONE) (
UNKNOWN) 0 0 () () () '' () ())
6 'maxchr' 'p_rnxgra' 1 ((PARAMETER UNKNOWN UNKNOWN UNKNOWN NONE NONE) (
INTEGER 4) 0 0 () (CONSTANT (INTEGER 4) 0 '72') () () '' () ())
7 'maxfil' 'p_rnxgra' 1 ((PARAMETER UNKNOWN UNKNOWN UNKNOWN NONE NONE) (
INTEGER 4) 0 0 () (CONSTANT (INTEGER 4) 0 '300') () () '' () ())
8 'maxrec' 'p_rnxgra' 1 ((PARAMETER UNKNOWN UNKNOWN UNKNOWN NONE NONE) (
INTEGER 4) 0 0 () (CONSTANT (INTEGER 4) 0 '1000000') () () '' () ())
9 'maxsat' 'p_rnxgra' 1 ((PARAMETER UNKNOWN UNKNOWN UNKNOWN NONE NONE) (
INTEGER 4) 0 0 () (CONSTANT (INTEGER 4) 0 '350') () () '' () ())
10 'maxtyp' 'd_rinex3' 1 ((PARAMETER UNKNOWN UNKNOWN UNKNOWN NONE NONE)
(INTEGER 4) 0 0 () (CONSTANT (INTEGER 4) 0 '134') () () '' () ())
11 'p_rnxgra' 'p_rnxgra' 1 ((MODULE UNKNOWN UNKNOWN UNKNOWN NONE NONE) (
UNKNOWN) 0 0 () () () '' () ())
12 'r8b' 'm_bern' 1 ((PARAMETER UNKNOWN UNKNOWN UNKNOWN NONE NONE) (
INTEGER 4) 0 0 () (CONSTANT (INTEGER 4) 0 '8') () () '' () ())
13 't_rnxgra_opt' 'p_rnxgra' 1 ((DERIVED UNKNOWN UNKNOWN UNKNOWN NONE
NONE) (UNKNOWN) 0 0 () () () '' ((14 'iopt' (INTEGER 4) () () 0 0 0 ())
(15 'iobtol' (INTEGER 4) () () 0 0 0 ()) (16 'istops' (INTEGER 4) () ()
0 0 0 ()) (17 'minsig' (INTEGER 4) () () 0 0 0 ()) (18 'cycgra' (
INTEGER 4) () () 0 0 0 ()) (19 'getlst' (INTEGER 4) () () 0 0 0 ()) (20
'lstfil' (CHARACTER 1 ((CONSTANT (INTEGER 4) 0 '32'))) () () 0 0 0 ()) (
21 'delfil' (CHARACTER 1 ((CONSTANT (INTEGER 4) 0 '32'))) () () 0 0 0 ())
(22 'obssys' (INTEGER 4) () () 0 0 0 ()) (23 'minobs' (INTEGER 4) () ()
0 0 0 ()) (24 'maxsta' (INTEGER 4) () () 0 0 0 ()) (25 'maxbad' (
INTEGER 4) () () 0 0 0 ()) (26 'badobs' (INTEGER 4) () () 0 0 0 ()) (27
'adjday' (LOGICAL 4) () () 0 0 0 ())) PUBLIC ())
28 'timchr' 'p_rnxgra' 1 ((PARAMETER UNKNOWN UNKNOWN UNKNOWN NONE NONE)
(REAL 8) 0 0 () (CONSTANT (REAL 8) 0 '5277655813324800' 0 1033) () () ''
() ())
)

('d_rinex3' 0 2 'filenamelength' 0 3 'i4b' 0 4 'm_bern' 0 5 'maxchr' 0 6
'maxfil' 0 7 'maxrec' 0 8 'maxsat' 0 9 'maxtyp' 0 10 'p_rnxgra' 0 11 'r8b'
0 12 't_rnxgra_opt' 0 13 'timchr' 0 28)
