G95 module created on Thu Jun 25 17:50:28 2020 from ./.fpp/ADDANT.f90
If you edit this, you'll get what you deserve.
module-version 9
(() () () () () () () () () () () () () () () () () () () () ())

()

()

()

()

(2 'addant' 's_addant' 1 ((PROCEDURE UNKNOWN MODULE-PROC DECL NONE NONE
SUBROUTINE) (PROCEDURE 0) 0 0 (3 NONE 4 NONE 5 NONE 6 NONE 7 NONE 8 NONE
9 NONE 10 NONE 11 NONE 12 NONE 13 NONE) () () '' () ())
14 's_addant' 's_addant' 1 ((MODULE UNKNOWN UNKNOWN UNKNOWN NONE NONE) (
UNKNOWN) 0 0 () () () '' () ())
13 'iant' '' 15 ((VARIABLE UNKNOWN UNKNOWN UNKNOWN NONE NONE DUMMY) (
INTEGER 4) 0 0 () () () '' () ())
12 'antbuf' '' 15 ((VARIABLE UNKNOWN UNKNOWN UNKNOWN NONE NONE DIMENSION
POINTER DUMMY) (DERIVED 16) 0 0 () (1 DEFERRED () ()) () '' () ())
16 't_phasfil' 'd_phaecc' 15 ((DERIVED UNKNOWN UNKNOWN UNKNOWN NONE NONE)
(UNKNOWN) 0 0 () () () '' ((17 'name' (CHARACTER 1 ((CONSTANT (INTEGER 4)
0 '20'))) () () 0 0 0 ()) (18 'numb' (INTEGER 4) () () 0 0 0 ()) (19 'sys'
(DERIVED 20) (1 DEFERRED () ()) () 1 1 0 ()) (21 'individ' (INTEGER 4) ()
() 0 0 0 ())) PUBLIC ())
20 't_sys' 'd_phaecc' 15 ((DERIVED UNKNOWN UNKNOWN UNKNOWN NONE NONE) (
UNKNOWN) 0 0 () () () '' ((22 'freq' (DERIVED 23) (1 DEFERRED () ()) ()
1 1 0 ()) (24 'nfreq' (INTEGER 4) () () 0 0 0 ()) (25 'typ' (INTEGER 4)
() () 0 0 0 ()) (26 'resolu' (INTEGER 4) (1 EXPLICIT (CONSTANT (INTEGER
4) 0 '1') (CONSTANT (INTEGER 4) 0 '4')) () 1 0 0 ()) (27 'sinex' (
CHARACTER 1 ((CONSTANT (INTEGER 4) 0 '10'))) () () 0 0 0 ()) (28 'method'
(CHARACTER 1 ((CONSTANT (INTEGER 4) 0 '20'))) () () 0 0 0 ()) (29 'date'
(CHARACTER 1 ((CONSTANT (INTEGER 4) 0 '10'))) () () 0 0 0 ()) (30 'remark'
(CHARACTER 1 ((CONSTANT (INTEGER 4) 0 '255'))) () () 0 0 0 ())) PUBLIC ())
23 't_freq' 'd_phaecc' 15 ((DERIVED UNKNOWN UNKNOWN UNKNOWN NONE NONE) (
UNKNOWN) 0 0 () () () '' ((31 'freq' (INTEGER 4) () () 0 0 0 ()) (32 'off'
(REAL 8) (2 DEFERRED () () () ()) () 1 1 0 ()) (33 'pat' (REAL 8) (3
DEFERRED () () () () () ()) () 1 1 0 ()) (34 'fac' (REAL 8) (1 DEFERRED
() ()) () 1 1 0 ())) PUBLIC ())
11 'aoapcv' '' 15 ((VARIABLE UNKNOWN UNKNOWN UNKNOWN NONE NONE DIMENSION
POINTER DUMMY) (REAL 8) 0 0 () (2 DEFERRED () () () ()) () '' () ())
10 'arcv' '' 15 ((VARIABLE UNKNOWN UNKNOWN UNKNOWN NONE NONE DUMMY) (
INTEGER 4) 0 0 () () () '' () ())
9 'aoadmt' '' 15 ((VARIABLE UNKNOWN UNKNOWN UNKNOWN NONE NONE DUMMY) (
INTEGER 4) 0 0 () () () '' () ())
8 'oldazi' '' 15 ((VARIABLE UNKNOWN UNKNOWN UNKNOWN NONE NONE DUMMY) (
INTEGER 4) 0 0 () () () '' () ())
7 'oldelv' '' 15 ((VARIABLE UNKNOWN UNKNOWN UNKNOWN NONE NONE DUMMY) (
INTEGER 4) 0 0 () () () '' () ())
6 'isys' '' 15 ((VARIABLE UNKNOWN UNKNOWN UNKNOWN NONE NONE DUMMY) (
INTEGER 4) 0 0 () () () '' () ())
5 'oant' '' 15 ((VARIABLE UNKNOWN UNKNOWN UNKNOWN NONE NONE DUMMY) (
INTEGER 4) 0 0 () () () '' () ())
4 'anten' '' 15 ((VARIABLE UNKNOWN UNKNOWN UNKNOWN NONE NONE DIMENSION
POINTER DUMMY) (DERIVED 16) 0 0 () (1 DEFERRED () ()) () '' () ())
3 'add' '' 15 ((VARIABLE UNKNOWN UNKNOWN UNKNOWN NONE NONE DUMMY) (
INTEGER 4) 0 0 () () () '' () ())
)

('addant' 0 2 's_addant' 0 14)
