G95 module created on Thu Jun 25 17:49:21 2020 from ./.fpp/AMBCST.f90
If you edit this, you'll get what you deserve.
module-version 9
(() () () () () () () () () () () () () () () () () () () () ())

()

()

()

()

(2 'ambcst' 's_ambcst' 1 ((PROCEDURE UNKNOWN MODULE-PROC DECL NONE NONE
SUBROUTINE) (PROCEDURE 0) 0 0 (3 NONE 4 NONE 5 NONE 6 NONE 7 NONE 8 NONE
9 NONE) () () '' () ())
10 's_ambcst' 's_ambcst' 1 ((MODULE UNKNOWN UNKNOWN UNKNOWN NONE NONE) (
UNKNOWN) 0 0 () () () '' () ())
9 'weight_amb' '' 11 ((VARIABLE IN UNKNOWN UNKNOWN NONE NONE DUMMY) (
REAL 8) 0 0 () () () '' () ())
8 'anor' '' 11 ((VARIABLE INOUT UNKNOWN UNKNOWN NONE NONE DIMENSION
DUMMY) (REAL 8) 0 0 () (1 ASSUMED_SIZE (CONSTANT (INTEGER 4) 0 '1') ())
() '' () ())
7 'locq' '' 11 ((VARIABLE IN UNKNOWN UNKNOWN NONE NONE DIMENSION DUMMY)
(INTEGER 4) 0 0 () (2 ASSUMED_SIZE (CONSTANT (INTEGER 4) 0 '1') (
CONSTANT (INTEGER 4) 0 '7') (CONSTANT (INTEGER 4) 0 '1') ()) () '' () ())
6 'timfil' '' 11 ((VARIABLE INOUT UNKNOWN UNKNOWN NONE NONE DIMENSION
DUMMY) (DERIVED 12) 0 0 () (1 ASSUMED_SHAPE () ()) () '' () ())
12 't_ambtime' 'p_gpsest' 11 ((DERIVED UNKNOWN UNKNOWN UNKNOWN NONE NONE)
(UNKNOWN) 0 0 () () () '' ((13 'ninter' (INTEGER 4) () () 0 0 0 ()) (14
'ambint' (DERIVED 15) (1 DEFERRED () ()) () 1 1 0 ())) PUBLIC ())
15 't_ambtimerec' 'p_gpsest' 11 ((DERIVED UNKNOWN UNKNOWN UNKNOWN NONE
NONE) (UNKNOWN) 0 0 () () () '' ((16 'int' (DERIVED 17) () () 0 0 0 ())
(18 'ref' (INTEGER 4) () () 0 0 0 ()) (19 'clu' (INTEGER 4) (1 DEFERRED
() ()) () 1 1 0 ())) PUBLIC ())
17 't_timint' 'm_time' 11 ((DERIVED UNKNOWN UNKNOWN UNKNOWN NONE NONE) (
UNKNOWN) 0 0 () () () '' ((20 't' (REAL 8) (1 EXPLICIT (CONSTANT (
INTEGER 4) 0 '1') (CONSTANT (INTEGER 4) 0 '2')) () 1 0 0 ())) PUBLIC ())
5 'nftot' '' 11 ((VARIABLE INOUT UNKNOWN UNKNOWN NONE NONE DUMMY) (
INTEGER 4) 0 0 () () () '' () ())
4 'nobs' '' 11 ((VARIABLE INOUT UNKNOWN UNKNOWN NONE NONE DUMMY) (
INTEGER 4) 0 0 () () () '' () ())
3 'npar' '' 11 ((VARIABLE IN UNKNOWN UNKNOWN NONE NONE DUMMY) (INTEGER 4)
0 0 () () () '' () ())
)

('ambcst' 0 2 's_ambcst' 0 10)
