G95 module created on Thu Jun 25 17:50:44 2020 from ./.fpp/AOPTORB.f90
If you edit this, you'll get what you deserve.
module-version 9
(() () () () () () () () () () () () () () () () () () () () ())

()

()

()

()

(2 'aoptorb' 's_aoptorb' 1 ((PROCEDURE UNKNOWN MODULE-PROC DECL NONE
NONE SUBROUTINE) (PROCEDURE 0) 0 0 (3 NONE 4 NONE) () () '' () ())
5 's_aoptorb' 's_aoptorb' 1 ((MODULE UNKNOWN UNKNOWN UNKNOWN NONE NONE)
(UNKNOWN) 0 0 () () () '' () ())
4 'parorb' '' 6 ((VARIABLE UNKNOWN UNKNOWN UNKNOWN NONE NONE DUMMY) (
DERIVED 7) 0 0 () () () '' () ())
7 't_parorb' 'p_addneq' 6 ((DERIVED UNKNOWN UNKNOWN UNKNOWN NONE NONE) (
UNKNOWN) 0 0 () () () '' ((8 'norb' (INTEGER 4) () () 0 0 0 ()) (9
'seqorb' (INTEGER 4) (1 EXPLICIT (CONSTANT (INTEGER 4) 0 '1') (CONSTANT
(INTEGER 4) 0 '15')) () 1 0 0 ()) (10 'epoorb' (REAL 8) (1 DEFERRED () ())
() 1 1 0 ())) PUBLIC ())
3 'opt' '' 6 ((VARIABLE UNKNOWN UNKNOWN UNKNOWN NONE NONE DUMMY) (
DERIVED 11) 0 0 () () () '' () ())
11 't_opt' 'p_addneq' 6 ((DERIVED UNKNOWN UNKNOWN UNKNOWN NONE NONE) (
UNKNOWN) 0 0 () () () '' ((12 'title' (CHARACTER 1 ((CONSTANT (INTEGER 4)
0 '80'))) () () 0 0 0 ()) (13 'const' (CHARACTER 1 ((CONSTANT (INTEGER 4)
0 '32'))) () () 0 0 0 ()) (14 'datumfil' (CHARACTER 1 ((CONSTANT (
INTEGER 4) 0 '32'))) () () 0 0 0 ()) (15 'stacrux' (CHARACTER 1 ((
CONSTANT (INTEGER 4) 0 '32'))) () () 0 0 0 ()) (16 'satcrux' (CHARACTER
1 ((CONSTANT (INTEGER 4) 0 '32'))) () () 0 0 0 ()) (17 'satell' (
CHARACTER 1 ((CONSTANT (INTEGER 4) 0 '32'))) () () 0 0 0 ()) (18 'phasecc'
(CHARACTER 1 ((CONSTANT (INTEGER 4) 0 '32'))) () () 0 0 0 ()) (19 'pole'
(CHARACTER 1 ((CONSTANT (INTEGER 4) 0 '32'))) () () 0 0 0 ()) (20
'sinexin' (CHARACTER 1 ((CONSTANT (INTEGER 4) 0 '32'))) () () 0 0 0 ())
(21 'ionexcf' (CHARACTER 1 ((CONSTANT (INTEGER 4) 0 '32'))) () () 0 0 0
()) (22 'coord' (CHARACTER 1 ((CONSTANT (INTEGER 4) 0 '32'))) () () 0 0
0 ()) (23 'velapr' (CHARACTER 1 ((CONSTANT (INTEGER 4) 0 '32'))) () () 0
0 0 ()) (24 'covcomi' (CHARACTER 1 ((CONSTANT (INTEGER 4) 0 '32'))) () ()
0 0 0 ()) (25 'gccinp' (CHARACTER 1 ((CONSTANT (INTEGER 4) 0 '32'))) ()
() 0 0 0 ()) (26 'gccout' (CHARACTER 1 ((CONSTANT (INTEGER 4) 0 '32')))
() () 0 0 0 ()) (27 'dcbinp' (CHARACTER 1 ((CONSTANT (INTEGER 4) 0 '32')))
() () 0 0 0 ()) (28 'rgbinp' (CHARACTER 1 ((CONSTANT (INTEGER 4) 0 '32')))
() () 0 0 0 ()) (29 'ionos' (CHARACTER 1 ((CONSTANT (INTEGER 4) 0 '32')))
() () 0 0 0 ()) (30 'neqout' (CHARACTER 1 ((CONSTANT (INTEGER 4) 0 '32')))
() () 0 0 0 ()) (31 'coordrs' (CHARACTER 1 ((CONSTANT (INTEGER 4) 0 '32')))
() () 0 0 0 ()) (32 'velors' (CHARACTER 1 ((CONSTANT (INTEGER 4) 0 '32')))
() () 0 0 0 ()) (33 'sinexrs' (CHARACTER 1 ((CONSTANT (INTEGER 4) 0 '32')))
() () 0 0 0 ()) (34 'paramin' (CHARACTER 1 ((CONSTANT (INTEGER 4) 0 '32')))
() () 0 0 0 ()) (35 'paramrs' (CHARACTER 1 ((CONSTANT (INTEGER 4) 0 '32')))
() () 0 0 0 ()) (36 'tropsav' (CHARACTER 1 ((CONSTANT (INTEGER 4) 0 '32')))
() () 0 0 0 ()) (37 'tropsnx' (CHARACTER 1 ((CONSTANT (INTEGER 4) 0 '32')))
() () 0 0 0 ()) (38 'dcbout' (CHARACTER 1 ((CONSTANT (INTEGER 4) 0 '32')))
() () 0 0 0 ()) (39 'gravout' (CHARACTER 1 ((CONSTANT (INTEGER 4) 0 '32')))
() () 0 0 0 (CONSTANT (CHARACTER 1 ((CONSTANT (INTEGER 4) 0 '32'))) 0 32
'                                ')) (40 'ionosrs' (CHARACTER 1 ((
CONSTANT (INTEGER 4) 0 '32'))) () () 0 0 0 ()) (41 'ionexrs' (CHARACTER
1 ((CONSTANT (INTEGER 4) 0 '32'))) () () 0 0 0 ()) (42 'polers' (
CHARACTER 1 ((CONSTANT (INTEGER 4) 0 '32'))) () () 0 0 0 ()) (43 'ierspol'
(CHARACTER 1 ((CONSTANT (INTEGER 4) 0 '32'))) () () 0 0 0 ()) (44 'plotrs'
(CHARACTER 1 ((CONSTANT (INTEGER 4) 0 '32'))) () () 0 0 0 ()) (45
'covarrs' (CHARACTER 1 ((CONSTANT (INTEGER 4) 0 '32'))) () () 0 0 0 ())
(46 'covttrs' (CHARACTER 1 ((CONSTANT (INTEGER 4) 0 '32'))) () () 0 0 0
()) (47 'rgbout' (CHARACTER 1 ((CONSTANT (INTEGER 4) 0 '32'))) () () 0 0
0 ()) (48 'wgtout' (CHARACTER 1 ((CONSTANT (INTEGER 4) 0 '32'))) () () 0
0 0 ()) (49 'sysout' (CHARACTER 1 ((CONSTANT (INTEGER 4) 0 '32'))) () ()
0 0 0 ()) (50 'syserr' (CHARACTER 1 ((CONSTANT (INTEGER 4) 0 '32'))) ()
() 0 0 0 ()) (51 'auxfil' (CHARACTER 1 ((CONSTANT (INTEGER 4) 0 '32')))
() () 0 0 0 ()) (52 'maxpar' (INTEGER 4) () () 0 0 0 ()) (53 'neqfilename'
(CHARACTER 1 ((CONSTANT (INTEGER 4) 0 '32'))) (1 DEFERRED () ()) () 1 1
0 ()) (54 'orbfil' (CHARACTER 1 ((CONSTANT (INTEGER 4) 0 '32'))) (2
DEFERRED () () () ()) () 1 1 0 ()) (55 'noinv' (LOGICAL 4) () () 0 0 0 ())
(56 'req' (DERIVED 57) (1 DEFERRED () ()) () 1 1 0 ()) (58 'elimi' (
DERIVED 59) (1 DEFERRED () ()) () 1 1 0 ()) (60 'nstcep' (INTEGER 4) ()
() 0 0 0 ()) (61 'rsw' (INTEGER 4) (1 EXPLICIT (CONSTANT (INTEGER 4) 0 '1')
(CONSTANT (INTEGER 4) 0 '3')) () 1 0 0 ()) (62 'sigrsw' (REAL 8) (1
EXPLICIT (CONSTANT (INTEGER 4) 0 '1') (CONSTANT (INTEGER 4) 0 '3')) () 1
0 0 ()) (63 'numstc' (INTEGER 4) () () 0 0 0 ()) (64 'svnstc' (INTEGER 4)
(1 EXPLICIT (CONSTANT (INTEGER 4) 0 '1') (CONSTANT (INTEGER 4) 0 '130'))
() 1 0 0 ()) (65 'dtstc' (REAL 8) () () 0 0 0 ()) (66 'numdyn' (INTEGER
4) () () 0 0 0 ()) (67 'svndyn' (INTEGER 4) (1 EXPLICIT (CONSTANT (
INTEGER 4) 0 '1') (CONSTANT (INTEGER 4) 0 '130')) () 1 0 0 ()) (68
'numgap' (INTEGER 4) () () 0 0 0 ()) (69 'svngap' (INTEGER 4) (1
EXPLICIT (CONSTANT (INTEGER 4) 0 '1') (CONSTANT (INTEGER 4) 0 '130')) ()
1 0 0 ()) (70 'numnac' (INTEGER 4) () () 0 0 0 ()) (71 'newarc' (
INTEGER 4) (2 EXPLICIT (CONSTANT (INTEGER 4) 0 '1') (CONSTANT (INTEGER 4)
0 '2') (CONSTANT (INTEGER 4) 0 '1') (CONSTANT (INTEGER 4) 0 '3900')) ()
1 0 0 ()) (72 'sigma0' (REAL 8) () () 0 0 0 ()) (73 'sigma' (DERIVED 74)
(1 DEFERRED () ()) () 1 1 0 ()) (75 'trafo' (INTEGER 4) () () 0 0 0 ())
(76 'splitdyn' (INTEGER 4) () () 0 0 0 ()) (77 'polestep' (INTEGER 4) ()
() 0 0 0 ()) (78 'indvsol' (INTEGER 4) () () 0 0 0 ()) (79 'iphelm' (
INTEGER 4) (1 EXPLICIT (CONSTANT (INTEGER 4) 0 '1') (CONSTANT (INTEGER 4)
0 '7')) () 1 0 0 ()) (80 'minsol' (INTEGER 4) () () 0 0 0 ()) (81 'badsol'
(REAL 8) (2 EXPLICIT (CONSTANT (INTEGER 4) 0 '1') (CONSTANT (INTEGER 4)
0 '2') (CONSTANT (INTEGER 4) 0 '1') (CONSTANT (INTEGER 4) 0 '3')) () 1 0
0 ()) (82 'blkret' (REAL 8) () () 0 0 0 ()) (83 'timrefcrd' (REAL 8) ()
() 0 0 0 ()) (84 'helmsig' (REAL 8) (2 EXPLICIT (CONSTANT (INTEGER 4) 0
'1') (CONSTANT (INTEGER 4) 0 '3') (CONSTANT (INTEGER 4) 0 '1') (
CONSTANT (INTEGER 4) 0 '7')) () 1 0 0 ()) (85 'trpexceptday' (INTEGER 4)
() () 0 0 0 ()) (86 'prt' (INTEGER 4) (1 EXPLICIT (CONSTANT (INTEGER 4)
0 '1') (CONSTANT (INTEGER 4) 0 '10')) () 1 0 0 ()) (87 'setupgcc' (
INTEGER 4) () () 0 0 0 ()) (88 'ieuref' (INTEGER 4) () () 0 0 0 ()) (89
'antred' (INTEGER 4) () () 0 0 0 ()) (90 'erprep' (INTEGER 4) () () 0 0
0 ()) (91 'stasort' (INTEGER 4) (1 EXPLICIT (CONSTANT (INTEGER 4) 0 '1')
(CONSTANT (INTEGER 4) 0 '2')) () 1 0 0 ()) (92 'snxinc' (INTEGER 4) () ()
0 0 0 ()) (93 'snxreg' (REAL 8) () () 0 0 0 ()) (94 'dtrelsig' (REAL 8)
(1 EXPLICIT (CONSTANT (INTEGER 4) 0 '1') (CONSTANT (INTEGER 4) 0 '3')) ()
1 0 0 ()) (95 'noabc' (INTEGER 4) () () 0 0 0 ()) (96 'chrono' (INTEGER
4) () () 0 0 0 ()) (97 'step2' (INTEGER 4) () () 0 0 0 ()) (98 'step2_t'
(REAL 8) (1 EXPLICIT (CONSTANT (INTEGER 4) 0 '1') (CONSTANT (INTEGER 4)
0 '2')) () 1 0 0 ()) (99 'sincont' (INTEGER 4) () () 0 0 0 ()) (100
'covmode' (INTEGER 4) () () 0 0 0 ()) (101 'stackrgb' (INTEGER 4) () ()
0 0 0 ()) (102 'saoopt' (INTEGER 4) (1 EXPLICIT (CONSTANT (INTEGER 4) 0
'1') (CONSTANT (INTEGER 4) 0 '2')) () 1 0 0 ()) (103 'sapopt' (INTEGER 4)
(1 EXPLICIT (CONSTANT (INTEGER 4) 0 '1') (CONSTANT (INTEGER 4) 0 '2')) ()
1 0 0 ()) (104 'grdload' (DERIVED 105) (1 EXPLICIT (CONSTANT (INTEGER 4)
0 '1') (CONSTANT (INTEGER 4) 0 '3')) () 1 0 0 ()) (106 'hoi' (DERIVED
107) (1 EXPLICIT (CONSTANT (INTEGER 4) 0 '1') (CONSTANT (INTEGER 4) 0 '3'))
() 1 0 0 ()) (108 'helmert' (DERIVED 109) (1 EXPLICIT (CONSTANT (
INTEGER 4) 0 '1') (CONSTANT (INTEGER 4) 0 '7')) () 1 0 0 ()) (110
'chgrecnam' (INTEGER 4) () () 0 0 0 ()) (111 'chgantnam' (INTEGER 4) ()
() 0 0 0 ()) (112 'chgrecnum' (INTEGER 4) () () 0 0 0 ()) (113 'chgantnum'
(INTEGER 4) () () 0 0 0 ()) (114 'chgantecc' (INTEGER 4) () () 0 0 0 ())
(115 'isbout' (CHARACTER 1 ((CONSTANT (INTEGER 4) 0 '32'))) () () 0 0 0
()) (116 'rcormgps' (INTEGER 4) () () 0 0 0 ()) (117 'rcotofrq' (
INTEGER 4) () () 0 0 0 ()) (118 'rcofromppp' (INTEGER 4) () () 0 0 0 ())
(119 'maxifb' (REAL 8) () () 0 0 0 ()) (120 'gtradat' (INTEGER 4) () ()
0 0 0 ()) (121 'gtrpdat' (INTEGER 4) () () 0 0 0 ()) (122 'gspstack' (
INTEGER 4) () () 0 0 0 ())) PUBLIC ())
109 't_opthelm' 'p_addneq' 6 ((DERIVED UNKNOWN UNKNOWN UNKNOWN NONE NONE)
(UNKNOWN) 0 0 () () () '' ((123 'stack' (INTEGER 4) () () 0 0 0 ()))
PUBLIC ())
107 't_opthoi' 'p_addneq' 6 ((DERIVED UNKNOWN UNKNOWN UNKNOWN NONE NONE)
(UNKNOWN) 0 0 () () () '' ((124 'x0' (REAL 8) () () 0 0 0 ()) (125 'stack'
(LOGICAL 4) () () 0 0 0 ())) PUBLIC ())
105 't_optload' 'p_addneq' 6 ((DERIVED UNKNOWN UNKNOWN UNKNOWN NONE NONE)
(UNKNOWN) 0 0 () () () '' ((126 'keyw' (CHARACTER 1 ((CONSTANT (INTEGER
4) 0 '12'))) () () 0 0 0 ()) (127 'nsta' (INTEGER 4) () () 0 0 0 ()) (
128 'stalst' (CHARACTER 1 ((CONSTANT (INTEGER 4) 0 '16'))) (1 DEFERRED ()
()) () 1 1 0 ()) (129 'staclu' (INTEGER 4) (1 DEFERRED () ()) () 1 1 0 ())
(130 'npar' (INTEGER 4) () () 0 0 0 ()) (131 'x0' (INTEGER 4) () () 0 0
0 ())) PUBLIC ())
74 't_sigma' 'p_addneq' 6 ((DERIVED UNKNOWN UNKNOWN UNKNOWN NONE NONE) (
UNKNOWN) 0 0 () () () '' ((132 'locq' (INTEGER 4) (1 EXPLICIT (CONSTANT
(INTEGER 4) 0 '1') (CONSTANT (INTEGER 4) 0 '7')) () 1 0 0 ()) (133 'name'
(CHARACTER 1 ((CONSTANT (INTEGER 4) 0 '20'))) () () 0 0 0 ()) (134 'value'
(REAL 8) () () 0 0 0 ()) (135 'typflg' (CHARACTER 1 ((CONSTANT (INTEGER
4) 0 '1'))) () () 0 0 0 ())) PUBLIC ())
59 't_elimi' 'p_addneq' 6 ((DERIVED UNKNOWN UNKNOWN UNKNOWN NONE NONE) (
UNKNOWN) 0 0 () () () '' ((136 'locq' (INTEGER 4) (1 EXPLICIT (CONSTANT
(INTEGER 4) 0 '1') (CONSTANT (INTEGER 4) 0 '7')) () 1 0 0 ()) (137 'name'
(CHARACTER 1 ((CONSTANT (INTEGER 4) 0 '20'))) () () 0 0 0 ()) (138 'part'
(INTEGER 4) () () 0 0 0 ()) (139 'mode' (INTEGER 4) () () 0 0 0 ()) (
140 'excp' (INTEGER 4) (1 DEFERRED () ()) () 1 1 0 ()) (141 'deltat' (
REAL 8) () () 0 0 0 ()) (142 'eliwin' (DERIVED 143) () () 0 0 0 ()) (
144 'wparam' (LOGICAL 4) () () 0 0 0 ()) (145 'descr' (CHARACTER 1 ((
CONSTANT (INTEGER 4) 0 '255'))) () () 0 0 0 ())) PUBLIC ())
143 't_timint' 'm_time' 6 ((DERIVED UNKNOWN UNKNOWN UNKNOWN NONE NONE) (
UNKNOWN) 0 0 () () () '' ((146 't' (REAL 8) (1 EXPLICIT (CONSTANT (
INTEGER 4) 0 '1') (CONSTANT (INTEGER 4) 0 '2')) () 1 0 0 ())) PUBLIC ())
57 't_req' 'p_addneq' 6 ((DERIVED UNKNOWN UNKNOWN UNKNOWN NONE NONE) (
UNKNOWN) 0 0 () () () '' ((147 'locq' (INTEGER 4) (1 EXPLICIT (CONSTANT
(INTEGER 4) 0 '1') (CONSTANT (INTEGER 4) 0 '7')) () 1 0 0 ()) (148 'name'
(CHARACTER 1 ((CONSTANT (INTEGER 4) 0 '20'))) () () 0 0 0 ()) (149
'timint' (DERIVED 143) () () 0 0 0 ()) (150 'type' (CHARACTER 1 ((
CONSTANT (INTEGER 4) 0 '2'))) () () 0 0 0 (CONSTANT (CHARACTER 1 ((
CONSTANT (INTEGER 4) 0 '2'))) 0 2 '  ')) (151 'omega' (REAL 8) () () 0 0
0 (CONSTANT (REAL 8) 0 '0' 0 0))) PUBLIC ())
)

('aoptorb' 0 2 's_aoptorb' 0 5)
