G95 module created on Thu Jun 25 17:49:38 2020 from ./.fpp/AOPTGSP.f90
If you edit this, you'll get what you deserve.
module-version 9
(() () () () () () () () () () () () () () () () () () () () ())

()

()

()

()

(2 'aoptgsp' 's_aoptgsp' 1 ((PROCEDURE UNKNOWN MODULE-PROC DECL NONE
NONE SUBROUTINE) (PROCEDURE 0) 0 0 (3 NONE 4 NONE 5 NONE) () () '' () ())
6 's_aoptgsp' 's_aoptgsp' 1 ((MODULE UNKNOWN UNKNOWN UNKNOWN NONE NONE)
(UNKNOWN) 0 0 () () () '' () ())
5 'namlst' '' 7 ((VARIABLE UNKNOWN UNKNOWN UNKNOWN NONE NONE DUMMY) (
DERIVED 8) 0 0 () () () '' () ())
8 't_namlst' 'p_addneq' 7 ((DERIVED UNKNOWN UNKNOWN UNKNOWN NONE NONE) (
UNKNOWN) 0 0 () () () '' ((9 'nsta' (INTEGER 4) () () 0 0 0 ()) (10 'nam2'
(CHARACTER 1 ((CONSTANT (INTEGER 4) 0 '20'))) (1 DEFERRED () ()) () 1 1
0 ()) (11 'nam' (CHARACTER 1 ((CONSTANT (INTEGER 4) 0 '16'))) (1
DEFERRED () ()) () 1 1 0 ()) (12 'num' (INTEGER 4) (1 DEFERRED () ()) ()
1 1 0 ())) PUBLIC ())
4 'pargsp' '' 7 ((VARIABLE UNKNOWN UNKNOWN UNKNOWN NONE NONE DUMMY) (
DERIVED 13) 0 0 () () () '' () ())
13 't_pargsp' 'p_addneq' 7 ((DERIVED UNKNOWN UNKNOWN UNKNOWN NONE NONE)
(UNKNOWN) 0 0 () () () '' ((14 'ntra' (INTEGER 4) () () 0 0 0 ()) (15
'nsystra' (INTEGER 4) () () 0 0 0 ()) (16 'systra' (INTEGER 4) (1
EXPLICIT (CONSTANT (INTEGER 4) 0 '1') (CONSTANT (INTEGER 4) 0 '6')) () 1
0 0 ()) (17 'ntrp' (INTEGER 4) () () 0 0 0 ()) (18 'nsystrp' (INTEGER 4)
() () 0 0 0 ()) (19 'systrp' (INTEGER 4) (1 EXPLICIT (CONSTANT (INTEGER
4) 0 '1') (CONSTANT (INTEGER 4) 0 '6')) () 1 0 0 ())) PUBLIC ())
3 'opt' '' 7 ((VARIABLE UNKNOWN UNKNOWN UNKNOWN NONE NONE DUMMY) (
DERIVED 20) 0 0 () () () '' () ())
20 't_opt' 'p_addneq' 7 ((DERIVED UNKNOWN UNKNOWN UNKNOWN NONE NONE) (
UNKNOWN) 0 0 () () () '' ((21 'title' (CHARACTER 1 ((CONSTANT (INTEGER 4)
0 '80'))) () () 0 0 0 ()) (22 'const' (CHARACTER 1 ((CONSTANT (INTEGER 4)
0 '32'))) () () 0 0 0 ()) (23 'datumfil' (CHARACTER 1 ((CONSTANT (
INTEGER 4) 0 '32'))) () () 0 0 0 ()) (24 'stacrux' (CHARACTER 1 ((
CONSTANT (INTEGER 4) 0 '32'))) () () 0 0 0 ()) (25 'satcrux' (CHARACTER
1 ((CONSTANT (INTEGER 4) 0 '32'))) () () 0 0 0 ()) (26 'satell' (
CHARACTER 1 ((CONSTANT (INTEGER 4) 0 '32'))) () () 0 0 0 ()) (27 'phasecc'
(CHARACTER 1 ((CONSTANT (INTEGER 4) 0 '32'))) () () 0 0 0 ()) (28 'pole'
(CHARACTER 1 ((CONSTANT (INTEGER 4) 0 '32'))) () () 0 0 0 ()) (29
'sinexin' (CHARACTER 1 ((CONSTANT (INTEGER 4) 0 '32'))) () () 0 0 0 ())
(30 'ionexcf' (CHARACTER 1 ((CONSTANT (INTEGER 4) 0 '32'))) () () 0 0 0
()) (31 'coord' (CHARACTER 1 ((CONSTANT (INTEGER 4) 0 '32'))) () () 0 0
0 ()) (32 'velapr' (CHARACTER 1 ((CONSTANT (INTEGER 4) 0 '32'))) () () 0
0 0 ()) (33 'covcomi' (CHARACTER 1 ((CONSTANT (INTEGER 4) 0 '32'))) () ()
0 0 0 ()) (34 'gccinp' (CHARACTER 1 ((CONSTANT (INTEGER 4) 0 '32'))) ()
() 0 0 0 ()) (35 'gccout' (CHARACTER 1 ((CONSTANT (INTEGER 4) 0 '32')))
() () 0 0 0 ()) (36 'dcbinp' (CHARACTER 1 ((CONSTANT (INTEGER 4) 0 '32')))
() () 0 0 0 ()) (37 'rgbinp' (CHARACTER 1 ((CONSTANT (INTEGER 4) 0 '32')))
() () 0 0 0 ()) (38 'ionos' (CHARACTER 1 ((CONSTANT (INTEGER 4) 0 '32')))
() () 0 0 0 ()) (39 'neqout' (CHARACTER 1 ((CONSTANT (INTEGER 4) 0 '32')))
() () 0 0 0 ()) (40 'coordrs' (CHARACTER 1 ((CONSTANT (INTEGER 4) 0 '32')))
() () 0 0 0 ()) (41 'velors' (CHARACTER 1 ((CONSTANT (INTEGER 4) 0 '32')))
() () 0 0 0 ()) (42 'sinexrs' (CHARACTER 1 ((CONSTANT (INTEGER 4) 0 '32')))
() () 0 0 0 ()) (43 'paramin' (CHARACTER 1 ((CONSTANT (INTEGER 4) 0 '32')))
() () 0 0 0 ()) (44 'paramrs' (CHARACTER 1 ((CONSTANT (INTEGER 4) 0 '32')))
() () 0 0 0 ()) (45 'tropsav' (CHARACTER 1 ((CONSTANT (INTEGER 4) 0 '32')))
() () 0 0 0 ()) (46 'tropsnx' (CHARACTER 1 ((CONSTANT (INTEGER 4) 0 '32')))
() () 0 0 0 ()) (47 'dcbout' (CHARACTER 1 ((CONSTANT (INTEGER 4) 0 '32')))
() () 0 0 0 ()) (48 'gravout' (CHARACTER 1 ((CONSTANT (INTEGER 4) 0 '32')))
() () 0 0 0 (CONSTANT (CHARACTER 1 ((CONSTANT (INTEGER 4) 0 '32'))) 0 32
'                                ')) (49 'ionosrs' (CHARACTER 1 ((
CONSTANT (INTEGER 4) 0 '32'))) () () 0 0 0 ()) (50 'ionexrs' (CHARACTER
1 ((CONSTANT (INTEGER 4) 0 '32'))) () () 0 0 0 ()) (51 'polers' (
CHARACTER 1 ((CONSTANT (INTEGER 4) 0 '32'))) () () 0 0 0 ()) (52 'ierspol'
(CHARACTER 1 ((CONSTANT (INTEGER 4) 0 '32'))) () () 0 0 0 ()) (53 'plotrs'
(CHARACTER 1 ((CONSTANT (INTEGER 4) 0 '32'))) () () 0 0 0 ()) (54
'covarrs' (CHARACTER 1 ((CONSTANT (INTEGER 4) 0 '32'))) () () 0 0 0 ())
(55 'covttrs' (CHARACTER 1 ((CONSTANT (INTEGER 4) 0 '32'))) () () 0 0 0
()) (56 'rgbout' (CHARACTER 1 ((CONSTANT (INTEGER 4) 0 '32'))) () () 0 0
0 ()) (57 'wgtout' (CHARACTER 1 ((CONSTANT (INTEGER 4) 0 '32'))) () () 0
0 0 ()) (58 'sysout' (CHARACTER 1 ((CONSTANT (INTEGER 4) 0 '32'))) () ()
0 0 0 ()) (59 'syserr' (CHARACTER 1 ((CONSTANT (INTEGER 4) 0 '32'))) ()
() 0 0 0 ()) (60 'auxfil' (CHARACTER 1 ((CONSTANT (INTEGER 4) 0 '32')))
() () 0 0 0 ()) (61 'maxpar' (INTEGER 4) () () 0 0 0 ()) (62 'neqfilename'
(CHARACTER 1 ((CONSTANT (INTEGER 4) 0 '32'))) (1 DEFERRED () ()) () 1 1
0 ()) (63 'orbfil' (CHARACTER 1 ((CONSTANT (INTEGER 4) 0 '32'))) (2
DEFERRED () () () ()) () 1 1 0 ()) (64 'noinv' (LOGICAL 4) () () 0 0 0 ())
(65 'req' (DERIVED 66) (1 DEFERRED () ()) () 1 1 0 ()) (67 'elimi' (
DERIVED 68) (1 DEFERRED () ()) () 1 1 0 ()) (69 'nstcep' (INTEGER 4) ()
() 0 0 0 ()) (70 'rsw' (INTEGER 4) (1 EXPLICIT (CONSTANT (INTEGER 4) 0 '1')
(CONSTANT (INTEGER 4) 0 '3')) () 1 0 0 ()) (71 'sigrsw' (REAL 8) (1
EXPLICIT (CONSTANT (INTEGER 4) 0 '1') (CONSTANT (INTEGER 4) 0 '3')) () 1
0 0 ()) (72 'numstc' (INTEGER 4) () () 0 0 0 ()) (73 'svnstc' (INTEGER 4)
(1 EXPLICIT (CONSTANT (INTEGER 4) 0 '1') (CONSTANT (INTEGER 4) 0 '130'))
() 1 0 0 ()) (74 'dtstc' (REAL 8) () () 0 0 0 ()) (75 'numdyn' (INTEGER
4) () () 0 0 0 ()) (76 'svndyn' (INTEGER 4) (1 EXPLICIT (CONSTANT (
INTEGER 4) 0 '1') (CONSTANT (INTEGER 4) 0 '130')) () 1 0 0 ()) (77
'numgap' (INTEGER 4) () () 0 0 0 ()) (78 'svngap' (INTEGER 4) (1
EXPLICIT (CONSTANT (INTEGER 4) 0 '1') (CONSTANT (INTEGER 4) 0 '130')) ()
1 0 0 ()) (79 'numnac' (INTEGER 4) () () 0 0 0 ()) (80 'newarc' (
INTEGER 4) (2 EXPLICIT (CONSTANT (INTEGER 4) 0 '1') (CONSTANT (INTEGER 4)
0 '2') (CONSTANT (INTEGER 4) 0 '1') (CONSTANT (INTEGER 4) 0 '3900')) ()
1 0 0 ()) (81 'sigma0' (REAL 8) () () 0 0 0 ()) (82 'sigma' (DERIVED 83)
(1 DEFERRED () ()) () 1 1 0 ()) (84 'trafo' (INTEGER 4) () () 0 0 0 ())
(85 'splitdyn' (INTEGER 4) () () 0 0 0 ()) (86 'polestep' (INTEGER 4) ()
() 0 0 0 ()) (87 'indvsol' (INTEGER 4) () () 0 0 0 ()) (88 'iphelm' (
INTEGER 4) (1 EXPLICIT (CONSTANT (INTEGER 4) 0 '1') (CONSTANT (INTEGER 4)
0 '7')) () 1 0 0 ()) (89 'minsol' (INTEGER 4) () () 0 0 0 ()) (90 'badsol'
(REAL 8) (2 EXPLICIT (CONSTANT (INTEGER 4) 0 '1') (CONSTANT (INTEGER 4)
0 '2') (CONSTANT (INTEGER 4) 0 '1') (CONSTANT (INTEGER 4) 0 '3')) () 1 0
0 ()) (91 'blkret' (REAL 8) () () 0 0 0 ()) (92 'timrefcrd' (REAL 8) ()
() 0 0 0 ()) (93 'helmsig' (REAL 8) (2 EXPLICIT (CONSTANT (INTEGER 4) 0
'1') (CONSTANT (INTEGER 4) 0 '3') (CONSTANT (INTEGER 4) 0 '1') (
CONSTANT (INTEGER 4) 0 '7')) () 1 0 0 ()) (94 'trpexceptday' (INTEGER 4)
() () 0 0 0 ()) (95 'prt' (INTEGER 4) (1 EXPLICIT (CONSTANT (INTEGER 4)
0 '1') (CONSTANT (INTEGER 4) 0 '10')) () 1 0 0 ()) (96 'setupgcc' (
INTEGER 4) () () 0 0 0 ()) (97 'ieuref' (INTEGER 4) () () 0 0 0 ()) (98
'antred' (INTEGER 4) () () 0 0 0 ()) (99 'erprep' (INTEGER 4) () () 0 0
0 ()) (100 'stasort' (INTEGER 4) (1 EXPLICIT (CONSTANT (INTEGER 4) 0 '1')
(CONSTANT (INTEGER 4) 0 '2')) () 1 0 0 ()) (101 'snxinc' (INTEGER 4) ()
() 0 0 0 ()) (102 'snxreg' (REAL 8) () () 0 0 0 ()) (103 'dtrelsig' (
REAL 8) (1 EXPLICIT (CONSTANT (INTEGER 4) 0 '1') (CONSTANT (INTEGER 4) 0
'3')) () 1 0 0 ()) (104 'noabc' (INTEGER 4) () () 0 0 0 ()) (105 'chrono'
(INTEGER 4) () () 0 0 0 ()) (106 'step2' (INTEGER 4) () () 0 0 0 ()) (
107 'step2_t' (REAL 8) (1 EXPLICIT (CONSTANT (INTEGER 4) 0 '1') (
CONSTANT (INTEGER 4) 0 '2')) () 1 0 0 ()) (108 'sincont' (INTEGER 4) ()
() 0 0 0 ()) (109 'covmode' (INTEGER 4) () () 0 0 0 ()) (110 'stackrgb'
(INTEGER 4) () () 0 0 0 ()) (111 'saoopt' (INTEGER 4) (1 EXPLICIT (
CONSTANT (INTEGER 4) 0 '1') (CONSTANT (INTEGER 4) 0 '2')) () 1 0 0 ()) (
112 'sapopt' (INTEGER 4) (1 EXPLICIT (CONSTANT (INTEGER 4) 0 '1') (
CONSTANT (INTEGER 4) 0 '2')) () 1 0 0 ()) (113 'grdload' (DERIVED 114) (
1 EXPLICIT (CONSTANT (INTEGER 4) 0 '1') (CONSTANT (INTEGER 4) 0 '3')) ()
1 0 0 ()) (115 'hoi' (DERIVED 116) (1 EXPLICIT (CONSTANT (INTEGER 4) 0 '1')
(CONSTANT (INTEGER 4) 0 '3')) () 1 0 0 ()) (117 'helmert' (DERIVED 118)
(1 EXPLICIT (CONSTANT (INTEGER 4) 0 '1') (CONSTANT (INTEGER 4) 0 '7')) ()
1 0 0 ()) (119 'chgrecnam' (INTEGER 4) () () 0 0 0 ()) (120 'chgantnam'
(INTEGER 4) () () 0 0 0 ()) (121 'chgrecnum' (INTEGER 4) () () 0 0 0 ())
(122 'chgantnum' (INTEGER 4) () () 0 0 0 ()) (123 'chgantecc' (INTEGER 4)
() () 0 0 0 ()) (124 'isbout' (CHARACTER 1 ((CONSTANT (INTEGER 4) 0 '32')))
() () 0 0 0 ()) (125 'rcormgps' (INTEGER 4) () () 0 0 0 ()) (126
'rcotofrq' (INTEGER 4) () () 0 0 0 ()) (127 'rcofromppp' (INTEGER 4) ()
() 0 0 0 ()) (128 'maxifb' (REAL 8) () () 0 0 0 ()) (129 'gtradat' (
INTEGER 4) () () 0 0 0 ()) (130 'gtrpdat' (INTEGER 4) () () 0 0 0 ()) (
131 'gspstack' (INTEGER 4) () () 0 0 0 ())) PUBLIC ())
118 't_opthelm' 'p_addneq' 7 ((DERIVED UNKNOWN UNKNOWN UNKNOWN NONE NONE)
(UNKNOWN) 0 0 () () () '' ((132 'stack' (INTEGER 4) () () 0 0 0 ()))
PUBLIC ())
116 't_opthoi' 'p_addneq' 7 ((DERIVED UNKNOWN UNKNOWN UNKNOWN NONE NONE)
(UNKNOWN) 0 0 () () () '' ((133 'x0' (REAL 8) () () 0 0 0 ()) (134 'stack'
(LOGICAL 4) () () 0 0 0 ())) PUBLIC ())
114 't_optload' 'p_addneq' 7 ((DERIVED UNKNOWN UNKNOWN UNKNOWN NONE NONE)
(UNKNOWN) 0 0 () () () '' ((135 'keyw' (CHARACTER 1 ((CONSTANT (INTEGER
4) 0 '12'))) () () 0 0 0 ()) (136 'nsta' (INTEGER 4) () () 0 0 0 ()) (
137 'stalst' (CHARACTER 1 ((CONSTANT (INTEGER 4) 0 '16'))) (1 DEFERRED ()
()) () 1 1 0 ()) (138 'staclu' (INTEGER 4) (1 DEFERRED () ()) () 1 1 0 ())
(139 'npar' (INTEGER 4) () () 0 0 0 ()) (140 'x0' (INTEGER 4) () () 0 0
0 ())) PUBLIC ())
83 't_sigma' 'p_addneq' 7 ((DERIVED UNKNOWN UNKNOWN UNKNOWN NONE NONE) (
UNKNOWN) 0 0 () () () '' ((141 'locq' (INTEGER 4) (1 EXPLICIT (CONSTANT
(INTEGER 4) 0 '1') (CONSTANT (INTEGER 4) 0 '7')) () 1 0 0 ()) (142 'name'
(CHARACTER 1 ((CONSTANT (INTEGER 4) 0 '20'))) () () 0 0 0 ()) (143 'value'
(REAL 8) () () 0 0 0 ()) (144 'typflg' (CHARACTER 1 ((CONSTANT (INTEGER
4) 0 '1'))) () () 0 0 0 ())) PUBLIC ())
68 't_elimi' 'p_addneq' 7 ((DERIVED UNKNOWN UNKNOWN UNKNOWN NONE NONE) (
UNKNOWN) 0 0 () () () '' ((145 'locq' (INTEGER 4) (1 EXPLICIT (CONSTANT
(INTEGER 4) 0 '1') (CONSTANT (INTEGER 4) 0 '7')) () 1 0 0 ()) (146 'name'
(CHARACTER 1 ((CONSTANT (INTEGER 4) 0 '20'))) () () 0 0 0 ()) (147 'part'
(INTEGER 4) () () 0 0 0 ()) (148 'mode' (INTEGER 4) () () 0 0 0 ()) (
149 'excp' (INTEGER 4) (1 DEFERRED () ()) () 1 1 0 ()) (150 'deltat' (
REAL 8) () () 0 0 0 ()) (151 'eliwin' (DERIVED 152) () () 0 0 0 ()) (
153 'wparam' (LOGICAL 4) () () 0 0 0 ()) (154 'descr' (CHARACTER 1 ((
CONSTANT (INTEGER 4) 0 '255'))) () () 0 0 0 ())) PUBLIC ())
152 't_timint' 'm_time' 7 ((DERIVED UNKNOWN UNKNOWN UNKNOWN NONE NONE) (
UNKNOWN) 0 0 () () () '' ((155 't' (REAL 8) (1 EXPLICIT (CONSTANT (
INTEGER 4) 0 '1') (CONSTANT (INTEGER 4) 0 '2')) () 1 0 0 ())) PUBLIC ())
66 't_req' 'p_addneq' 7 ((DERIVED UNKNOWN UNKNOWN UNKNOWN NONE NONE) (
UNKNOWN) 0 0 () () () '' ((156 'locq' (INTEGER 4) (1 EXPLICIT (CONSTANT
(INTEGER 4) 0 '1') (CONSTANT (INTEGER 4) 0 '7')) () 1 0 0 ()) (157 'name'
(CHARACTER 1 ((CONSTANT (INTEGER 4) 0 '20'))) () () 0 0 0 ()) (158
'timint' (DERIVED 152) () () 0 0 0 ()) (159 'type' (CHARACTER 1 ((
CONSTANT (INTEGER 4) 0 '2'))) () () 0 0 0 (CONSTANT (CHARACTER 1 ((
CONSTANT (INTEGER 4) 0 '2'))) 0 2 '  ')) (160 'omega' (REAL 8) () () 0 0
0 (CONSTANT (REAL 8) 0 '0' 0 0))) PUBLIC ())
)

('aoptgsp' 0 2 's_aoptgsp' 0 6)
