G95 module created on Thu Jun 25 17:50:38 2020 from ./.fpp/BTINPT.f90
If you edit this, you'll get what you deserve.
module-version 9
(() () () () () () () () () () () () () () () () () () () () ())

()

()

()

()

(2 'btinpt' 's_btinpt' 1 ((PROCEDURE UNKNOWN MODULE-PROC DECL NONE NONE
SUBROUTINE) (PROCEDURE 0) 0 0 (3 NONE 4 NONE 5 NONE 6 NONE 7 NONE) () ()
'' () ())
8 's_btinpt' 's_btinpt' 1 ((MODULE UNKNOWN UNKNOWN UNKNOWN NONE NONE) (
UNKNOWN) 0 0 () () () '' () ())
7 'timwin' '' 9 ((VARIABLE UNKNOWN UNKNOWN UNKNOWN NONE NONE DUMMY) (
DERIVED 10) 0 0 () () () '' () ())
10 't_timint' 'm_time' 9 ((DERIVED UNKNOWN UNKNOWN UNKNOWN NONE NONE) (
UNKNOWN) 0 0 () () () '' ((11 't' (REAL 8) (1 EXPLICIT (CONSTANT (
INTEGER 4) 0 '1') (CONSTANT (INTEGER 4) 0 '2')) () 1 0 0 ())) PUBLIC ())
6 'dtab' '' 9 ((VARIABLE UNKNOWN UNKNOWN UNKNOWN NONE NONE DUMMY) (REAL
8) 0 0 () () () '' () ())
5 'dtrec' '' 9 ((VARIABLE UNKNOWN UNKNOWN UNKNOWN NONE NONE DUMMY) (
REAL 8) 0 0 () () () '' () ())
4 'cmcyn' '' 9 ((VARIABLE UNKNOWN UNKNOWN UNKNOWN NONE NONE DIMENSION
DUMMY) (LOGICAL 4) 0 0 () (1 EXPLICIT (CONSTANT (INTEGER 4) 0 '1') (
CONSTANT (INTEGER 4) 0 '2')) () '' () ())
3 'iorsys' '' 9 ((VARIABLE UNKNOWN UNKNOWN UNKNOWN NONE NONE DUMMY) (
INTEGER 4) 0 0 () () () '' () ())
)

('btinpt' 0 2 's_btinpt' 0 8)
