G95 module created on Thu Jun 25 17:49:51 2020 from ./.fpp/CCNLST.f90
If you edit this, you'll get what you deserve.
module-version 9
(() () () () () () () () () () () () () () () () () () () () ())

()

()

()

()

(2 'ccnlst' 's_ccnlst' 1 ((PROCEDURE UNKNOWN MODULE-PROC DECL NONE NONE
SUBROUTINE) (PROCEDURE 0) 0 0 (3 NONE 4 NONE 5 NONE 6 NONE 7 NONE) () ()
'' () ())
8 's_ccnlst' 's_ccnlst' 1 ((MODULE UNKNOWN UNKNOWN UNKNOWN NONE NONE) (
UNKNOWN) 0 0 () () () '' () ())
7 'ircode' '' 9 ((VARIABLE UNKNOWN UNKNOWN UNKNOWN NONE NONE DUMMY) (
INTEGER 4) 0 0 () () () '' () ())
6 'outclkhead' '' 9 ((VARIABLE UNKNOWN UNKNOWN UNKNOWN NONE NONE DUMMY)
(DERIVED 10) 0 0 () () () '' () ())
10 't_clkhead' 'd_clkrnx' 9 ((DERIVED UNKNOWN UNKNOWN UNKNOWN NONE NONE)
(UNKNOWN) 0 0 () () () '' ((11 'rnxvers' (REAL 8) () () 0 0 0 ()) (12
'ncomment' (INTEGER 4) () () 0 0 0 ()) (13 'comment' (CHARACTER 1 ((
CONSTANT (INTEGER 4) 0 '60'))) (1 DEFERRED () ()) () 1 1 0 ()) (14
'prognam' (CHARACTER 1 ((CONSTANT (INTEGER 4) 0 '20'))) () () 0 0 0 ())
(15 'runby' (CHARACTER 1 ((CONSTANT (INTEGER 4) 0 '20'))) () () 0 0 0 ())
(16 'crdate' (CHARACTER 1 ((CONSTANT (INTEGER 4) 0 '20'))) () () 0 0 0 ())
(17 'leapsec' (INTEGER 4) () () 0 0 0 ()) (18 'numtyp' (INTEGER 4) () ()
0 0 0 ()) (19 'dattyp' (CHARACTER 1 ((CONSTANT (INTEGER 4) 0 '2'))) (1
DEFERRED () ()) () 1 1 0 ()) (20 'clk0name' (CHARACTER 1 ((CONSTANT (
INTEGER 4) 0 '16'))) () () 0 0 0 ()) (21 'calname' (CHARACTER 1 ((
CONSTANT (INTEGER 4) 0 '60'))) () () 0 0 0 ()) (22 'ac' (CHARACTER 1 ((
CONSTANT (INTEGER 4) 0 '3'))) () () 0 0 0 ()) (23 'acname' (CHARACTER 1
((CONSTANT (INTEGER 4) 0 '55'))) () () 0 0 0 ()) (24 'timsys' (
CHARACTER 1 ((CONSTANT (INTEGER 4) 0 '3'))) () () 0 0 0 ()) (25 'pgmnam'
(CHARACTER 1 ((CONSTANT (INTEGER 4) 0 '17'))) () () 0 0 0 ()) (26 'dcbstr'
(CHARACTER 1 ((CONSTANT (INTEGER 4) 0 '40'))) () () 0 0 0 ()) (27 'pcvstr'
(CHARACTER 1 ((CONSTANT (INTEGER 4) 0 '40'))) () () 0 0 0 ()) (28 'tfirst'
(REAL 8) () () 0 0 0 ()) (29 'numref' (INTEGER 4) () () 0 0 0 ()) (30
'ref' (DERIVED 31) (1 DEFERRED () ()) () 1 1 0 ()) (32 'trfname' (
CHARACTER 1 ((CONSTANT (INTEGER 4) 0 '50'))) () () 0 0 0 ()) (33 'nsta'
(INTEGER 4) () () 0 0 0 ()) (34 'nsat' (INTEGER 4) () () 0 0 0 ()) (35
'clkname' (CHARACTER 1 ((CONSTANT (INTEGER 4) 0 '16'))) (1 DEFERRED () ())
() 1 1 0 ()) (36 'stacoord' (REAL 8) (2 DEFERRED () () () ()) () 1 1 0 ()))
PUBLIC ())
31 't_ref' 'd_clkrnx' 9 ((DERIVED UNKNOWN UNKNOWN UNKNOWN NONE NONE) (
UNKNOWN) 0 0 () () () '' ((37 'nref' (INTEGER 4) () () 0 0 0 ()) (38 'clk'
(DERIVED 39) (1 DEFERRED () ()) () 1 1 0 ()) (40 'refwin' (DERIVED 41) ()
() 0 0 0 ())) PUBLIC ())
41 't_timint' 'm_time' 9 ((DERIVED UNKNOWN UNKNOWN UNKNOWN NONE NONE) (
UNKNOWN) 0 0 () () () '' ((42 't' (REAL 8) (1 EXPLICIT (CONSTANT (
INTEGER 4) 0 '1') (CONSTANT (INTEGER 4) 0 '2')) () 1 0 0 ())) PUBLIC ())
39 't_refclk' 'd_clkrnx' 9 ((DERIVED UNKNOWN UNKNOWN UNKNOWN NONE NONE)
(UNKNOWN) 0 0 () () () '' ((43 'name' (CHARACTER 1 ((CONSTANT (INTEGER 4)
0 '16'))) () () 0 0 0 ()) (44 'sigma' (REAL 8) () () 0 0 0 ()) (45 'idx'
(INTEGER 4) () () 0 0 0 ()) (46 'idx0' (INTEGER 4) () () 0 0 0 ()))
PUBLIC ())
5 'inclkhead' '' 9 ((VARIABLE UNKNOWN UNKNOWN UNKNOWN NONE NONE
DIMENSION POINTER DUMMY) (DERIVED 10) 0 0 () (1 DEFERRED () ()) () '' ()
())
4 'ccfil' '' 9 ((VARIABLE UNKNOWN UNKNOWN UNKNOWN NONE NONE DUMMY) (
DERIVED 47) 0 0 () () () '' () ())
47 't_ccrnxc_fil' 'p_ccrnxc' 9 ((DERIVED UNKNOWN UNKNOWN UNKNOWN NONE
NONE) (UNKNOWN) 0 0 () () () '' ((48 'clkfilnam' (CHARACTER 1 ((
CONSTANT (INTEGER 4) 0 '32'))) (1 DEFERRED () ()) () 1 1 0 ()) (49
'outfilnam' (CHARACTER 1 ((CONSTANT (INTEGER 4) 0 '32'))) () () 0 0 0 ())
(50 'satfilnam' (CHARACTER 1 ((CONSTANT (INTEGER 4) 0 '32'))) () () 0 0
0 ())) PUBLIC ())
3 'ccopt' '' 9 ((VARIABLE UNKNOWN UNKNOWN UNKNOWN NONE NONE DUMMY) (
DERIVED 51) 0 0 () () () '' () ())
51 't_ccrnxc_opt' 'p_ccrnxc' 9 ((DERIVED UNKNOWN UNKNOWN UNKNOWN NONE
NONE) (UNKNOWN) 0 0 () () () '' ((52 'maxdcrd' (REAL 8) () () 0 0 0 ())
(53 'reffil' (LOGICAL 4) () () 0 0 0 ()) (54 'nref' (INTEGER 4) () () 0
0 0 ()) (55 'refclk' (CHARACTER 1 ((CONSTANT (INTEGER 4) 0 '16'))) (1
DEFERRED () ()) () 1 1 0 ()) (56 'clklst' (CHARACTER 1 ((CONSTANT (
INTEGER 4) 0 '16'))) (1 DEFERRED () ()) () 1 1 0 ()) (57 'nalig' (
INTEGER 4) () () 0 0 0 ()) (58 'maxref' (REAL 8) () () 0 0 0 ()) (59
'oneref' (LOGICAL 4) () () 0 0 0 ()) (60 'onlyref' (LOGICAL 4) () () 0 0
0 ()) (61 'usesta' (LOGICAL 4) () () 0 0 0 ()) (62 'usesat' (LOGICAL 4)
() () 0 0 0 ()) (63 'delecl' (INTEGER 4) () () 0 0 0 ()) (64 'sigma0' (
REAL 8) () () 0 0 0 ()) (65 'maxresi' (REAL 8) () () 0 0 0 ()) (66 'combi'
(INTEGER 4) () () 0 0 0 ()) (67 'maxmean' (REAL 8) () () 0 0 0 ()) (68
'minclksta' (INTEGER 4) () () 0 0 0 ()) (69 'minclksat' (INTEGER 4) () ()
0 0 0 ()) (70 'outsigma' (INTEGER 4) () () 0 0 0 ()) (71 'prtdetail' (
INTEGER 4) (1 EXPLICIT (CONSTANT (INTEGER 4) 0 '1') (CONSTANT (INTEGER 4)
0 '6')) () 1 0 0 ()) (72 'timewin' (REAL 8) (1 EXPLICIT (CONSTANT (
INTEGER 4) 0 '1') (CONSTANT (INTEGER 4) 0 '2')) () 1 0 0 ()) (73 'deltat'
(INTEGER 4) () () 0 0 0 ()) (74 'iepoly' (INTEGER 4) () () 0 0 0 ()) (
75 'ietpoly' (DERIVED 41) (1 DEFERRED () ()) () 1 1 0 ()) (76 'iesico' (
INTEGER 4) () () 0 0 0 ()) (77 'ietsico' (DERIVED 41) (1 DEFERRED () ())
() 1 1 0 ()) (78 'iepsico' (REAL 8) (1 DEFERRED () ()) () 1 1 0 ()) (79
'iemrms' (REAL 8) () () 0 0 0 ()) (80 'iemobs' (INTEGER 4) () () 0 0 0 ())
(81 'dointer' (LOGICAL 4) () () 0 0 0 ()) (82 'doextra' (LOGICAL 4) () ()
0 0 0 ()) (83 'jumprms' (REAL 8) () () 0 0 0 ()) (84 'njmpsig' (INTEGER
4) () () 0 0 0 ()) (85 'njmpepo' (INTEGER 4) () () 0 0 0 ()) (86
'jmpdelsta' (LOGICAL 4) () () 0 0 0 ()) (87 'jmpdelsat' (LOGICAL 4) () ()
0 0 0 ()) (88 'njmppoly' (INTEGER 4) () () 0 0 0 ()) (89 'title' (
CHARACTER 1 ((CONSTANT (INTEGER 4) 0 '60'))) () () 0 0 0 ()) (90
'ninterval' (INTEGER 4) () () 0 0 0 ()) (91 'sumrms' (REAL 8) () () 0 0
0 ()) (92 'numdel' (INTEGER 4) () () 0 0 0 ()) (93 'maxrms' (REAL 8) ()
() 0 0 0 ()) (94 'maxdel' (INTEGER 4) () () 0 0 0 ()) (95 'maxrmsepo' (
CHARACTER 1 ((CONSTANT (INTEGER 4) 0 '19'))) (1 EXPLICIT (CONSTANT (
INTEGER 4) 0 '1') (CONSTANT (INTEGER 4) 0 '2')) () 1 0 0 ()) (96
'maxdelepo' (CHARACTER 1 ((CONSTANT (INTEGER 4) 0 '19'))) (1 EXPLICIT (
CONSTANT (INTEGER 4) 0 '1') (CONSTANT (INTEGER 4) 0 '2')) () 1 0 0 ()) (
97 'clkdata' (DERIVED 41) () () 0 0 0 ())) PUBLIC ())
)

('ccnlst' 0 2 's_ccnlst' 0 8)
