G95 module created on Thu Jun 25 17:51:07 2020 from ./.fpp/CCJUMP.f90
If you edit this, you'll get what you deserve.
module-version 9
(() () () () () () () () () () () () () () () () () () ()
() ())

()

()

()

()

(2 'ccjump' 's_ccjump' 1 ((PROCEDURE UNKNOWN MODULE-PROC DECL NONE NONE
SUBROUTINE) (PROCEDURE 0) 0 0 (3 NONE 4 NONE 5 NONE 6 NONE 7 NONE 8 NONE)
() () '' () ())
9 's_ccjump' 's_ccjump' 1 ((MODULE UNKNOWN UNKNOWN UNKNOWN NONE NONE) (
UNKNOWN) 0 0 () () () '' () ())
8 'ircode' '' 10 ((VARIABLE UNKNOWN UNKNOWN UNKNOWN NONE NONE DUMMY) (
INTEGER 4) 0 0 () () () '' () ())
7 'clkjump' '' 10 ((VARIABLE UNKNOWN UNKNOWN UNKNOWN NONE NONE DIMENSION
POINTER DUMMY) (DERIVED 11) 0 0 () (1 DEFERRED () ()) () '' () ())
11 't_jump' 'p_ccrnxc' 10 ((DERIVED UNKNOWN UNKNOWN UNKNOWN NONE NONE) (
UNKNOWN) 0 0 () () () '' ((12 'iclk' (INTEGER 4) () () 0 0 0 ()) (13
'iepo' (INTEGER 4) () () 0 0 0 ()) (14 'jepo' (INTEGER 4) () () 0 0 0 ())
(15 'meandt' (REAL 8) () () 0 0 0 ()) (16 'sdevdt' (REAL 8) () () 0 0 0
()) (17 'jsize' (REAL 8) () () 0 0 0 ()) (18 'ssize' (REAL 8) () () 0 0
0 ())) PUBLIC ())
6 'njump' '' 10 ((VARIABLE UNKNOWN UNKNOWN UNKNOWN NONE NONE DUMMY) (
INTEGER 4) 0 0 () () () '' () ())
5 'outclkrec' '' 10 ((VARIABLE UNKNOWN UNKNOWN UNKNOWN NONE NONE DUMMY)
(DERIVED 19) 0 0 () () () '' () ())
19 't_clkrec' 'd_clkrnx' 10 ((DERIVED UNKNOWN UNKNOWN UNKNOWN NONE NONE)
(UNKNOWN) 0 0 () () () '' ((20 'iepo' (INTEGER 4) () () 0 0 0 ()) (21
'nepo' (INTEGER 4) () () 0 0 0 ()) (22 'epoch' (REAL 8) (1 DEFERRED () ())
() 1 1 0 ()) (23 'clock' (REAL 8) (2 DEFERRED () () () ()) () 1 1 0 ())
(24 'sigma' (REAL 8) (2 DEFERRED () () () ()) () 1 1 0 ()) (25 'clkflg'
(CHARACTER 1 ((CONSTANT (INTEGER 4) 0 '1'))) (2 DEFERRED () () () ()) ()
1 1 0 ())) PUBLIC ())
4 'outclkhead' '' 10 ((VARIABLE UNKNOWN UNKNOWN UNKNOWN NONE NONE DUMMY)
(DERIVED 26) 0 0 () () () '' () ())
26 't_clkhead' 'd_clkrnx' 10 ((DERIVED UNKNOWN UNKNOWN UNKNOWN NONE NONE)
(UNKNOWN) 0 0 () () () '' ((27 'rnxvers' (REAL 8) () () 0 0 0 ()) (28
'ncomment' (INTEGER 4) () () 0 0 0 ()) (29 'comment' (CHARACTER 1 ((
CONSTANT (INTEGER 4) 0 '60'))) (1 DEFERRED () ()) () 1 1 0 ()) (30
'prognam' (CHARACTER 1 ((CONSTANT (INTEGER 4) 0 '20'))) () () 0 0 0 ())
(31 'runby' (CHARACTER 1 ((CONSTANT (INTEGER 4) 0 '20'))) () () 0 0 0 ())
(32 'crdate' (CHARACTER 1 ((CONSTANT (INTEGER 4) 0 '20'))) () () 0 0 0 ())
(33 'leapsec' (INTEGER 4) () () 0 0 0 ()) (34 'numtyp' (INTEGER 4) () ()
0 0 0 ()) (35 'dattyp' (CHARACTER 1 ((CONSTANT (INTEGER 4) 0 '2'))) (1
DEFERRED () ()) () 1 1 0 ()) (36 'clk0name' (CHARACTER 1 ((CONSTANT (
INTEGER 4) 0 '16'))) () () 0 0 0 ()) (37 'calname' (CHARACTER 1 ((
CONSTANT (INTEGER 4) 0 '60'))) () () 0 0 0 ()) (38 'ac' (CHARACTER 1 ((
CONSTANT (INTEGER 4) 0 '3'))) () () 0 0 0 ()) (39 'acname' (CHARACTER 1
((CONSTANT (INTEGER 4) 0 '55'))) () () 0 0 0 ()) (40 'timsys' (
CHARACTER 1 ((CONSTANT (INTEGER 4) 0 '3'))) () () 0 0 0 ()) (41 'pgmnam'
(CHARACTER 1 ((CONSTANT (INTEGER 4) 0 '17'))) () () 0 0 0 ()) (42 'dcbstr'
(CHARACTER 1 ((CONSTANT (INTEGER 4) 0 '40'))) () () 0 0 0 ()) (43 'pcvstr'
(CHARACTER 1 ((CONSTANT (INTEGER 4) 0 '40'))) () () 0 0 0 ()) (44 'tfirst'
(REAL 8) () () 0 0 0 ()) (45 'numref' (INTEGER 4) () () 0 0 0 ()) (46
'ref' (DERIVED 47) (1 DEFERRED () ()) () 1 1 0 ()) (48 'trfname' (
CHARACTER 1 ((CONSTANT (INTEGER 4) 0 '50'))) () () 0 0 0 ()) (49 'nsta'
(INTEGER 4) () () 0 0 0 ()) (50 'nsat' (INTEGER 4) () () 0 0 0 ()) (51
'clkname' (CHARACTER 1 ((CONSTANT (INTEGER 4) 0 '16'))) (1 DEFERRED () ())
() 1 1 0 ()) (52 'stacoord' (REAL 8) (2 DEFERRED () () () ()) () 1 1 0 ()))
PUBLIC ())
47 't_ref' 'd_clkrnx' 10 ((DERIVED UNKNOWN UNKNOWN UNKNOWN NONE NONE) (
UNKNOWN) 0 0 () () () '' ((53 'nref' (INTEGER 4) () () 0 0 0 ()) (54 'clk'
(DERIVED 55) (1 DEFERRED () ()) () 1 1 0 ()) (56 'refwin' (DERIVED 57) ()
() 0 0 0 ())) PUBLIC ())
57 't_timint' 'm_time' 10 ((DERIVED UNKNOWN UNKNOWN UNKNOWN NONE NONE) (
UNKNOWN) 0 0 () () () '' ((58 't' (REAL 8) (1 EXPLICIT (CONSTANT (
INTEGER 4) 0 '1') (CONSTANT (INTEGER 4) 0 '2')) () 1 0 0 ())) PUBLIC ())
55 't_refclk' 'd_clkrnx' 10 ((DERIVED UNKNOWN UNKNOWN UNKNOWN NONE NONE)
(UNKNOWN) 0 0 () () () '' ((59 'name' (CHARACTER 1 ((CONSTANT (INTEGER 4)
0 '16'))) () () 0 0 0 ()) (60 'sigma' (REAL 8) () () 0 0 0 ()) (61 'idx'
(INTEGER 4) () () 0 0 0 ()) (62 'idx0' (INTEGER 4) () () 0 0 0 ()))
PUBLIC ())
3 'ccopt' '' 10 ((VARIABLE UNKNOWN UNKNOWN UNKNOWN NONE NONE DUMMY) (
DERIVED 63) 0 0 () () () '' () ())
63 't_ccrnxc_opt' 'p_ccrnxc' 10 ((DERIVED UNKNOWN UNKNOWN UNKNOWN NONE
NONE) (UNKNOWN) 0 0 () () () '' ((64 'maxdcrd' (REAL 8) () () 0 0 0 ())
(65 'reffil' (LOGICAL 4) () () 0 0 0 ()) (66 'nref' (INTEGER 4) () () 0
0 0 ()) (67 'refclk' (CHARACTER 1 ((CONSTANT (INTEGER 4) 0 '16'))) (1
DEFERRED () ()) () 1 1 0 ()) (68 'clklst' (CHARACTER 1 ((CONSTANT (
INTEGER 4) 0 '16'))) (1 DEFERRED () ()) () 1 1 0 ()) (69 'nalig' (
INTEGER 4) () () 0 0 0 ()) (70 'maxref' (REAL 8) () () 0 0 0 ()) (71
'oneref' (LOGICAL 4) () () 0 0 0 ()) (72 'onlyref' (LOGICAL 4) () () 0 0
0 ()) (73 'usesta' (LOGICAL 4) () () 0 0 0 ()) (74 'usesat' (LOGICAL 4)
() () 0 0 0 ()) (75 'delecl' (INTEGER 4) () () 0 0 0 ()) (76 'sigma0' (
REAL 8) () () 0 0 0 ()) (77 'maxresi' (REAL 8) () () 0 0 0 ()) (78 'combi'
(INTEGER 4) () () 0 0 0 ()) (79 'maxmean' (REAL 8) () () 0 0 0 ()) (80
'minclksta' (INTEGER 4) () () 0 0 0 ()) (81 'minclksat' (INTEGER 4) () ()
0 0 0 ()) (82 'outsigma' (INTEGER 4) () () 0 0 0 ()) (83 'prtdetail' (
INTEGER 4) (1 EXPLICIT (CONSTANT (INTEGER 4) 0 '1') (CONSTANT (INTEGER 4)
0 '6')) () 1 0 0 ()) (84 'timewin' (REAL 8) (1 EXPLICIT (CONSTANT (
INTEGER 4) 0 '1') (CONSTANT (INTEGER 4) 0 '2')) () 1 0 0 ()) (85 'deltat'
(INTEGER 4) () () 0 0 0 ()) (86 'iepoly' (INTEGER 4) () () 0 0 0 ()) (
87 'ietpoly' (DERIVED 57) (1 DEFERRED () ()) () 1 1 0 ()) (88 'iesico' (
INTEGER 4) () () 0 0 0 ()) (89 'ietsico' (DERIVED 57) (1 DEFERRED () ())
() 1 1 0 ()) (90 'iepsico' (REAL 8) (1 DEFERRED () ()) () 1 1 0 ()) (91
'iemrms' (REAL 8) () () 0 0 0 ()) (92 'iemobs' (INTEGER 4) () () 0 0 0 ())
(93 'dointer' (LOGICAL 4) () () 0 0 0 ()) (94 'doextra' (LOGICAL 4) () ()
0 0 0 ()) (95 'jumprms' (REAL 8) () () 0 0 0 ()) (96 'njmpsig' (INTEGER
4) () () 0 0 0 ()) (97 'njmpepo' (INTEGER 4) () () 0 0 0 ()) (98
'jmpdelsta' (LOGICAL 4) () () 0 0 0 ()) (99 'jmpdelsat' (LOGICAL 4) () ()
0 0 0 ()) (100 'njmppoly' (INTEGER 4) () () 0 0 0 ()) (101 'title' (
CHARACTER 1 ((CONSTANT (INTEGER 4) 0 '60'))) () () 0 0 0 ()) (102
'ninterval' (INTEGER 4) () () 0 0 0 ()) (103 'sumrms' (REAL 8) () () 0 0
0 ()) (104 'numdel' (INTEGER 4) () () 0 0 0 ()) (105 'maxrms' (REAL 8) ()
() 0 0 0 ()) (106 'maxdel' (INTEGER 4) () () 0 0 0 ()) (107 'maxrmsepo'
(CHARACTER 1 ((CONSTANT (INTEGER 4) 0 '19'))) (1 EXPLICIT (CONSTANT (
INTEGER 4) 0 '1') (CONSTANT (INTEGER 4) 0 '2')) () 1 0 0 ()) (108
'maxdelepo' (CHARACTER 1 ((CONSTANT (INTEGER 4) 0 '19'))) (1 EXPLICIT (
CONSTANT (INTEGER 4) 0 '1') (CONSTANT (INTEGER 4) 0 '2')) () 1 0 0 ()) (
109 'clkdata' (DERIVED 57) () () 0 0 0 ())) PUBLIC ())
)

('ccjump' 0 2 's_ccjump' 0 9)
