G95 module created on Thu Jun 25 17:51:01 2020 from ./.fpp/CCDELT.f90
If you edit this, you'll get what you deserve.
module-version 9
(() () () () () () () () () () () () () () () () () () () () ())

()

()

()

()

(2 'ccdelt' 's_ccdelt' 1 ((PROCEDURE UNKNOWN MODULE-PROC DECL NONE NONE
SUBROUTINE) (PROCEDURE 0) 0 0 (3 NONE 4 NONE 5 NONE 6 NONE 7 NONE 8 NONE
9 NONE 10 NONE 11 NONE 12 NONE) () () '' () ())
13 's_ccdelt' 's_ccdelt' 1 ((MODULE UNKNOWN UNKNOWN UNKNOWN NONE NONE) (
UNKNOWN) 0 0 () () () '' () ())
12 'sdeltat' '' 14 ((VARIABLE UNKNOWN UNKNOWN UNKNOWN NONE NONE DUMMY) (
REAL 8) 0 0 () () () '' () ())
11 'mdeltat' '' 14 ((VARIABLE UNKNOWN UNKNOWN UNKNOWN NONE NONE DUMMY) (
REAL 8) 0 0 () () () '' () ())
10 'ndeltat' '' 14 ((VARIABLE UNKNOWN UNKNOWN UNKNOWN NONE NONE DUMMY) (
INTEGER 4) 0 0 () () () '' () ())
9 'clkjump' '' 14 ((VARIABLE UNKNOWN UNKNOWN UNKNOWN NONE NONE DIMENSION
POINTER DUMMY) (DERIVED 15) 0 0 () (1 DEFERRED () ()) () '' () ())
15 't_jump' 'p_ccrnxc' 14 ((DERIVED UNKNOWN UNKNOWN UNKNOWN NONE NONE) (
UNKNOWN) 0 0 () () () '' ((16 'iclk' (INTEGER 4) () () 0 0 0 ()) (17
'iepo' (INTEGER 4) () () 0 0 0 ()) (18 'jepo' (INTEGER 4) () () 0 0 0 ())
(19 'meandt' (REAL 8) () () 0 0 0 ()) (20 'sdevdt' (REAL 8) () () 0 0 0
()) (21 'jsize' (REAL 8) () () 0 0 0 ()) (22 'ssize' (REAL 8) () () 0 0
0 ())) PUBLIC ())
8 'njump' '' 14 ((VARIABLE UNKNOWN UNKNOWN UNKNOWN NONE NONE DUMMY) (
INTEGER 4) 0 0 () () () '' () ())
7 'outclkrec' '' 14 ((VARIABLE UNKNOWN UNKNOWN UNKNOWN NONE NONE DUMMY)
(DERIVED 23) 0 0 () () () '' () ())
23 't_clkrec' 'd_clkrnx' 14 ((DERIVED UNKNOWN UNKNOWN UNKNOWN NONE NONE)
(UNKNOWN) 0 0 () () () '' ((24 'iepo' (INTEGER 4) () () 0 0 0 ()) (25
'nepo' (INTEGER 4) () () 0 0 0 ()) (26 'epoch' (REAL 8) (1 DEFERRED () ())
() 1 1 0 ()) (27 'clock' (REAL 8) (2 DEFERRED () () () ()) () 1 1 0 ())
(28 'sigma' (REAL 8) (2 DEFERRED () () () ()) () 1 1 0 ()) (29 'clkflg'
(CHARACTER 1 ((CONSTANT (INTEGER 4) 0 '1'))) (2 DEFERRED () () () ()) ()
1 1 0 ())) PUBLIC ())
6 'outclkhead' '' 14 ((VARIABLE UNKNOWN UNKNOWN UNKNOWN NONE NONE DUMMY)
(DERIVED 30) 0 0 () () () '' () ())
30 't_clkhead' 'd_clkrnx' 14 ((DERIVED UNKNOWN UNKNOWN UNKNOWN NONE NONE)
(UNKNOWN) 0 0 () () () '' ((31 'rnxvers' (REAL 8) () () 0 0 0 ()) (32
'ncomment' (INTEGER 4) () () 0 0 0 ()) (33 'comment' (CHARACTER 1 ((
CONSTANT (INTEGER 4) 0 '60'))) (1 DEFERRED () ()) () 1 1 0 ()) (34
'prognam' (CHARACTER 1 ((CONSTANT (INTEGER 4) 0 '20'))) () () 0 0 0 ())
(35 'runby' (CHARACTER 1 ((CONSTANT (INTEGER 4) 0 '20'))) () () 0 0 0 ())
(36 'crdate' (CHARACTER 1 ((CONSTANT (INTEGER 4) 0 '20'))) () () 0 0 0 ())
(37 'leapsec' (INTEGER 4) () () 0 0 0 ()) (38 'numtyp' (INTEGER 4) () ()
0 0 0 ()) (39 'dattyp' (CHARACTER 1 ((CONSTANT (INTEGER 4) 0 '2'))) (1
DEFERRED () ()) () 1 1 0 ()) (40 'clk0name' (CHARACTER 1 ((CONSTANT (
INTEGER 4) 0 '16'))) () () 0 0 0 ()) (41 'calname' (CHARACTER 1 ((
CONSTANT (INTEGER 4) 0 '60'))) () () 0 0 0 ()) (42 'ac' (CHARACTER 1 ((
CONSTANT (INTEGER 4) 0 '3'))) () () 0 0 0 ()) (43 'acname' (CHARACTER 1
((CONSTANT (INTEGER 4) 0 '55'))) () () 0 0 0 ()) (44 'timsys' (
CHARACTER 1 ((CONSTANT (INTEGER 4) 0 '3'))) () () 0 0 0 ()) (45 'pgmnam'
(CHARACTER 1 ((CONSTANT (INTEGER 4) 0 '17'))) () () 0 0 0 ()) (46 'dcbstr'
(CHARACTER 1 ((CONSTANT (INTEGER 4) 0 '40'))) () () 0 0 0 ()) (47 'pcvstr'
(CHARACTER 1 ((CONSTANT (INTEGER 4) 0 '40'))) () () 0 0 0 ()) (48 'tfirst'
(REAL 8) () () 0 0 0 ()) (49 'numref' (INTEGER 4) () () 0 0 0 ()) (50
'ref' (DERIVED 51) (1 DEFERRED () ()) () 1 1 0 ()) (52 'trfname' (
CHARACTER 1 ((CONSTANT (INTEGER 4) 0 '50'))) () () 0 0 0 ()) (53 'nsta'
(INTEGER 4) () () 0 0 0 ()) (54 'nsat' (INTEGER 4) () () 0 0 0 ()) (55
'clkname' (CHARACTER 1 ((CONSTANT (INTEGER 4) 0 '16'))) (1 DEFERRED () ())
() 1 1 0 ()) (56 'stacoord' (REAL 8) (2 DEFERRED () () () ()) () 1 1 0 ()))
PUBLIC ())
51 't_ref' 'd_clkrnx' 14 ((DERIVED UNKNOWN UNKNOWN UNKNOWN NONE NONE) (
UNKNOWN) 0 0 () () () '' ((57 'nref' (INTEGER 4) () () 0 0 0 ()) (58 'clk'
(DERIVED 59) (1 DEFERRED () ()) () 1 1 0 ()) (60 'refwin' (DERIVED 61) ()
() 0 0 0 ())) PUBLIC ())
61 't_timint' 'm_time' 14 ((DERIVED UNKNOWN UNKNOWN UNKNOWN NONE NONE) (
UNKNOWN) 0 0 () () () '' ((62 't' (REAL 8) (1 EXPLICIT (CONSTANT (
INTEGER 4) 0 '1') (CONSTANT (INTEGER 4) 0 '2')) () 1 0 0 ())) PUBLIC ())
59 't_refclk' 'd_clkrnx' 14 ((DERIVED UNKNOWN UNKNOWN UNKNOWN NONE NONE)
(UNKNOWN) 0 0 () () () '' ((63 'name' (CHARACTER 1 ((CONSTANT (INTEGER 4)
0 '16'))) () () 0 0 0 ()) (64 'sigma' (REAL 8) () () 0 0 0 ()) (65 'idx'
(INTEGER 4) () () 0 0 0 ()) (66 'idx0' (INTEGER 4) () () 0 0 0 ()))
PUBLIC ())
5 'iclk' '' 14 ((VARIABLE UNKNOWN UNKNOWN UNKNOWN NONE NONE DUMMY) (
INTEGER 4) 0 0 () () () '' () ())
4 'iepo2' '' 14 ((VARIABLE UNKNOWN UNKNOWN UNKNOWN NONE NONE DUMMY) (
INTEGER 4) 0 0 () () () '' () ())
3 'iepo1' '' 14 ((VARIABLE UNKNOWN UNKNOWN UNKNOWN NONE NONE DUMMY) (
INTEGER 4) 0 0 () () () '' () ())
)

('ccdelt' 0 2 's_ccdelt' 0 13)
