G95 module created on Thu Jun 25 17:50:28 2020 from ./.fpp/CDRESI.f
If you edit this, you'll get what you deserve.
module-version 9
(() () () () () () () () () () () () () () () () () () () () ())

()

()

()

()

(2 'cdresi' 's_cdresi' 1 ((PROCEDURE UNKNOWN MODULE-PROC DECL NONE NONE
SUBROUTINE) (PROCEDURE 0) 0 0 (3 NONE 4 NONE 5 NONE 6 NONE 7 NONE 8 NONE
9 NONE 10 NONE 11 NONE 12 NONE 13 NONE 14 NONE 15 NONE 16 NONE 17 NONE
18 NONE 19 NONE 20 NONE 21 NONE 22 NONE 23 NONE 24 NONE) () () '' () ())
25 's_cdresi' 's_cdresi' 1 ((MODULE UNKNOWN UNKNOWN UNKNOWN NONE NONE) (
UNKNOWN) 0 0 () () () '' () ())
24 'rmssat' '' 26 ((VARIABLE UNKNOWN UNKNOWN UNKNOWN NONE NONE DIMENSION
DUMMY) (REAL 8) 0 0 () (2 ASSUMED_SIZE (CONSTANT (INTEGER 4) 0 '1') (
VARIABLE (INTEGER 4) 0 27 ()) (CONSTANT (INTEGER 4) 0 '1') ()) () '' ()
())
27 'mxcsat' '' 26 ((VARIABLE UNKNOWN UNKNOWN UNKNOWN NONE NONE IN_COMMON)
(INTEGER 4) 0 28 () () () '' () ())
28 'mxnsat' '' 26 ((VARIABLE UNKNOWN UNKNOWN UNKNOWN NONE NONE IN_COMMON)
(CHARACTER 1 ((CONSTANT (INTEGER 4) 0 '6'))) 0 0 () () () '' () ())
23 'clkrec' '' 26 ((VARIABLE UNKNOWN UNKNOWN UNKNOWN NONE NONE DUMMY) (
DERIVED 29) 0 0 () () () '' () ())
29 't_clkrec' 'd_clkrnx' 26 ((DERIVED UNKNOWN UNKNOWN UNKNOWN NONE NONE)
(UNKNOWN) 0 0 () () () '' ((30 'iepo' (INTEGER 4) () () 0 0 0 ()) (31
'nepo' (INTEGER 4) () () 0 0 0 ()) (32 'epoch' (REAL 8) (1 DEFERRED () ())
() 1 1 0 ()) (33 'clock' (REAL 8) (2 DEFERRED () () () ()) () 1 1 0 ())
(34 'sigma' (REAL 8) (2 DEFERRED () () () ()) () 1 1 0 ()) (35 'clkflg'
(CHARACTER 1 ((CONSTANT (INTEGER 4) 0 '1'))) (2 DEFERRED () () () ()) ()
1 1 0 ())) PUBLIC ())
22 'clkhed' '' 26 ((VARIABLE UNKNOWN UNKNOWN UNKNOWN NONE NONE DUMMY) (
DERIVED 36) 0 0 () () () '' () ())
36 't_clkhead' 'd_clkrnx' 26 ((DERIVED UNKNOWN UNKNOWN UNKNOWN NONE NONE)
(UNKNOWN) 0 0 () () () '' ((37 'rnxvers' (REAL 8) () () 0 0 0 ()) (38
'ncomment' (INTEGER 4) () () 0 0 0 ()) (39 'comment' (CHARACTER 1 ((
CONSTANT (INTEGER 4) 0 '60'))) (1 DEFERRED () ()) () 1 1 0 ()) (40
'prognam' (CHARACTER 1 ((CONSTANT (INTEGER 4) 0 '20'))) () () 0 0 0 ())
(41 'runby' (CHARACTER 1 ((CONSTANT (INTEGER 4) 0 '20'))) () () 0 0 0 ())
(42 'crdate' (CHARACTER 1 ((CONSTANT (INTEGER 4) 0 '20'))) () () 0 0 0 ())
(43 'leapsec' (INTEGER 4) () () 0 0 0 ()) (44 'numtyp' (INTEGER 4) () ()
0 0 0 ()) (45 'dattyp' (CHARACTER 1 ((CONSTANT (INTEGER 4) 0 '2'))) (1
DEFERRED () ()) () 1 1 0 ()) (46 'clk0name' (CHARACTER 1 ((CONSTANT (
INTEGER 4) 0 '16'))) () () 0 0 0 ()) (47 'calname' (CHARACTER 1 ((
CONSTANT (INTEGER 4) 0 '60'))) () () 0 0 0 ()) (48 'ac' (CHARACTER 1 ((
CONSTANT (INTEGER 4) 0 '3'))) () () 0 0 0 ()) (49 'acname' (CHARACTER 1
((CONSTANT (INTEGER 4) 0 '55'))) () () 0 0 0 ()) (50 'timsys' (
CHARACTER 1 ((CONSTANT (INTEGER 4) 0 '3'))) () () 0 0 0 ()) (51 'pgmnam'
(CHARACTER 1 ((CONSTANT (INTEGER 4) 0 '17'))) () () 0 0 0 ()) (52 'dcbstr'
(CHARACTER 1 ((CONSTANT (INTEGER 4) 0 '40'))) () () 0 0 0 ()) (53 'pcvstr'
(CHARACTER 1 ((CONSTANT (INTEGER 4) 0 '40'))) () () 0 0 0 ()) (54 'tfirst'
(REAL 8) () () 0 0 0 ()) (55 'numref' (INTEGER 4) () () 0 0 0 ()) (56
'ref' (DERIVED 57) (1 DEFERRED () ()) () 1 1 0 ()) (58 'trfname' (
CHARACTER 1 ((CONSTANT (INTEGER 4) 0 '50'))) () () 0 0 0 ()) (59 'nsta'
(INTEGER 4) () () 0 0 0 ()) (60 'nsat' (INTEGER 4) () () 0 0 0 ()) (61
'clkname' (CHARACTER 1 ((CONSTANT (INTEGER 4) 0 '16'))) (1 DEFERRED () ())
() 1 1 0 ()) (62 'stacoord' (REAL 8) (2 DEFERRED () () () ()) () 1 1 0 ()))
PUBLIC ())
57 't_ref' 'd_clkrnx' 26 ((DERIVED UNKNOWN UNKNOWN UNKNOWN NONE NONE) (
UNKNOWN) 0 0 () () () '' ((63 'nref' (INTEGER 4) () () 0 0 0 ()) (64 'clk'
(DERIVED 65) (1 DEFERRED () ()) () 1 1 0 ()) (66 'refwin' (DERIVED 67) ()
() 0 0 0 ())) PUBLIC ())
67 't_timint' 'm_time' 26 ((DERIVED UNKNOWN UNKNOWN UNKNOWN NONE NONE) (
UNKNOWN) 0 0 () () () '' ((68 't' (REAL 8) (1 EXPLICIT (CONSTANT (
INTEGER 4) 0 '1') (CONSTANT (INTEGER 4) 0 '2')) () 1 0 0 ())) PUBLIC ())
65 't_refclk' 'd_clkrnx' 26 ((DERIVED UNKNOWN UNKNOWN UNKNOWN NONE NONE)
(UNKNOWN) 0 0 () () () '' ((69 'name' (CHARACTER 1 ((CONSTANT (INTEGER 4)
0 '16'))) () () 0 0 0 ()) (70 'sigma' (REAL 8) () () 0 0 0 ()) (71 'idx'
(INTEGER 4) () () 0 0 0 ()) (72 'idx0' (INTEGER 4) () () 0 0 0 ()))
PUBLIC ())
21 'kinest' '' 26 ((VARIABLE UNKNOWN UNKNOWN UNKNOWN NONE NONE DUMMY) (
INTEGER 4) 0 0 () () () '' () ())
20 'doffs' '' 26 ((VARIABLE UNKNOWN UNKNOWN UNKNOWN NONE NONE DIMENSION
DUMMY) (REAL 8) 0 0 () (1 EXPLICIT (CONSTANT (INTEGER 4) 0 '1') (
VARIABLE (INTEGER 4) 0 73 ())) () '' () ())
73 'mxcepo' '' 26 ((VARIABLE UNKNOWN UNKNOWN UNKNOWN NONE NONE IN_COMMON)
(INTEGER 4) 0 74 () () () '' () ())
74 'mxnepo' '' 26 ((VARIABLE UNKNOWN UNKNOWN UNKNOWN NONE NONE IN_COMMON)
(CHARACTER 1 ((CONSTANT (INTEGER 4) 0 '6'))) 0 0 () () () '' () ())
19 'offs' '' 26 ((VARIABLE UNKNOWN UNKNOWN UNKNOWN NONE NONE DIMENSION
DUMMY) (REAL 8) 0 0 () (1 EXPLICIT (CONSTANT (INTEGER 4) 0 '1') (
VARIABLE (INTEGER 4) 0 73 ())) () '' () ())
18 'ideltt' '' 26 ((VARIABLE UNKNOWN UNKNOWN UNKNOWN NONE NONE DUMMY) (
INTEGER 4) 0 0 () () () '' () ())
17 'timref' '' 26 ((VARIABLE UNKNOWN UNKNOWN UNKNOWN NONE NONE DUMMY) (
REAL 8) 0 0 () () () '' () ())
16 'dpar' '' 26 ((VARIABLE UNKNOWN UNKNOWN UNKNOWN NONE NONE DIMENSION
DUMMY) (REAL 8) 0 0 () (1 ASSUMED_SIZE (CONSTANT (INTEGER 4) 0 '1') ())
() '' () ())
15 'indsvn' '' 26 ((VARIABLE UNKNOWN UNKNOWN UNKNOWN NONE NONE DIMENSION
DUMMY) (INTEGER 4) 0 0 () (1 EXPLICIT (CONSTANT (INTEGER 4) 0 '1') (
VARIABLE (INTEGER 4) 0 75 ())) () '' () ())
75 'mxcsvn' '' 26 ((VARIABLE UNKNOWN UNKNOWN UNKNOWN NONE NONE IN_COMMON)
(INTEGER 4) 0 76 () () () '' () ())
76 'mxnsvn' '' 26 ((VARIABLE UNKNOWN UNKNOWN UNKNOWN NONE NONE IN_COMMON)
(CHARACTER 1 ((CONSTANT (INTEGER 4) 0 '6'))) 0 0 () () () '' () ())
14 'satnum' '' 26 ((VARIABLE UNKNOWN UNKNOWN UNKNOWN NONE NONE DIMENSION
DUMMY) (INTEGER 4) 0 0 () (1 EXPLICIT (CONSTANT (INTEGER 4) 0 '1') (
VARIABLE (INTEGER 4) 0 27 ())) () '' () ())
13 'nsatel' '' 26 ((VARIABLE UNKNOWN UNKNOWN UNKNOWN NONE NONE DUMMY) (
INTEGER 4) 0 0 () () () '' () ())
12 'nordim' '' 26 ((VARIABLE UNKNOWN UNKNOWN UNKNOWN NONE NONE DUMMY) (
INTEGER 4) 0 0 () () () '' () ())
11 'filfrq' '' 26 ((VARIABLE UNKNOWN UNKNOWN UNKNOWN NONE NONE DUMMY) (
INTEGER 4) 0 0 () () () '' () ())
10 'obsfil' '' 26 ((VARIABLE UNKNOWN UNKNOWN UNKNOWN NONE NONE DUMMY) (
CHARACTER 1 ((CONSTANT (INTEGER 4) 0 '32'))) 0 0 () () () '' () ())
9 'irssav' '' 26 ((VARIABLE UNKNOWN UNKNOWN UNKNOWN NONE NONE DUMMY) (
INTEGER 4) 0 0 () () () '' () ())
8 'priopt' '' 26 ((VARIABLE UNKNOWN UNKNOWN UNKNOWN NONE NONE DIMENSION
DUMMY) (INTEGER 4) 0 0 () (1 ASSUMED_SIZE (CONSTANT (INTEGER 4) 0 '1') ())
() '' () ())
7 'iclpol' '' 26 ((VARIABLE UNKNOWN UNKNOWN UNKNOWN NONE NONE DUMMY) (
INTEGER 4) 0 0 () () () '' () ())
6 'stitle' '' 26 ((VARIABLE UNKNOWN UNKNOWN UNKNOWN NONE NONE DUMMY) (
CHARACTER 1 ((CONSTANT (INTEGER 4) 0 '64'))) 0 0 () () () '' () ())
5 'campgn' '' 26 ((VARIABLE UNKNOWN UNKNOWN UNKNOWN NONE NONE DUMMY) (
CHARACTER 1 ((CONSTANT (INTEGER 4) 0 '16'))) 0 0 () () () '' () ())
4 'pgmnam' '' 26 ((VARIABLE UNKNOWN UNKNOWN UNKNOWN NONE NONE DUMMY) (
CHARACTER 1 ((CONSTANT (INTEGER 4) 0 '6'))) 0 0 () () () '' () ())
3 'ifil' '' 26 ((VARIABLE UNKNOWN UNKNOWN UNKNOWN NONE NONE DUMMY) (
INTEGER 4) 0 0 () () () '' () ())
)

('cdresi' 0 2 's_cdresi' 0 25)
