G95 module created on Thu Jun 25 17:50:59 2020 from ./.fpp/CEALLIGN.f90
If you edit this, you'll get what you deserve.
module-version 9
(() () () () () () () () () () () () () () () () () () () () ())

()

()

()

()

(2 'ceallign' 's_ceallign' 1 ((PROCEDURE UNKNOWN MODULE-PROC DECL NONE
NONE SUBROUTINE) (PROCEDURE 0) 0 0 (3 NONE 4 NONE 5 NONE 6 NONE 7 NONE 8
NONE 9 NONE 10 NONE 11 NONE 12 NONE 13 NONE 14 NONE 15 NONE 16 NONE) ()
() '' () ())
17 's_ceallign' 's_ceallign' 1 ((MODULE UNKNOWN UNKNOWN UNKNOWN NONE
NONE) (UNKNOWN) 0 0 () () () '' () ())
16 'brdrft' '' 18 ((VARIABLE UNKNOWN UNKNOWN UNKNOWN NONE NONE DUMMY) (
REAL 8) 0 0 () () () '' () ())
15 'brdoff' '' 18 ((VARIABLE UNKNOWN UNKNOWN UNKNOWN NONE NONE DUMMY) (
REAL 8) 0 0 () () () '' () ())
14 'brdepo' '' 18 ((VARIABLE UNKNOWN UNKNOWN UNKNOWN NONE NONE DUMMY) (
REAL 8) 0 0 () () () '' () ())
13 'irfrnx' '' 18 ((VARIABLE UNKNOWN UNKNOWN UNKNOWN NONE NONE DUMMY) (
INTEGER 4) 0 0 () () () '' () ())
12 'sckirc' '' 18 ((VARIABLE UNKNOWN UNKNOWN UNKNOWN NONE NONE DIMENSION
DUMMY) (INTEGER 4) 0 0 () (1 ASSUMED_SHAPE () ()) () '' () ())
11 'clk' '' 18 ((VARIABLE UNKNOWN UNKNOWN UNKNOWN NONE NONE DIMENSION
DUMMY) (REAL 8) 0 0 () (2 ASSUMED_SHAPE () () () ()) () '' () ())
10 'mepo' '' 18 ((VARIABLE UNKNOWN UNKNOWN UNKNOWN NONE NONE DIMENSION
DUMMY) (INTEGER 4) 0 0 () (2 ASSUMED_SHAPE () () () ()) () '' () ())
9 'ipar' '' 18 ((VARIABLE UNKNOWN UNKNOWN UNKNOWN NONE NONE DIMENSION
DUMMY) (INTEGER 4) 0 0 () (1 ASSUMED_SHAPE () ()) () '' () ())
8 'nsat' '' 18 ((VARIABLE UNKNOWN UNKNOWN UNKNOWN NONE NONE DUMMY) (
INTEGER 4) 0 0 () () () '' () ())
7 'epoch' '' 18 ((VARIABLE UNKNOWN UNKNOWN UNKNOWN NONE NONE DIMENSION
DUMMY) (REAL 8) 0 0 () (1 ASSUMED_SHAPE () ()) () '' () ())
6 'nepo' '' 18 ((VARIABLE UNKNOWN UNKNOWN UNKNOWN NONE NONE DUMMY) (
INTEGER 4) 0 0 () () () '' () ())
5 'inclkrec' '' 18 ((VARIABLE UNKNOWN UNKNOWN UNKNOWN NONE NONE DUMMY) (
DERIVED 19) 0 0 () () () '' () ())
19 't_clkrec' 'd_clkrnx' 18 ((DERIVED UNKNOWN UNKNOWN UNKNOWN NONE NONE)
(UNKNOWN) 0 0 () () () '' ((20 'iepo' (INTEGER 4) () () 0 0 0 ()) (21
'nepo' (INTEGER 4) () () 0 0 0 ()) (22 'epoch' (REAL 8) (1 DEFERRED () ())
() 1 1 0 ()) (23 'clock' (REAL 8) (2 DEFERRED () () () ()) () 1 1 0 ())
(24 'sigma' (REAL 8) (2 DEFERRED () () () ()) () 1 1 0 ()) (25 'clkflg'
(CHARACTER 1 ((CONSTANT (INTEGER 4) 0 '1'))) (2 DEFERRED () () () ()) ()
1 1 0 ())) PUBLIC ())
4 'inclkhead' '' 18 ((VARIABLE UNKNOWN UNKNOWN UNKNOWN NONE NONE DUMMY)
(DERIVED 26) 0 0 () () () '' () ())
26 't_clkhead' 'd_clkrnx' 18 ((DERIVED UNKNOWN UNKNOWN UNKNOWN NONE NONE)
(UNKNOWN) 0 0 () () () '' ((27 'rnxvers' (REAL 8) () () 0 0 0 ()) (28
'ncomment' (INTEGER 4) () () 0 0 0 ()) (29 'comment' (CHARACTER 1 ((
CONSTANT (INTEGER 4) 0 '60'))) (1 DEFERRED () ()) () 1 1 0 ()) (30
'prognam' (CHARACTER 1 ((CONSTANT (INTEGER 4) 0 '20'))) () () 0 0 0 ())
(31 'runby' (CHARACTER 1 ((CONSTANT (INTEGER 4) 0 '20'))) () () 0 0 0 ())
(32 'crdate' (CHARACTER 1 ((CONSTANT (INTEGER 4) 0 '20'))) () () 0 0 0 ())
(33 'leapsec' (INTEGER 4) () () 0 0 0 ()) (34 'numtyp' (INTEGER 4) () ()
0 0 0 ()) (35 'dattyp' (CHARACTER 1 ((CONSTANT (INTEGER 4) 0 '2'))) (1
DEFERRED () ()) () 1 1 0 ()) (36 'clk0name' (CHARACTER 1 ((CONSTANT (
INTEGER 4) 0 '16'))) () () 0 0 0 ()) (37 'calname' (CHARACTER 1 ((
CONSTANT (INTEGER 4) 0 '60'))) () () 0 0 0 ()) (38 'ac' (CHARACTER 1 ((
CONSTANT (INTEGER 4) 0 '3'))) () () 0 0 0 ()) (39 'acname' (CHARACTER 1
((CONSTANT (INTEGER 4) 0 '55'))) () () 0 0 0 ()) (40 'timsys' (
CHARACTER 1 ((CONSTANT (INTEGER 4) 0 '3'))) () () 0 0 0 ()) (41 'pgmnam'
(CHARACTER 1 ((CONSTANT (INTEGER 4) 0 '17'))) () () 0 0 0 ()) (42 'dcbstr'
(CHARACTER 1 ((CONSTANT (INTEGER 4) 0 '40'))) () () 0 0 0 ()) (43 'pcvstr'
(CHARACTER 1 ((CONSTANT (INTEGER 4) 0 '40'))) () () 0 0 0 ()) (44 'tfirst'
(REAL 8) () () 0 0 0 ()) (45 'numref' (INTEGER 4) () () 0 0 0 ()) (46
'ref' (DERIVED 47) (1 DEFERRED () ()) () 1 1 0 ()) (48 'trfname' (
CHARACTER 1 ((CONSTANT (INTEGER 4) 0 '50'))) () () 0 0 0 ()) (49 'nsta'
(INTEGER 4) () () 0 0 0 ()) (50 'nsat' (INTEGER 4) () () 0 0 0 ()) (51
'clkname' (CHARACTER 1 ((CONSTANT (INTEGER 4) 0 '16'))) (1 DEFERRED () ())
() 1 1 0 ()) (52 'stacoord' (REAL 8) (2 DEFERRED () () () ()) () 1 1 0 ()))
PUBLIC ())
47 't_ref' 'd_clkrnx' 18 ((DERIVED UNKNOWN UNKNOWN UNKNOWN NONE NONE) (
UNKNOWN) 0 0 () () () '' ((53 'nref' (INTEGER 4) () () 0 0 0 ()) (54 'clk'
(DERIVED 55) (1 DEFERRED () ()) () 1 1 0 ()) (56 'refwin' (DERIVED 57) ()
() 0 0 0 ())) PUBLIC ())
57 't_timint' 'm_time' 18 ((DERIVED UNKNOWN UNKNOWN UNKNOWN NONE NONE) (
UNKNOWN) 0 0 () () () '' ((58 't' (REAL 8) (1 EXPLICIT (CONSTANT (
INTEGER 4) 0 '1') (CONSTANT (INTEGER 4) 0 '2')) () 1 0 0 ())) PUBLIC ())
55 't_refclk' 'd_clkrnx' 18 ((DERIVED UNKNOWN UNKNOWN UNKNOWN NONE NONE)
(UNKNOWN) 0 0 () () () '' ((59 'name' (CHARACTER 1 ((CONSTANT (INTEGER 4)
0 '16'))) () () 0 0 0 ()) (60 'sigma' (REAL 8) () () 0 0 0 ()) (61 'idx'
(INTEGER 4) () () 0 0 0 ()) (62 'idx0' (INTEGER 4) () () 0 0 0 ()))
PUBLIC ())
3 'clkopt' '' 18 ((VARIABLE UNKNOWN UNKNOWN UNKNOWN NONE NONE DUMMY) (
DERIVED 63) 0 0 () () () '' () ())
63 't_clkopt' 'p_clkest' 18 ((DERIVED UNKNOWN UNKNOWN UNKNOWN NONE NONE)
(UNKNOWN) 0 0 () () () '' ((64 'nsampl' (INTEGER 4) () () 0 0 0 ()) (65
'lincom' (INTEGER 4) () () 0 0 0 ()) (66 'irfsel' (INTEGER 4) () () 0 0
0 ()) (67 'irfclk' (INTEGER 4) () () 0 0 0 ()) (68 'minsta' (INTEGER 4)
() () 0 0 0 ()) (69 'irelj2' (INTEGER 4) () () 0 0 0 ()) (70 'iextra' (
INTEGER 4) () () 0 0 0 ()) (71 'itropo' (INTEGER 4) () () 0 0 0 ()) (72
'chktrp' (INTEGER 4) () () 0 0 0 ()) (73 'cmbsel' (INTEGER 4) () () 0 0
0 ()) (74 'ifix' (INTEGER 4) () () 0 0 0 ()) (75 'allign' (INTEGER 4) ()
() 0 0 0 ()) (76 'maxitc' (INTEGER 4) () () 0 0 0 ()) (77 'maxitp' (
INTEGER 4) () () 0 0 0 ()) (78 'nocode' (INTEGER 4) () () 0 0 0 ()) (79
'remove' (INTEGER 4) () () 0 0 0 ()) (80 'ncom' (INTEGER 4) () () 0 0 0
()) (81 'nrfsta' (INTEGER 4) () () 0 0 0 ()) (82 'nrxsta' (INTEGER 4) ()
() 0 0 0 ()) (83 'clkwrt' (INTEGER 4) () () 0 0 0 ()) (84 'cpyrnx' (
INTEGER 4) () () 0 0 0 ()) (85 'delrnx' (INTEGER 4) () () 0 0 0 ()) (86
'clksel' (INTEGER 4) () () 0 0 0 ()) (87 'debug' (INTEGER 4) () () 0 0 0
()) (88 'maxzen' (REAL 8) () () 0 0 0 ()) (89 'omcmxc' (REAL 8) () () 0
0 0 ()) (90 'aprsic' (REAL 8) () () 0 0 0 ()) (91 'resmxc' (REAL 8) () ()
0 0 0 ()) (92 'rmsmxc' (REAL 8) () () 0 0 0 ()) (93 'omcmax' (REAL 8) ()
() 0 0 0 ()) (94 'aprsip' (REAL 8) () () 0 0 0 ()) (95 'resmxp' (REAL 8)
() () 0 0 0 ()) (96 'rmsmxp' (REAL 8) () () 0 0 0 ()) (97 'dtfix' (REAL
8) () () 0 0 0 ()) (98 'dtsim' (REAL 8) () () 0 0 0 ()) (99 'secipl' (
REAL 8) () () 0 0 0 ()) (100 'epowin' (DERIVED 57) () () 0 0 0 ()) (101
'titclk' (CHARACTER 1 ((CONSTANT (INTEGER 4) 0 '80'))) () () 0 0 0 ()) (
102 'runby' (CHARACTER 1 ((CONSTANT (INTEGER 4) 0 '20'))) () () 0 0 0 ())
(103 'ac' (CHARACTER 1 ((CONSTANT (INTEGER 4) 0 '3'))) () () 0 0 0 ()) (
104 'acname' (CHARACTER 1 ((CONSTANT (INTEGER 4) 0 '55'))) () () 0 0 0 ())
(105 'timsys' (CHARACTER 1 ((CONSTANT (INTEGER 4) 0 '3'))) () () 0 0 0 ())
(106 'dcbstr' (CHARACTER 1 ((CONSTANT (INTEGER 4) 0 '40'))) () () 0 0 0
()) (107 'coment' (CHARACTER 1 ((CONSTANT (INTEGER 4) 0 '60'))) (1
DEFERRED () ()) () 1 1 0 ()) (108 'refsta' (CHARACTER 1 ((CONSTANT (
INTEGER 4) 0 '4'))) (1 DEFERRED () ()) () 1 1 0 ()) (109 'rnxsta' (
CHARACTER 1 ((CONSTANT (INTEGER 4) 0 '4'))) (1 DEFERRED () ()) () 1 1 0
()) (110 'refclk' (CHARACTER 1 ((CONSTANT (INTEGER 4) 0 '4'))) () () 0 0
0 ())) PUBLIC ())
)

('ceallign' 0 2 's_ceallign' 0 17)
