G95 module created on Thu Jun 25 17:50:46 2020 from ./.fpp/CHSTACRX.f90
If you edit this, you'll get what you deserve.
module-version 9
(() () () () () () () () () () () () () () () () () () () () ())

()

()

()

()

(2 'chstacrx' 's_chstacrx' 1 ((PROCEDURE UNKNOWN MODULE-PROC DECL NONE
NONE SUBROUTINE) (PROCEDURE 0) 0 0 (3 NONE 4 NONE 5 NONE 6 NONE) () () ''
() ())
7 's_chstacrx' 's_chstacrx' 1 ((MODULE UNKNOWN UNKNOWN UNKNOWN NONE NONE)
(UNKNOWN) 0 0 () () () '' () ())
6 'ircode' '' 8 ((VARIABLE UNKNOWN UNKNOWN UNKNOWN NONE NONE DUMMY) (
INTEGER 4) 0 0 () () () '' () ())
5 'obshead' '' 8 ((VARIABLE UNKNOWN UNKNOWN UNKNOWN NONE NONE DUMMY) (
DERIVED 9) 0 0 () () () '' () ())
9 't_obshead' 'd_gpsobs' 8 ((DERIVED UNKNOWN UNKNOWN UNKNOWN NONE NONE)
(UNKNOWN) 0 0 () () () '' ((10 'campgn' (CHARACTER 1 ((CONSTANT (
INTEGER 4) 0 '16'))) () () 0 0 0 ()) (11 'title' (CHARACTER 1 ((
CONSTANT (INTEGER 4) 0 '53'))) () () 0 0 0 ()) (12 'irmark' (INTEGER 4)
() () 0 0 0 ()) (13 'ifrmat' (INTEGER 4) () () 0 0 0 ()) (14 'csess' (
CHARACTER 1 ((CONSTANT (INTEGER 4) 0 '4'))) (1 EXPLICIT (CONSTANT (
INTEGER 4) 0 '1') (CONSTANT (INTEGER 4) 0 '2')) () 1 0 0 ()) (15 'crdate'
(CHARACTER 1 ((CONSTANT (INTEGER 4) 0 '9'))) (1 EXPLICIT (CONSTANT (
INTEGER 4) 0 '1') (CONSTANT (INTEGER 4) 0 '2')) () 1 0 0 ()) (16 'crtime'
(CHARACTER 1 ((CONSTANT (INTEGER 4) 0 '5'))) (1 EXPLICIT (CONSTANT (
INTEGER 4) 0 '1') (CONSTANT (INTEGER 4) 0 '2')) () 1 0 0 ()) (17 'timref'
(REAL 8) () () 0 0 0 ()) (18 'ideltt' (INTEGER 4) () () 0 0 0 ()) (19
'meatyp' (INTEGER 4) () () 0 0 0 ()) (20 'ndiff' (INTEGER 4) () () 0 0 0
()) (21 'nfreq' (INTEGER 4) () () 0 0 0 ()) (22 'nepoch' (INTEGER 4) ()
() 0 0 0 ()) (23 'numamb' (INTEGER 4) () () 0 0 0 ()) (24 'nsatel' (
INTEGER 4) () () 0 0 0 ()) (25 'nepflg' (INTEGER 4) () () 0 0 0 ()) (26
'sta' (DERIVED 27) (1 EXPLICIT (CONSTANT (INTEGER 4) 0 '1') (CONSTANT (
INTEGER 4) 0 '2')) () 1 0 0 ()) (28 'sat' (DERIVED 29) (1 DEFERRED () ())
() 1 1 0 ()) (30 'ambigu' (DERIVED 31) (1 DEFERRED () ()) () 1 1 0 ()))
PUBLIC ())
31 't_ambigu' 'd_ambigu' 8 ((DERIVED UNKNOWN UNKNOWN UNKNOWN NONE NONE)
(UNKNOWN) 0 0 () () () '' ((32 'ambigu' (REAL 8) (1 EXPLICIT (CONSTANT (
INTEGER 4) 0 '1') (CONSTANT (INTEGER 4) 0 '3')) () 1 0 0 ()) (33 'ambsat'
(INTEGER 4) () () 0 0 0 ()) (34 'ambiep' (INTEGER 4) () () 0 0 0 ()) (
35 'ambwlf' (INTEGER 4) (1 EXPLICIT (CONSTANT (INTEGER 4) 0 '1') (
CONSTANT (INTEGER 4) 0 '2')) () 1 0 0 ()) (36 'ambcls' (INTEGER 4) (1
EXPLICIT (CONSTANT (INTEGER 4) 0 '1') (CONSTANT (INTEGER 4) 0 '3')) () 1
0 0 ()) (37 'solved' (LOGICAL 4) () () 0 0 0 ())) PUBLIC ())
29 't_sat' 'd_gpsobs' 8 ((DERIVED UNKNOWN UNKNOWN UNKNOWN NONE NONE) (
UNKNOWN) 0 0 () () () '' ((38 'numsat' (INTEGER 4) () () 0 0 0 ()) (39
'numobs' (INTEGER 4) (1 EXPLICIT (CONSTANT (INTEGER 4) 0 '1') (CONSTANT
(INTEGER 4) 0 '2')) () 1 0 0 ()) (40 'nummrk' (INTEGER 4) (1 EXPLICIT (
CONSTANT (INTEGER 4) 0 '1') (CONSTANT (INTEGER 4) 0 '2')) () 1 0 0 ()) (
41 'obstyp' (CHARACTER 1 ((CONSTANT (INTEGER 4) 0 '3'))) (1 EXPLICIT (
CONSTANT (INTEGER 4) 0 '1') (CONSTANT (INTEGER 4) 0 '8')) () 1 0 0 ()))
PUBLIC ())
27 't_sta' 'd_gpsobs' 8 ((DERIVED UNKNOWN UNKNOWN UNKNOWN NONE NONE) (
UNKNOWN) 0 0 () () () '' ((42 'stanam' (CHARACTER 1 ((CONSTANT (INTEGER
4) 0 '16'))) () () 0 0 0 ()) (43 'oprnam' (CHARACTER 1 ((CONSTANT (
INTEGER 4) 0 '20'))) () () 0 0 0 ()) (44 'rectyp' (CHARACTER 1 ((
CONSTANT (INTEGER 4) 0 '20'))) () () 0 0 0 ()) (45 'irunit' (INTEGER 4)
() () 0 0 0 ()) (46 'anttyp' (CHARACTER 1 ((CONSTANT (INTEGER 4) 0 '20')))
() () 0 0 0 ()) (47 'ianten' (INTEGER 4) () () 0 0 0 ()) (48 'posecc' (
REAL 8) (1 EXPLICIT (CONSTANT (INTEGER 4) 0 '1') (CONSTANT (INTEGER 4) 0
'3')) () 1 0 0 ()) (49 'iclock' (INTEGER 4) () () 0 0 0 ())) PUBLIC ())
4 'stacrux' '' 8 ((VARIABLE UNKNOWN UNKNOWN UNKNOWN NONE NONE DUMMY) (
DERIVED 50) 0 0 () () () '' () ())
50 't_stacrux' 'd_stacrx' 8 ((DERIVED UNKNOWN UNKNOWN UNKNOWN NONE NONE)
(UNKNOWN) 0 0 () () () '' ((51 'nrenam' (INTEGER 4) () () 0 0 0 ()) (52
'ninfo' (INTEGER 4) () () 0 0 0 ()) (53 'nprob' (INTEGER 4) () () 0 0 0
()) (54 'ncoovel' (INTEGER 4) () () 0 0 0 ()) (55 'nrelpar' (INTEGER 4)
() () 0 0 0 ()) (56 'nstatype' (INTEGER 4) () () 0 0 0 ()) (57 'version'
(REAL 8) () () 0 0 0 ()) (58 'technique' (CHARACTER 1 ((CONSTANT (
INTEGER 4) 0 '30'))) () () 0 0 0 ()) (59 'renamsta' (DERIVED 60) (1
DEFERRED () ()) () 1 1 0 ()) (61 'stainfo' (DERIVED 62) (1 DEFERRED () ())
() 1 1 0 ()) (63 'staprob' (DERIVED 64) (1 DEFERRED () ()) () 1 1 0 ())
(65 'coovel' (DERIVED 66) (1 DEFERRED () ()) () 1 1 0 ()) (67 'starelpar'
(DERIVED 68) (1 DEFERRED () ()) () 1 1 0 ()) (69 'statype' (DERIVED 70)
(1 DEFERRED () ()) () 1 1 0 ())) PUBLIC ())
70 't_statype' 'd_stacrx' 8 ((DERIVED UNKNOWN UNKNOWN UNKNOWN NONE NONE)
(UNKNOWN) 0 0 () () () '' ((71 'stanam' (CHARACTER 1 ((CONSTANT (
INTEGER 4) 0 '16'))) () () 0 0 0 ()) (72 'flg' (CHARACTER 1 ((CONSTANT (
INTEGER 4) 0 '3'))) () () 0 0 0 ()) (73 'timint' (DERIVED 74) () () 0 0
0 ()) (75 'markertype' (CHARACTER 1 ((CONSTANT (INTEGER 4) 0 '20'))) ()
() 0 0 0 ()) (76 'remark' (CHARACTER 1 ((CONSTANT (INTEGER 4) 0 '24')))
() () 0 0 0 ())) PUBLIC ())
74 't_timint' 'm_time' 8 ((DERIVED UNKNOWN UNKNOWN UNKNOWN NONE NONE) (
UNKNOWN) 0 0 () () () '' ((77 't' (REAL 8) (1 EXPLICIT (CONSTANT (
INTEGER 4) 0 '1') (CONSTANT (INTEGER 4) 0 '2')) () 1 0 0 ())) PUBLIC ())
68 't_starelpar' 'd_stacrx' 8 ((DERIVED UNKNOWN UNKNOWN UNKNOWN NONE
NONE) (UNKNOWN) 0 0 () () () '' ((78 'stanam' (CHARACTER 1 ((CONSTANT (
INTEGER 4) 0 '16'))) (1 EXPLICIT (CONSTANT (INTEGER 4) 0 '1') (CONSTANT
(INTEGER 4) 0 '2')) () 1 0 0 ()) (79 'flg' (CHARACTER 1 ((CONSTANT (
INTEGER 4) 0 '3'))) () () 0 0 0 ()) (80 'timwin' (DERIVED 74) () () 0 0
0 ()) (81 'partyp' (CHARACTER 1 ((CONSTANT (INTEGER 4) 0 '8'))) () () 0
0 0 ()) (82 'sys' (CHARACTER 1 ((CONSTANT (INTEGER 4) 0 '3'))) (1
EXPLICIT (CONSTANT (INTEGER 4) 0 '1') (CONSTANT (INTEGER 4) 0 '2')) () 1
0 0 ()) (83 'loctie' (REAL 8) (1 EXPLICIT (CONSTANT (INTEGER 4) 0 '1') (
CONSTANT (INTEGER 4) 0 '3')) () 1 0 0 ()) (84 'constr' (REAL 8) (1
EXPLICIT (CONSTANT (INTEGER 4) 0 '1') (CONSTANT (INTEGER 4) 0 '3')) () 1
0 0 ()) (85 'correl' (REAL 8) (1 EXPLICIT (CONSTANT (INTEGER 4) 0 '1') (
CONSTANT (INTEGER 4) 0 '3')) () 1 0 0 ()) (86 'remark' (CHARACTER 1 ((
CONSTANT (INTEGER 4) 0 '24'))) () () 0 0 0 ()) (87 'applied' (LOGICAL 4)
() () 0 0 0 ())) PUBLIC ())
66 't_coovel' 'd_stacrx' 8 ((DERIVED UNKNOWN UNKNOWN UNKNOWN NONE NONE)
(UNKNOWN) 0 0 () () () '' ((88 'stanam' (CHARACTER 1 ((CONSTANT (
INTEGER 4) 0 '16'))) (1 EXPLICIT (CONSTANT (INTEGER 4) 0 '1') (CONSTANT
(INTEGER 4) 0 '2')) () 1 0 0 ()) (89 'constr' (REAL 8) (1 EXPLICIT (
CONSTANT (INTEGER 4) 0 '1') (CONSTANT (INTEGER 4) 0 '6')) () 1 0 0 ()))
PUBLIC ())
64 't_staprob' 'd_stacrx' 8 ((DERIVED UNKNOWN UNKNOWN UNKNOWN NONE NONE)
(UNKNOWN) 0 0 () () () '' ((90 'stanam' (CHARACTER 1 ((CONSTANT (
INTEGER 4) 0 '16'))) () () 0 0 0 ()) (91 'flg' (CHARACTER 1 ((CONSTANT (
INTEGER 4) 0 '3'))) () () 0 0 0 ()) (92 'timint' (DERIVED 74) () () 0 0
0 ()) (93 'remark' (CHARACTER 1 ((CONSTANT (INTEGER 4) 0 '60'))) () () 0
0 0 ())) PUBLIC ())
62 't_stainfo' 'd_stacrx' 8 ((DERIVED UNKNOWN UNKNOWN UNKNOWN NONE NONE)
(UNKNOWN) 0 0 () () () '' ((94 'stanam' (CHARACTER 1 ((CONSTANT (
INTEGER 4) 0 '16'))) () () 0 0 0 ()) (95 'flg' (CHARACTER 1 ((CONSTANT (
INTEGER 4) 0 '3'))) () () 0 0 0 ()) (96 'timint' (DERIVED 74) () () 0 0
0 ()) (97 'recnam' (CHARACTER 1 ((CONSTANT (INTEGER 4) 0 '20'))) () () 0
0 0 ()) (98 'antnam' (CHARACTER 1 ((CONSTANT (INTEGER 4) 0 '20'))) () ()
0 0 0 ()) (99 'recser' (CHARACTER 1 ((CONSTANT (INTEGER 4) 0 '20'))) ()
() 0 0 0 ()) (100 'antser' (CHARACTER 1 ((CONSTANT (INTEGER 4) 0 '20')))
() () 0 0 0 ()) (101 'recnum' (INTEGER 4) () () 0 0 0 ()) (102 'antnum'
(INTEGER 4) () () 0 0 0 ()) (103 'antecc' (REAL 8) (1 EXPLICIT (
CONSTANT (INTEGER 4) 0 '1') (CONSTANT (INTEGER 4) 0 '3')) () 1 0 0 ()) (
104 'descri' (CHARACTER 1 ((CONSTANT (INTEGER 4) 0 '22'))) () () 0 0 0 ())
(105 'remark' (CHARACTER 1 ((CONSTANT (INTEGER 4) 0 '24'))) () () 0 0 0
()) (106 'cdpsod' (CHARACTER 1 ((CONSTANT (INTEGER 4) 0 '8'))) () () 0 0
0 ())) PUBLIC ())
60 't_renamsta' 'd_stacrx' 8 ((DERIVED UNKNOWN UNKNOWN UNKNOWN NONE NONE)
(UNKNOWN) 0 0 () () () '' ((107 'stanam' (CHARACTER 1 ((CONSTANT (
INTEGER 4) 0 '16'))) () () 0 0 0 ()) (108 'flg' (CHARACTER 1 ((CONSTANT
(INTEGER 4) 0 '3'))) () () 0 0 0 ()) (109 'timint' (DERIVED 74) () () 0
0 0 ()) (110 'oldnam' (CHARACTER 1 ((CONSTANT (INTEGER 4) 0 '16'))) () ()
0 0 0 ()) (111 'remark' (CHARACTER 1 ((CONSTANT (INTEGER 4) 0 '24'))) ()
() 0 0 0 ())) PUBLIC ())
3 'opt' '' 8 ((VARIABLE UNKNOWN UNKNOWN UNKNOWN NONE NONE DIMENSION
DUMMY) (DERIVED 112) 0 0 () (1 ASSUMED_SHAPE () ()) () '' () ())
112 't_chghed' 'p_chghed' 8 ((DERIVED UNKNOWN UNKNOWN UNKNOWN NONE NONE)
(UNKNOWN) 0 0 () () () '' ((113 'ioptio' (INTEGER 4) () () 0 0 0 ()) (
114 'optany' (INTEGER 4) () () 0 0 0 ()) (115 'text' (CHARACTER 1 ((
CONSTANT (INTEGER 4) 0 '20'))) () () 0 0 0 ()) (116 'keylist' (
CHARACTER 1 ((CONSTANT (INTEGER 4) 0 '32'))) (1 EXPLICIT (CONSTANT (
INTEGER 4) 0 '1') (CONSTANT (INTEGER 4) 0 '3')) () 1 0 0 ()) (117 'idxchr'
(INTEGER 4) () () 0 0 0 ()) (118 'idxint' (INTEGER 4) () () 0 0 0 ()) (
119 'idxrea' (INTEGER 4) () () 0 0 0 ())) PUBLIC ())
)

('chstacrx' 0 2 's_chstacrx' 0 7)
