G95 module created on Thu Jun 25 17:50:24 2020 from ./.fpp/COMINIT.f90
If you edit this, you'll get what you deserve.
module-version 9
(() () () () () () () () () () () () () () () () () () () () ())

()

()

()

()

(2 'cominit' 's_cominit' 1 ((PROCEDURE UNKNOWN MODULE-PROC DECL NONE
NONE SUBROUTINE) (PROCEDURE 0) 0 0 (3 NONE) () () '' () ())
4 's_cominit' 's_cominit' 1 ((MODULE UNKNOWN UNKNOWN UNKNOWN NONE NONE)
(UNKNOWN) 0 0 () () () '' () ())
3 'orb' '' 5 ((VARIABLE UNKNOWN UNKNOWN UNKNOWN NONE NONE DUMMY) (
DERIVED 6) 0 0 () () () '' () ())
6 't_orb' 'p_addneq' 5 ((DERIVED UNKNOWN UNKNOWN UNKNOWN NONE NONE) (
UNKNOWN) 0 0 () () () '' ((7 'title' (CHARACTER 1 ((CONSTANT (INTEGER 4)
0 '80'))) () () 0 0 0 ()) (8 'nseff' (INTEGER 4) () () 0 0 0 ()) (9
'svneff' (INTEGER 4) (1 EXPLICIT (CONSTANT (INTEGER 4) 0 '1') (CONSTANT
(INTEGER 4) 0 '130')) () 1 0 0 ()) (10 'nstoch' (INTEGER 4) () () 0 0 0
()) (11 'arcnum' (INTEGER 4) (2 EXPLICIT (CONSTANT (INTEGER 4) 0 '1') (
CONSTANT (INTEGER 4) 0 '130') (CONSTANT (INTEGER 4) 0 '1') (CONSTANT (
INTEGER 4) 0 '30')) () 1 0 0 ()) (12 'manovr' (INTEGER 4) (1 EXPLICIT (
CONSTANT (INTEGER 4) 0 '1') (CONSTANT (INTEGER 4) 0 '130')) () 1 0 0 ())
(13 'ele' (REAL 8) (3 EXPLICIT (CONSTANT (INTEGER 4) 0 '1') (CONSTANT (
INTEGER 4) 0 '7') (CONSTANT (INTEGER 4) 0 '1') (CONSTANT (INTEGER 4) 0
'130') (CONSTANT (INTEGER 4) 0 '1') (CONSTANT (INTEGER 4) 0 '30')) () 1
0 0 ()) (14 'rpress' (REAL 8) (3 EXPLICIT (CONSTANT (INTEGER 4) 0 '1') (
CONSTANT (INTEGER 4) 0 '12') (CONSTANT (INTEGER 4) 0 '1') (CONSTANT (
INTEGER 4) 0 '130') (CONSTANT (INTEGER 4) 0 '1') (CONSTANT (INTEGER 4) 0
'30')) () 1 0 0 ()) (15 'drpr' (REAL 8) (3 EXPLICIT (CONSTANT (INTEGER 4)
0 '1') (CONSTANT (INTEGER 4) 0 '12') (CONSTANT (INTEGER 4) 0 '1') (
CONSTANT (INTEGER 4) 0 '130') (CONSTANT (INTEGER 4) 0 '1') (CONSTANT (
INTEGER 4) 0 '30')) () 1 0 0 ()) (16 'tosc' (REAL 8) (1 EXPLICIT (
CONSTANT (INTEGER 4) 0 '1') (CONSTANT (INTEGER 4) 0 '30')) () 1 0 0 ())
(17 'tstoch' (REAL 8) (1 EXPLICIT (CONSTANT (INTEGER 4) 0 '1') (
CONSTANT (INTEGER 4) 0 '1800')) () 1 0 0 ()) (18 'kmat' (REAL 8) (4
EXPLICIT (CONSTANT (INTEGER 4) 0 '1') (CONSTANT (INTEGER 4) 0 '6') (
CONSTANT (INTEGER 4) 0 '1') (CONSTANT (INTEGER 4) 0 '6') (CONSTANT (
INTEGER 4) 0 '1') (CONSTANT (INTEGER 4) 0 '130') (CONSTANT (INTEGER 4) 0
'1') (CONSTANT (INTEGER 4) 0 '30')) () 1 0 0 ()) (19 'lmat' (REAL 8) (4
EXPLICIT (CONSTANT (INTEGER 4) 0 '1') (CONSTANT (INTEGER 4) 0 '6') (
CONSTANT (INTEGER 4) 0 '1') (CONSTANT (INTEGER 4) 0 '12') (CONSTANT (
INTEGER 4) 0 '1') (CONSTANT (INTEGER 4) 0 '130') (CONSTANT (INTEGER 4) 0
'1') (CONSTANT (INTEGER 4) 0 '30')) () 1 0 0 ()) (20 'mmat' (REAL 8) (5
EXPLICIT (CONSTANT (INTEGER 4) 0 '1') (CONSTANT (INTEGER 4) 0 '6') (
CONSTANT (INTEGER 4) 0 '1') (CONSTANT (INTEGER 4) 0 '12') (CONSTANT (
INTEGER 4) 0 '1') (CONSTANT (INTEGER 4) 0 '130') (CONSTANT (INTEGER 4) 0
'1') (CONSTANT (INTEGER 4) 0 '30') (CONSTANT (INTEGER 4) 0 '1') (
CONSTANT (INTEGER 4) 0 '30')) () 1 0 0 ()) (21 'drho' (REAL 8) (3
EXPLICIT (CONSTANT (INTEGER 4) 0 '1') (CONSTANT (INTEGER 4) 0 '6') (
CONSTANT (INTEGER 4) 0 '1') (CONSTANT (INTEGER 4) 0 '130') (CONSTANT (
INTEGER 4) 0 '1') (CONSTANT (INTEGER 4) 0 '30')) () 1 0 0 ()) (22 'drhot'
(REAL 8) (3 EXPLICIT (CONSTANT (INTEGER 4) 0 '1') (CONSTANT (INTEGER 4)
0 '6') (CONSTANT (INTEGER 4) 0 '1') (CONSTANT (INTEGER 4) 0 '130') (
CONSTANT (INTEGER 4) 0 '1') (CONSTANT (INTEGER 4) 0 '30')) () 1 0 0 ())
(23 'nman' (INTEGER 4) () () 0 0 0 ()) (24 'man' (DERIVED 25) (1
EXPLICIT (CONSTANT (INTEGER 4) 0 '1') (CONSTANT (INTEGER 4) 0 '100')) ()
1 0 0 ())) PUBLIC ())
25 't_man' 'p_addneq' 5 ((DERIVED UNKNOWN UNKNOWN UNKNOWN NONE NONE) (
UNKNOWN) 0 0 () () () '' ((26 'satman' (INTEGER 4) () () 0 0 0 ()) (27
'timman' (REAL 8) () () 0 0 0 ())) PUBLIC ())
)

('cominit' 0 2 's_cominit' 0 4)
