G95 module created on Thu Jun 25 17:48:50 2020 from ./.fpp/DEFREQ.f
If you edit this, you'll get what you deserve.
module-version 9
(() () () () () () () () () () () () () () () () () () ()
() ())

()

()

()

()

(2 'defreq' 's_defreq' 1 ((PROCEDURE UNKNOWN MODULE-PROC DECL NONE NONE
SUBROUTINE) (PROCEDURE 0) 0 0 (3 NONE 4 NONE 5 NONE 6 NONE 7 NONE 8 NONE
9 NONE 10 NONE 11 NONE) () () '' () ())
12 's_defreq' 's_defreq' 1 ((MODULE UNKNOWN UNKNOWN UNKNOWN NONE NONE) (
UNKNOWN) 0 0 () () () '' () ())
11 'obsf12' '' 13 ((VARIABLE UNKNOWN UNKNOWN UNKNOWN NONE NONE OPTIONAL
DUMMY) (INTEGER 4) 0 0 () () () '' () ())
10 'meatypc' '' 13 ((VARIABLE UNKNOWN UNKNOWN UNKNOWN NONE NONE OPTIONAL
DUMMY) (CHARACTER 1 ((CONSTANT (INTEGER 4) 0 '1'))) 0 0 () () () '' () ())
9 'gobsdef' '' 13 ((VARIABLE UNKNOWN UNKNOWN UNKNOWN NONE NONE OPTIONAL
DUMMY) (DERIVED 14) 0 0 () () () '' () ())
14 't_gobsdef' 'd_rinex3' 13 ((DERIVED UNKNOWN UNKNOWN UNKNOWN NONE NONE)
(UNKNOWN) 0 0 () () () '' ((15 'norec' (INTEGER 4) () () 0 0 0 ()) (16
'sat' (DERIVED 17) (1 DEFERRED () ()) () 1 1 0 ()) (18 'nfreqc' (
INTEGER 4) () () 0 0 0 ()) (19 'nfreqp' (INTEGER 4) () () 0 0 0 ()))
PUBLIC ())
17 't_satsig' 'd_rinex3' 13 ((DERIVED UNKNOWN UNKNOWN UNKNOWN NONE NONE)
(UNKNOWN) 0 0 () () () '' ((20 'satname' (CHARACTER 1 ((CONSTANT (
INTEGER 4) 0 '3'))) () () 0 0 0 ()) (21 'sysnum' (INTEGER 4) () () 0 0 0
()) (22 'syschar' (CHARACTER 1 ((CONSTANT (INTEGER 4) 0 '1'))) () () 0 0
0 ()) (23 'satnum' (INTEGER 4) () () 0 0 0 ()) (24 'obstyp' (CHARACTER 1
((CONSTANT (INTEGER 4) 0 '3'))) (1 EXPLICIT (CONSTANT (INTEGER 4) 0 '1')
(CONSTANT (INTEGER 4) 0 '8')) () 1 0 0 ()) (25 'obstyp2' (CHARACTER 1 (
(CONSTANT (INTEGER 4) 0 '2'))) (1 EXPLICIT (CONSTANT (INTEGER 4) 0 '1')
(CONSTANT (INTEGER 4) 0 '8')) () 1 0 0 ()) (26 'obsindr212' (INTEGER 4)
(1 EXPLICIT (CONSTANT (INTEGER 4) 0 '1') (CONSTANT (INTEGER 4) 0 '8')) ()
1 0 0 ()) (27 'factor' (INTEGER 4) (1 EXPLICIT (CONSTANT (INTEGER 4) 0 '1')
(CONSTANT (INTEGER 4) 0 '8')) () 1 0 0 ()) (28 'nfreqc' (INTEGER 4) () ()
0 0 0 ()) (29 'nfreqp' (INTEGER 4) () () 0 0 0 ()) (30 'eposatind' (
INTEGER 4) () () 0 0 0 ())) PUBLIC ())
8 'usegeos' '' 13 ((VARIABLE UNKNOWN UNKNOWN UNKNOWN NONE NONE OPTIONAL
DUMMY) (INTEGER 4) 0 0 () () () '' () ())
7 'satnof' '' 13 ((VARIABLE UNKNOWN UNKNOWN UNKNOWN NONE NONE DIMENSION
OPTIONAL DUMMY) (INTEGER 4) 0 0 () (1 ASSUMED_SHAPE () ()) () '' () ())
6 'nofrq' '' 13 ((VARIABLE UNKNOWN UNKNOWN UNKNOWN NONE NONE OPTIONAL
DUMMY) (INTEGER 4) 0 0 () () () '' () ())
5 'satnum' '' 13 ((VARIABLE UNKNOWN UNKNOWN UNKNOWN NONE NONE DIMENSION
DUMMY) (INTEGER 4) 0 0 () (1 ASSUMED_SIZE (CONSTANT (INTEGER 4) 0 '1') ())
() '' () ())
4 'nsat' '' 13 ((VARIABLE UNKNOWN UNKNOWN UNKNOWN NONE NONE DUMMY) (
INTEGER 4) 0 0 () () () '' () ())
3 'epofrq' '' 13 ((VARIABLE UNKNOWN UNKNOWN UNKNOWN NONE NONE DIMENSION
DUMMY) (REAL 8) 0 0 () (1 EXPLICIT (CONSTANT (INTEGER 4) 0 '1') (
CONSTANT (INTEGER 4) 0 '2')) () '' () ())
)

('defreq' 0 2 's_defreq' 0 12)
