G95 module created on Thu Jun 25 17:50:36 2020 from ./.fpp/DIFFSP_SCREEN.f90
If you edit this, you'll get what you deserve.
module-version 9
(() () () () () () () () () () () () () () () () () () () () ())

()

()

()

()

(2 'diffsp_screen' 's_diffsp_screen' 1 ((PROCEDURE UNKNOWN MODULE-PROC
DECL NONE NONE SUBROUTINE) (PROCEDURE 0) 0 0 (3 NONE 4 NONE 5 NONE 6
NONE 7 NONE 8 NONE 9 NONE 10 NONE 11 NONE 12 NONE 13 NONE 14 NONE) () ()
'' () ())
15 's_diffsp_screen' 's_diffsp_screen' 1 ((MODULE UNKNOWN UNKNOWN
UNKNOWN NONE NONE) (UNKNOWN) 0 0 () () () '' () ())
14 'iret' '' 16 ((VARIABLE UNKNOWN UNKNOWN UNKNOWN NONE NONE DUMMY) (
INTEGER 4) 0 0 () () () '' () ())
13 'rmsest' '' 16 ((VARIABLE UNKNOWN UNKNOWN UNKNOWN NONE NONE DIMENSION
DUMMY) (REAL 8) 0 0 () (1 EXPLICIT (CONSTANT (INTEGER 4) 0 '1') (
CONSTANT (INTEGER 4) 0 '4')) () '' () ())
12 'pposd' '' 16 ((VARIABLE UNKNOWN UNKNOWN UNKNOWN NONE NONE DUMMY) (
DERIVED 17) 0 0 () () () '' () ())
17 't_leodif' 'p_leokin' 16 ((DERIVED UNKNOWN UNKNOWN UNKNOWN NONE NONE)
(UNKNOWN) 0 0 () () () '' ((18 'mrk' (CHARACTER 1 ((CONSTANT (INTEGER 4)
0 '1'))) (1 EXPLICIT (CONSTANT (INTEGER 4) 0 '1') (CONSTANT (INTEGER 4)
0 '130')) () 1 0 0 ()) (19 'posdif' (REAL 8) (1 EXPLICIT (CONSTANT (
INTEGER 4) 0 '1') (CONSTANT (INTEGER 4) 0 '4')) () 1 0 0 ()) (20 'resdif'
(REAL 8) (1 EXPLICIT (CONSTANT (INTEGER 4) 0 '1') (CONSTANT (INTEGER 4)
0 '130')) () 1 0 0 ()) (21 'wgt_phaobs' (REAL 8) (1 EXPLICIT (CONSTANT (
INTEGER 4) 0 '1') (CONSTANT (INTEGER 4) 0 '130')) () 1 0 0 ()) (22 'angl'
(REAL 8) (1 EXPLICIT (CONSTANT (INTEGER 4) 0 '1') (CONSTANT (INTEGER 4)
0 '10')) () 1 0 0 ()) (23 'qxy' (REAL 8) (1 EXPLICIT (CONSTANT (INTEGER
4) 0 '1') (CONSTANT (INTEGER 4) 0 '10')) () 1 0 0 ()) (24 'rmsdif' (
REAL 8) () () 0 0 0 ()) (25 'bobs' (REAL 8) (1 EXPLICIT (CONSTANT (
INTEGER 4) 0 '1') (CONSTANT (INTEGER 4) 0 '130')) () 1 0 0 ()) (26
'bobs_part' (REAL 8) (1 EXPLICIT (CONSTANT (INTEGER 4) 0 '1') (CONSTANT
(INTEGER 4) 0 '130')) () 1 0 0 ()) (27 'gps1' (REAL 8) (2 EXPLICIT (
CONSTANT (INTEGER 4) 0 '1') (CONSTANT (INTEGER 4) 0 '9') (CONSTANT (
INTEGER 4) 0 '1') (CONSTANT (INTEGER 4) 0 '130')) () 1 0 0 ()) (28 'gps2'
(REAL 8) (2 EXPLICIT (CONSTANT (INTEGER 4) 0 '1') (CONSTANT (INTEGER 4)
0 '9') (CONSTANT (INTEGER 4) 0 '1') (CONSTANT (INTEGER 4) 0 '130')) () 1
0 0 ()) (29 'zen' (REAL 8) (1 EXPLICIT (CONSTANT (INTEGER 4) 0 '1') (
CONSTANT (INTEGER 4) 0 '130')) () 1 0 0 ()) (30 'clk1' (REAL 8) (1
EXPLICIT (CONSTANT (INTEGER 4) 0 '1') (CONSTANT (INTEGER 4) 0 '130')) ()
1 0 0 ()) (31 'clk2' (REAL 8) (1 EXPLICIT (CONSTANT (INTEGER 4) 0 '1') (
CONSTANT (INTEGER 4) 0 '130')) () 1 0 0 ()) (32 'codpo1' (REAL 8) (1
EXPLICIT (CONSTANT (INTEGER 4) 0 '1') (CONSTANT (INTEGER 4) 0 '3')) () 1
0 0 ()) (33 'aobs' (REAL 8) (2 EXPLICIT (CONSTANT (INTEGER 4) 0 '1') (
CONSTANT (INTEGER 4) 0 '4') (CONSTANT (INTEGER 4) 0 '1') (CONSTANT (
INTEGER 4) 0 '130')) () 1 0 0 ()) (34 'svndif' (INTEGER 4) (1 EXPLICIT (
CONSTANT (INTEGER 4) 0 '1') (CONSTANT (INTEGER 4) 0 '130')) () 1 0 0 ())
(35 'nsat' (INTEGER 4) () () 0 0 0 ()) (36 'nseff' (INTEGER 4) () () 0 0
0 ()) (37 'irtdif' (INTEGER 4) () () 0 0 0 ())) PUBLIC ())
11 'nseff_sol' '' 16 ((VARIABLE UNKNOWN UNKNOWN UNKNOWN NONE NONE DUMMY)
(INTEGER 4) 0 0 () () () '' () ())
10 'cpos' '' 16 ((VARIABLE UNKNOWN UNKNOWN UNKNOWN NONE NONE DUMMY) (
DERIVED 38) 0 0 () () () '' () ())
38 't_leopos' 'p_leokin' 16 ((DERIVED UNKNOWN UNKNOWN UNKNOWN NONE NONE)
(UNKNOWN) 0 0 () () () '' ((39 'mrk' (CHARACTER 1 ((CONSTANT (INTEGER 4)
0 '1'))) (1 EXPLICIT (CONSTANT (INTEGER 4) 0 '1') (CONSTANT (INTEGER 4)
0 '130')) () 1 0 0 ()) (40 'obtime' (REAL 8) () () 0 0 0 ()) (41 'xstell'
(REAL 8) (1 EXPLICIT (CONSTANT (INTEGER 4) 0 '1') (CONSTANT (INTEGER 4)
0 '3')) () 1 0 0 ()) (42 'posit' (REAL 8) (1 EXPLICIT (CONSTANT (
INTEGER 4) 0 '1') (CONSTANT (INTEGER 4) 0 '4')) () 1 0 0 ()) (43
'posit_apr' (REAL 8) (1 EXPLICIT (CONSTANT (INTEGER 4) 0 '1') (CONSTANT
(INTEGER 4) 0 '4')) () 1 0 0 ()) (44 'wgt_codobs' (REAL 8) (1 EXPLICIT (
CONSTANT (INTEGER 4) 0 '1') (CONSTANT (INTEGER 4) 0 '130')) () 1 0 0 ())
(45 'resid' (REAL 8) (1 EXPLICIT (CONSTANT (INTEGER 4) 0 '1') (CONSTANT
(INTEGER 4) 0 '130')) () 1 0 0 ()) (46 'azi' (REAL 8) (1 EXPLICIT (
CONSTANT (INTEGER 4) 0 '1') (CONSTANT (INTEGER 4) 0 '130')) () 1 0 0 ())
(47 'zen' (REAL 8) (1 EXPLICIT (CONSTANT (INTEGER 4) 0 '1') (CONSTANT (
INTEGER 4) 0 '130')) () 1 0 0 ()) (48 'angl' (REAL 8) (1 EXPLICIT (
CONSTANT (INTEGER 4) 0 '1') (CONSTANT (INTEGER 4) 0 '10')) () 1 0 0 ())
(49 'rmsspp' (REAL 8) () () 0 0 0 ()) (50 'xpol' (REAL 8) () () 0 0 0 ())
(51 'ypol' (REAL 8) () () 0 0 0 ()) (52 'sz' (REAL 8) () () 0 0 0 ()) (
53 'satusd' (INTEGER 4) (1 EXPLICIT (CONSTANT (INTEGER 4) 0 '1') (
CONSTANT (INTEGER 4) 0 '130')) () 1 0 0 ()) (54 'nsused' (INTEGER 4) ()
() 0 0 0 ()) (55 'iepo' (INTEGER 4) () () 0 0 0 ()) (56 'irtspp' (
INTEGER 4) () () 0 0 0 ()) (57 'iter' (INTEGER 4) () () 0 0 0 ()))
PUBLIC ())
9 'opt' '' 16 ((VARIABLE UNKNOWN UNKNOWN UNKNOWN NONE NONE DUMMY) (
DERIVED 58) 0 0 () () () '' () ())
58 't_leoopt' 'p_leokin' 16 ((DERIVED UNKNOWN UNKNOWN UNKNOWN NONE NONE)
(UNKNOWN) 0 0 () () () '' ((59 'csess' (CHARACTER 1 ((CONSTANT (INTEGER
4) 0 '4'))) (1 EXPLICIT (CONSTANT (INTEGER 4) 0 '1') (CONSTANT (INTEGER
4) 0 '2')) () 1 0 0 ()) (60 'lcspp' (INTEGER 4) () () 0 0 0 ()) (61 'ndeg'
(INTEGER 4) () () 0 0 0 ()) (62 'numleo' (INTEGER 4) () () 0 0 0 ()) (
63 'iant' (INTEGER 4) () () 0 0 0 ()) (64 'icomb' (INTEGER 4) () () 0 0
0 ()) (65 'niter' (INTEGER 4) () () 0 0 0 ()) (66 'ircpcv' (INTEGER 4) ()
() 0 0 0 ()) (67 'minsat_cod' (INTEGER 4) () () 0 0 0 ()) (68 'minsat_pha'
(INTEGER 4) () () 0 0 0 ()) (69 'orbtyp' (INTEGER 4) () () 0 0 0 ()) (
70 'niter_cod' (INTEGER 4) () () 0 0 0 ()) (71 'niter_pha' (INTEGER 4) ()
() 0 0 0 ()) (72 'minpha_arc' (INTEGER 4) () () 0 0 0 ()) (73
'book_bernese' (INTEGER 4) () () 0 0 0 ()) (74 'use_clk_sp3' (INTEGER 4)
() () 0 0 0 ()) (75 'elev_wgt' (INTEGER 4) () () 0 0 0 ()) (76 'correl'
(INTEGER 4) () () 0 0 0 ()) (77 'statyp' (INTEGER 4) () () 0 0 0 ()) (
78 'phaonly' (INTEGER 4) () () 0 0 0 ()) (79 'ioff' (INTEGER 4) () () 0
0 0 ()) (80 'kinpos' (INTEGER 4) () () 0 0 0 ()) (81 'amblgt' (INTEGER 4)
() () 0 0 0 ()) (82 'numobs' (INTEGER 4) (1 EXPLICIT (CONSTANT (INTEGER
4) 0 '1') (CONSTANT (INTEGER 4) 0 '2')) () 1 0 0 ()) (83 'beta' (
INTEGER 4) (1 EXPLICIT (CONSTANT (INTEGER 4) 0 '1') (CONSTANT (INTEGER 4)
0 '2')) () 1 0 0 ()) (84 'dfml12' (REAL 8) () () 0 0 0 ()) (85
'rmsmax_cod' (REAL 8) () () 0 0 0 ()) (86 'rmsmax_pha' (REAL 8) () () 0
0 0 ()) (87 'rms_phaobs' (REAL 8) () () 0 0 0 ()) (88 'rms_codobs' (
REAL 8) () () 0 0 0 ()) (89 'orbacc' (REAL 8) () () 0 0 0 ()) (90 'zenmax'
(REAL 8) () () 0 0 0 ()) (91 'spacng' (REAL 8) () () 0 0 0 ()) (92
'gapmax' (REAL 8) () () 0 0 0 ()) (93 'pdfmax' (REAL 8) () () 0 0 0 ())
(94 'alpha' (REAL 8) () () 0 0 0 ()) (95 'dewgt' (REAL 8) () () 0 0 0 ())
(96 'window' (REAL 8) (2 EXPLICIT (CONSTANT (INTEGER 4) 0 '1') (
CONSTANT (INTEGER 4) 0 '2') (CONSTANT (INTEGER 4) 0 '1') (CONSTANT (
INTEGER 4) 0 '1')) () 1 0 0 ()) (97 'nused' (INTEGER 4) (1 EXPLICIT (
CONSTANT (INTEGER 4) 0 '1') (CONSTANT (INTEGER 4) 0 '9')) () 1 0 0 ()) (
98 'leo_sensor_name' (CHARACTER 1 ((CONSTANT (INTEGER 4) 0 '30'))) () ()
0 0 0 ())) PUBLIC ())
8 'npar' '' 16 ((VARIABLE UNKNOWN UNKNOWN UNKNOWN NONE NONE DUMMY) (
INTEGER 4) 0 0 () () () '' () ())
7 'posapr' '' 16 ((VARIABLE UNKNOWN UNKNOWN UNKNOWN NONE NONE DIMENSION
DUMMY) (REAL 8) 0 0 () (2 EXPLICIT (CONSTANT (INTEGER 4) 0 '1') (
CONSTANT (INTEGER 4) 0 '4') (CONSTANT (INTEGER 4) 0 '1') (CONSTANT (
INTEGER 4) 0 '2')) () '' () ())
6 'obsflg' '' 16 ((VARIABLE UNKNOWN UNKNOWN UNKNOWN NONE NONE DIMENSION
DUMMY) (CHARACTER 1 ((CONSTANT (INTEGER 4) 0 '1'))) 0 0 () (1
ASSUMED_SIZE (CONSTANT (INTEGER 4) 0 '1') ()) () '' () ())
5 'bobs' '' 16 ((VARIABLE UNKNOWN UNKNOWN UNKNOWN NONE NONE DIMENSION
DUMMY) (REAL 8) 0 0 () (1 ASSUMED_SIZE (CONSTANT (INTEGER 4) 0 '1') ())
() '' () ())
4 'aobs' '' 16 ((VARIABLE UNKNOWN UNKNOWN UNKNOWN NONE NONE DIMENSION
DUMMY) (REAL 8) 0 0 () (2 ASSUMED_SIZE (CONSTANT (INTEGER 4) 0 '1') (
CONSTANT (INTEGER 4) 0 '4') (CONSTANT (INTEGER 4) 0 '1') ()) () '' () ())
3 'nsat' '' 16 ((VARIABLE UNKNOWN UNKNOWN UNKNOWN NONE NONE DUMMY) (
INTEGER 4) 0 0 () () () '' () ())
)

('diffsp_screen' 0 2 's_diffsp_screen' 0 15)
