G95 module created on Thu Jun 25 17:49:33 2020 from ./.fpp/DIFPRINT.f90
If you edit this, you'll get what you deserve.
module-version 9
(() () () () () () () () () () () () () () () () () () () () ())

()

()

()

()

(2 'difprint' 's_difprint' 1 ((PROCEDURE UNKNOWN MODULE-PROC DECL NONE
NONE SUBROUTINE) (PROCEDURE 0) 0 0 (3 NONE 4 NONE 5 NONE 6 NONE 7 NONE 8
NONE) () () '' () ())
9 's_difprint' 's_difprint' 1 ((MODULE UNKNOWN UNKNOWN UNKNOWN NONE NONE)
(UNKNOWN) 0 0 () () () '' () ())
8 'stalist' '' 10 ((VARIABLE UNKNOWN UNKNOWN UNKNOWN NONE NONE DIMENSION
OPTIONAL DUMMY) (CHARACTER 1 ((CONSTANT (INTEGER 4) 0 '16'))) 0 0 () (1
ASSUMED_SHAPE () ()) () '' () ())
7 'nstat' '' 10 ((VARIABLE UNKNOWN UNKNOWN UNKNOWN NONE NONE OPTIONAL
DUMMY) (INTEGER 4) 0 0 () () () '' () ())
6 'statist' '' 10 ((VARIABLE UNKNOWN UNKNOWN UNKNOWN NONE NONE DIMENSION
DUMMY) (REAL 8) 0 0 () (2 EXPLICIT (CONSTANT (INTEGER 4) 0 '1') (
VARIABLE (INTEGER 4) 0 4 ()) (CONSTANT (INTEGER 4) 0 '1') (CONSTANT (
INTEGER 4) 0 '9')) () '' () ())
5 'dx' '' 10 ((VARIABLE UNKNOWN UNKNOWN UNKNOWN NONE NONE DIMENSION
DUMMY) (DERIVED 11) 0 0 () (2 ASSUMED_SIZE (CONSTANT (INTEGER 4) 0 '1')
(VARIABLE (INTEGER 4) 0 4 ()) (CONSTANT (INTEGER 4) 0 '1') ()) () '' ()
())
11 't_dx' 'p_addneq' 10 ((DERIVED UNKNOWN UNKNOWN UNKNOWN NONE NONE) (
UNKNOWN) 0 0 () () () '' ((12 'flag' (LOGICAL 4) () () 0 0 0 ()) (13
'diff' (REAL 8) () () 0 0 0 ()) (14 't' (DERIVED 15) () () 0 0 0 ()) (
16 'rms' (REAL 8) (1 EXPLICIT (CONSTANT (INTEGER 4) 0 '1') (CONSTANT (
INTEGER 4) 0 '3')) () 1 0 0 ())) PUBLIC ())
15 't_time' 'm_time' 10 ((DERIVED UNKNOWN UNKNOWN UNKNOWN NONE NONE
SEQUENCE) (UNKNOWN) 0 0 () () () '' ((17 'mean' (REAL 8) () () 0 0 0 ())
(18 'half' (REAL 8) () () 0 0 0 ())) PUBLIC ())
4 'numfil' '' 10 ((VARIABLE UNKNOWN UNKNOWN UNKNOWN NONE NONE DUMMY) (
INTEGER 4) 0 0 () () () '' () ())
3 'neq' '' 10 ((VARIABLE UNKNOWN UNKNOWN UNKNOWN NONE NONE DUMMY) (
DERIVED 19) 0 0 () () () '' () ())
19 't_neq' 'd_neq' 10 ((DERIVED UNKNOWN UNKNOWN UNKNOWN NONE NONE) (
UNKNOWN) 0 0 () () () '' ((20 'version' (INTEGER 4) () () 0 0 0 ()) (21
'misc' (DERIVED 22) () () 0 0 0 ()) (23 'par' (DERIVED 24) (1 DEFERRED ()
()) () 1 1 0 ()) (25 'anor' (REAL 8) (1 DEFERRED () ()) () 1 1 0 ()) (
26 'bnor' (REAL 8) (1 DEFERRED () ()) () 1 1 0 ()) (27 'xxx' (REAL 8) (
1 DEFERRED () ()) () 1 1 0 ())) PUBLIC ())
24 't_par' 'd_par' 10 ((DERIVED UNKNOWN UNKNOWN UNKNOWN NONE NONE) (
UNKNOWN) 0 0 () () () '' ((28 'locq' (INTEGER 4) (1 EXPLICIT (CONSTANT (
INTEGER 4) 0 '1') (CONSTANT (INTEGER 4) 0 '7')) () 1 0 0 ()) (29 'name'
(CHARACTER 1 ((CONSTANT (INTEGER 4) 0 '20'))) () () 0 0 0 ()) (30 'time'
(DERIVED 15) () () 0 0 0 ()) (31 'x0' (REAL 8) () () 0 0 0 ()) (32 'scale'
(REAL 8) () () 0 0 0 ()) (33 'techn' (CHARACTER 1 ((CONSTANT (INTEGER 4)
0 '1'))) (1 EXPLICIT (CONSTANT (INTEGER 4) 0 '1') (CONSTANT (INTEGER 4)
0 '2')) () 1 0 0 ()) (34 'obstim' (DERIVED 35) () () 0 0 0 ()) (36 'type'
(CHARACTER 1 ((CONSTANT (INTEGER 4) 0 '2'))) () () 0 0 0 ()) (37 'omega'
(REAL 8) () () 0 0 0 ())) PUBLIC ())
35 't_timint' 'm_time' 10 ((DERIVED UNKNOWN UNKNOWN UNKNOWN NONE NONE) (
UNKNOWN) 0 0 () () () '' ((38 't' (REAL 8) (1 EXPLICIT (CONSTANT (
INTEGER 4) 0 '1') (CONSTANT (INTEGER 4) 0 '2')) () 1 0 0 ())) PUBLIC ())
22 't_misc' 'd_neq' 10 ((DERIVED UNKNOWN UNKNOWN UNKNOWN NONE NONE) (
UNKNOWN) 0 0 () () () '' ((39 'title' (CHARACTER 1 ((CONSTANT (INTEGER 4)
0 '132'))) (1 EXPLICIT (CONSTANT (INTEGER 4) 0 '1') (CONSTANT (INTEGER 4)
0 '2')) () 1 0 0 ()) (40 'datum' (CHARACTER 1 ((CONSTANT (INTEGER 4) 0
'16'))) () () 0 0 0 ()) (41 'nutmod' (CHARACTER 1 ((CONSTANT (INTEGER 4)
0 '16'))) () () 0 0 0 ()) (42 'submod' (CHARACTER 1 ((CONSTANT (INTEGER
4) 0 '16'))) () () 0 0 0 ()) (43 'orbfil' (CHARACTER 1 ((CONSTANT (
INTEGER 4) 0 '32'))) (1 EXPLICIT (CONSTANT (INTEGER 4) 0 '1') (CONSTANT
(INTEGER 4) 0 '2')) () 1 0 0 ()) (44 'gravfil' (CHARACTER 1 ((CONSTANT (
INTEGER 4) 0 '32'))) () () 0 0 0 ()) (45 'nobs' (REAL 8) () () 0 0 0 ())
(46 'npar' (INTEGER 4) () () 0 0 0 ()) (47 'ltpl' (REAL 8) () () 0 0 0 ())
(48 'nparms' (REAL 8) () () 0 0 0 ()) (49 'npseu' (INTEGER 4) () () 0 0
0 ()) (50 'npseuel' (INTEGER 4) () () 0 0 0 ()) (51 'nftot' (INTEGER 4)
() () 0 0 0 ()) (52 'nsmpnq' (INTEGER 4) () () 0 0 0 ()) (53 'ielvnq' (
INTEGER 4) () () 0 0 0 ()) (54 'itropo' (INTEGER 4) () () 0 0 0 ()) (55
'iextra' (INTEGER 4) () () 0 0 0 ()) (56 'itrmap' (INTEGER 4) () () 0 0
0 ()) (57 'itrgrd' (INTEGER 4) () () 0 0 0 ()) (58 'nanoff' (INTEGER 4)
() () 0 0 0 ()) (59 'nsaoff' (INTEGER 4) (1 EXPLICIT (CONSTANT (INTEGER
4) 0 '1') (CONSTANT (INTEGER 4) 0 '260')) () 1 0 0 ()) (60 'satoff' (
INTEGER 4) (2 EXPLICIT (CONSTANT (INTEGER 4) 0 '1') (CONSTANT (INTEGER 4)
0 '130') (CONSTANT (INTEGER 4) 0 '1') (CONSTANT (INTEGER 4) 0 '260')) ()
1 0 0 ()) (61 'nstat_sinex' (INTEGER 4) () () 0 0 0 ()) (62 'sinex' (
DERIVED 63) (1 EXPLICIT (CONSTANT (INTEGER 4) 0 '1') (CONSTANT (INTEGER
4) 0 '2000')) () 1 0 0 ()) (64 'grdneq' (CHARACTER 1 ((CONSTANT (
INTEGER 4) 0 '12'))) (1 EXPLICIT (CONSTANT (INTEGER 4) 0 '1') (CONSTANT
(INTEGER 4) 0 '3')) () 1 0 0 ()) (65 'nobst' (INTEGER 4) () () 0 0 0 ())
(66 'obst' (DERIVED 67) (1 EXPLICIT (CONSTANT (INTEGER 4) 0 '1') (
CONSTANT (INTEGER 4) 0 '30000')) () 1 0 0 ())) PUBLIC ())
67 't_obst' 'd_neq' 10 ((DERIVED UNKNOWN UNKNOWN UNKNOWN NONE NONE) (
UNKNOWN) 0 0 () () () '' ((68 'obstyp' (CHARACTER 1 ((CONSTANT (INTEGER
4) 0 '3'))) (1 EXPLICIT (CONSTANT (INTEGER 4) 0 '1') (CONSTANT (INTEGER
4) 0 '4')) () 1 0 0 ())) PUBLIC ())
63 't_sinex' 'd_neq' 10 ((DERIVED UNKNOWN UNKNOWN UNKNOWN NONE NONE) (
UNKNOWN) 0 0 () () () '' ((69 'timint' (DERIVED 35) () () 0 0 0 ()) (70
'stname' (CHARACTER 1 ((CONSTANT (INTEGER 4) 0 '16'))) () () 0 0 0 ()) (
71 'antecc' (REAL 8) (1 EXPLICIT (CONSTANT (INTEGER 4) 0 '1') (CONSTANT
(INTEGER 4) 0 '3')) () 1 0 0 ()) (72 'antpcv' (DERIVED 73) (1 EXPLICIT (
CONSTANT (INTEGER 4) 0 '0') (CONSTANT (INTEGER 4) 0 '5')) () 1 0 0 ()) (
74 'antnum' (INTEGER 4) () () 0 0 0 ()) (75 'antsta' (CHARACTER 1 ((
CONSTANT (INTEGER 4) 0 '20'))) () () 0 0 0 ()) (76 'antrec' (CHARACTER 1
((CONSTANT (INTEGER 4) 0 '20'))) () () 0 0 0 ())) PUBLIC ())
73 't_sinex_pcv' 'd_neq' 10 ((DERIVED UNKNOWN UNKNOWN UNKNOWN NONE NONE)
(UNKNOWN) 0 0 () () () '' ((77 'nfrq' (INTEGER 4) () () 0 0 0 ()) (78
'antphs' (REAL 8) (2 EXPLICIT (CONSTANT (INTEGER 4) 0 '1') (CONSTANT (
INTEGER 4) 0 '3') (CONSTANT (INTEGER 4) 0 '1') (CONSTANT (INTEGER 4) 0 '2'))
() 1 0 0 ()) (79 'adopted' (INTEGER 4) () () 0 0 0 ()) (80 'individ' (
INTEGER 4) () () 0 0 0 ()) (81 'atxstr' (CHARACTER 1 ((CONSTANT (
INTEGER 4) 0 '10'))) () () 0 0 0 ())) PUBLIC ())
)

('difprint' 0 2 's_difprint' 0 9)
