G95 module created on Thu Jun 25 17:48:39 2020 from ./.fpp/DMINV.f
If you edit this, you'll get what you deserve.
module-version 9
(() () () () () () () () () () () () () () () () () () () () ())

()

()

()

()

(2 'dminv' 's_dminv' 1 ((PROCEDURE UNKNOWN MODULE-PROC DECL NONE NONE
SUBROUTINE) (PROCEDURE 0) 0 0 (3 NONE 4 NONE 5 NONE 6 NONE 7 NONE) () ()
'' () ())
8 's_dminv' 's_dminv' 1 ((MODULE UNKNOWN UNKNOWN UNKNOWN NONE NONE) (
UNKNOWN) 0 0 () () () '' () ())
7 'm' '' 9 ((VARIABLE UNKNOWN UNKNOWN UNKNOWN NONE NONE DIMENSION DUMMY)
(INTEGER 4) 0 0 () (1 ASSUMED_SIZE (CONSTANT (INTEGER 4) 0 '1') ()) () ''
() ())
6 'l' '' 9 ((VARIABLE UNKNOWN UNKNOWN UNKNOWN NONE NONE DIMENSION DUMMY)
(INTEGER 4) 0 0 () (1 ASSUMED_SIZE (CONSTANT (INTEGER 4) 0 '1') ()) () ''
() ())
5 'd' '' 9 ((VARIABLE UNKNOWN UNKNOWN UNKNOWN NONE NONE DUMMY) (REAL 8)
0 0 () () () '' () ())
4 'n' '' 9 ((VARIABLE UNKNOWN UNKNOWN UNKNOWN NONE NONE DUMMY) (INTEGER
4) 0 0 () () () '' () ())
3 'a' '' 9 ((VARIABLE UNKNOWN UNKNOWN UNKNOWN NONE NONE DIMENSION DUMMY)
(REAL 8) 0 0 () (1 ASSUMED_SIZE (CONSTANT (INTEGER 4) 0 '1') ()) () '' ()
())
)

('dminv' 0 2 's_dminv' 0 8)
