G95 module created on Thu Jun 25 17:50:23 2020 from ./.fpp/EDTADD.f90
If you edit this, you'll get what you deserve.
module-version 9
(() () () () () () () () () () () () () () () () () () () () ())

()

()

()

()

(2 'edtadd' 's_edtadd' 1 ((PROCEDURE UNKNOWN MODULE-PROC DECL NONE NONE
SUBROUTINE) (PROCEDURE 0) 0 0 (3 NONE 4 NONE 5 NONE 6 NONE 7 NONE 8 NONE
9 NONE) () () '' () ())
10 's_edtadd' 's_edtadd' 1 ((MODULE UNKNOWN UNKNOWN UNKNOWN NONE NONE) (
UNKNOWN) 0 0 () () () '' () ())
9 'edt' '' 11 ((VARIABLE UNKNOWN UNKNOWN UNKNOWN NONE NONE DUMMY) (
DERIVED 12) 0 0 () () () '' () ())
12 't_edit' 'd_edit' 11 ((DERIVED UNKNOWN UNKNOWN UNKNOWN NONE NONE) (
UNKNOWN) 0 0 () () () '' ((13 'head' (DERIVED 14) (1 DEFERRED () ()) ()
1 1 0 ()) (15 'rec' (DERIVED 16) (1 DEFERRED () ()) () 1 1 0 ()) (17
'title' (CHARACTER 1 ((CONSTANT (INTEGER 4) 0 '80'))) () () 0 0 0 ()) (
18 'filnam' (CHARACTER 1 ((CONSTANT (INTEGER 4) 0 '32'))) () () 0 0 0 ())
(19 'resmax' (REAL 8) (1 EXPLICIT (CONSTANT (INTEGER 4) 0 '1') (
CONSTANT (INTEGER 4) 0 '3')) () 1 0 0 ()) (20 'nedfil' (INTEGER 4) () ()
0 0 0 ()) (21 'nedt' (INTEGER 4) () () 0 0 0 ()) (22 'nsampl' (INTEGER 4)
() () 0 0 0 ()) (23 'minamb' (INTEGER 4) () () 0 0 0 ()) (24 'minint' (
INTEGER 4) () () 0 0 0 ()) (25 'isampl' (INTEGER 4) () () 0 0 0 ()))
PUBLIC ())
16 't_edtrec' 'd_edit' 11 ((DERIVED UNKNOWN UNKNOWN UNKNOWN NONE NONE) (
UNKNOWN) 0 0 () () () '' ((26 'lstcyc' (REAL 8) () () 0 0 0 ()) (27
'lstedt' (INTEGER 4) (1 EXPLICIT (CONSTANT (INTEGER 4) 0 '1') (CONSTANT
(INTEGER 4) 0 '7')) () 1 0 0 ())) PUBLIC ())
14 't_edthead' 'd_edit' 11 ((DERIVED UNKNOWN UNKNOWN UNKNOWN NONE NONE)
(UNKNOWN) 0 0 () () () '' ((28 'cseedt' (CHARACTER 1 ((CONSTANT (
INTEGER 4) 0 '4'))) (1 EXPLICIT (CONSTANT (INTEGER 4) 0 '1') (CONSTANT (
INTEGER 4) 0 '2')) () 1 0 0 ()) (29 'staedt' (CHARACTER 1 ((CONSTANT (
INTEGER 4) 0 '16'))) (1 EXPLICIT (CONSTANT (INTEGER 4) 0 '1') (CONSTANT
(INTEGER 4) 0 '2')) () 1 0 0 ()) (30 'timedt' (REAL 8) () () 0 0 0 ()) (
31 'idtedt' (INTEGER 4) () () 0 0 0 ()) (32 'meaedt' (INTEGER 4) () () 0
0 0 ())) PUBLIC ())
8 'obstim' '' 11 ((VARIABLE UNKNOWN UNKNOWN UNKNOWN NONE NONE DUMMY) (
REAL 8) 0 0 () () () '' () ())
7 'numobs' '' 11 ((VARIABLE UNKNOWN UNKNOWN UNKNOWN NONE NONE DUMMY) (
INTEGER 4) 0 0 () () () '' () ())
6 'lc' '' 11 ((VARIABLE UNKNOWN UNKNOWN UNKNOWN NONE NONE DUMMY) (
INTEGER 4) 0 0 () () () '' () ())
5 'satnum' '' 11 ((VARIABLE UNKNOWN UNKNOWN UNKNOWN NONE NONE DUMMY) (
INTEGER 4) 0 0 () () () '' () ())
4 'ifil' '' 11 ((VARIABLE UNKNOWN UNKNOWN UNKNOWN NONE NONE DUMMY) (
INTEGER 4) 0 0 () () () '' () ())
3 'ityp' '' 11 ((VARIABLE UNKNOWN UNKNOWN UNKNOWN NONE NONE DUMMY) (
INTEGER 4) 0 0 () () () '' () ())
)

('edtadd' 0 2 's_edtadd' 0 10)
