G95 module created on Thu Jun 25 17:49:51 2020 from ./.fpp/FODISMOD.f90
If you edit this, you'll get what you deserve.
module-version 9
(() () () () () () () () () () () () () () () () () () () () ())

()

()

()

()

(2 'fodismod' 's_fodismod' 1 ((PROCEDURE UNKNOWN MODULE-PROC DECL NONE
NONE SUBROUTINE) (PROCEDURE 0) 0 0 (3 NONE 4 NONE 5 NONE 6 NONE 7 NONE 8
NONE) () () '' () ())
9 's_fodismod' 's_fodismod' 1 ((MODULE UNKNOWN UNKNOWN UNKNOWN NONE NONE)
(UNKNOWN) 0 0 () () () '' () ())
8 'namod' '' 10 ((VARIABLE UNKNOWN UNKNOWN UNKNOWN NONE NONE DUMMY) (
INTEGER 4) 0 0 () () () '' () ())
7 'amod' '' 10 ((VARIABLE UNKNOWN UNKNOWN UNKNOWN NONE NONE DIMENSION
POINTER DUMMY) (DERIVED 11) 0 0 () (1 DEFERRED () ()) () '' () ())
11 't_evnt' 'p_fodits' 10 ((DERIVED UNKNOWN UNKNOWN UNKNOWN NONE NONE) (
UNKNOWN) 0 0 () () () '' ((12 'type' (INTEGER 4) () () 0 0 0 ()) (13
'info' (INTEGER 4) () () 0 0 0 ()) (14 'mjd' (REAL 8) () () 0 0 0 ()) (
15 'omega' (REAL 8) () () 0 0 0 ()) (16 'timint' (DERIVED 17) () () 0 0
0 ()) (18 'flag' (INTEGER 4) () () 0 0 0 ()) (19 'remark' (CHARACTER 1 (
(CONSTANT (INTEGER 4) 0 '8'))) () () 0 0 0 ()) (20 'index' (INTEGER 4) ()
() 0 0 0 ()) (21 'cand' (INTEGER 4) () () 0 0 0 ()) (22 'par' (REAL 8) (
1 EXPLICIT (CONSTANT (INTEGER 4) 0 '1') (CONSTANT (INTEGER 4) 0 '3')) ()
1 0 0 ()) (23 'val' (REAL 8) () () 0 0 0 ()) (24 'dval' (REAL 8) () () 0
0 0 ()) (25 'vltst' (REAL 8) () () 0 0 0 ()) (26 'sttst' (REAL 8) () ()
0 0 0 ()) (27 'sitst' (INTEGER 4) () () 0 0 0 ()) (28 'rename' (
CHARACTER 1 ((CONSTANT (INTEGER 4) 0 '2'))) () () 0 0 0 ()) (29 'recchg'
(CHARACTER 1 ((CONSTANT (INTEGER 4) 0 '20'))) (1 EXPLICIT (CONSTANT (
INTEGER 4) 0 '1') (CONSTANT (INTEGER 4) 0 '2')) () 1 0 0 ()) (30 'antchg'
(CHARACTER 1 ((CONSTANT (INTEGER 4) 0 '20'))) (1 EXPLICIT (CONSTANT (
INTEGER 4) 0 '1') (CONSTANT (INTEGER 4) 0 '2')) () 1 0 0 ()) (31 'eccchg'
(REAL 8) (2 EXPLICIT (CONSTANT (INTEGER 4) 0 '1') (CONSTANT (INTEGER 4)
0 '3') (CONSTANT (INTEGER 4) 0 '1') (CONSTANT (INTEGER 4) 0 '2')) () 1 0
0 ()) (32 'mjd2' (REAL 8) () () 0 0 0 ()) (33 'dpar' (REAL 8) (1
EXPLICIT (CONSTANT (INTEGER 4) 0 '1') (CONSTANT (INTEGER 4) 0 '3')) () 1
0 0 ()) (34 'phi' (REAL 8) (1 EXPLICIT (CONSTANT (INTEGER 4) 0 '1') (
CONSTANT (INTEGER 4) 0 '3')) () 1 0 0 ()) (35 'ppar' (REAL 8) (2
EXPLICIT (CONSTANT (INTEGER 4) 0 '1') (CONSTANT (INTEGER 4) 0 '3') (
CONSTANT (INTEGER 4) 0 '1') (CONSTANT (INTEGER 4) 0 '2')) () 1 0 0 ()) (
36 'mod' (REAL 8) (1 EXPLICIT (CONSTANT (INTEGER 4) 0 '1') (CONSTANT (
INTEGER 4) 0 '3')) () 1 0 0 ())) PUBLIC ())
17 't_timint' 'm_time' 10 ((DERIVED UNKNOWN UNKNOWN UNKNOWN NONE NONE) (
UNKNOWN) 0 0 () () () '' ((37 't' (REAL 8) (1 EXPLICIT (CONSTANT (
INTEGER 4) 0 '1') (CONSTANT (INTEGER 4) 0 '2')) () 1 0 0 ())) PUBLIC ())
6 'lsa' '' 10 ((VARIABLE UNKNOWN UNKNOWN UNKNOWN NONE NONE DUMMY) (
DERIVED 38) 0 0 () () () '' () ())
38 't_lsa' 'p_fodits' 10 ((DERIVED UNKNOWN UNKNOWN UNKNOWN NONE NONE) (
UNKNOWN) 0 0 () () () '' ((39 'nnpar' (INTEGER 4) () () 0 0 0 ()) (40
'nnmjd' (INTEGER 4) () () 0 0 0 ()) (41 'a' (REAL 8) (2 DEFERRED () () ()
()) () 1 1 0 ()) (42 'qxx' (REAL 8) (2 DEFERRED () () () ()) () 1 1 0 ())
(43 'y' (REAL 8) (1 DEFERRED () ()) () 1 1 0 ()) (44 'x' (REAL 8) (1
DEFERRED () ()) () 1 1 0 ()) (45 'mod' (REAL 8) (1 DEFERRED () ()) () 1
1 0 ()) (46 'v' (REAL 8) (1 DEFERRED () ()) () 1 1 0 ()) (47 'p' (REAL 8)
(1 DEFERRED () ()) () 1 1 0 ()) (48 'iqyy' (REAL 8) (3 DEFERRED () () ()
() () ()) () 1 1 0 ()) (49 'dof' (INTEGER 4) () () 0 0 0 ()) (50 'detn'
(REAL 8) () () 0 0 0 ()) (51 'vtv' (REAL 8) () () 0 0 0 ()) (52 'm0' (
REAL 8) () () 0 0 0 ())) PUBLIC ())
5 'ista' '' 10 ((VARIABLE IN UNKNOWN UNKNOWN NONE NONE DUMMY) (INTEGER 4)
0 0 () () () '' () ())
4 'score' '' 10 ((VARIABLE UNKNOWN UNKNOWN UNKNOWN NONE NONE DUMMY) (
DERIVED 53) 0 0 () () () '' () ())
53 't_score' 'p_fodits' 10 ((DERIVED UNKNOWN UNKNOWN UNKNOWN NONE NONE)
(UNKNOWN) 0 0 () () () '' ((54 'nsta' (INTEGER 4) () () 0 0 0 ()) (55
'nval' (INTEGER 4) () () 0 0 0 ()) (56 'ntotmjd' (INTEGER 4) () () 0 0 0
()) (57 'begmjd' (REAL 8) () () 0 0 0 ()) (58 'endmjd' (REAL 8) () () 0
0 0 ()) (59 'deltamjd' (REAL 8) () () 0 0 0 ()) (60 'intimrefcrd' (REAL
8) () () 0 0 0 ()) (61 'outtimrefcrd' (REAL 8) () () 0 0 0 ()) (62
'datumname' (CHARACTER 1 ((CONSTANT (INTEGER 4) 0 '16'))) () () 0 0 0 ())
(63 'sta' (DERIVED 64) (1 DEFERRED () ()) () 1 1 0 ()) (65 'mdl' (
DERIVED 66) () () 0 0 0 ()) (67 'lsa' (DERIVED 38) () () 0 0 0 ()) (68
'lsb' (DERIVED 69) () () 0 0 0 ()) (70 'ctr' (DERIVED 71) () () 0 0 0 ())
(72 'san' (DERIVED 73) () () 0 0 0 ()) (74 'ddf' (DERIVED 75) () () 0 0
0 ())) PUBLIC ())
75 't_datumdef' 'p_fodits' 10 ((DERIVED UNKNOWN UNKNOWN UNKNOWN NONE
NONE) (UNKNOWN) 0 0 () () () '' ((76 'mjd' (REAL 8) (1 DEFERRED () ()) ()
1 1 0 ()) (77 'hlmpar' (REAL 8) (2 DEFERRED () () () ()) () 1 1 0 ()) (
78 'rmshlmpar' (REAL 8) (2 DEFERRED () () () ()) () 1 1 0 ()) (79
'rmshlmtra' (REAL 8) (1 DEFERRED () ()) () 1 1 0 ()) (80 'totsta' (
INTEGER 4) (1 DEFERRED () ()) () 1 1 0 ()) (81 'refsta' (INTEGER 4) (1
DEFERRED () ()) () 1 1 0 ()) (82 'rejsta' (INTEGER 4) (1 DEFERRED () ())
() 1 1 0 ()) (83 'hlmparoffst' (REAL 8) (1 EXPLICIT (CONSTANT (INTEGER 4)
0 '1') (CONSTANT (INTEGER 4) 0 '7')) () 1 0 0 ()) (84 'hlmparoffstrms' (
REAL 8) (1 EXPLICIT (CONSTANT (INTEGER 4) 0 '1') (CONSTANT (INTEGER 4) 0
'7')) () 1 0 0 ()) (85 'hlmpardrift' (REAL 8) (1 EXPLICIT (CONSTANT (
INTEGER 4) 0 '1') (CONSTANT (INTEGER 4) 0 '7')) () 1 0 0 ()) (86
'hlmpardriftrms' (REAL 8) (1 EXPLICIT (CONSTANT (INTEGER 4) 0 '1') (
CONSTANT (INTEGER 4) 0 '7')) () 1 0 0 ())) PUBLIC ())
73 't_san' 'p_fodits' 10 ((DERIVED UNKNOWN UNKNOWN UNKNOWN NONE NONE) (
UNKNOWN) 0 0 () () () '' ((87 'nper' (INTEGER 4) () () 0 0 0 ()) (88 'per'
(REAL 8) (1 DEFERRED () ()) () 1 1 0 ())) PUBLIC ())
71 't_ctr' 'p_fodits' 10 ((DERIVED UNKNOWN UNKNOWN UNKNOWN NONE NONE) (
UNKNOWN) 0 0 () () () '' ((89 'niterloop' (INTEGER 4) () () 0 0 0 ()) (
90 'modnumiter' (REAL 8) (1 DEFERRED () ()) () 1 1 0 ()) (91
'modnumiteroutl' (REAL 8) (1 DEFERRED () ()) () 1 1 0 ()) (92 'nscrnloop'
(INTEGER 4) () () 0 0 0 ()) (93 'modnumscrn' (REAL 8) (1 DEFERRED () ())
() 1 1 0 ()) (94 'modnumscrnoutl' (REAL 8) (1 DEFERRED () ()) () 1 1 0 ())
(95 'nremoloop' (INTEGER 4) () () 0 0 0 ())) PUBLIC ())
69 't_lsb' 'p_fodits' 10 ((DERIVED UNKNOWN UNKNOWN UNKNOWN NONE NONE) (
UNKNOWN) 0 0 () () () '' ((96 'prevvtv' (REAL 8) () () 0 0 0 ()) (97 'm0'
(REAL 8) () () 0 0 0 ())) PUBLIC ())
66 't_mdl' 'p_fodits' 10 ((DERIVED UNKNOWN UNKNOWN UNKNOWN NONE NONE) (
UNKNOWN) 0 0 () () () '' ((98 'evnt' (DERIVED 11) () () 0 0 0 ()) (99
'napri' (INTEGER 4) () () 0 0 0 ()) (100 'apri' (DERIVED 11) (1 DEFERRED
() ()) () 1 1 0 ()) (101 'niden' (INTEGER 4) () () 0 0 0 ()) (102 'iden'
(DERIVED 11) (1 DEFERRED () ()) () 1 1 0 ()) (103 'namod' (INTEGER 4) ()
() 0 0 0 ()) (104 'amod' (DERIVED 11) (1 DEFERRED () ()) () 1 1 0 ()) (
105 'outlmjd' (REAL 8) (1 DEFERRED () ()) () 1 1 0 ())) PUBLIC ())
64 't_score_stat' 'p_fodits' 10 ((DERIVED UNKNOWN UNKNOWN UNKNOWN NONE
NONE) (UNKNOWN) 0 0 () () () '' ((106 'name' (CHARACTER 1 ((CONSTANT (
INTEGER 4) 0 '16'))) () () 0 0 0 ()) (107 'irefsta' (INTEGER 4) () () 0
0 0 ()) (108 'nstasta' (INTEGER 4) () () 0 0 0 ()) (109 'stasta' (
DERIVED 110) (1 DEFERRED () ()) () 1 1 0 ()) (111 'outcrdxyz' (REAL 8) (
1 EXPLICIT (CONSTANT (INTEGER 4) 0 '1') (CONSTANT (INTEGER 4) 0 '3')) ()
1 0 0 ()) (112 'outvelxyz' (REAL 8) (1 EXPLICIT (CONSTANT (INTEGER 4) 0
'1') (CONSTANT (INTEGER 4) 0 '3')) () 1 0 0 ()) (113 'nitersteps' (
INTEGER 4) () () 0 0 0 ()) (114 'modrms' (REAL 8) () () 0 0 0 ()) (115
'singular' (INTEGER 4) () () 0 0 0 ()) (116 'ts' (DERIVED 117) () () 0 0
0 ()) (118 'mod' (DERIVED 119) () () 0 0 0 ()) (120 'upd' (DERIVED 121)
() () 0 0 0 ())) PUBLIC ())
121 't_upd' 'p_fodits' 10 ((DERIVED UNKNOWN UNKNOWN UNKNOWN NONE NONE) (
UNKNOWN) 0 0 () () () '' ((122 'nren' (INTEGER 4) () () 0 0 0 ()) (123
'ren' (DERIVED 124) (1 DEFERRED () ()) () 1 1 0 ()) (125 'stastatusref'
(INTEGER 4) () () 0 0 0 ()) (126 'maxtimeinterv' (REAL 8) () () 0 0 0 ()))
PUBLIC ())
124 't_upd_ren' 'p_fodits' 10 ((DERIVED UNKNOWN UNKNOWN UNKNOWN NONE
NONE) (UNKNOWN) 0 0 () () () '' ((127 'type' (INTEGER 4) () () 0 0 0 ())
(128 'info' (INTEGER 4) () () 0 0 0 ()) (129 'timint' (DERIVED 17) () ()
0 0 0 ()) (130 'rename' (CHARACTER 1 ((CONSTANT (INTEGER 4) 0 '2'))) ()
() 0 0 0 ()) (131 'cnstr' (INTEGER 4) () () 0 0 0 ()) (132 'group' (
INTEGER 4) () () 0 0 0 ()) (133 'grouplength' (REAL 8) () () 0 0 0 ()) (
134 'groupnumdata' (INTEGER 4) () () 0 0 0 ()) (135 'remark' (CHARACTER
1 ((CONSTANT (INTEGER 4) 0 '8'))) () () 0 0 0 ())) PUBLIC ())
119 't_mod' 'p_fodits' 10 ((DERIVED UNKNOWN UNKNOWN UNKNOWN NONE NONE) (
UNKNOWN) 0 0 () () () '' ((136 'nevnt' (INTEGER 4) () () 0 0 0 ()) (137
'evnt' (DERIVED 11) (1 DEFERRED () ()) () 1 1 0 ())) PUBLIC ())
117 't_ts' 'p_fodits' 10 ((DERIVED UNKNOWN UNKNOWN UNKNOWN NONE NONE) (
UNKNOWN) 0 0 () () () '' ((138 'nval' (INTEGER 4) () () 0 0 0 ()) (139
'nmjd' (INTEGER 4) () () 0 0 0 ()) (140 'mjd' (REAL 8) (1 DEFERRED () ())
() 1 1 0 ()) (141 'val' (REAL 8) (2 DEFERRED () () () ()) () 1 1 0 ()) (
142 'dval' (REAL 8) (2 DEFERRED () () () ()) () 1 1 0 ()) (143 'vci' (
REAL 8) (3 DEFERRED () () () () () ()) () 1 1 0 ()) (144 'ddef' (REAL 8)
(2 DEFERRED () () () ()) () 1 1 0 ()) (145 'ddefrej' (INTEGER 4) (1
DEFERRED () ()) () 1 1 0 ())) PUBLIC ())
110 't_stasta' 'p_fodits' 10 ((DERIVED UNKNOWN UNKNOWN UNKNOWN NONE NONE)
(UNKNOWN) 0 0 () () () '' ((146 'rename' (CHARACTER 1 ((CONSTANT (
INTEGER 4) 0 '16'))) () () 0 0 0 ()) (147 'timint' (DERIVED 17) () () 0
0 0 ()) (148 'incrdxyz' (REAL 8) (1 EXPLICIT (CONSTANT (INTEGER 4) 0 '1')
(CONSTANT (INTEGER 4) 0 '3')) () 1 0 0 ()) (149 'incrdneu' (REAL 8) (1
EXPLICIT (CONSTANT (INTEGER 4) 0 '1') (CONSTANT (INTEGER 4) 0 '3')) () 1
0 0 ()) (150 'incrdflg' (CHARACTER 1 ((CONSTANT (INTEGER 4) 0 '1'))) ()
() 0 0 0 ()) (151 'invelxyz' (REAL 8) (1 EXPLICIT (CONSTANT (INTEGER 4)
0 '1') (CONSTANT (INTEGER 4) 0 '3')) () 1 0 0 ()) (152 'invelneu' (REAL
8) (1 EXPLICIT (CONSTANT (INTEGER 4) 0 '1') (CONSTANT (INTEGER 4) 0 '3'))
() 1 0 0 ()) (153 'invelflg' (CHARACTER 1 ((CONSTANT (INTEGER 4) 0 '5')))
() () 0 0 0 ()) (154 'invelplate' (CHARACTER 1 ((CONSTANT (INTEGER 4) 0
'4'))) () () 0 0 0 ())) PUBLIC ())
3 'opt' '' 10 ((VARIABLE UNKNOWN UNKNOWN UNKNOWN NONE NONE DUMMY) (
DERIVED 155) 0 0 () () () '' () ())
155 't_opt' 'p_fodits' 10 ((DERIVED UNKNOWN UNKNOWN UNKNOWN NONE NONE) (
UNKNOWN) 0 0 () () () '' ((156 'rdonlystanames' (INTEGER 4) () () 0 0 0
()) (157 'selinptstype' (INTEGER 4) () () 0 0 0 ()) (158 'inpltfile' (
CHARACTER 1 ((CONSTANT (INTEGER 4) 0 '32'))) () () 0 0 0 ()) (159
'inpltfilevciena' (INTEGER 4) () () 0 0 0 ()) (160 'inpltfilevim0' (
REAL 8) () () 0 0 0 ()) (161 'incrdfile' (CHARACTER 1 ((CONSTANT (
INTEGER 4) 0 '32'))) () () 0 0 0 ()) (162 'invelfile' (CHARACTER 1 ((
CONSTANT (INTEGER 4) 0 '32'))) () () 0 0 0 ()) (163 'ncrds' (INTEGER 4)
() () 0 0 0 ()) (164 'crdfilename' (CHARACTER 1 ((CONSTANT (INTEGER 4) 0
'32'))) (1 DEFERRED () ()) () 1 1 0 ()) (165 'inevlfile' (CHARACTER 1 (
(CONSTANT (INTEGER 4) 0 '32'))) () () 0 0 0 ()) (166 'instafile' (
CHARACTER 1 ((CONSTANT (INTEGER 4) 0 '32'))) () () 0 0 0 ()) (167
'inerqfile' (CHARACTER 1 ((CONSTANT (INTEGER 4) 0 '80'))) () () 0 0 0 ())
(168 'const' (CHARACTER 1 ((CONSTANT (INTEGER 4) 0 '32'))) () () 0 0 0 ())
(169 'datum' (CHARACTER 1 ((CONSTANT (INTEGER 4) 0 '32'))) () () 0 0 0 ())
(170 'gvarerqfacta' (REAL 8) () () 0 0 0 ()) (171 'gvarerqfactb' (REAL 8)
() () 0 0 0 ()) (172 'gvarerqmindist' (REAL 8) () () 0 0 0 ()) (173
'incrdfileaddplt' (INTEGER 4) () () 0 0 0 ()) (174 'invelfileaddplt' (
INTEGER 4) () () 0 0 0 ()) (175 'gvarmaxnriterstep' (INTEGER 4) () () 0
0 0 ()) (176 'gvarmaxnrscrnstep' (INTEGER 4) () () 0 0 0 ()) (177
'modnnewoutl' (INTEGER 4) () () 0 0 0 ()) (178 'modnoutlrms' (REAL 8) ()
() 0 0 0 ()) (179 'outevlfile' (CHARACTER 1 ((CONSTANT (INTEGER 4) 0 '32')))
() () 0 0 0 ()) (180 'outstafileforaddneq2' (CHARACTER 1 ((CONSTANT (
INTEGER 4) 0 '32'))) () () 0 0 0 ()) (181 'outpltfile' (CHARACTER 1 ((
CONSTANT (INTEGER 4) 0 '32'))) () () 0 0 0 ()) (182 'outfileverbose' (
INTEGER 4) () () 0 0 0 ()) (183 'outfileverboset' (INTEGER 4) () () 0 0
0 ()) (184 'outfileverbosett' (INTEGER 4) () () 0 0 0 ()) (185 'title' (
CHARACTER 1 ((CONSTANT (INTEGER 4) 0 '80'))) () () 0 0 0 ()) (186
'intruncstaname' (INTEGER 4) () () 0 0 0 ()) (187 'nstasel' (INTEGER 4)
() () 0 0 0 ()) (188 'instaselection' (CHARACTER 1 ((CONSTANT (INTEGER 4)
0 '16'))) (1 DEFERRED () ()) () 1 1 0 ()) (189 'inminnrobs' (INTEGER 4)
() () 0 0 0 ()) (190 'tstevltst' (INTEGER 4) () () 0 0 0 ()) (191
'tststarenamings' (INTEGER 4) () () 0 0 0 ()) (192 'tstrectypechanges' (
INTEGER 4) () () 0 0 0 ()) (193 'tstrecnumberchanges' (INTEGER 4) () ()
0 0 0 ()) (194 'tstanttypechanges' (INTEGER 4) () () 0 0 0 ()) (195
'tstantnumberchanges' (INTEGER 4) () () 0 0 0 ()) (196 'tsteccchanges' (
INTEGER 4) () () 0 0 0 ()) (197 'modpredattest' (INTEGER 4) () () 0 0 0
()) (198 'minintervforvel' (REAL 8) () () 0 0 0 ()) (199 'modperann' (
INTEGER 4) () () 0 0 0 ()) (200 'modaddena' (INTEGER 4) () () 0 0 0 ())
(201 'naddperparam' (INTEGER 4) () () 0 0 0 ()) (202 'modaddperparam' (
REAL 8) (1 DEFERRED () ()) () 1 1 0 ()) (203 'indatumcrdfile' (
CHARACTER 1 ((CONSTANT (INTEGER 4) 0 '32'))) () () 0 0 0 ()) (204
'indatumvelfile' (CHARACTER 1 ((CONSTANT (INTEGER 4) 0 '32'))) () () 0 0
0 ()) (205 'indatumfixfile' (CHARACTER 1 ((CONSTANT (INTEGER 4) 0 '32')))
() () 0 0 0 ()) (206 'dathlmtx' (INTEGER 4) () () 0 0 0 ()) (207
'dathlmty' (INTEGER 4) () () 0 0 0 ()) (208 'dathlmtz' (INTEGER 4) () ()
0 0 0 ()) (209 'dathlmrx' (INTEGER 4) () () 0 0 0 ()) (210 'dathlmry' (
INTEGER 4) () () 0 0 0 ()) (211 'dathlmrz' (INTEGER 4) () () 0 0 0 ()) (
212 'dathlmsc' (INTEGER 4) () () 0 0 0 ()) (213 'datrejectcrd' (INTEGER
4) () () 0 0 0 ()) (214 'datnlimitcrd' (REAL 8) () () 0 0 0 ()) (215
'datelimitcrd' (REAL 8) () () 0 0 0 ()) (216 'datulimitcrd' (REAL 8) ()
() 0 0 0 ()) (217 'datrejectoutlcrd' (INTEGER 4) () () 0 0 0 ()) (218
'modtestvalue' (REAL 8) () () 0 0 0 ()) (219 'modoutltestvalue' (REAL 8)
() () 0 0 0 ()) (220 'modjumpspac' (REAL 8) () () 0 0 0 ()) (221
'modjumpsing' (REAL 8) () () 0 0 0 ()) (222 'modjumphori' (REAL 8) () ()
0 0 0 ()) (223 'modjumpvert' (REAL 8) () () 0 0 0 ()) (224 'modvelospac'
(REAL 8) () () 0 0 0 ()) (225 'modvelosing' (REAL 8) () () 0 0 0 ()) (
226 'modvelohori' (REAL 8) () () 0 0 0 ()) (227 'modvelovert' (REAL 8) ()
() 0 0 0 ()) (228 'modoutlspac' (REAL 8) () () 0 0 0 ()) (229
'modoutlsing' (REAL 8) () () 0 0 0 ()) (230 'modoutlhori' (REAL 8) () ()
0 0 0 ()) (231 'modoutlvert' (REAL 8) () () 0 0 0 ()) (232 'modperispac'
(REAL 8) () () 0 0 0 ()) (233 'modperising' (REAL 8) () () 0 0 0 ()) (
234 'modperihori' (REAL 8) () () 0 0 0 ()) (235 'modperivert' (REAL 8) ()
() 0 0 0 ()) (236 'modnewjumpidentify' (INTEGER 4) () () 0 0 0 ()) (237
'modnewveloidentify' (INTEGER 4) () () 0 0 0 ()) (238 'modnewoutlidentify'
(INTEGER 4) () () 0 0 0 ()) (239 'modnewperiidentify' (INTEGER 4) () ()
0 0 0 ()) (240 'modaddveloaj' (INTEGER 4) () () 0 0 0 ()) (241 'sannlines'
(INTEGER 4) () () 0 0 0 ()) (242 'sanminperiod' (REAL 8) () () 0 0 0 ())
(243 'sanmaxperiod' (REAL 8) () () 0 0 0 ()) (244 'outtimref' (REAL 8) ()
() 0 0 0 ()) (245 'mintimeintlength' (REAL 8) () () 0 0 0 ()) (246
'minpercdatafix' (REAL 8) () () 0 0 0 ()) (247 'incrdfileforaddneq2' (
CHARACTER 1 ((CONSTANT (INTEGER 4) 0 '32'))) () () 0 0 0 ()) (248
'invelfileforaddneq2' (CHARACTER 1 ((CONSTANT (INTEGER 4) 0 '32'))) () ()
0 0 0 ()) (249 'infixfileforaddneq2' (CHARACTER 1 ((CONSTANT (INTEGER 4)
0 '32'))) () () 0 0 0 ()) (250 'insigfileforaddneq2' (CHARACTER 1 ((
CONSTANT (INTEGER 4) 0 '32'))) () () 0 0 0 ()) (251 'outcrdfileforaddneq2'
(CHARACTER 1 ((CONSTANT (INTEGER 4) 0 '32'))) () () 0 0 0 ()) (252
'outvelfileforaddneq2' (CHARACTER 1 ((CONSTANT (INTEGER 4) 0 '32'))) ()
() 0 0 0 ()) (253 'outfixfileforaddneq2' (CHARACTER 1 ((CONSTANT (
INTEGER 4) 0 '32'))) () () 0 0 0 ()) (254 'outsigfileforaddneq2' (
CHARACTER 1 ((CONSTANT (INTEGER 4) 0 '32'))) () () 0 0 0 ()) (255
'updstandays' (INTEGER 4) () () 0 0 0 ()) (256 'gvarcstrcrd' (REAL 8) ()
() 0 0 0 ()) (257 'gvarcstrvel' (REAL 8) () () 0 0 0 ())) PUBLIC ())
)

('fodismod' 0 2 's_fodismod' 0 9)
