G95 module created on Thu Jun 25 17:50:26 2020 from ./.fpp/FODIIDIA.f90
If you edit this, you'll get what you deserve.
module-version 9
(() () () () () () () () () () () () () () () () () () () () ())

()

()

()

()

(2 'fodiidia' 's_fodiidia' 1 ((PROCEDURE UNKNOWN MODULE-PROC DECL NONE
NONE SUBROUTINE) (PROCEDURE 0) 0 0 (3 NONE 4 NONE 5 NONE 6 NONE) () () ''
() ())
7 's_fodiidia' 's_fodiidia' 1 ((MODULE UNKNOWN UNKNOWN UNKNOWN NONE NONE)
(UNKNOWN) 0 0 () () () '' () ())
6 'statem' '' 8 ((VARIABLE UNKNOWN UNKNOWN UNKNOWN NONE NONE DUMMY) (
INTEGER 4) 0 0 () () () '' () ())
5 'ista' '' 8 ((VARIABLE IN UNKNOWN UNKNOWN NONE NONE DUMMY) (INTEGER 4)
0 0 () () () '' () ())
4 'score' '' 8 ((VARIABLE UNKNOWN UNKNOWN UNKNOWN NONE NONE DUMMY) (
DERIVED 9) 0 0 () () () '' () ())
9 't_score' 'p_fodits' 8 ((DERIVED UNKNOWN UNKNOWN UNKNOWN NONE NONE) (
UNKNOWN) 0 0 () () () '' ((10 'nsta' (INTEGER 4) () () 0 0 0 ()) (11
'nval' (INTEGER 4) () () 0 0 0 ()) (12 'ntotmjd' (INTEGER 4) () () 0 0 0
()) (13 'begmjd' (REAL 8) () () 0 0 0 ()) (14 'endmjd' (REAL 8) () () 0
0 0 ()) (15 'deltamjd' (REAL 8) () () 0 0 0 ()) (16 'intimrefcrd' (REAL
8) () () 0 0 0 ()) (17 'outtimrefcrd' (REAL 8) () () 0 0 0 ()) (18
'datumname' (CHARACTER 1 ((CONSTANT (INTEGER 4) 0 '16'))) () () 0 0 0 ())
(19 'sta' (DERIVED 20) (1 DEFERRED () ()) () 1 1 0 ()) (21 'mdl' (
DERIVED 22) () () 0 0 0 ()) (23 'lsa' (DERIVED 24) () () 0 0 0 ()) (25
'lsb' (DERIVED 26) () () 0 0 0 ()) (27 'ctr' (DERIVED 28) () () 0 0 0 ())
(29 'san' (DERIVED 30) () () 0 0 0 ()) (31 'ddf' (DERIVED 32) () () 0 0
0 ())) PUBLIC ())
32 't_datumdef' 'p_fodits' 8 ((DERIVED UNKNOWN UNKNOWN UNKNOWN NONE NONE)
(UNKNOWN) 0 0 () () () '' ((33 'mjd' (REAL 8) (1 DEFERRED () ()) () 1 1
0 ()) (34 'hlmpar' (REAL 8) (2 DEFERRED () () () ()) () 1 1 0 ()) (35
'rmshlmpar' (REAL 8) (2 DEFERRED () () () ()) () 1 1 0 ()) (36 'rmshlmtra'
(REAL 8) (1 DEFERRED () ()) () 1 1 0 ()) (37 'totsta' (INTEGER 4) (1
DEFERRED () ()) () 1 1 0 ()) (38 'refsta' (INTEGER 4) (1 DEFERRED () ())
() 1 1 0 ()) (39 'rejsta' (INTEGER 4) (1 DEFERRED () ()) () 1 1 0 ()) (
40 'hlmparoffst' (REAL 8) (1 EXPLICIT (CONSTANT (INTEGER 4) 0 '1') (
CONSTANT (INTEGER 4) 0 '7')) () 1 0 0 ()) (41 'hlmparoffstrms' (REAL 8)
(1 EXPLICIT (CONSTANT (INTEGER 4) 0 '1') (CONSTANT (INTEGER 4) 0 '7')) ()
1 0 0 ()) (42 'hlmpardrift' (REAL 8) (1 EXPLICIT (CONSTANT (INTEGER 4) 0
'1') (CONSTANT (INTEGER 4) 0 '7')) () 1 0 0 ()) (43 'hlmpardriftrms' (
REAL 8) (1 EXPLICIT (CONSTANT (INTEGER 4) 0 '1') (CONSTANT (INTEGER 4) 0
'7')) () 1 0 0 ())) PUBLIC ())
30 't_san' 'p_fodits' 8 ((DERIVED UNKNOWN UNKNOWN UNKNOWN NONE NONE) (
UNKNOWN) 0 0 () () () '' ((44 'nper' (INTEGER 4) () () 0 0 0 ()) (45 'per'
(REAL 8) (1 DEFERRED () ()) () 1 1 0 ())) PUBLIC ())
28 't_ctr' 'p_fodits' 8 ((DERIVED UNKNOWN UNKNOWN UNKNOWN NONE NONE) (
UNKNOWN) 0 0 () () () '' ((46 'niterloop' (INTEGER 4) () () 0 0 0 ()) (
47 'modnumiter' (REAL 8) (1 DEFERRED () ()) () 1 1 0 ()) (48
'modnumiteroutl' (REAL 8) (1 DEFERRED () ()) () 1 1 0 ()) (49 'nscrnloop'
(INTEGER 4) () () 0 0 0 ()) (50 'modnumscrn' (REAL 8) (1 DEFERRED () ())
() 1 1 0 ()) (51 'modnumscrnoutl' (REAL 8) (1 DEFERRED () ()) () 1 1 0 ())
(52 'nremoloop' (INTEGER 4) () () 0 0 0 ())) PUBLIC ())
26 't_lsb' 'p_fodits' 8 ((DERIVED UNKNOWN UNKNOWN UNKNOWN NONE NONE) (
UNKNOWN) 0 0 () () () '' ((53 'prevvtv' (REAL 8) () () 0 0 0 ()) (54 'm0'
(REAL 8) () () 0 0 0 ())) PUBLIC ())
24 't_lsa' 'p_fodits' 8 ((DERIVED UNKNOWN UNKNOWN UNKNOWN NONE NONE) (
UNKNOWN) 0 0 () () () '' ((55 'nnpar' (INTEGER 4) () () 0 0 0 ()) (56
'nnmjd' (INTEGER 4) () () 0 0 0 ()) (57 'a' (REAL 8) (2 DEFERRED () () ()
()) () 1 1 0 ()) (58 'qxx' (REAL 8) (2 DEFERRED () () () ()) () 1 1 0 ())
(59 'y' (REAL 8) (1 DEFERRED () ()) () 1 1 0 ()) (60 'x' (REAL 8) (1
DEFERRED () ()) () 1 1 0 ()) (61 'mod' (REAL 8) (1 DEFERRED () ()) () 1
1 0 ()) (62 'v' (REAL 8) (1 DEFERRED () ()) () 1 1 0 ()) (63 'p' (REAL 8)
(1 DEFERRED () ()) () 1 1 0 ()) (64 'iqyy' (REAL 8) (3 DEFERRED () () ()
() () ()) () 1 1 0 ()) (65 'dof' (INTEGER 4) () () 0 0 0 ()) (66 'detn'
(REAL 8) () () 0 0 0 ()) (67 'vtv' (REAL 8) () () 0 0 0 ()) (68 'm0' (
REAL 8) () () 0 0 0 ())) PUBLIC ())
22 't_mdl' 'p_fodits' 8 ((DERIVED UNKNOWN UNKNOWN UNKNOWN NONE NONE) (
UNKNOWN) 0 0 () () () '' ((69 'evnt' (DERIVED 70) () () 0 0 0 ()) (71
'napri' (INTEGER 4) () () 0 0 0 ()) (72 'apri' (DERIVED 70) (1 DEFERRED
() ()) () 1 1 0 ()) (73 'niden' (INTEGER 4) () () 0 0 0 ()) (74 'iden' (
DERIVED 70) (1 DEFERRED () ()) () 1 1 0 ()) (75 'namod' (INTEGER 4) () ()
0 0 0 ()) (76 'amod' (DERIVED 70) (1 DEFERRED () ()) () 1 1 0 ()) (77
'outlmjd' (REAL 8) (1 DEFERRED () ()) () 1 1 0 ())) PUBLIC ())
70 't_evnt' 'p_fodits' 8 ((DERIVED UNKNOWN UNKNOWN UNKNOWN NONE NONE) (
UNKNOWN) 0 0 () () () '' ((78 'type' (INTEGER 4) () () 0 0 0 ()) (79
'info' (INTEGER 4) () () 0 0 0 ()) (80 'mjd' (REAL 8) () () 0 0 0 ()) (
81 'omega' (REAL 8) () () 0 0 0 ()) (82 'timint' (DERIVED 83) () () 0 0
0 ()) (84 'flag' (INTEGER 4) () () 0 0 0 ()) (85 'remark' (CHARACTER 1 (
(CONSTANT (INTEGER 4) 0 '8'))) () () 0 0 0 ()) (86 'index' (INTEGER 4) ()
() 0 0 0 ()) (87 'cand' (INTEGER 4) () () 0 0 0 ()) (88 'par' (REAL 8) (
1 EXPLICIT (CONSTANT (INTEGER 4) 0 '1') (CONSTANT (INTEGER 4) 0 '3')) ()
1 0 0 ()) (89 'val' (REAL 8) () () 0 0 0 ()) (90 'dval' (REAL 8) () () 0
0 0 ()) (91 'vltst' (REAL 8) () () 0 0 0 ()) (92 'sttst' (REAL 8) () ()
0 0 0 ()) (93 'sitst' (INTEGER 4) () () 0 0 0 ()) (94 'rename' (
CHARACTER 1 ((CONSTANT (INTEGER 4) 0 '2'))) () () 0 0 0 ()) (95 'recchg'
(CHARACTER 1 ((CONSTANT (INTEGER 4) 0 '20'))) (1 EXPLICIT (CONSTANT (
INTEGER 4) 0 '1') (CONSTANT (INTEGER 4) 0 '2')) () 1 0 0 ()) (96 'antchg'
(CHARACTER 1 ((CONSTANT (INTEGER 4) 0 '20'))) (1 EXPLICIT (CONSTANT (
INTEGER 4) 0 '1') (CONSTANT (INTEGER 4) 0 '2')) () 1 0 0 ()) (97 'eccchg'
(REAL 8) (2 EXPLICIT (CONSTANT (INTEGER 4) 0 '1') (CONSTANT (INTEGER 4)
0 '3') (CONSTANT (INTEGER 4) 0 '1') (CONSTANT (INTEGER 4) 0 '2')) () 1 0
0 ()) (98 'mjd2' (REAL 8) () () 0 0 0 ()) (99 'dpar' (REAL 8) (1
EXPLICIT (CONSTANT (INTEGER 4) 0 '1') (CONSTANT (INTEGER 4) 0 '3')) () 1
0 0 ()) (100 'phi' (REAL 8) (1 EXPLICIT (CONSTANT (INTEGER 4) 0 '1') (
CONSTANT (INTEGER 4) 0 '3')) () 1 0 0 ()) (101 'ppar' (REAL 8) (2
EXPLICIT (CONSTANT (INTEGER 4) 0 '1') (CONSTANT (INTEGER 4) 0 '3') (
CONSTANT (INTEGER 4) 0 '1') (CONSTANT (INTEGER 4) 0 '2')) () 1 0 0 ()) (
102 'mod' (REAL 8) (1 EXPLICIT (CONSTANT (INTEGER 4) 0 '1') (CONSTANT (
INTEGER 4) 0 '3')) () 1 0 0 ())) PUBLIC ())
83 't_timint' 'm_time' 8 ((DERIVED UNKNOWN UNKNOWN UNKNOWN NONE NONE) (
UNKNOWN) 0 0 () () () '' ((103 't' (REAL 8) (1 EXPLICIT (CONSTANT (
INTEGER 4) 0 '1') (CONSTANT (INTEGER 4) 0 '2')) () 1 0 0 ())) PUBLIC ())
20 't_score_stat' 'p_fodits' 8 ((DERIVED UNKNOWN UNKNOWN UNKNOWN NONE
NONE) (UNKNOWN) 0 0 () () () '' ((104 'name' (CHARACTER 1 ((CONSTANT (
INTEGER 4) 0 '16'))) () () 0 0 0 ()) (105 'irefsta' (INTEGER 4) () () 0
0 0 ()) (106 'nstasta' (INTEGER 4) () () 0 0 0 ()) (107 'stasta' (
DERIVED 108) (1 DEFERRED () ()) () 1 1 0 ()) (109 'outcrdxyz' (REAL 8) (
1 EXPLICIT (CONSTANT (INTEGER 4) 0 '1') (CONSTANT (INTEGER 4) 0 '3')) ()
1 0 0 ()) (110 'outvelxyz' (REAL 8) (1 EXPLICIT (CONSTANT (INTEGER 4) 0
'1') (CONSTANT (INTEGER 4) 0 '3')) () 1 0 0 ()) (111 'nitersteps' (
INTEGER 4) () () 0 0 0 ()) (112 'modrms' (REAL 8) () () 0 0 0 ()) (113
'singular' (INTEGER 4) () () 0 0 0 ()) (114 'ts' (DERIVED 115) () () 0 0
0 ()) (116 'mod' (DERIVED 117) () () 0 0 0 ()) (118 'upd' (DERIVED 119)
() () 0 0 0 ())) PUBLIC ())
119 't_upd' 'p_fodits' 8 ((DERIVED UNKNOWN UNKNOWN UNKNOWN NONE NONE) (
UNKNOWN) 0 0 () () () '' ((120 'nren' (INTEGER 4) () () 0 0 0 ()) (121
'ren' (DERIVED 122) (1 DEFERRED () ()) () 1 1 0 ()) (123 'stastatusref'
(INTEGER 4) () () 0 0 0 ()) (124 'maxtimeinterv' (REAL 8) () () 0 0 0 ()))
PUBLIC ())
122 't_upd_ren' 'p_fodits' 8 ((DERIVED UNKNOWN UNKNOWN UNKNOWN NONE NONE)
(UNKNOWN) 0 0 () () () '' ((125 'type' (INTEGER 4) () () 0 0 0 ()) (126
'info' (INTEGER 4) () () 0 0 0 ()) (127 'timint' (DERIVED 83) () () 0 0
0 ()) (128 'rename' (CHARACTER 1 ((CONSTANT (INTEGER 4) 0 '2'))) () () 0
0 0 ()) (129 'cnstr' (INTEGER 4) () () 0 0 0 ()) (130 'group' (INTEGER 4)
() () 0 0 0 ()) (131 'grouplength' (REAL 8) () () 0 0 0 ()) (132
'groupnumdata' (INTEGER 4) () () 0 0 0 ()) (133 'remark' (CHARACTER 1 (
(CONSTANT (INTEGER 4) 0 '8'))) () () 0 0 0 ())) PUBLIC ())
117 't_mod' 'p_fodits' 8 ((DERIVED UNKNOWN UNKNOWN UNKNOWN NONE NONE) (
UNKNOWN) 0 0 () () () '' ((134 'nevnt' (INTEGER 4) () () 0 0 0 ()) (135
'evnt' (DERIVED 70) (1 DEFERRED () ()) () 1 1 0 ())) PUBLIC ())
115 't_ts' 'p_fodits' 8 ((DERIVED UNKNOWN UNKNOWN UNKNOWN NONE NONE) (
UNKNOWN) 0 0 () () () '' ((136 'nval' (INTEGER 4) () () 0 0 0 ()) (137
'nmjd' (INTEGER 4) () () 0 0 0 ()) (138 'mjd' (REAL 8) (1 DEFERRED () ())
() 1 1 0 ()) (139 'val' (REAL 8) (2 DEFERRED () () () ()) () 1 1 0 ()) (
140 'dval' (REAL 8) (2 DEFERRED () () () ()) () 1 1 0 ()) (141 'vci' (
REAL 8) (3 DEFERRED () () () () () ()) () 1 1 0 ()) (142 'ddef' (REAL 8)
(2 DEFERRED () () () ()) () 1 1 0 ()) (143 'ddefrej' (INTEGER 4) (1
DEFERRED () ()) () 1 1 0 ())) PUBLIC ())
108 't_stasta' 'p_fodits' 8 ((DERIVED UNKNOWN UNKNOWN UNKNOWN NONE NONE)
(UNKNOWN) 0 0 () () () '' ((144 'rename' (CHARACTER 1 ((CONSTANT (
INTEGER 4) 0 '16'))) () () 0 0 0 ()) (145 'timint' (DERIVED 83) () () 0
0 0 ()) (146 'incrdxyz' (REAL 8) (1 EXPLICIT (CONSTANT (INTEGER 4) 0 '1')
(CONSTANT (INTEGER 4) 0 '3')) () 1 0 0 ()) (147 'incrdneu' (REAL 8) (1
EXPLICIT (CONSTANT (INTEGER 4) 0 '1') (CONSTANT (INTEGER 4) 0 '3')) () 1
0 0 ()) (148 'incrdflg' (CHARACTER 1 ((CONSTANT (INTEGER 4) 0 '1'))) ()
() 0 0 0 ()) (149 'invelxyz' (REAL 8) (1 EXPLICIT (CONSTANT (INTEGER 4)
0 '1') (CONSTANT (INTEGER 4) 0 '3')) () 1 0 0 ()) (150 'invelneu' (REAL
8) (1 EXPLICIT (CONSTANT (INTEGER 4) 0 '1') (CONSTANT (INTEGER 4) 0 '3'))
() 1 0 0 ()) (151 'invelflg' (CHARACTER 1 ((CONSTANT (INTEGER 4) 0 '5')))
() () 0 0 0 ()) (152 'invelplate' (CHARACTER 1 ((CONSTANT (INTEGER 4) 0
'4'))) () () 0 0 0 ())) PUBLIC ())
3 'opt' '' 8 ((VARIABLE UNKNOWN UNKNOWN UNKNOWN NONE NONE DUMMY) (
DERIVED 153) 0 0 () () () '' () ())
153 't_opt' 'p_fodits' 8 ((DERIVED UNKNOWN UNKNOWN UNKNOWN NONE NONE) (
UNKNOWN) 0 0 () () () '' ((154 'rdonlystanames' (INTEGER 4) () () 0 0 0
()) (155 'selinptstype' (INTEGER 4) () () 0 0 0 ()) (156 'inpltfile' (
CHARACTER 1 ((CONSTANT (INTEGER 4) 0 '32'))) () () 0 0 0 ()) (157
'inpltfilevciena' (INTEGER 4) () () 0 0 0 ()) (158 'inpltfilevim0' (
REAL 8) () () 0 0 0 ()) (159 'incrdfile' (CHARACTER 1 ((CONSTANT (
INTEGER 4) 0 '32'))) () () 0 0 0 ()) (160 'invelfile' (CHARACTER 1 ((
CONSTANT (INTEGER 4) 0 '32'))) () () 0 0 0 ()) (161 'ncrds' (INTEGER 4)
() () 0 0 0 ()) (162 'crdfilename' (CHARACTER 1 ((CONSTANT (INTEGER 4) 0
'32'))) (1 DEFERRED () ()) () 1 1 0 ()) (163 'inevlfile' (CHARACTER 1 (
(CONSTANT (INTEGER 4) 0 '32'))) () () 0 0 0 ()) (164 'instafile' (
CHARACTER 1 ((CONSTANT (INTEGER 4) 0 '32'))) () () 0 0 0 ()) (165
'inerqfile' (CHARACTER 1 ((CONSTANT (INTEGER 4) 0 '80'))) () () 0 0 0 ())
(166 'const' (CHARACTER 1 ((CONSTANT (INTEGER 4) 0 '32'))) () () 0 0 0 ())
(167 'datum' (CHARACTER 1 ((CONSTANT (INTEGER 4) 0 '32'))) () () 0 0 0 ())
(168 'gvarerqfacta' (REAL 8) () () 0 0 0 ()) (169 'gvarerqfactb' (REAL 8)
() () 0 0 0 ()) (170 'gvarerqmindist' (REAL 8) () () 0 0 0 ()) (171
'incrdfileaddplt' (INTEGER 4) () () 0 0 0 ()) (172 'invelfileaddplt' (
INTEGER 4) () () 0 0 0 ()) (173 'gvarmaxnriterstep' (INTEGER 4) () () 0
0 0 ()) (174 'gvarmaxnrscrnstep' (INTEGER 4) () () 0 0 0 ()) (175
'modnnewoutl' (INTEGER 4) () () 0 0 0 ()) (176 'modnoutlrms' (REAL 8) ()
() 0 0 0 ()) (177 'outevlfile' (CHARACTER 1 ((CONSTANT (INTEGER 4) 0 '32')))
() () 0 0 0 ()) (178 'outstafileforaddneq2' (CHARACTER 1 ((CONSTANT (
INTEGER 4) 0 '32'))) () () 0 0 0 ()) (179 'outpltfile' (CHARACTER 1 ((
CONSTANT (INTEGER 4) 0 '32'))) () () 0 0 0 ()) (180 'outfileverbose' (
INTEGER 4) () () 0 0 0 ()) (181 'outfileverboset' (INTEGER 4) () () 0 0
0 ()) (182 'outfileverbosett' (INTEGER 4) () () 0 0 0 ()) (183 'title' (
CHARACTER 1 ((CONSTANT (INTEGER 4) 0 '80'))) () () 0 0 0 ()) (184
'intruncstaname' (INTEGER 4) () () 0 0 0 ()) (185 'nstasel' (INTEGER 4)
() () 0 0 0 ()) (186 'instaselection' (CHARACTER 1 ((CONSTANT (INTEGER 4)
0 '16'))) (1 DEFERRED () ()) () 1 1 0 ()) (187 'inminnrobs' (INTEGER 4)
() () 0 0 0 ()) (188 'tstevltst' (INTEGER 4) () () 0 0 0 ()) (189
'tststarenamings' (INTEGER 4) () () 0 0 0 ()) (190 'tstrectypechanges' (
INTEGER 4) () () 0 0 0 ()) (191 'tstrecnumberchanges' (INTEGER 4) () ()
0 0 0 ()) (192 'tstanttypechanges' (INTEGER 4) () () 0 0 0 ()) (193
'tstantnumberchanges' (INTEGER 4) () () 0 0 0 ()) (194 'tsteccchanges' (
INTEGER 4) () () 0 0 0 ()) (195 'modpredattest' (INTEGER 4) () () 0 0 0
()) (196 'minintervforvel' (REAL 8) () () 0 0 0 ()) (197 'modperann' (
INTEGER 4) () () 0 0 0 ()) (198 'modaddena' (INTEGER 4) () () 0 0 0 ())
(199 'naddperparam' (INTEGER 4) () () 0 0 0 ()) (200 'modaddperparam' (
REAL 8) (1 DEFERRED () ()) () 1 1 0 ()) (201 'indatumcrdfile' (
CHARACTER 1 ((CONSTANT (INTEGER 4) 0 '32'))) () () 0 0 0 ()) (202
'indatumvelfile' (CHARACTER 1 ((CONSTANT (INTEGER 4) 0 '32'))) () () 0 0
0 ()) (203 'indatumfixfile' (CHARACTER 1 ((CONSTANT (INTEGER 4) 0 '32')))
() () 0 0 0 ()) (204 'dathlmtx' (INTEGER 4) () () 0 0 0 ()) (205
'dathlmty' (INTEGER 4) () () 0 0 0 ()) (206 'dathlmtz' (INTEGER 4) () ()
0 0 0 ()) (207 'dathlmrx' (INTEGER 4) () () 0 0 0 ()) (208 'dathlmry' (
INTEGER 4) () () 0 0 0 ()) (209 'dathlmrz' (INTEGER 4) () () 0 0 0 ()) (
210 'dathlmsc' (INTEGER 4) () () 0 0 0 ()) (211 'datrejectcrd' (INTEGER
4) () () 0 0 0 ()) (212 'datnlimitcrd' (REAL 8) () () 0 0 0 ()) (213
'datelimitcrd' (REAL 8) () () 0 0 0 ()) (214 'datulimitcrd' (REAL 8) ()
() 0 0 0 ()) (215 'datrejectoutlcrd' (INTEGER 4) () () 0 0 0 ()) (216
'modtestvalue' (REAL 8) () () 0 0 0 ()) (217 'modoutltestvalue' (REAL 8)
() () 0 0 0 ()) (218 'modjumpspac' (REAL 8) () () 0 0 0 ()) (219
'modjumpsing' (REAL 8) () () 0 0 0 ()) (220 'modjumphori' (REAL 8) () ()
0 0 0 ()) (221 'modjumpvert' (REAL 8) () () 0 0 0 ()) (222 'modvelospac'
(REAL 8) () () 0 0 0 ()) (223 'modvelosing' (REAL 8) () () 0 0 0 ()) (
224 'modvelohori' (REAL 8) () () 0 0 0 ()) (225 'modvelovert' (REAL 8) ()
() 0 0 0 ()) (226 'modoutlspac' (REAL 8) () () 0 0 0 ()) (227
'modoutlsing' (REAL 8) () () 0 0 0 ()) (228 'modoutlhori' (REAL 8) () ()
0 0 0 ()) (229 'modoutlvert' (REAL 8) () () 0 0 0 ()) (230 'modperispac'
(REAL 8) () () 0 0 0 ()) (231 'modperising' (REAL 8) () () 0 0 0 ()) (
232 'modperihori' (REAL 8) () () 0 0 0 ()) (233 'modperivert' (REAL 8) ()
() 0 0 0 ()) (234 'modnewjumpidentify' (INTEGER 4) () () 0 0 0 ()) (235
'modnewveloidentify' (INTEGER 4) () () 0 0 0 ()) (236 'modnewoutlidentify'
(INTEGER 4) () () 0 0 0 ()) (237 'modnewperiidentify' (INTEGER 4) () ()
0 0 0 ()) (238 'modaddveloaj' (INTEGER 4) () () 0 0 0 ()) (239 'sannlines'
(INTEGER 4) () () 0 0 0 ()) (240 'sanminperiod' (REAL 8) () () 0 0 0 ())
(241 'sanmaxperiod' (REAL 8) () () 0 0 0 ()) (242 'outtimref' (REAL 8) ()
() 0 0 0 ()) (243 'mintimeintlength' (REAL 8) () () 0 0 0 ()) (244
'minpercdatafix' (REAL 8) () () 0 0 0 ()) (245 'incrdfileforaddneq2' (
CHARACTER 1 ((CONSTANT (INTEGER 4) 0 '32'))) () () 0 0 0 ()) (246
'invelfileforaddneq2' (CHARACTER 1 ((CONSTANT (INTEGER 4) 0 '32'))) () ()
0 0 0 ()) (247 'infixfileforaddneq2' (CHARACTER 1 ((CONSTANT (INTEGER 4)
0 '32'))) () () 0 0 0 ()) (248 'insigfileforaddneq2' (CHARACTER 1 ((
CONSTANT (INTEGER 4) 0 '32'))) () () 0 0 0 ()) (249 'outcrdfileforaddneq2'
(CHARACTER 1 ((CONSTANT (INTEGER 4) 0 '32'))) () () 0 0 0 ()) (250
'outvelfileforaddneq2' (CHARACTER 1 ((CONSTANT (INTEGER 4) 0 '32'))) ()
() 0 0 0 ()) (251 'outfixfileforaddneq2' (CHARACTER 1 ((CONSTANT (
INTEGER 4) 0 '32'))) () () 0 0 0 ()) (252 'outsigfileforaddneq2' (
CHARACTER 1 ((CONSTANT (INTEGER 4) 0 '32'))) () () 0 0 0 ()) (253
'updstandays' (INTEGER 4) () () 0 0 0 ()) (254 'gvarcstrcrd' (REAL 8) ()
() 0 0 0 ()) (255 'gvarcstrvel' (REAL 8) () () 0 0 0 ())) PUBLIC ())
)

('fodiidia' 0 2 's_fodiidia' 0 7)
