G95 module created on Thu Jun 25 17:49:51 2020 from ./.fpp/FODISLSA.f90
If you edit this, you'll get what you deserve.
module-version 9
(() () () () () () () () () () () () () () () () () () () () ())

()

()

()

()

(2 'fodislsa' 's_fodislsa' 1 ((PROCEDURE UNKNOWN MODULE-PROC DECL NONE
NONE SUBROUTINE) (PROCEDURE 0) 0 0 (3 NONE 4 NONE) () () '' () ())
5 's_fodislsa' 's_fodislsa' 1 ((MODULE UNKNOWN UNKNOWN UNKNOWN NONE NONE)
(UNKNOWN) 0 0 () () () '' () ())
4 'lsa' '' 6 ((VARIABLE UNKNOWN UNKNOWN UNKNOWN NONE NONE DUMMY) (
DERIVED 7) 0 0 () () () '' () ())
7 't_lsa' 'p_fodits' 6 ((DERIVED UNKNOWN UNKNOWN UNKNOWN NONE NONE) (
UNKNOWN) 0 0 () () () '' ((8 'nnpar' (INTEGER 4) () () 0 0 0 ()) (9
'nnmjd' (INTEGER 4) () () 0 0 0 ()) (10 'a' (REAL 8) (2 DEFERRED () () ()
()) () 1 1 0 ()) (11 'qxx' (REAL 8) (2 DEFERRED () () () ()) () 1 1 0 ())
(12 'y' (REAL 8) (1 DEFERRED () ()) () 1 1 0 ()) (13 'x' (REAL 8) (1
DEFERRED () ()) () 1 1 0 ()) (14 'mod' (REAL 8) (1 DEFERRED () ()) () 1
1 0 ()) (15 'v' (REAL 8) (1 DEFERRED () ()) () 1 1 0 ()) (16 'p' (REAL 8)
(1 DEFERRED () ()) () 1 1 0 ()) (17 'iqyy' (REAL 8) (3 DEFERRED () () ()
() () ()) () 1 1 0 ()) (18 'dof' (INTEGER 4) () () 0 0 0 ()) (19 'detn'
(REAL 8) () () 0 0 0 ()) (20 'vtv' (REAL 8) () () 0 0 0 ()) (21 'm0' (
REAL 8) () () 0 0 0 ())) PUBLIC ())
3 'varcovinfomode' '' 6 ((VARIABLE IN UNKNOWN UNKNOWN NONE NONE DUMMY) (
INTEGER 4) 0 0 () () () '' () ())
)

('fodislsa' 0 2 's_fodislsa' 0 5)
