G95 module created on Thu Jun 25 17:50:16 2020 from ./.fpp/FODIRDAT.f90
If you edit this, you'll get what you deserve.
module-version 9
(() () () () () () () () () () () () () () () () () () () () ())

()

()

()

()

(2 'fodirdat' 's_fodirdat' 1 ((PROCEDURE UNKNOWN MODULE-PROC DECL NONE
NONE SUBROUTINE) (PROCEDURE 0) 0 0 (3 NONE 4 NONE 5 NONE) () () '' () ())
6 'fodirdat_pltcrdline' 's_fodirdat' 1 ((PROCEDURE UNKNOWN MODULE-PROC
DECL NONE NONE SUBROUTINE INVOKED) (PROCEDURE 0) 0 0 (7 NONE 8 NONE 9
NONE 10 NONE 11 NONE 12 NONE 13 NONE 14 NONE) () () '' () ())
15 's_fodirdat' 's_fodirdat' 1 ((MODULE UNKNOWN UNKNOWN UNKNOWN NONE
NONE) (UNKNOWN) 0 0 () () () '' () ())
14 'varcovinfo' '' 16 ((VARIABLE UNKNOWN UNKNOWN UNKNOWN NONE NONE
DIMENSION OPTIONAL DUMMY) (REAL 8) 0 0 () (1 EXPLICIT (CONSTANT (
INTEGER 4) 0 '1') (CONSTANT (INTEGER 4) 0 '3')) () '' () ())
13 'stddevinfo' '' 16 ((VARIABLE UNKNOWN UNKNOWN UNKNOWN NONE NONE
OPTIONAL DUMMY) (REAL 8) 0 0 () () () '' () ())
12 'mjdrd' '' 16 ((VARIABLE UNKNOWN UNKNOWN UNKNOWN NONE NONE DUMMY) (
REAL 8) 0 0 () () () '' () ())
11 'resrd' '' 16 ((VARIABLE UNKNOWN UNKNOWN UNKNOWN NONE NONE DUMMY) (
REAL 8) 0 0 () () () '' () ())
10 'crdrd' '' 16 ((VARIABLE UNKNOWN UNKNOWN UNKNOWN NONE NONE DUMMY) (
INTEGER 4) 0 0 () () () '' () ())
9 'nmjdrd' '' 16 ((VARIABLE UNKNOWN UNKNOWN UNKNOWN NONE NONE DUMMY) (
INTEGER 4) 0 0 () () () '' () ())
8 'stard' '' 16 ((VARIABLE UNKNOWN UNKNOWN UNKNOWN NONE NONE DUMMY) (
CHARACTER 1 ((CONSTANT (INTEGER 4) 0 '16'))) 0 0 () () () '' () ())
7 'line' '' 16 ((VARIABLE UNKNOWN UNKNOWN UNKNOWN NONE NONE DUMMY) (
CHARACTER 1 ((CONSTANT (INTEGER 4) 0 '255'))) 0 0 () () () '' () ())
5 'part' '' 17 ((VARIABLE IN UNKNOWN UNKNOWN NONE NONE DUMMY) (INTEGER 4)
0 0 () () () '' () ())
4 'score' '' 17 ((VARIABLE UNKNOWN UNKNOWN UNKNOWN NONE NONE DUMMY) (
DERIVED 18) 0 0 () () () '' () ())
18 't_score' 'p_fodits' 17 ((DERIVED UNKNOWN UNKNOWN UNKNOWN NONE NONE)
(UNKNOWN) 0 0 () () () '' ((19 'nsta' (INTEGER 4) () () 0 0 0 ()) (20
'nval' (INTEGER 4) () () 0 0 0 ()) (21 'ntotmjd' (INTEGER 4) () () 0 0 0
()) (22 'begmjd' (REAL 8) () () 0 0 0 ()) (23 'endmjd' (REAL 8) () () 0
0 0 ()) (24 'deltamjd' (REAL 8) () () 0 0 0 ()) (25 'intimrefcrd' (REAL
8) () () 0 0 0 ()) (26 'outtimrefcrd' (REAL 8) () () 0 0 0 ()) (27
'datumname' (CHARACTER 1 ((CONSTANT (INTEGER 4) 0 '16'))) () () 0 0 0 ())
(28 'sta' (DERIVED 29) (1 DEFERRED () ()) () 1 1 0 ()) (30 'mdl' (
DERIVED 31) () () 0 0 0 ()) (32 'lsa' (DERIVED 33) () () 0 0 0 ()) (34
'lsb' (DERIVED 35) () () 0 0 0 ()) (36 'ctr' (DERIVED 37) () () 0 0 0 ())
(38 'san' (DERIVED 39) () () 0 0 0 ()) (40 'ddf' (DERIVED 41) () () 0 0
0 ())) PUBLIC ())
41 't_datumdef' 'p_fodits' 17 ((DERIVED UNKNOWN UNKNOWN UNKNOWN NONE
NONE) (UNKNOWN) 0 0 () () () '' ((42 'mjd' (REAL 8) (1 DEFERRED () ()) ()
1 1 0 ()) (43 'hlmpar' (REAL 8) (2 DEFERRED () () () ()) () 1 1 0 ()) (
44 'rmshlmpar' (REAL 8) (2 DEFERRED () () () ()) () 1 1 0 ()) (45
'rmshlmtra' (REAL 8) (1 DEFERRED () ()) () 1 1 0 ()) (46 'totsta' (
INTEGER 4) (1 DEFERRED () ()) () 1 1 0 ()) (47 'refsta' (INTEGER 4) (1
DEFERRED () ()) () 1 1 0 ()) (48 'rejsta' (INTEGER 4) (1 DEFERRED () ())
() 1 1 0 ()) (49 'hlmparoffst' (REAL 8) (1 EXPLICIT (CONSTANT (INTEGER 4)
0 '1') (CONSTANT (INTEGER 4) 0 '7')) () 1 0 0 ()) (50 'hlmparoffstrms' (
REAL 8) (1 EXPLICIT (CONSTANT (INTEGER 4) 0 '1') (CONSTANT (INTEGER 4) 0
'7')) () 1 0 0 ()) (51 'hlmpardrift' (REAL 8) (1 EXPLICIT (CONSTANT (
INTEGER 4) 0 '1') (CONSTANT (INTEGER 4) 0 '7')) () 1 0 0 ()) (52
'hlmpardriftrms' (REAL 8) (1 EXPLICIT (CONSTANT (INTEGER 4) 0 '1') (
CONSTANT (INTEGER 4) 0 '7')) () 1 0 0 ())) PUBLIC ())
39 't_san' 'p_fodits' 17 ((DERIVED UNKNOWN UNKNOWN UNKNOWN NONE NONE) (
UNKNOWN) 0 0 () () () '' ((53 'nper' (INTEGER 4) () () 0 0 0 ()) (54 'per'
(REAL 8) (1 DEFERRED () ()) () 1 1 0 ())) PUBLIC ())
37 't_ctr' 'p_fodits' 17 ((DERIVED UNKNOWN UNKNOWN UNKNOWN NONE NONE) (
UNKNOWN) 0 0 () () () '' ((55 'niterloop' (INTEGER 4) () () 0 0 0 ()) (
56 'modnumiter' (REAL 8) (1 DEFERRED () ()) () 1 1 0 ()) (57
'modnumiteroutl' (REAL 8) (1 DEFERRED () ()) () 1 1 0 ()) (58 'nscrnloop'
(INTEGER 4) () () 0 0 0 ()) (59 'modnumscrn' (REAL 8) (1 DEFERRED () ())
() 1 1 0 ()) (60 'modnumscrnoutl' (REAL 8) (1 DEFERRED () ()) () 1 1 0 ())
(61 'nremoloop' (INTEGER 4) () () 0 0 0 ())) PUBLIC ())
35 't_lsb' 'p_fodits' 17 ((DERIVED UNKNOWN UNKNOWN UNKNOWN NONE NONE) (
UNKNOWN) 0 0 () () () '' ((62 'prevvtv' (REAL 8) () () 0 0 0 ()) (63 'm0'
(REAL 8) () () 0 0 0 ())) PUBLIC ())
33 't_lsa' 'p_fodits' 17 ((DERIVED UNKNOWN UNKNOWN UNKNOWN NONE NONE) (
UNKNOWN) 0 0 () () () '' ((64 'nnpar' (INTEGER 4) () () 0 0 0 ()) (65
'nnmjd' (INTEGER 4) () () 0 0 0 ()) (66 'a' (REAL 8) (2 DEFERRED () () ()
()) () 1 1 0 ()) (67 'qxx' (REAL 8) (2 DEFERRED () () () ()) () 1 1 0 ())
(68 'y' (REAL 8) (1 DEFERRED () ()) () 1 1 0 ()) (69 'x' (REAL 8) (1
DEFERRED () ()) () 1 1 0 ()) (70 'mod' (REAL 8) (1 DEFERRED () ()) () 1
1 0 ()) (71 'v' (REAL 8) (1 DEFERRED () ()) () 1 1 0 ()) (72 'p' (REAL 8)
(1 DEFERRED () ()) () 1 1 0 ()) (73 'iqyy' (REAL 8) (3 DEFERRED () () ()
() () ()) () 1 1 0 ()) (74 'dof' (INTEGER 4) () () 0 0 0 ()) (75 'detn'
(REAL 8) () () 0 0 0 ()) (76 'vtv' (REAL 8) () () 0 0 0 ()) (77 'm0' (
REAL 8) () () 0 0 0 ())) PUBLIC ())
31 't_mdl' 'p_fodits' 17 ((DERIVED UNKNOWN UNKNOWN UNKNOWN NONE NONE) (
UNKNOWN) 0 0 () () () '' ((78 'evnt' (DERIVED 79) () () 0 0 0 ()) (80
'napri' (INTEGER 4) () () 0 0 0 ()) (81 'apri' (DERIVED 79) (1 DEFERRED
() ()) () 1 1 0 ()) (82 'niden' (INTEGER 4) () () 0 0 0 ()) (83 'iden' (
DERIVED 79) (1 DEFERRED () ()) () 1 1 0 ()) (84 'namod' (INTEGER 4) () ()
0 0 0 ()) (85 'amod' (DERIVED 79) (1 DEFERRED () ()) () 1 1 0 ()) (86
'outlmjd' (REAL 8) (1 DEFERRED () ()) () 1 1 0 ())) PUBLIC ())
79 't_evnt' 'p_fodits' 17 ((DERIVED UNKNOWN UNKNOWN UNKNOWN NONE NONE) (
UNKNOWN) 0 0 () () () '' ((87 'type' (INTEGER 4) () () 0 0 0 ()) (88
'info' (INTEGER 4) () () 0 0 0 ()) (89 'mjd' (REAL 8) () () 0 0 0 ()) (
90 'omega' (REAL 8) () () 0 0 0 ()) (91 'timint' (DERIVED 92) () () 0 0
0 ()) (93 'flag' (INTEGER 4) () () 0 0 0 ()) (94 'remark' (CHARACTER 1 (
(CONSTANT (INTEGER 4) 0 '8'))) () () 0 0 0 ()) (95 'index' (INTEGER 4) ()
() 0 0 0 ()) (96 'cand' (INTEGER 4) () () 0 0 0 ()) (97 'par' (REAL 8) (
1 EXPLICIT (CONSTANT (INTEGER 4) 0 '1') (CONSTANT (INTEGER 4) 0 '3')) ()
1 0 0 ()) (98 'val' (REAL 8) () () 0 0 0 ()) (99 'dval' (REAL 8) () () 0
0 0 ()) (100 'vltst' (REAL 8) () () 0 0 0 ()) (101 'sttst' (REAL 8) () ()
0 0 0 ()) (102 'sitst' (INTEGER 4) () () 0 0 0 ()) (103 'rename' (
CHARACTER 1 ((CONSTANT (INTEGER 4) 0 '2'))) () () 0 0 0 ()) (104 'recchg'
(CHARACTER 1 ((CONSTANT (INTEGER 4) 0 '20'))) (1 EXPLICIT (CONSTANT (
INTEGER 4) 0 '1') (CONSTANT (INTEGER 4) 0 '2')) () 1 0 0 ()) (105 'antchg'
(CHARACTER 1 ((CONSTANT (INTEGER 4) 0 '20'))) (1 EXPLICIT (CONSTANT (
INTEGER 4) 0 '1') (CONSTANT (INTEGER 4) 0 '2')) () 1 0 0 ()) (106 'eccchg'
(REAL 8) (2 EXPLICIT (CONSTANT (INTEGER 4) 0 '1') (CONSTANT (INTEGER 4)
0 '3') (CONSTANT (INTEGER 4) 0 '1') (CONSTANT (INTEGER 4) 0 '2')) () 1 0
0 ()) (107 'mjd2' (REAL 8) () () 0 0 0 ()) (108 'dpar' (REAL 8) (1
EXPLICIT (CONSTANT (INTEGER 4) 0 '1') (CONSTANT (INTEGER 4) 0 '3')) () 1
0 0 ()) (109 'phi' (REAL 8) (1 EXPLICIT (CONSTANT (INTEGER 4) 0 '1') (
CONSTANT (INTEGER 4) 0 '3')) () 1 0 0 ()) (110 'ppar' (REAL 8) (2
EXPLICIT (CONSTANT (INTEGER 4) 0 '1') (CONSTANT (INTEGER 4) 0 '3') (
CONSTANT (INTEGER 4) 0 '1') (CONSTANT (INTEGER 4) 0 '2')) () 1 0 0 ()) (
111 'mod' (REAL 8) (1 EXPLICIT (CONSTANT (INTEGER 4) 0 '1') (CONSTANT (
INTEGER 4) 0 '3')) () 1 0 0 ())) PUBLIC ())
92 't_timint' 'm_time' 17 ((DERIVED UNKNOWN UNKNOWN UNKNOWN NONE NONE) (
UNKNOWN) 0 0 () () () '' ((112 't' (REAL 8) (1 EXPLICIT (CONSTANT (
INTEGER 4) 0 '1') (CONSTANT (INTEGER 4) 0 '2')) () 1 0 0 ())) PUBLIC ())
29 't_score_stat' 'p_fodits' 17 ((DERIVED UNKNOWN UNKNOWN UNKNOWN NONE
NONE) (UNKNOWN) 0 0 () () () '' ((113 'name' (CHARACTER 1 ((CONSTANT (
INTEGER 4) 0 '16'))) () () 0 0 0 ()) (114 'irefsta' (INTEGER 4) () () 0
0 0 ()) (115 'nstasta' (INTEGER 4) () () 0 0 0 ()) (116 'stasta' (
DERIVED 117) (1 DEFERRED () ()) () 1 1 0 ()) (118 'outcrdxyz' (REAL 8) (
1 EXPLICIT (CONSTANT (INTEGER 4) 0 '1') (CONSTANT (INTEGER 4) 0 '3')) ()
1 0 0 ()) (119 'outvelxyz' (REAL 8) (1 EXPLICIT (CONSTANT (INTEGER 4) 0
'1') (CONSTANT (INTEGER 4) 0 '3')) () 1 0 0 ()) (120 'nitersteps' (
INTEGER 4) () () 0 0 0 ()) (121 'modrms' (REAL 8) () () 0 0 0 ()) (122
'singular' (INTEGER 4) () () 0 0 0 ()) (123 'ts' (DERIVED 124) () () 0 0
0 ()) (125 'mod' (DERIVED 126) () () 0 0 0 ()) (127 'upd' (DERIVED 128)
() () 0 0 0 ())) PUBLIC ())
128 't_upd' 'p_fodits' 17 ((DERIVED UNKNOWN UNKNOWN UNKNOWN NONE NONE) (
UNKNOWN) 0 0 () () () '' ((129 'nren' (INTEGER 4) () () 0 0 0 ()) (130
'ren' (DERIVED 131) (1 DEFERRED () ()) () 1 1 0 ()) (132 'stastatusref'
(INTEGER 4) () () 0 0 0 ()) (133 'maxtimeinterv' (REAL 8) () () 0 0 0 ()))
PUBLIC ())
131 't_upd_ren' 'p_fodits' 17 ((DERIVED UNKNOWN UNKNOWN UNKNOWN NONE
NONE) (UNKNOWN) 0 0 () () () '' ((134 'type' (INTEGER 4) () () 0 0 0 ())
(135 'info' (INTEGER 4) () () 0 0 0 ()) (136 'timint' (DERIVED 92) () ()
0 0 0 ()) (137 'rename' (CHARACTER 1 ((CONSTANT (INTEGER 4) 0 '2'))) ()
() 0 0 0 ()) (138 'cnstr' (INTEGER 4) () () 0 0 0 ()) (139 'group' (
INTEGER 4) () () 0 0 0 ()) (140 'grouplength' (REAL 8) () () 0 0 0 ()) (
141 'groupnumdata' (INTEGER 4) () () 0 0 0 ()) (142 'remark' (CHARACTER
1 ((CONSTANT (INTEGER 4) 0 '8'))) () () 0 0 0 ())) PUBLIC ())
126 't_mod' 'p_fodits' 17 ((DERIVED UNKNOWN UNKNOWN UNKNOWN NONE NONE) (
UNKNOWN) 0 0 () () () '' ((143 'nevnt' (INTEGER 4) () () 0 0 0 ()) (144
'evnt' (DERIVED 79) (1 DEFERRED () ()) () 1 1 0 ())) PUBLIC ())
124 't_ts' 'p_fodits' 17 ((DERIVED UNKNOWN UNKNOWN UNKNOWN NONE NONE) (
UNKNOWN) 0 0 () () () '' ((145 'nval' (INTEGER 4) () () 0 0 0 ()) (146
'nmjd' (INTEGER 4) () () 0 0 0 ()) (147 'mjd' (REAL 8) (1 DEFERRED () ())
() 1 1 0 ()) (148 'val' (REAL 8) (2 DEFERRED () () () ()) () 1 1 0 ()) (
149 'dval' (REAL 8) (2 DEFERRED () () () ()) () 1 1 0 ()) (150 'vci' (
REAL 8) (3 DEFERRED () () () () () ()) () 1 1 0 ()) (151 'ddef' (REAL 8)
(2 DEFERRED () () () ()) () 1 1 0 ()) (152 'ddefrej' (INTEGER 4) (1
DEFERRED () ()) () 1 1 0 ())) PUBLIC ())
117 't_stasta' 'p_fodits' 17 ((DERIVED UNKNOWN UNKNOWN UNKNOWN NONE NONE)
(UNKNOWN) 0 0 () () () '' ((153 'rename' (CHARACTER 1 ((CONSTANT (
INTEGER 4) 0 '16'))) () () 0 0 0 ()) (154 'timint' (DERIVED 92) () () 0
0 0 ()) (155 'incrdxyz' (REAL 8) (1 EXPLICIT (CONSTANT (INTEGER 4) 0 '1')
(CONSTANT (INTEGER 4) 0 '3')) () 1 0 0 ()) (156 'incrdneu' (REAL 8) (1
EXPLICIT (CONSTANT (INTEGER 4) 0 '1') (CONSTANT (INTEGER 4) 0 '3')) () 1
0 0 ()) (157 'incrdflg' (CHARACTER 1 ((CONSTANT (INTEGER 4) 0 '1'))) ()
() 0 0 0 ()) (158 'invelxyz' (REAL 8) (1 EXPLICIT (CONSTANT (INTEGER 4)
0 '1') (CONSTANT (INTEGER 4) 0 '3')) () 1 0 0 ()) (159 'invelneu' (REAL
8) (1 EXPLICIT (CONSTANT (INTEGER 4) 0 '1') (CONSTANT (INTEGER 4) 0 '3'))
() 1 0 0 ()) (160 'invelflg' (CHARACTER 1 ((CONSTANT (INTEGER 4) 0 '5')))
() () 0 0 0 ()) (161 'invelplate' (CHARACTER 1 ((CONSTANT (INTEGER 4) 0
'4'))) () () 0 0 0 ())) PUBLIC ())
3 'opt' '' 17 ((VARIABLE UNKNOWN UNKNOWN UNKNOWN NONE NONE DUMMY) (
DERIVED 162) 0 0 () () () '' () ())
162 't_opt' 'p_fodits' 17 ((DERIVED UNKNOWN UNKNOWN UNKNOWN NONE NONE) (
UNKNOWN) 0 0 () () () '' ((163 'rdonlystanames' (INTEGER 4) () () 0 0 0
()) (164 'selinptstype' (INTEGER 4) () () 0 0 0 ()) (165 'inpltfile' (
CHARACTER 1 ((CONSTANT (INTEGER 4) 0 '32'))) () () 0 0 0 ()) (166
'inpltfilevciena' (INTEGER 4) () () 0 0 0 ()) (167 'inpltfilevim0' (
REAL 8) () () 0 0 0 ()) (168 'incrdfile' (CHARACTER 1 ((CONSTANT (
INTEGER 4) 0 '32'))) () () 0 0 0 ()) (169 'invelfile' (CHARACTER 1 ((
CONSTANT (INTEGER 4) 0 '32'))) () () 0 0 0 ()) (170 'ncrds' (INTEGER 4)
() () 0 0 0 ()) (171 'crdfilename' (CHARACTER 1 ((CONSTANT (INTEGER 4) 0
'32'))) (1 DEFERRED () ()) () 1 1 0 ()) (172 'inevlfile' (CHARACTER 1 (
(CONSTANT (INTEGER 4) 0 '32'))) () () 0 0 0 ()) (173 'instafile' (
CHARACTER 1 ((CONSTANT (INTEGER 4) 0 '32'))) () () 0 0 0 ()) (174
'inerqfile' (CHARACTER 1 ((CONSTANT (INTEGER 4) 0 '80'))) () () 0 0 0 ())
(175 'const' (CHARACTER 1 ((CONSTANT (INTEGER 4) 0 '32'))) () () 0 0 0 ())
(176 'datum' (CHARACTER 1 ((CONSTANT (INTEGER 4) 0 '32'))) () () 0 0 0 ())
(177 'gvarerqfacta' (REAL 8) () () 0 0 0 ()) (178 'gvarerqfactb' (REAL 8)
() () 0 0 0 ()) (179 'gvarerqmindist' (REAL 8) () () 0 0 0 ()) (180
'incrdfileaddplt' (INTEGER 4) () () 0 0 0 ()) (181 'invelfileaddplt' (
INTEGER 4) () () 0 0 0 ()) (182 'gvarmaxnriterstep' (INTEGER 4) () () 0
0 0 ()) (183 'gvarmaxnrscrnstep' (INTEGER 4) () () 0 0 0 ()) (184
'modnnewoutl' (INTEGER 4) () () 0 0 0 ()) (185 'modnoutlrms' (REAL 8) ()
() 0 0 0 ()) (186 'outevlfile' (CHARACTER 1 ((CONSTANT (INTEGER 4) 0 '32')))
() () 0 0 0 ()) (187 'outstafileforaddneq2' (CHARACTER 1 ((CONSTANT (
INTEGER 4) 0 '32'))) () () 0 0 0 ()) (188 'outpltfile' (CHARACTER 1 ((
CONSTANT (INTEGER 4) 0 '32'))) () () 0 0 0 ()) (189 'outfileverbose' (
INTEGER 4) () () 0 0 0 ()) (190 'outfileverboset' (INTEGER 4) () () 0 0
0 ()) (191 'outfileverbosett' (INTEGER 4) () () 0 0 0 ()) (192 'title' (
CHARACTER 1 ((CONSTANT (INTEGER 4) 0 '80'))) () () 0 0 0 ()) (193
'intruncstaname' (INTEGER 4) () () 0 0 0 ()) (194 'nstasel' (INTEGER 4)
() () 0 0 0 ()) (195 'instaselection' (CHARACTER 1 ((CONSTANT (INTEGER 4)
0 '16'))) (1 DEFERRED () ()) () 1 1 0 ()) (196 'inminnrobs' (INTEGER 4)
() () 0 0 0 ()) (197 'tstevltst' (INTEGER 4) () () 0 0 0 ()) (198
'tststarenamings' (INTEGER 4) () () 0 0 0 ()) (199 'tstrectypechanges' (
INTEGER 4) () () 0 0 0 ()) (200 'tstrecnumberchanges' (INTEGER 4) () ()
0 0 0 ()) (201 'tstanttypechanges' (INTEGER 4) () () 0 0 0 ()) (202
'tstantnumberchanges' (INTEGER 4) () () 0 0 0 ()) (203 'tsteccchanges' (
INTEGER 4) () () 0 0 0 ()) (204 'modpredattest' (INTEGER 4) () () 0 0 0
()) (205 'minintervforvel' (REAL 8) () () 0 0 0 ()) (206 'modperann' (
INTEGER 4) () () 0 0 0 ()) (207 'modaddena' (INTEGER 4) () () 0 0 0 ())
(208 'naddperparam' (INTEGER 4) () () 0 0 0 ()) (209 'modaddperparam' (
REAL 8) (1 DEFERRED () ()) () 1 1 0 ()) (210 'indatumcrdfile' (
CHARACTER 1 ((CONSTANT (INTEGER 4) 0 '32'))) () () 0 0 0 ()) (211
'indatumvelfile' (CHARACTER 1 ((CONSTANT (INTEGER 4) 0 '32'))) () () 0 0
0 ()) (212 'indatumfixfile' (CHARACTER 1 ((CONSTANT (INTEGER 4) 0 '32')))
() () 0 0 0 ()) (213 'dathlmtx' (INTEGER 4) () () 0 0 0 ()) (214
'dathlmty' (INTEGER 4) () () 0 0 0 ()) (215 'dathlmtz' (INTEGER 4) () ()
0 0 0 ()) (216 'dathlmrx' (INTEGER 4) () () 0 0 0 ()) (217 'dathlmry' (
INTEGER 4) () () 0 0 0 ()) (218 'dathlmrz' (INTEGER 4) () () 0 0 0 ()) (
219 'dathlmsc' (INTEGER 4) () () 0 0 0 ()) (220 'datrejectcrd' (INTEGER
4) () () 0 0 0 ()) (221 'datnlimitcrd' (REAL 8) () () 0 0 0 ()) (222
'datelimitcrd' (REAL 8) () () 0 0 0 ()) (223 'datulimitcrd' (REAL 8) ()
() 0 0 0 ()) (224 'datrejectoutlcrd' (INTEGER 4) () () 0 0 0 ()) (225
'modtestvalue' (REAL 8) () () 0 0 0 ()) (226 'modoutltestvalue' (REAL 8)
() () 0 0 0 ()) (227 'modjumpspac' (REAL 8) () () 0 0 0 ()) (228
'modjumpsing' (REAL 8) () () 0 0 0 ()) (229 'modjumphori' (REAL 8) () ()
0 0 0 ()) (230 'modjumpvert' (REAL 8) () () 0 0 0 ()) (231 'modvelospac'
(REAL 8) () () 0 0 0 ()) (232 'modvelosing' (REAL 8) () () 0 0 0 ()) (
233 'modvelohori' (REAL 8) () () 0 0 0 ()) (234 'modvelovert' (REAL 8) ()
() 0 0 0 ()) (235 'modoutlspac' (REAL 8) () () 0 0 0 ()) (236
'modoutlsing' (REAL 8) () () 0 0 0 ()) (237 'modoutlhori' (REAL 8) () ()
0 0 0 ()) (238 'modoutlvert' (REAL 8) () () 0 0 0 ()) (239 'modperispac'
(REAL 8) () () 0 0 0 ()) (240 'modperising' (REAL 8) () () 0 0 0 ()) (
241 'modperihori' (REAL 8) () () 0 0 0 ()) (242 'modperivert' (REAL 8) ()
() 0 0 0 ()) (243 'modnewjumpidentify' (INTEGER 4) () () 0 0 0 ()) (244
'modnewveloidentify' (INTEGER 4) () () 0 0 0 ()) (245 'modnewoutlidentify'
(INTEGER 4) () () 0 0 0 ()) (246 'modnewperiidentify' (INTEGER 4) () ()
0 0 0 ()) (247 'modaddveloaj' (INTEGER 4) () () 0 0 0 ()) (248 'sannlines'
(INTEGER 4) () () 0 0 0 ()) (249 'sanminperiod' (REAL 8) () () 0 0 0 ())
(250 'sanmaxperiod' (REAL 8) () () 0 0 0 ()) (251 'outtimref' (REAL 8) ()
() 0 0 0 ()) (252 'mintimeintlength' (REAL 8) () () 0 0 0 ()) (253
'minpercdatafix' (REAL 8) () () 0 0 0 ()) (254 'incrdfileforaddneq2' (
CHARACTER 1 ((CONSTANT (INTEGER 4) 0 '32'))) () () 0 0 0 ()) (255
'invelfileforaddneq2' (CHARACTER 1 ((CONSTANT (INTEGER 4) 0 '32'))) () ()
0 0 0 ()) (256 'infixfileforaddneq2' (CHARACTER 1 ((CONSTANT (INTEGER 4)
0 '32'))) () () 0 0 0 ()) (257 'insigfileforaddneq2' (CHARACTER 1 ((
CONSTANT (INTEGER 4) 0 '32'))) () () 0 0 0 ()) (258 'outcrdfileforaddneq2'
(CHARACTER 1 ((CONSTANT (INTEGER 4) 0 '32'))) () () 0 0 0 ()) (259
'outvelfileforaddneq2' (CHARACTER 1 ((CONSTANT (INTEGER 4) 0 '32'))) ()
() 0 0 0 ()) (260 'outfixfileforaddneq2' (CHARACTER 1 ((CONSTANT (
INTEGER 4) 0 '32'))) () () 0 0 0 ()) (261 'outsigfileforaddneq2' (
CHARACTER 1 ((CONSTANT (INTEGER 4) 0 '32'))) () () 0 0 0 ()) (262
'updstandays' (INTEGER 4) () () 0 0 0 ()) (263 'gvarcstrcrd' (REAL 8) ()
() 0 0 0 ()) (264 'gvarcstrvel' (REAL 8) () () 0 0 0 ())) PUBLIC ())
)

('fodirdat' 0 2 'fodirdat_pltcrdline' 0 6 's_fodirdat' 0 15)
