G95 module created on Thu Jun 25 17:50:43 2020 from ./.fpp/FODIVCON.f90
If you edit this, you'll get what you deserve.
module-version 9
(() () () () () () () () () () () () () () () () () () () () ())

()

()

()

()

(2 'fodivcon' 's_fodivcon' 1 ((PROCEDURE UNKNOWN MODULE-PROC DECL NONE
NONE SUBROUTINE) (PROCEDURE 0) 0 0 (3 NONE 4 NONE 5 NONE) () () '' () ())
6 'fodivcon_defstaren' 's_fodivcon' 1 ((PROCEDURE UNKNOWN MODULE-PROC
DECL NONE NONE SUBROUTINE INVOKED) (PROCEDURE 0) 0 0 (7 NONE 8 NONE) ()
() '' () ())
9 's_fodivcon' 's_fodivcon' 1 ((MODULE UNKNOWN UNKNOWN UNKNOWN NONE NONE)
(UNKNOWN) 0 0 () () () '' () ())
8 'defstaren' '' 10 ((VARIABLE UNKNOWN UNKNOWN UNKNOWN NONE NONE DUMMY)
(CHARACTER 1 ((CONSTANT (INTEGER 4) 0 '2'))) 0 0 () () () '' () ())
7 'iiren' '' 10 ((VARIABLE IN UNKNOWN UNKNOWN NONE NONE DUMMY) (INTEGER
4) 0 0 () () () '' () ())
5 'ista' '' 11 ((VARIABLE UNKNOWN UNKNOWN UNKNOWN NONE NONE DUMMY) (
INTEGER 4) 0 0 () () () '' () ())
4 'score' '' 11 ((VARIABLE UNKNOWN UNKNOWN UNKNOWN NONE NONE DUMMY) (
DERIVED 12) 0 0 () () () '' () ())
12 't_score' 'p_fodits' 11 ((DERIVED UNKNOWN UNKNOWN UNKNOWN NONE NONE)
(UNKNOWN) 0 0 () () () '' ((13 'nsta' (INTEGER 4) () () 0 0 0 ()) (14
'nval' (INTEGER 4) () () 0 0 0 ()) (15 'ntotmjd' (INTEGER 4) () () 0 0 0
()) (16 'begmjd' (REAL 8) () () 0 0 0 ()) (17 'endmjd' (REAL 8) () () 0
0 0 ()) (18 'deltamjd' (REAL 8) () () 0 0 0 ()) (19 'intimrefcrd' (REAL
8) () () 0 0 0 ()) (20 'outtimrefcrd' (REAL 8) () () 0 0 0 ()) (21
'datumname' (CHARACTER 1 ((CONSTANT (INTEGER 4) 0 '16'))) () () 0 0 0 ())
(22 'sta' (DERIVED 23) (1 DEFERRED () ()) () 1 1 0 ()) (24 'mdl' (
DERIVED 25) () () 0 0 0 ()) (26 'lsa' (DERIVED 27) () () 0 0 0 ()) (28
'lsb' (DERIVED 29) () () 0 0 0 ()) (30 'ctr' (DERIVED 31) () () 0 0 0 ())
(32 'san' (DERIVED 33) () () 0 0 0 ()) (34 'ddf' (DERIVED 35) () () 0 0
0 ())) PUBLIC ())
35 't_datumdef' 'p_fodits' 11 ((DERIVED UNKNOWN UNKNOWN UNKNOWN NONE
NONE) (UNKNOWN) 0 0 () () () '' ((36 'mjd' (REAL 8) (1 DEFERRED () ()) ()
1 1 0 ()) (37 'hlmpar' (REAL 8) (2 DEFERRED () () () ()) () 1 1 0 ()) (
38 'rmshlmpar' (REAL 8) (2 DEFERRED () () () ()) () 1 1 0 ()) (39
'rmshlmtra' (REAL 8) (1 DEFERRED () ()) () 1 1 0 ()) (40 'totsta' (
INTEGER 4) (1 DEFERRED () ()) () 1 1 0 ()) (41 'refsta' (INTEGER 4) (1
DEFERRED () ()) () 1 1 0 ()) (42 'rejsta' (INTEGER 4) (1 DEFERRED () ())
() 1 1 0 ()) (43 'hlmparoffst' (REAL 8) (1 EXPLICIT (CONSTANT (INTEGER 4)
0 '1') (CONSTANT (INTEGER 4) 0 '7')) () 1 0 0 ()) (44 'hlmparoffstrms' (
REAL 8) (1 EXPLICIT (CONSTANT (INTEGER 4) 0 '1') (CONSTANT (INTEGER 4) 0
'7')) () 1 0 0 ()) (45 'hlmpardrift' (REAL 8) (1 EXPLICIT (CONSTANT (
INTEGER 4) 0 '1') (CONSTANT (INTEGER 4) 0 '7')) () 1 0 0 ()) (46
'hlmpardriftrms' (REAL 8) (1 EXPLICIT (CONSTANT (INTEGER 4) 0 '1') (
CONSTANT (INTEGER 4) 0 '7')) () 1 0 0 ())) PUBLIC ())
33 't_san' 'p_fodits' 11 ((DERIVED UNKNOWN UNKNOWN UNKNOWN NONE NONE) (
UNKNOWN) 0 0 () () () '' ((47 'nper' (INTEGER 4) () () 0 0 0 ()) (48 'per'
(REAL 8) (1 DEFERRED () ()) () 1 1 0 ())) PUBLIC ())
31 't_ctr' 'p_fodits' 11 ((DERIVED UNKNOWN UNKNOWN UNKNOWN NONE NONE) (
UNKNOWN) 0 0 () () () '' ((49 'niterloop' (INTEGER 4) () () 0 0 0 ()) (
50 'modnumiter' (REAL 8) (1 DEFERRED () ()) () 1 1 0 ()) (51
'modnumiteroutl' (REAL 8) (1 DEFERRED () ()) () 1 1 0 ()) (52 'nscrnloop'
(INTEGER 4) () () 0 0 0 ()) (53 'modnumscrn' (REAL 8) (1 DEFERRED () ())
() 1 1 0 ()) (54 'modnumscrnoutl' (REAL 8) (1 DEFERRED () ()) () 1 1 0 ())
(55 'nremoloop' (INTEGER 4) () () 0 0 0 ())) PUBLIC ())
29 't_lsb' 'p_fodits' 11 ((DERIVED UNKNOWN UNKNOWN UNKNOWN NONE NONE) (
UNKNOWN) 0 0 () () () '' ((56 'prevvtv' (REAL 8) () () 0 0 0 ()) (57 'm0'
(REAL 8) () () 0 0 0 ())) PUBLIC ())
27 't_lsa' 'p_fodits' 11 ((DERIVED UNKNOWN UNKNOWN UNKNOWN NONE NONE) (
UNKNOWN) 0 0 () () () '' ((58 'nnpar' (INTEGER 4) () () 0 0 0 ()) (59
'nnmjd' (INTEGER 4) () () 0 0 0 ()) (60 'a' (REAL 8) (2 DEFERRED () () ()
()) () 1 1 0 ()) (61 'qxx' (REAL 8) (2 DEFERRED () () () ()) () 1 1 0 ())
(62 'y' (REAL 8) (1 DEFERRED () ()) () 1 1 0 ()) (63 'x' (REAL 8) (1
DEFERRED () ()) () 1 1 0 ()) (64 'mod' (REAL 8) (1 DEFERRED () ()) () 1
1 0 ()) (65 'v' (REAL 8) (1 DEFERRED () ()) () 1 1 0 ()) (66 'p' (REAL 8)
(1 DEFERRED () ()) () 1 1 0 ()) (67 'iqyy' (REAL 8) (3 DEFERRED () () ()
() () ()) () 1 1 0 ()) (68 'dof' (INTEGER 4) () () 0 0 0 ()) (69 'detn'
(REAL 8) () () 0 0 0 ()) (70 'vtv' (REAL 8) () () 0 0 0 ()) (71 'm0' (
REAL 8) () () 0 0 0 ())) PUBLIC ())
25 't_mdl' 'p_fodits' 11 ((DERIVED UNKNOWN UNKNOWN UNKNOWN NONE NONE) (
UNKNOWN) 0 0 () () () '' ((72 'evnt' (DERIVED 73) () () 0 0 0 ()) (74
'napri' (INTEGER 4) () () 0 0 0 ()) (75 'apri' (DERIVED 73) (1 DEFERRED
() ()) () 1 1 0 ()) (76 'niden' (INTEGER 4) () () 0 0 0 ()) (77 'iden' (
DERIVED 73) (1 DEFERRED () ()) () 1 1 0 ()) (78 'namod' (INTEGER 4) () ()
0 0 0 ()) (79 'amod' (DERIVED 73) (1 DEFERRED () ()) () 1 1 0 ()) (80
'outlmjd' (REAL 8) (1 DEFERRED () ()) () 1 1 0 ())) PUBLIC ())
73 't_evnt' 'p_fodits' 11 ((DERIVED UNKNOWN UNKNOWN UNKNOWN NONE NONE) (
UNKNOWN) 0 0 () () () '' ((81 'type' (INTEGER 4) () () 0 0 0 ()) (82
'info' (INTEGER 4) () () 0 0 0 ()) (83 'mjd' (REAL 8) () () 0 0 0 ()) (
84 'omega' (REAL 8) () () 0 0 0 ()) (85 'timint' (DERIVED 86) () () 0 0
0 ()) (87 'flag' (INTEGER 4) () () 0 0 0 ()) (88 'remark' (CHARACTER 1 (
(CONSTANT (INTEGER 4) 0 '8'))) () () 0 0 0 ()) (89 'index' (INTEGER 4) ()
() 0 0 0 ()) (90 'cand' (INTEGER 4) () () 0 0 0 ()) (91 'par' (REAL 8) (
1 EXPLICIT (CONSTANT (INTEGER 4) 0 '1') (CONSTANT (INTEGER 4) 0 '3')) ()
1 0 0 ()) (92 'val' (REAL 8) () () 0 0 0 ()) (93 'dval' (REAL 8) () () 0
0 0 ()) (94 'vltst' (REAL 8) () () 0 0 0 ()) (95 'sttst' (REAL 8) () ()
0 0 0 ()) (96 'sitst' (INTEGER 4) () () 0 0 0 ()) (97 'rename' (
CHARACTER 1 ((CONSTANT (INTEGER 4) 0 '2'))) () () 0 0 0 ()) (98 'recchg'
(CHARACTER 1 ((CONSTANT (INTEGER 4) 0 '20'))) (1 EXPLICIT (CONSTANT (
INTEGER 4) 0 '1') (CONSTANT (INTEGER 4) 0 '2')) () 1 0 0 ()) (99 'antchg'
(CHARACTER 1 ((CONSTANT (INTEGER 4) 0 '20'))) (1 EXPLICIT (CONSTANT (
INTEGER 4) 0 '1') (CONSTANT (INTEGER 4) 0 '2')) () 1 0 0 ()) (100 'eccchg'
(REAL 8) (2 EXPLICIT (CONSTANT (INTEGER 4) 0 '1') (CONSTANT (INTEGER 4)
0 '3') (CONSTANT (INTEGER 4) 0 '1') (CONSTANT (INTEGER 4) 0 '2')) () 1 0
0 ()) (101 'mjd2' (REAL 8) () () 0 0 0 ()) (102 'dpar' (REAL 8) (1
EXPLICIT (CONSTANT (INTEGER 4) 0 '1') (CONSTANT (INTEGER 4) 0 '3')) () 1
0 0 ()) (103 'phi' (REAL 8) (1 EXPLICIT (CONSTANT (INTEGER 4) 0 '1') (
CONSTANT (INTEGER 4) 0 '3')) () 1 0 0 ()) (104 'ppar' (REAL 8) (2
EXPLICIT (CONSTANT (INTEGER 4) 0 '1') (CONSTANT (INTEGER 4) 0 '3') (
CONSTANT (INTEGER 4) 0 '1') (CONSTANT (INTEGER 4) 0 '2')) () 1 0 0 ()) (
105 'mod' (REAL 8) (1 EXPLICIT (CONSTANT (INTEGER 4) 0 '1') (CONSTANT (
INTEGER 4) 0 '3')) () 1 0 0 ())) PUBLIC ())
86 't_timint' 'm_time' 11 ((DERIVED UNKNOWN UNKNOWN UNKNOWN NONE NONE) (
UNKNOWN) 0 0 () () () '' ((106 't' (REAL 8) (1 EXPLICIT (CONSTANT (
INTEGER 4) 0 '1') (CONSTANT (INTEGER 4) 0 '2')) () 1 0 0 ())) PUBLIC ())
23 't_score_stat' 'p_fodits' 11 ((DERIVED UNKNOWN UNKNOWN UNKNOWN NONE
NONE) (UNKNOWN) 0 0 () () () '' ((107 'name' (CHARACTER 1 ((CONSTANT (
INTEGER 4) 0 '16'))) () () 0 0 0 ()) (108 'irefsta' (INTEGER 4) () () 0
0 0 ()) (109 'nstasta' (INTEGER 4) () () 0 0 0 ()) (110 'stasta' (
DERIVED 111) (1 DEFERRED () ()) () 1 1 0 ()) (112 'outcrdxyz' (REAL 8) (
1 EXPLICIT (CONSTANT (INTEGER 4) 0 '1') (CONSTANT (INTEGER 4) 0 '3')) ()
1 0 0 ()) (113 'outvelxyz' (REAL 8) (1 EXPLICIT (CONSTANT (INTEGER 4) 0
'1') (CONSTANT (INTEGER 4) 0 '3')) () 1 0 0 ()) (114 'nitersteps' (
INTEGER 4) () () 0 0 0 ()) (115 'modrms' (REAL 8) () () 0 0 0 ()) (116
'singular' (INTEGER 4) () () 0 0 0 ()) (117 'ts' (DERIVED 118) () () 0 0
0 ()) (119 'mod' (DERIVED 120) () () 0 0 0 ()) (121 'upd' (DERIVED 122)
() () 0 0 0 ())) PUBLIC ())
122 't_upd' 'p_fodits' 11 ((DERIVED UNKNOWN UNKNOWN UNKNOWN NONE NONE) (
UNKNOWN) 0 0 () () () '' ((123 'nren' (INTEGER 4) () () 0 0 0 ()) (124
'ren' (DERIVED 125) (1 DEFERRED () ()) () 1 1 0 ()) (126 'stastatusref'
(INTEGER 4) () () 0 0 0 ()) (127 'maxtimeinterv' (REAL 8) () () 0 0 0 ()))
PUBLIC ())
125 't_upd_ren' 'p_fodits' 11 ((DERIVED UNKNOWN UNKNOWN UNKNOWN NONE
NONE) (UNKNOWN) 0 0 () () () '' ((128 'type' (INTEGER 4) () () 0 0 0 ())
(129 'info' (INTEGER 4) () () 0 0 0 ()) (130 'timint' (DERIVED 86) () ()
0 0 0 ()) (131 'rename' (CHARACTER 1 ((CONSTANT (INTEGER 4) 0 '2'))) ()
() 0 0 0 ()) (132 'cnstr' (INTEGER 4) () () 0 0 0 ()) (133 'group' (
INTEGER 4) () () 0 0 0 ()) (134 'grouplength' (REAL 8) () () 0 0 0 ()) (
135 'groupnumdata' (INTEGER 4) () () 0 0 0 ()) (136 'remark' (CHARACTER
1 ((CONSTANT (INTEGER 4) 0 '8'))) () () 0 0 0 ())) PUBLIC ())
120 't_mod' 'p_fodits' 11 ((DERIVED UNKNOWN UNKNOWN UNKNOWN NONE NONE) (
UNKNOWN) 0 0 () () () '' ((137 'nevnt' (INTEGER 4) () () 0 0 0 ()) (138
'evnt' (DERIVED 73) (1 DEFERRED () ()) () 1 1 0 ())) PUBLIC ())
118 't_ts' 'p_fodits' 11 ((DERIVED UNKNOWN UNKNOWN UNKNOWN NONE NONE) (
UNKNOWN) 0 0 () () () '' ((139 'nval' (INTEGER 4) () () 0 0 0 ()) (140
'nmjd' (INTEGER 4) () () 0 0 0 ()) (141 'mjd' (REAL 8) (1 DEFERRED () ())
() 1 1 0 ()) (142 'val' (REAL 8) (2 DEFERRED () () () ()) () 1 1 0 ()) (
143 'dval' (REAL 8) (2 DEFERRED () () () ()) () 1 1 0 ()) (144 'vci' (
REAL 8) (3 DEFERRED () () () () () ()) () 1 1 0 ()) (145 'ddef' (REAL 8)
(2 DEFERRED () () () ()) () 1 1 0 ()) (146 'ddefrej' (INTEGER 4) (1
DEFERRED () ()) () 1 1 0 ())) PUBLIC ())
111 't_stasta' 'p_fodits' 11 ((DERIVED UNKNOWN UNKNOWN UNKNOWN NONE NONE)
(UNKNOWN) 0 0 () () () '' ((147 'rename' (CHARACTER 1 ((CONSTANT (
INTEGER 4) 0 '16'))) () () 0 0 0 ()) (148 'timint' (DERIVED 86) () () 0
0 0 ()) (149 'incrdxyz' (REAL 8) (1 EXPLICIT (CONSTANT (INTEGER 4) 0 '1')
(CONSTANT (INTEGER 4) 0 '3')) () 1 0 0 ()) (150 'incrdneu' (REAL 8) (1
EXPLICIT (CONSTANT (INTEGER 4) 0 '1') (CONSTANT (INTEGER 4) 0 '3')) () 1
0 0 ()) (151 'incrdflg' (CHARACTER 1 ((CONSTANT (INTEGER 4) 0 '1'))) ()
() 0 0 0 ()) (152 'invelxyz' (REAL 8) (1 EXPLICIT (CONSTANT (INTEGER 4)
0 '1') (CONSTANT (INTEGER 4) 0 '3')) () 1 0 0 ()) (153 'invelneu' (REAL
8) (1 EXPLICIT (CONSTANT (INTEGER 4) 0 '1') (CONSTANT (INTEGER 4) 0 '3'))
() 1 0 0 ()) (154 'invelflg' (CHARACTER 1 ((CONSTANT (INTEGER 4) 0 '5')))
() () 0 0 0 ()) (155 'invelplate' (CHARACTER 1 ((CONSTANT (INTEGER 4) 0
'4'))) () () 0 0 0 ())) PUBLIC ())
3 'opt' '' 11 ((VARIABLE UNKNOWN UNKNOWN UNKNOWN NONE NONE DUMMY) (
DERIVED 156) 0 0 () () () '' () ())
156 't_opt' 'p_fodits' 11 ((DERIVED UNKNOWN UNKNOWN UNKNOWN NONE NONE) (
UNKNOWN) 0 0 () () () '' ((157 'rdonlystanames' (INTEGER 4) () () 0 0 0
()) (158 'selinptstype' (INTEGER 4) () () 0 0 0 ()) (159 'inpltfile' (
CHARACTER 1 ((CONSTANT (INTEGER 4) 0 '32'))) () () 0 0 0 ()) (160
'inpltfilevciena' (INTEGER 4) () () 0 0 0 ()) (161 'inpltfilevim0' (
REAL 8) () () 0 0 0 ()) (162 'incrdfile' (CHARACTER 1 ((CONSTANT (
INTEGER 4) 0 '32'))) () () 0 0 0 ()) (163 'invelfile' (CHARACTER 1 ((
CONSTANT (INTEGER 4) 0 '32'))) () () 0 0 0 ()) (164 'ncrds' (INTEGER 4)
() () 0 0 0 ()) (165 'crdfilename' (CHARACTER 1 ((CONSTANT (INTEGER 4) 0
'32'))) (1 DEFERRED () ()) () 1 1 0 ()) (166 'inevlfile' (CHARACTER 1 (
(CONSTANT (INTEGER 4) 0 '32'))) () () 0 0 0 ()) (167 'instafile' (
CHARACTER 1 ((CONSTANT (INTEGER 4) 0 '32'))) () () 0 0 0 ()) (168
'inerqfile' (CHARACTER 1 ((CONSTANT (INTEGER 4) 0 '80'))) () () 0 0 0 ())
(169 'const' (CHARACTER 1 ((CONSTANT (INTEGER 4) 0 '32'))) () () 0 0 0 ())
(170 'datum' (CHARACTER 1 ((CONSTANT (INTEGER 4) 0 '32'))) () () 0 0 0 ())
(171 'gvarerqfacta' (REAL 8) () () 0 0 0 ()) (172 'gvarerqfactb' (REAL 8)
() () 0 0 0 ()) (173 'gvarerqmindist' (REAL 8) () () 0 0 0 ()) (174
'incrdfileaddplt' (INTEGER 4) () () 0 0 0 ()) (175 'invelfileaddplt' (
INTEGER 4) () () 0 0 0 ()) (176 'gvarmaxnriterstep' (INTEGER 4) () () 0
0 0 ()) (177 'gvarmaxnrscrnstep' (INTEGER 4) () () 0 0 0 ()) (178
'modnnewoutl' (INTEGER 4) () () 0 0 0 ()) (179 'modnoutlrms' (REAL 8) ()
() 0 0 0 ()) (180 'outevlfile' (CHARACTER 1 ((CONSTANT (INTEGER 4) 0 '32')))
() () 0 0 0 ()) (181 'outstafileforaddneq2' (CHARACTER 1 ((CONSTANT (
INTEGER 4) 0 '32'))) () () 0 0 0 ()) (182 'outpltfile' (CHARACTER 1 ((
CONSTANT (INTEGER 4) 0 '32'))) () () 0 0 0 ()) (183 'outfileverbose' (
INTEGER 4) () () 0 0 0 ()) (184 'outfileverboset' (INTEGER 4) () () 0 0
0 ()) (185 'outfileverbosett' (INTEGER 4) () () 0 0 0 ()) (186 'title' (
CHARACTER 1 ((CONSTANT (INTEGER 4) 0 '80'))) () () 0 0 0 ()) (187
'intruncstaname' (INTEGER 4) () () 0 0 0 ()) (188 'nstasel' (INTEGER 4)
() () 0 0 0 ()) (189 'instaselection' (CHARACTER 1 ((CONSTANT (INTEGER 4)
0 '16'))) (1 DEFERRED () ()) () 1 1 0 ()) (190 'inminnrobs' (INTEGER 4)
() () 0 0 0 ()) (191 'tstevltst' (INTEGER 4) () () 0 0 0 ()) (192
'tststarenamings' (INTEGER 4) () () 0 0 0 ()) (193 'tstrectypechanges' (
INTEGER 4) () () 0 0 0 ()) (194 'tstrecnumberchanges' (INTEGER 4) () ()
0 0 0 ()) (195 'tstanttypechanges' (INTEGER 4) () () 0 0 0 ()) (196
'tstantnumberchanges' (INTEGER 4) () () 0 0 0 ()) (197 'tsteccchanges' (
INTEGER 4) () () 0 0 0 ()) (198 'modpredattest' (INTEGER 4) () () 0 0 0
()) (199 'minintervforvel' (REAL 8) () () 0 0 0 ()) (200 'modperann' (
INTEGER 4) () () 0 0 0 ()) (201 'modaddena' (INTEGER 4) () () 0 0 0 ())
(202 'naddperparam' (INTEGER 4) () () 0 0 0 ()) (203 'modaddperparam' (
REAL 8) (1 DEFERRED () ()) () 1 1 0 ()) (204 'indatumcrdfile' (
CHARACTER 1 ((CONSTANT (INTEGER 4) 0 '32'))) () () 0 0 0 ()) (205
'indatumvelfile' (CHARACTER 1 ((CONSTANT (INTEGER 4) 0 '32'))) () () 0 0
0 ()) (206 'indatumfixfile' (CHARACTER 1 ((CONSTANT (INTEGER 4) 0 '32')))
() () 0 0 0 ()) (207 'dathlmtx' (INTEGER 4) () () 0 0 0 ()) (208
'dathlmty' (INTEGER 4) () () 0 0 0 ()) (209 'dathlmtz' (INTEGER 4) () ()
0 0 0 ()) (210 'dathlmrx' (INTEGER 4) () () 0 0 0 ()) (211 'dathlmry' (
INTEGER 4) () () 0 0 0 ()) (212 'dathlmrz' (INTEGER 4) () () 0 0 0 ()) (
213 'dathlmsc' (INTEGER 4) () () 0 0 0 ()) (214 'datrejectcrd' (INTEGER
4) () () 0 0 0 ()) (215 'datnlimitcrd' (REAL 8) () () 0 0 0 ()) (216
'datelimitcrd' (REAL 8) () () 0 0 0 ()) (217 'datulimitcrd' (REAL 8) ()
() 0 0 0 ()) (218 'datrejectoutlcrd' (INTEGER 4) () () 0 0 0 ()) (219
'modtestvalue' (REAL 8) () () 0 0 0 ()) (220 'modoutltestvalue' (REAL 8)
() () 0 0 0 ()) (221 'modjumpspac' (REAL 8) () () 0 0 0 ()) (222
'modjumpsing' (REAL 8) () () 0 0 0 ()) (223 'modjumphori' (REAL 8) () ()
0 0 0 ()) (224 'modjumpvert' (REAL 8) () () 0 0 0 ()) (225 'modvelospac'
(REAL 8) () () 0 0 0 ()) (226 'modvelosing' (REAL 8) () () 0 0 0 ()) (
227 'modvelohori' (REAL 8) () () 0 0 0 ()) (228 'modvelovert' (REAL 8) ()
() 0 0 0 ()) (229 'modoutlspac' (REAL 8) () () 0 0 0 ()) (230
'modoutlsing' (REAL 8) () () 0 0 0 ()) (231 'modoutlhori' (REAL 8) () ()
0 0 0 ()) (232 'modoutlvert' (REAL 8) () () 0 0 0 ()) (233 'modperispac'
(REAL 8) () () 0 0 0 ()) (234 'modperising' (REAL 8) () () 0 0 0 ()) (
235 'modperihori' (REAL 8) () () 0 0 0 ()) (236 'modperivert' (REAL 8) ()
() 0 0 0 ()) (237 'modnewjumpidentify' (INTEGER 4) () () 0 0 0 ()) (238
'modnewveloidentify' (INTEGER 4) () () 0 0 0 ()) (239 'modnewoutlidentify'
(INTEGER 4) () () 0 0 0 ()) (240 'modnewperiidentify' (INTEGER 4) () ()
0 0 0 ()) (241 'modaddveloaj' (INTEGER 4) () () 0 0 0 ()) (242 'sannlines'
(INTEGER 4) () () 0 0 0 ()) (243 'sanminperiod' (REAL 8) () () 0 0 0 ())
(244 'sanmaxperiod' (REAL 8) () () 0 0 0 ()) (245 'outtimref' (REAL 8) ()
() 0 0 0 ()) (246 'mintimeintlength' (REAL 8) () () 0 0 0 ()) (247
'minpercdatafix' (REAL 8) () () 0 0 0 ()) (248 'incrdfileforaddneq2' (
CHARACTER 1 ((CONSTANT (INTEGER 4) 0 '32'))) () () 0 0 0 ()) (249
'invelfileforaddneq2' (CHARACTER 1 ((CONSTANT (INTEGER 4) 0 '32'))) () ()
0 0 0 ()) (250 'infixfileforaddneq2' (CHARACTER 1 ((CONSTANT (INTEGER 4)
0 '32'))) () () 0 0 0 ()) (251 'insigfileforaddneq2' (CHARACTER 1 ((
CONSTANT (INTEGER 4) 0 '32'))) () () 0 0 0 ()) (252 'outcrdfileforaddneq2'
(CHARACTER 1 ((CONSTANT (INTEGER 4) 0 '32'))) () () 0 0 0 ()) (253
'outvelfileforaddneq2' (CHARACTER 1 ((CONSTANT (INTEGER 4) 0 '32'))) ()
() 0 0 0 ()) (254 'outfixfileforaddneq2' (CHARACTER 1 ((CONSTANT (
INTEGER 4) 0 '32'))) () () 0 0 0 ()) (255 'outsigfileforaddneq2' (
CHARACTER 1 ((CONSTANT (INTEGER 4) 0 '32'))) () () 0 0 0 ()) (256
'updstandays' (INTEGER 4) () () 0 0 0 ()) (257 'gvarcstrcrd' (REAL 8) ()
() 0 0 0 ()) (258 'gvarcstrvel' (REAL 8) () () 0 0 0 ())) PUBLIC ())
)

('fodivcon' 0 2 'fodivcon_defstaren' 0 6 's_fodivcon' 0 9)
