G95 module created on Thu Jun 25 17:51:10 2020 from ./.fpp/FODIRERQ.f90
If you edit this, you'll get what you deserve.
module-version 9
(() () () () () () () () () () () () () () () () () () () () ())

()

()

()

()

(2 'fodirerq' 's_fodirerq' 1 ((PROCEDURE UNKNOWN MODULE-PROC DECL NONE
NONE SUBROUTINE) (PROCEDURE 0) 0 0 (3 NONE 4 NONE 5 NONE) () () '' () ())
6 's_fodirerq' 's_fodirerq' 1 ((MODULE UNKNOWN UNKNOWN UNKNOWN NONE NONE)
(UNKNOWN) 0 0 () () () '' () ())
5 'score' '' 7 ((VARIABLE UNKNOWN UNKNOWN UNKNOWN NONE NONE DUMMY) (
DERIVED 8) 0 0 () () () '' () ())
8 't_score' 'p_fodits' 7 ((DERIVED UNKNOWN UNKNOWN UNKNOWN NONE NONE) (
UNKNOWN) 0 0 () () () '' ((9 'nsta' (INTEGER 4) () () 0 0 0 ()) (10 'nval'
(INTEGER 4) () () 0 0 0 ()) (11 'ntotmjd' (INTEGER 4) () () 0 0 0 ()) (
12 'begmjd' (REAL 8) () () 0 0 0 ()) (13 'endmjd' (REAL 8) () () 0 0 0 ())
(14 'deltamjd' (REAL 8) () () 0 0 0 ()) (15 'intimrefcrd' (REAL 8) () ()
0 0 0 ()) (16 'outtimrefcrd' (REAL 8) () () 0 0 0 ()) (17 'datumname' (
CHARACTER 1 ((CONSTANT (INTEGER 4) 0 '16'))) () () 0 0 0 ()) (18 'sta' (
DERIVED 19) (1 DEFERRED () ()) () 1 1 0 ()) (20 'mdl' (DERIVED 21) () ()
0 0 0 ()) (22 'lsa' (DERIVED 23) () () 0 0 0 ()) (24 'lsb' (DERIVED 25)
() () 0 0 0 ()) (26 'ctr' (DERIVED 27) () () 0 0 0 ()) (28 'san' (
DERIVED 29) () () 0 0 0 ()) (30 'ddf' (DERIVED 31) () () 0 0 0 ()))
PUBLIC ())
31 't_datumdef' 'p_fodits' 7 ((DERIVED UNKNOWN UNKNOWN UNKNOWN NONE NONE)
(UNKNOWN) 0 0 () () () '' ((32 'mjd' (REAL 8) (1 DEFERRED () ()) () 1 1
0 ()) (33 'hlmpar' (REAL 8) (2 DEFERRED () () () ()) () 1 1 0 ()) (34
'rmshlmpar' (REAL 8) (2 DEFERRED () () () ()) () 1 1 0 ()) (35 'rmshlmtra'
(REAL 8) (1 DEFERRED () ()) () 1 1 0 ()) (36 'totsta' (INTEGER 4) (1
DEFERRED () ()) () 1 1 0 ()) (37 'refsta' (INTEGER 4) (1 DEFERRED () ())
() 1 1 0 ()) (38 'rejsta' (INTEGER 4) (1 DEFERRED () ()) () 1 1 0 ()) (
39 'hlmparoffst' (REAL 8) (1 EXPLICIT (CONSTANT (INTEGER 4) 0 '1') (
CONSTANT (INTEGER 4) 0 '7')) () 1 0 0 ()) (40 'hlmparoffstrms' (REAL 8)
(1 EXPLICIT (CONSTANT (INTEGER 4) 0 '1') (CONSTANT (INTEGER 4) 0 '7')) ()
1 0 0 ()) (41 'hlmpardrift' (REAL 8) (1 EXPLICIT (CONSTANT (INTEGER 4) 0
'1') (CONSTANT (INTEGER 4) 0 '7')) () 1 0 0 ()) (42 'hlmpardriftrms' (
REAL 8) (1 EXPLICIT (CONSTANT (INTEGER 4) 0 '1') (CONSTANT (INTEGER 4) 0
'7')) () 1 0 0 ())) PUBLIC ())
29 't_san' 'p_fodits' 7 ((DERIVED UNKNOWN UNKNOWN UNKNOWN NONE NONE) (
UNKNOWN) 0 0 () () () '' ((43 'nper' (INTEGER 4) () () 0 0 0 ()) (44 'per'
(REAL 8) (1 DEFERRED () ()) () 1 1 0 ())) PUBLIC ())
27 't_ctr' 'p_fodits' 7 ((DERIVED UNKNOWN UNKNOWN UNKNOWN NONE NONE) (
UNKNOWN) 0 0 () () () '' ((45 'niterloop' (INTEGER 4) () () 0 0 0 ()) (
46 'modnumiter' (REAL 8) (1 DEFERRED () ()) () 1 1 0 ()) (47
'modnumiteroutl' (REAL 8) (1 DEFERRED () ()) () 1 1 0 ()) (48 'nscrnloop'
(INTEGER 4) () () 0 0 0 ()) (49 'modnumscrn' (REAL 8) (1 DEFERRED () ())
() 1 1 0 ()) (50 'modnumscrnoutl' (REAL 8) (1 DEFERRED () ()) () 1 1 0 ())
(51 'nremoloop' (INTEGER 4) () () 0 0 0 ())) PUBLIC ())
25 't_lsb' 'p_fodits' 7 ((DERIVED UNKNOWN UNKNOWN UNKNOWN NONE NONE) (
UNKNOWN) 0 0 () () () '' ((52 'prevvtv' (REAL 8) () () 0 0 0 ()) (53 'm0'
(REAL 8) () () 0 0 0 ())) PUBLIC ())
23 't_lsa' 'p_fodits' 7 ((DERIVED UNKNOWN UNKNOWN UNKNOWN NONE NONE) (
UNKNOWN) 0 0 () () () '' ((54 'nnpar' (INTEGER 4) () () 0 0 0 ()) (55
'nnmjd' (INTEGER 4) () () 0 0 0 ()) (56 'a' (REAL 8) (2 DEFERRED () () ()
()) () 1 1 0 ()) (57 'qxx' (REAL 8) (2 DEFERRED () () () ()) () 1 1 0 ())
(58 'y' (REAL 8) (1 DEFERRED () ()) () 1 1 0 ()) (59 'x' (REAL 8) (1
DEFERRED () ()) () 1 1 0 ()) (60 'mod' (REAL 8) (1 DEFERRED () ()) () 1
1 0 ()) (61 'v' (REAL 8) (1 DEFERRED () ()) () 1 1 0 ()) (62 'p' (REAL 8)
(1 DEFERRED () ()) () 1 1 0 ()) (63 'iqyy' (REAL 8) (3 DEFERRED () () ()
() () ()) () 1 1 0 ()) (64 'dof' (INTEGER 4) () () 0 0 0 ()) (65 'detn'
(REAL 8) () () 0 0 0 ()) (66 'vtv' (REAL 8) () () 0 0 0 ()) (67 'm0' (
REAL 8) () () 0 0 0 ())) PUBLIC ())
21 't_mdl' 'p_fodits' 7 ((DERIVED UNKNOWN UNKNOWN UNKNOWN NONE NONE) (
UNKNOWN) 0 0 () () () '' ((68 'evnt' (DERIVED 69) () () 0 0 0 ()) (70
'napri' (INTEGER 4) () () 0 0 0 ()) (71 'apri' (DERIVED 69) (1 DEFERRED
() ()) () 1 1 0 ()) (72 'niden' (INTEGER 4) () () 0 0 0 ()) (73 'iden' (
DERIVED 69) (1 DEFERRED () ()) () 1 1 0 ()) (74 'namod' (INTEGER 4) () ()
0 0 0 ()) (75 'amod' (DERIVED 69) (1 DEFERRED () ()) () 1 1 0 ()) (76
'outlmjd' (REAL 8) (1 DEFERRED () ()) () 1 1 0 ())) PUBLIC ())
69 't_evnt' 'p_fodits' 7 ((DERIVED UNKNOWN UNKNOWN UNKNOWN NONE NONE) (
UNKNOWN) 0 0 () () () '' ((77 'type' (INTEGER 4) () () 0 0 0 ()) (78
'info' (INTEGER 4) () () 0 0 0 ()) (79 'mjd' (REAL 8) () () 0 0 0 ()) (
80 'omega' (REAL 8) () () 0 0 0 ()) (81 'timint' (DERIVED 82) () () 0 0
0 ()) (83 'flag' (INTEGER 4) () () 0 0 0 ()) (84 'remark' (CHARACTER 1 (
(CONSTANT (INTEGER 4) 0 '8'))) () () 0 0 0 ()) (85 'index' (INTEGER 4) ()
() 0 0 0 ()) (86 'cand' (INTEGER 4) () () 0 0 0 ()) (87 'par' (REAL 8) (
1 EXPLICIT (CONSTANT (INTEGER 4) 0 '1') (CONSTANT (INTEGER 4) 0 '3')) ()
1 0 0 ()) (88 'val' (REAL 8) () () 0 0 0 ()) (89 'dval' (REAL 8) () () 0
0 0 ()) (90 'vltst' (REAL 8) () () 0 0 0 ()) (91 'sttst' (REAL 8) () ()
0 0 0 ()) (92 'sitst' (INTEGER 4) () () 0 0 0 ()) (93 'rename' (
CHARACTER 1 ((CONSTANT (INTEGER 4) 0 '2'))) () () 0 0 0 ()) (94 'recchg'
(CHARACTER 1 ((CONSTANT (INTEGER 4) 0 '20'))) (1 EXPLICIT (CONSTANT (
INTEGER 4) 0 '1') (CONSTANT (INTEGER 4) 0 '2')) () 1 0 0 ()) (95 'antchg'
(CHARACTER 1 ((CONSTANT (INTEGER 4) 0 '20'))) (1 EXPLICIT (CONSTANT (
INTEGER 4) 0 '1') (CONSTANT (INTEGER 4) 0 '2')) () 1 0 0 ()) (96 'eccchg'
(REAL 8) (2 EXPLICIT (CONSTANT (INTEGER 4) 0 '1') (CONSTANT (INTEGER 4)
0 '3') (CONSTANT (INTEGER 4) 0 '1') (CONSTANT (INTEGER 4) 0 '2')) () 1 0
0 ()) (97 'mjd2' (REAL 8) () () 0 0 0 ()) (98 'dpar' (REAL 8) (1
EXPLICIT (CONSTANT (INTEGER 4) 0 '1') (CONSTANT (INTEGER 4) 0 '3')) () 1
0 0 ()) (99 'phi' (REAL 8) (1 EXPLICIT (CONSTANT (INTEGER 4) 0 '1') (
CONSTANT (INTEGER 4) 0 '3')) () 1 0 0 ()) (100 'ppar' (REAL 8) (2
EXPLICIT (CONSTANT (INTEGER 4) 0 '1') (CONSTANT (INTEGER 4) 0 '3') (
CONSTANT (INTEGER 4) 0 '1') (CONSTANT (INTEGER 4) 0 '2')) () 1 0 0 ()) (
101 'mod' (REAL 8) (1 EXPLICIT (CONSTANT (INTEGER 4) 0 '1') (CONSTANT (
INTEGER 4) 0 '3')) () 1 0 0 ())) PUBLIC ())
82 't_timint' 'm_time' 7 ((DERIVED UNKNOWN UNKNOWN UNKNOWN NONE NONE) (
UNKNOWN) 0 0 () () () '' ((102 't' (REAL 8) (1 EXPLICIT (CONSTANT (
INTEGER 4) 0 '1') (CONSTANT (INTEGER 4) 0 '2')) () 1 0 0 ())) PUBLIC ())
19 't_score_stat' 'p_fodits' 7 ((DERIVED UNKNOWN UNKNOWN UNKNOWN NONE
NONE) (UNKNOWN) 0 0 () () () '' ((103 'name' (CHARACTER 1 ((CONSTANT (
INTEGER 4) 0 '16'))) () () 0 0 0 ()) (104 'irefsta' (INTEGER 4) () () 0
0 0 ()) (105 'nstasta' (INTEGER 4) () () 0 0 0 ()) (106 'stasta' (
DERIVED 107) (1 DEFERRED () ()) () 1 1 0 ()) (108 'outcrdxyz' (REAL 8) (
1 EXPLICIT (CONSTANT (INTEGER 4) 0 '1') (CONSTANT (INTEGER 4) 0 '3')) ()
1 0 0 ()) (109 'outvelxyz' (REAL 8) (1 EXPLICIT (CONSTANT (INTEGER 4) 0
'1') (CONSTANT (INTEGER 4) 0 '3')) () 1 0 0 ()) (110 'nitersteps' (
INTEGER 4) () () 0 0 0 ()) (111 'modrms' (REAL 8) () () 0 0 0 ()) (112
'singular' (INTEGER 4) () () 0 0 0 ()) (113 'ts' (DERIVED 114) () () 0 0
0 ()) (115 'mod' (DERIVED 116) () () 0 0 0 ()) (117 'upd' (DERIVED 118)
() () 0 0 0 ())) PUBLIC ())
118 't_upd' 'p_fodits' 7 ((DERIVED UNKNOWN UNKNOWN UNKNOWN NONE NONE) (
UNKNOWN) 0 0 () () () '' ((119 'nren' (INTEGER 4) () () 0 0 0 ()) (120
'ren' (DERIVED 121) (1 DEFERRED () ()) () 1 1 0 ()) (122 'stastatusref'
(INTEGER 4) () () 0 0 0 ()) (123 'maxtimeinterv' (REAL 8) () () 0 0 0 ()))
PUBLIC ())
121 't_upd_ren' 'p_fodits' 7 ((DERIVED UNKNOWN UNKNOWN UNKNOWN NONE NONE)
(UNKNOWN) 0 0 () () () '' ((124 'type' (INTEGER 4) () () 0 0 0 ()) (125
'info' (INTEGER 4) () () 0 0 0 ()) (126 'timint' (DERIVED 82) () () 0 0
0 ()) (127 'rename' (CHARACTER 1 ((CONSTANT (INTEGER 4) 0 '2'))) () () 0
0 0 ()) (128 'cnstr' (INTEGER 4) () () 0 0 0 ()) (129 'group' (INTEGER 4)
() () 0 0 0 ()) (130 'grouplength' (REAL 8) () () 0 0 0 ()) (131
'groupnumdata' (INTEGER 4) () () 0 0 0 ()) (132 'remark' (CHARACTER 1 (
(CONSTANT (INTEGER 4) 0 '8'))) () () 0 0 0 ())) PUBLIC ())
116 't_mod' 'p_fodits' 7 ((DERIVED UNKNOWN UNKNOWN UNKNOWN NONE NONE) (
UNKNOWN) 0 0 () () () '' ((133 'nevnt' (INTEGER 4) () () 0 0 0 ()) (134
'evnt' (DERIVED 69) (1 DEFERRED () ()) () 1 1 0 ())) PUBLIC ())
114 't_ts' 'p_fodits' 7 ((DERIVED UNKNOWN UNKNOWN UNKNOWN NONE NONE) (
UNKNOWN) 0 0 () () () '' ((135 'nval' (INTEGER 4) () () 0 0 0 ()) (136
'nmjd' (INTEGER 4) () () 0 0 0 ()) (137 'mjd' (REAL 8) (1 DEFERRED () ())
() 1 1 0 ()) (138 'val' (REAL 8) (2 DEFERRED () () () ()) () 1 1 0 ()) (
139 'dval' (REAL 8) (2 DEFERRED () () () ()) () 1 1 0 ()) (140 'vci' (
REAL 8) (3 DEFERRED () () () () () ()) () 1 1 0 ()) (141 'ddef' (REAL 8)
(2 DEFERRED () () () ()) () 1 1 0 ()) (142 'ddefrej' (INTEGER 4) (1
DEFERRED () ()) () 1 1 0 ())) PUBLIC ())
107 't_stasta' 'p_fodits' 7 ((DERIVED UNKNOWN UNKNOWN UNKNOWN NONE NONE)
(UNKNOWN) 0 0 () () () '' ((143 'rename' (CHARACTER 1 ((CONSTANT (
INTEGER 4) 0 '16'))) () () 0 0 0 ()) (144 'timint' (DERIVED 82) () () 0
0 0 ()) (145 'incrdxyz' (REAL 8) (1 EXPLICIT (CONSTANT (INTEGER 4) 0 '1')
(CONSTANT (INTEGER 4) 0 '3')) () 1 0 0 ()) (146 'incrdneu' (REAL 8) (1
EXPLICIT (CONSTANT (INTEGER 4) 0 '1') (CONSTANT (INTEGER 4) 0 '3')) () 1
0 0 ()) (147 'incrdflg' (CHARACTER 1 ((CONSTANT (INTEGER 4) 0 '1'))) ()
() 0 0 0 ()) (148 'invelxyz' (REAL 8) (1 EXPLICIT (CONSTANT (INTEGER 4)
0 '1') (CONSTANT (INTEGER 4) 0 '3')) () 1 0 0 ()) (149 'invelneu' (REAL
8) (1 EXPLICIT (CONSTANT (INTEGER 4) 0 '1') (CONSTANT (INTEGER 4) 0 '3'))
() 1 0 0 ()) (150 'invelflg' (CHARACTER 1 ((CONSTANT (INTEGER 4) 0 '5')))
() () 0 0 0 ()) (151 'invelplate' (CHARACTER 1 ((CONSTANT (INTEGER 4) 0
'4'))) () () 0 0 0 ())) PUBLIC ())
4 'datfil' '' 7 ((VARIABLE UNKNOWN UNKNOWN UNKNOWN NONE NONE DUMMY) (
DERIVED 152) 0 0 () () () '' () ())
152 't_datfil' 'p_fodits' 7 ((DERIVED UNKNOWN UNKNOWN UNKNOWN NONE NONE)
(UNKNOWN) 0 0 () () () '' ((153 'stain' (DERIVED 154) () () 0 0 0 ()) (
155 'evlin' (DERIVED 156) () () 0 0 0 ()) (157 'erqin' (DERIVED 158) ()
() 0 0 0 ()) (159 'staout' (DERIVED 154) () () 0 0 0 ()) (160 'evlout' (
DERIVED 156) () () 0 0 0 ())) PUBLIC ())
158 't_erq' 'p_fodits' 7 ((DERIVED UNKNOWN UNKNOWN UNKNOWN NONE NONE) (
UNKNOWN) 0 0 () () () '' ((161 'nerq' (INTEGER 4) () () 0 0 0 ()) (162
'erq' (DERIVED 163) (1 DEFERRED () ()) () 1 1 0 ())) PUBLIC ())
163 't_erq_nr' 'p_fodits' 7 ((DERIVED UNKNOWN UNKNOWN UNKNOWN NONE NONE)
(UNKNOWN) 0 0 () () () '' ((164 'mjd' (REAL 8) () () 0 0 0 ()) (165 'lat'
(REAL 8) () () 0 0 0 ()) (166 'lon' (REAL 8) () () 0 0 0 ()) (167 'crdxyz'
(REAL 8) (1 EXPLICIT (CONSTANT (INTEGER 4) 0 '1') (CONSTANT (INTEGER 4)
0 '3')) () 1 0 0 ()) (168 'dep' (INTEGER 4) () () 0 0 0 ()) (169 'mag' (
REAL 8) () () 0 0 0 ()) (170 'magdescr' (CHARACTER 1 ((CONSTANT (
INTEGER 4) 0 '5'))) () () 0 0 0 ())) PUBLIC ())
156 't_evl' 'p_fodits' 7 ((DERIVED UNKNOWN UNKNOWN UNKNOWN NONE NONE) (
UNKNOWN) 0 0 () () () '' ((171 'nsta' (INTEGER 4) () () 0 0 0 ()) (172
'sta' (DERIVED 173) (1 DEFERRED () ()) () 1 1 0 ())) PUBLIC ())
173 't_evl_sta' 'p_fodits' 7 ((DERIVED UNKNOWN UNKNOWN UNKNOWN NONE NONE)
(UNKNOWN) 0 0 () () () '' ((174 'name' (CHARACTER 1 ((CONSTANT (INTEGER
4) 0 '16'))) () () 0 0 0 ()) (175 'nevnt' (INTEGER 4) () () 0 0 0 ()) (
176 'evnt' (DERIVED 177) (1 DEFERRED () ()) () 1 1 0 ())) PUBLIC ())
177 't_evl_sta_evnt' 'p_fodits' 7 ((DERIVED UNKNOWN UNKNOWN UNKNOWN NONE
NONE) (UNKNOWN) 0 0 () () () '' ((178 'type' (CHARACTER 1 ((CONSTANT (
INTEGER 4) 0 '4'))) () () 0 0 0 ()) (179 'omega' (REAL 8) () () 0 0 0 ())
(180 'timint' (DERIVED 82) () () 0 0 0 ()) (181 'flag' (CHARACTER 1 ((
CONSTANT (INTEGER 4) 0 '3'))) () () 0 0 0 ()) (182 'remark' (CHARACTER 1
((CONSTANT (INTEGER 4) 0 '8'))) () () 0 0 0 ()) (183 'par' (REAL 8) (1
EXPLICIT (CONSTANT (INTEGER 4) 0 '1') (CONSTANT (INTEGER 4) 0 '3')) () 1
0 0 ()) (184 'val' (REAL 8) () () 0 0 0 ()) (185 'dval' (REAL 8) () () 0
0 0 ()) (186 'sttst' (REAL 8) () () 0 0 0 ()) (187 'sitst' (INTEGER 4) ()
() 0 0 0 ()) (188 'phi' (REAL 8) (1 EXPLICIT (CONSTANT (INTEGER 4) 0 '1')
(CONSTANT (INTEGER 4) 0 '3')) () 1 0 0 ())) PUBLIC ())
154 't_stacrux' 'd_stacrx' 7 ((DERIVED UNKNOWN UNKNOWN UNKNOWN NONE NONE)
(UNKNOWN) 0 0 () () () '' ((189 'nrenam' (INTEGER 4) () () 0 0 0 ()) (
190 'ninfo' (INTEGER 4) () () 0 0 0 ()) (191 'nprob' (INTEGER 4) () () 0
0 0 ()) (192 'ncoovel' (INTEGER 4) () () 0 0 0 ()) (193 'nrelpar' (
INTEGER 4) () () 0 0 0 ()) (194 'nstatype' (INTEGER 4) () () 0 0 0 ()) (
195 'version' (REAL 8) () () 0 0 0 ()) (196 'technique' (CHARACTER 1 ((
CONSTANT (INTEGER 4) 0 '30'))) () () 0 0 0 ()) (197 'renamsta' (DERIVED
198) (1 DEFERRED () ()) () 1 1 0 ()) (199 'stainfo' (DERIVED 200) (1
DEFERRED () ()) () 1 1 0 ()) (201 'staprob' (DERIVED 202) (1 DEFERRED ()
()) () 1 1 0 ()) (203 'coovel' (DERIVED 204) (1 DEFERRED () ()) () 1 1 0
()) (205 'starelpar' (DERIVED 206) (1 DEFERRED () ()) () 1 1 0 ()) (207
'statype' (DERIVED 208) (1 DEFERRED () ()) () 1 1 0 ())) PUBLIC ())
208 't_statype' 'd_stacrx' 7 ((DERIVED UNKNOWN UNKNOWN UNKNOWN NONE NONE)
(UNKNOWN) 0 0 () () () '' ((209 'stanam' (CHARACTER 1 ((CONSTANT (
INTEGER 4) 0 '16'))) () () 0 0 0 ()) (210 'flg' (CHARACTER 1 ((CONSTANT
(INTEGER 4) 0 '3'))) () () 0 0 0 ()) (211 'timint' (DERIVED 82) () () 0
0 0 ()) (212 'markertype' (CHARACTER 1 ((CONSTANT (INTEGER 4) 0 '20')))
() () 0 0 0 ()) (213 'remark' (CHARACTER 1 ((CONSTANT (INTEGER 4) 0 '24')))
() () 0 0 0 ())) PUBLIC ())
206 't_starelpar' 'd_stacrx' 7 ((DERIVED UNKNOWN UNKNOWN UNKNOWN NONE
NONE) (UNKNOWN) 0 0 () () () '' ((214 'stanam' (CHARACTER 1 ((CONSTANT (
INTEGER 4) 0 '16'))) (1 EXPLICIT (CONSTANT (INTEGER 4) 0 '1') (CONSTANT
(INTEGER 4) 0 '2')) () 1 0 0 ()) (215 'flg' (CHARACTER 1 ((CONSTANT (
INTEGER 4) 0 '3'))) () () 0 0 0 ()) (216 'timwin' (DERIVED 82) () () 0 0
0 ()) (217 'partyp' (CHARACTER 1 ((CONSTANT (INTEGER 4) 0 '8'))) () () 0
0 0 ()) (218 'sys' (CHARACTER 1 ((CONSTANT (INTEGER 4) 0 '3'))) (1
EXPLICIT (CONSTANT (INTEGER 4) 0 '1') (CONSTANT (INTEGER 4) 0 '2')) () 1
0 0 ()) (219 'loctie' (REAL 8) (1 EXPLICIT (CONSTANT (INTEGER 4) 0 '1')
(CONSTANT (INTEGER 4) 0 '3')) () 1 0 0 ()) (220 'constr' (REAL 8) (1
EXPLICIT (CONSTANT (INTEGER 4) 0 '1') (CONSTANT (INTEGER 4) 0 '3')) () 1
0 0 ()) (221 'correl' (REAL 8) (1 EXPLICIT (CONSTANT (INTEGER 4) 0 '1')
(CONSTANT (INTEGER 4) 0 '3')) () 1 0 0 ()) (222 'remark' (CHARACTER 1 (
(CONSTANT (INTEGER 4) 0 '24'))) () () 0 0 0 ()) (223 'applied' (LOGICAL
4) () () 0 0 0 ())) PUBLIC ())
204 't_coovel' 'd_stacrx' 7 ((DERIVED UNKNOWN UNKNOWN UNKNOWN NONE NONE)
(UNKNOWN) 0 0 () () () '' ((224 'stanam' (CHARACTER 1 ((CONSTANT (
INTEGER 4) 0 '16'))) (1 EXPLICIT (CONSTANT (INTEGER 4) 0 '1') (CONSTANT
(INTEGER 4) 0 '2')) () 1 0 0 ()) (225 'constr' (REAL 8) (1 EXPLICIT (
CONSTANT (INTEGER 4) 0 '1') (CONSTANT (INTEGER 4) 0 '6')) () 1 0 0 ()))
PUBLIC ())
202 't_staprob' 'd_stacrx' 7 ((DERIVED UNKNOWN UNKNOWN UNKNOWN NONE NONE)
(UNKNOWN) 0 0 () () () '' ((226 'stanam' (CHARACTER 1 ((CONSTANT (
INTEGER 4) 0 '16'))) () () 0 0 0 ()) (227 'flg' (CHARACTER 1 ((CONSTANT
(INTEGER 4) 0 '3'))) () () 0 0 0 ()) (228 'timint' (DERIVED 82) () () 0
0 0 ()) (229 'remark' (CHARACTER 1 ((CONSTANT (INTEGER 4) 0 '60'))) () ()
0 0 0 ())) PUBLIC ())
200 't_stainfo' 'd_stacrx' 7 ((DERIVED UNKNOWN UNKNOWN UNKNOWN NONE NONE)
(UNKNOWN) 0 0 () () () '' ((230 'stanam' (CHARACTER 1 ((CONSTANT (
INTEGER 4) 0 '16'))) () () 0 0 0 ()) (231 'flg' (CHARACTER 1 ((CONSTANT
(INTEGER 4) 0 '3'))) () () 0 0 0 ()) (232 'timint' (DERIVED 82) () () 0
0 0 ()) (233 'recnam' (CHARACTER 1 ((CONSTANT (INTEGER 4) 0 '20'))) () ()
0 0 0 ()) (234 'antnam' (CHARACTER 1 ((CONSTANT (INTEGER 4) 0 '20'))) ()
() 0 0 0 ()) (235 'recser' (CHARACTER 1 ((CONSTANT (INTEGER 4) 0 '20')))
() () 0 0 0 ()) (236 'antser' (CHARACTER 1 ((CONSTANT (INTEGER 4) 0 '20')))
() () 0 0 0 ()) (237 'recnum' (INTEGER 4) () () 0 0 0 ()) (238 'antnum'
(INTEGER 4) () () 0 0 0 ()) (239 'antecc' (REAL 8) (1 EXPLICIT (
CONSTANT (INTEGER 4) 0 '1') (CONSTANT (INTEGER 4) 0 '3')) () 1 0 0 ()) (
240 'descri' (CHARACTER 1 ((CONSTANT (INTEGER 4) 0 '22'))) () () 0 0 0 ())
(241 'remark' (CHARACTER 1 ((CONSTANT (INTEGER 4) 0 '24'))) () () 0 0 0
()) (242 'cdpsod' (CHARACTER 1 ((CONSTANT (INTEGER 4) 0 '8'))) () () 0 0
0 ())) PUBLIC ())
198 't_renamsta' 'd_stacrx' 7 ((DERIVED UNKNOWN UNKNOWN UNKNOWN NONE
NONE) (UNKNOWN) 0 0 () () () '' ((243 'stanam' (CHARACTER 1 ((CONSTANT (
INTEGER 4) 0 '16'))) () () 0 0 0 ()) (244 'flg' (CHARACTER 1 ((CONSTANT
(INTEGER 4) 0 '3'))) () () 0 0 0 ()) (245 'timint' (DERIVED 82) () () 0
0 0 ()) (246 'oldnam' (CHARACTER 1 ((CONSTANT (INTEGER 4) 0 '16'))) () ()
0 0 0 ()) (247 'remark' (CHARACTER 1 ((CONSTANT (INTEGER 4) 0 '24'))) ()
() 0 0 0 ())) PUBLIC ())
3 'opt' '' 7 ((VARIABLE UNKNOWN UNKNOWN UNKNOWN NONE NONE DUMMY) (
DERIVED 248) 0 0 () () () '' () ())
248 't_opt' 'p_fodits' 7 ((DERIVED UNKNOWN UNKNOWN UNKNOWN NONE NONE) (
UNKNOWN) 0 0 () () () '' ((249 'rdonlystanames' (INTEGER 4) () () 0 0 0
()) (250 'selinptstype' (INTEGER 4) () () 0 0 0 ()) (251 'inpltfile' (
CHARACTER 1 ((CONSTANT (INTEGER 4) 0 '32'))) () () 0 0 0 ()) (252
'inpltfilevciena' (INTEGER 4) () () 0 0 0 ()) (253 'inpltfilevim0' (
REAL 8) () () 0 0 0 ()) (254 'incrdfile' (CHARACTER 1 ((CONSTANT (
INTEGER 4) 0 '32'))) () () 0 0 0 ()) (255 'invelfile' (CHARACTER 1 ((
CONSTANT (INTEGER 4) 0 '32'))) () () 0 0 0 ()) (256 'ncrds' (INTEGER 4)
() () 0 0 0 ()) (257 'crdfilename' (CHARACTER 1 ((CONSTANT (INTEGER 4) 0
'32'))) (1 DEFERRED () ()) () 1 1 0 ()) (258 'inevlfile' (CHARACTER 1 (
(CONSTANT (INTEGER 4) 0 '32'))) () () 0 0 0 ()) (259 'instafile' (
CHARACTER 1 ((CONSTANT (INTEGER 4) 0 '32'))) () () 0 0 0 ()) (260
'inerqfile' (CHARACTER 1 ((CONSTANT (INTEGER 4) 0 '80'))) () () 0 0 0 ())
(261 'const' (CHARACTER 1 ((CONSTANT (INTEGER 4) 0 '32'))) () () 0 0 0 ())
(262 'datum' (CHARACTER 1 ((CONSTANT (INTEGER 4) 0 '32'))) () () 0 0 0 ())
(263 'gvarerqfacta' (REAL 8) () () 0 0 0 ()) (264 'gvarerqfactb' (REAL 8)
() () 0 0 0 ()) (265 'gvarerqmindist' (REAL 8) () () 0 0 0 ()) (266
'incrdfileaddplt' (INTEGER 4) () () 0 0 0 ()) (267 'invelfileaddplt' (
INTEGER 4) () () 0 0 0 ()) (268 'gvarmaxnriterstep' (INTEGER 4) () () 0
0 0 ()) (269 'gvarmaxnrscrnstep' (INTEGER 4) () () 0 0 0 ()) (270
'modnnewoutl' (INTEGER 4) () () 0 0 0 ()) (271 'modnoutlrms' (REAL 8) ()
() 0 0 0 ()) (272 'outevlfile' (CHARACTER 1 ((CONSTANT (INTEGER 4) 0 '32')))
() () 0 0 0 ()) (273 'outstafileforaddneq2' (CHARACTER 1 ((CONSTANT (
INTEGER 4) 0 '32'))) () () 0 0 0 ()) (274 'outpltfile' (CHARACTER 1 ((
CONSTANT (INTEGER 4) 0 '32'))) () () 0 0 0 ()) (275 'outfileverbose' (
INTEGER 4) () () 0 0 0 ()) (276 'outfileverboset' (INTEGER 4) () () 0 0
0 ()) (277 'outfileverbosett' (INTEGER 4) () () 0 0 0 ()) (278 'title' (
CHARACTER 1 ((CONSTANT (INTEGER 4) 0 '80'))) () () 0 0 0 ()) (279
'intruncstaname' (INTEGER 4) () () 0 0 0 ()) (280 'nstasel' (INTEGER 4)
() () 0 0 0 ()) (281 'instaselection' (CHARACTER 1 ((CONSTANT (INTEGER 4)
0 '16'))) (1 DEFERRED () ()) () 1 1 0 ()) (282 'inminnrobs' (INTEGER 4)
() () 0 0 0 ()) (283 'tstevltst' (INTEGER 4) () () 0 0 0 ()) (284
'tststarenamings' (INTEGER 4) () () 0 0 0 ()) (285 'tstrectypechanges' (
INTEGER 4) () () 0 0 0 ()) (286 'tstrecnumberchanges' (INTEGER 4) () ()
0 0 0 ()) (287 'tstanttypechanges' (INTEGER 4) () () 0 0 0 ()) (288
'tstantnumberchanges' (INTEGER 4) () () 0 0 0 ()) (289 'tsteccchanges' (
INTEGER 4) () () 0 0 0 ()) (290 'modpredattest' (INTEGER 4) () () 0 0 0
()) (291 'minintervforvel' (REAL 8) () () 0 0 0 ()) (292 'modperann' (
INTEGER 4) () () 0 0 0 ()) (293 'modaddena' (INTEGER 4) () () 0 0 0 ())
(294 'naddperparam' (INTEGER 4) () () 0 0 0 ()) (295 'modaddperparam' (
REAL 8) (1 DEFERRED () ()) () 1 1 0 ()) (296 'indatumcrdfile' (
CHARACTER 1 ((CONSTANT (INTEGER 4) 0 '32'))) () () 0 0 0 ()) (297
'indatumvelfile' (CHARACTER 1 ((CONSTANT (INTEGER 4) 0 '32'))) () () 0 0
0 ()) (298 'indatumfixfile' (CHARACTER 1 ((CONSTANT (INTEGER 4) 0 '32')))
() () 0 0 0 ()) (299 'dathlmtx' (INTEGER 4) () () 0 0 0 ()) (300
'dathlmty' (INTEGER 4) () () 0 0 0 ()) (301 'dathlmtz' (INTEGER 4) () ()
0 0 0 ()) (302 'dathlmrx' (INTEGER 4) () () 0 0 0 ()) (303 'dathlmry' (
INTEGER 4) () () 0 0 0 ()) (304 'dathlmrz' (INTEGER 4) () () 0 0 0 ()) (
305 'dathlmsc' (INTEGER 4) () () 0 0 0 ()) (306 'datrejectcrd' (INTEGER
4) () () 0 0 0 ()) (307 'datnlimitcrd' (REAL 8) () () 0 0 0 ()) (308
'datelimitcrd' (REAL 8) () () 0 0 0 ()) (309 'datulimitcrd' (REAL 8) ()
() 0 0 0 ()) (310 'datrejectoutlcrd' (INTEGER 4) () () 0 0 0 ()) (311
'modtestvalue' (REAL 8) () () 0 0 0 ()) (312 'modoutltestvalue' (REAL 8)
() () 0 0 0 ()) (313 'modjumpspac' (REAL 8) () () 0 0 0 ()) (314
'modjumpsing' (REAL 8) () () 0 0 0 ()) (315 'modjumphori' (REAL 8) () ()
0 0 0 ()) (316 'modjumpvert' (REAL 8) () () 0 0 0 ()) (317 'modvelospac'
(REAL 8) () () 0 0 0 ()) (318 'modvelosing' (REAL 8) () () 0 0 0 ()) (
319 'modvelohori' (REAL 8) () () 0 0 0 ()) (320 'modvelovert' (REAL 8) ()
() 0 0 0 ()) (321 'modoutlspac' (REAL 8) () () 0 0 0 ()) (322
'modoutlsing' (REAL 8) () () 0 0 0 ()) (323 'modoutlhori' (REAL 8) () ()
0 0 0 ()) (324 'modoutlvert' (REAL 8) () () 0 0 0 ()) (325 'modperispac'
(REAL 8) () () 0 0 0 ()) (326 'modperising' (REAL 8) () () 0 0 0 ()) (
327 'modperihori' (REAL 8) () () 0 0 0 ()) (328 'modperivert' (REAL 8) ()
() 0 0 0 ()) (329 'modnewjumpidentify' (INTEGER 4) () () 0 0 0 ()) (330
'modnewveloidentify' (INTEGER 4) () () 0 0 0 ()) (331 'modnewoutlidentify'
(INTEGER 4) () () 0 0 0 ()) (332 'modnewperiidentify' (INTEGER 4) () ()
0 0 0 ()) (333 'modaddveloaj' (INTEGER 4) () () 0 0 0 ()) (334 'sannlines'
(INTEGER 4) () () 0 0 0 ()) (335 'sanminperiod' (REAL 8) () () 0 0 0 ())
(336 'sanmaxperiod' (REAL 8) () () 0 0 0 ()) (337 'outtimref' (REAL 8) ()
() 0 0 0 ()) (338 'mintimeintlength' (REAL 8) () () 0 0 0 ()) (339
'minpercdatafix' (REAL 8) () () 0 0 0 ()) (340 'incrdfileforaddneq2' (
CHARACTER 1 ((CONSTANT (INTEGER 4) 0 '32'))) () () 0 0 0 ()) (341
'invelfileforaddneq2' (CHARACTER 1 ((CONSTANT (INTEGER 4) 0 '32'))) () ()
0 0 0 ()) (342 'infixfileforaddneq2' (CHARACTER 1 ((CONSTANT (INTEGER 4)
0 '32'))) () () 0 0 0 ()) (343 'insigfileforaddneq2' (CHARACTER 1 ((
CONSTANT (INTEGER 4) 0 '32'))) () () 0 0 0 ()) (344 'outcrdfileforaddneq2'
(CHARACTER 1 ((CONSTANT (INTEGER 4) 0 '32'))) () () 0 0 0 ()) (345
'outvelfileforaddneq2' (CHARACTER 1 ((CONSTANT (INTEGER 4) 0 '32'))) ()
() 0 0 0 ()) (346 'outfixfileforaddneq2' (CHARACTER 1 ((CONSTANT (
INTEGER 4) 0 '32'))) () () 0 0 0 ()) (347 'outsigfileforaddneq2' (
CHARACTER 1 ((CONSTANT (INTEGER 4) 0 '32'))) () () 0 0 0 ()) (348
'updstandays' (INTEGER 4) () () 0 0 0 ()) (349 'gvarcstrcrd' (REAL 8) ()
() 0 0 0 ()) (350 'gvarcstrvel' (REAL 8) () () 0 0 0 ())) PUBLIC ())
)

('fodirerq' 0 2 's_fodirerq' 0 6)
