G95 module created on Thu Jun 25 17:50:56 2020 from ./.fpp/FODIWDAT.f90
If you edit this, you'll get what you deserve.
module-version 9
(() () () () () () () () () () () () () () () () () () () () ())

()

()

()

()

(2 'fodiwdat' 's_fodiwdat' 1 ((PROCEDURE UNKNOWN MODULE-PROC DECL NONE
NONE SUBROUTINE) (PROCEDURE 0) 0 0 (3 NONE 4 NONE 5 NONE) () () '' () ())
6 'fodiwdat_pltcrdline' 's_fodiwdat' 1 ((PROCEDURE UNKNOWN MODULE-PROC
DECL NONE NONE SUBROUTINE INVOKED) (PROCEDURE 0) 0 0 (7 NONE 8 NONE 9
NONE 10 NONE 11 NONE 12 NONE 13 NONE 14 NONE) () () '' () ())
15 'fodiwdat_synthetictimeseries' 's_fodiwdat' 1 ((PROCEDURE UNKNOWN
MODULE-PROC DECL NONE NONE SUBROUTINE INVOKED) (PROCEDURE 0) 0 0 (16
NONE 17 NONE 18 NONE) () () '' () ())
19 's_fodiwdat' 's_fodiwdat' 1 ((MODULE UNKNOWN UNKNOWN UNKNOWN NONE
NONE) (UNKNOWN) 0 0 () () () '' () ())
18 'datfil' '' 20 ((VARIABLE UNKNOWN UNKNOWN UNKNOWN NONE NONE DUMMY) (
DERIVED 21) 0 0 () () () '' () ())
21 't_datfil' 'p_fodits' 20 ((DERIVED UNKNOWN UNKNOWN UNKNOWN NONE NONE)
(UNKNOWN) 0 0 () () () '' ((22 'stain' (DERIVED 23) () () 0 0 0 ()) (24
'evlin' (DERIVED 25) () () 0 0 0 ()) (26 'erqin' (DERIVED 27) () () 0 0
0 ()) (28 'staout' (DERIVED 23) () () 0 0 0 ()) (29 'evlout' (DERIVED 25)
() () 0 0 0 ())) PUBLIC ())
27 't_erq' 'p_fodits' 20 ((DERIVED UNKNOWN UNKNOWN UNKNOWN NONE NONE) (
UNKNOWN) 0 0 () () () '' ((30 'nerq' (INTEGER 4) () () 0 0 0 ()) (31 'erq'
(DERIVED 32) (1 DEFERRED () ()) () 1 1 0 ())) PUBLIC ())
32 't_erq_nr' 'p_fodits' 20 ((DERIVED UNKNOWN UNKNOWN UNKNOWN NONE NONE)
(UNKNOWN) 0 0 () () () '' ((33 'mjd' (REAL 8) () () 0 0 0 ()) (34 'lat'
(REAL 8) () () 0 0 0 ()) (35 'lon' (REAL 8) () () 0 0 0 ()) (36 'crdxyz'
(REAL 8) (1 EXPLICIT (CONSTANT (INTEGER 4) 0 '1') (CONSTANT (INTEGER 4)
0 '3')) () 1 0 0 ()) (37 'dep' (INTEGER 4) () () 0 0 0 ()) (38 'mag' (
REAL 8) () () 0 0 0 ()) (39 'magdescr' (CHARACTER 1 ((CONSTANT (INTEGER
4) 0 '5'))) () () 0 0 0 ())) PUBLIC ())
25 't_evl' 'p_fodits' 20 ((DERIVED UNKNOWN UNKNOWN UNKNOWN NONE NONE) (
UNKNOWN) 0 0 () () () '' ((40 'nsta' (INTEGER 4) () () 0 0 0 ()) (41 'sta'
(DERIVED 42) (1 DEFERRED () ()) () 1 1 0 ())) PUBLIC ())
42 't_evl_sta' 'p_fodits' 20 ((DERIVED UNKNOWN UNKNOWN UNKNOWN NONE NONE)
(UNKNOWN) 0 0 () () () '' ((43 'name' (CHARACTER 1 ((CONSTANT (INTEGER 4)
0 '16'))) () () 0 0 0 ()) (44 'nevnt' (INTEGER 4) () () 0 0 0 ()) (45
'evnt' (DERIVED 46) (1 DEFERRED () ()) () 1 1 0 ())) PUBLIC ())
46 't_evl_sta_evnt' 'p_fodits' 20 ((DERIVED UNKNOWN UNKNOWN UNKNOWN NONE
NONE) (UNKNOWN) 0 0 () () () '' ((47 'type' (CHARACTER 1 ((CONSTANT (
INTEGER 4) 0 '4'))) () () 0 0 0 ()) (48 'omega' (REAL 8) () () 0 0 0 ())
(49 'timint' (DERIVED 50) () () 0 0 0 ()) (51 'flag' (CHARACTER 1 ((
CONSTANT (INTEGER 4) 0 '3'))) () () 0 0 0 ()) (52 'remark' (CHARACTER 1
((CONSTANT (INTEGER 4) 0 '8'))) () () 0 0 0 ()) (53 'par' (REAL 8) (1
EXPLICIT (CONSTANT (INTEGER 4) 0 '1') (CONSTANT (INTEGER 4) 0 '3')) () 1
0 0 ()) (54 'val' (REAL 8) () () 0 0 0 ()) (55 'dval' (REAL 8) () () 0 0
0 ()) (56 'sttst' (REAL 8) () () 0 0 0 ()) (57 'sitst' (INTEGER 4) () ()
0 0 0 ()) (58 'phi' (REAL 8) (1 EXPLICIT (CONSTANT (INTEGER 4) 0 '1') (
CONSTANT (INTEGER 4) 0 '3')) () 1 0 0 ())) PUBLIC ())
50 't_timint' 'm_time' 20 ((DERIVED UNKNOWN UNKNOWN UNKNOWN NONE NONE) (
UNKNOWN) 0 0 () () () '' ((59 't' (REAL 8) (1 EXPLICIT (CONSTANT (
INTEGER 4) 0 '1') (CONSTANT (INTEGER 4) 0 '2')) () 1 0 0 ())) PUBLIC ())
23 't_stacrux' 'd_stacrx' 20 ((DERIVED UNKNOWN UNKNOWN UNKNOWN NONE NONE)
(UNKNOWN) 0 0 () () () '' ((60 'nrenam' (INTEGER 4) () () 0 0 0 ()) (61
'ninfo' (INTEGER 4) () () 0 0 0 ()) (62 'nprob' (INTEGER 4) () () 0 0 0
()) (63 'ncoovel' (INTEGER 4) () () 0 0 0 ()) (64 'nrelpar' (INTEGER 4)
() () 0 0 0 ()) (65 'nstatype' (INTEGER 4) () () 0 0 0 ()) (66 'version'
(REAL 8) () () 0 0 0 ()) (67 'technique' (CHARACTER 1 ((CONSTANT (
INTEGER 4) 0 '30'))) () () 0 0 0 ()) (68 'renamsta' (DERIVED 69) (1
DEFERRED () ()) () 1 1 0 ()) (70 'stainfo' (DERIVED 71) (1 DEFERRED () ())
() 1 1 0 ()) (72 'staprob' (DERIVED 73) (1 DEFERRED () ()) () 1 1 0 ())
(74 'coovel' (DERIVED 75) (1 DEFERRED () ()) () 1 1 0 ()) (76 'starelpar'
(DERIVED 77) (1 DEFERRED () ()) () 1 1 0 ()) (78 'statype' (DERIVED 79)
(1 DEFERRED () ()) () 1 1 0 ())) PUBLIC ())
79 't_statype' 'd_stacrx' 20 ((DERIVED UNKNOWN UNKNOWN UNKNOWN NONE NONE)
(UNKNOWN) 0 0 () () () '' ((80 'stanam' (CHARACTER 1 ((CONSTANT (
INTEGER 4) 0 '16'))) () () 0 0 0 ()) (81 'flg' (CHARACTER 1 ((CONSTANT (
INTEGER 4) 0 '3'))) () () 0 0 0 ()) (82 'timint' (DERIVED 50) () () 0 0
0 ()) (83 'markertype' (CHARACTER 1 ((CONSTANT (INTEGER 4) 0 '20'))) ()
() 0 0 0 ()) (84 'remark' (CHARACTER 1 ((CONSTANT (INTEGER 4) 0 '24')))
() () 0 0 0 ())) PUBLIC ())
77 't_starelpar' 'd_stacrx' 20 ((DERIVED UNKNOWN UNKNOWN UNKNOWN NONE
NONE) (UNKNOWN) 0 0 () () () '' ((85 'stanam' (CHARACTER 1 ((CONSTANT (
INTEGER 4) 0 '16'))) (1 EXPLICIT (CONSTANT (INTEGER 4) 0 '1') (CONSTANT
(INTEGER 4) 0 '2')) () 1 0 0 ()) (86 'flg' (CHARACTER 1 ((CONSTANT (
INTEGER 4) 0 '3'))) () () 0 0 0 ()) (87 'timwin' (DERIVED 50) () () 0 0
0 ()) (88 'partyp' (CHARACTER 1 ((CONSTANT (INTEGER 4) 0 '8'))) () () 0
0 0 ()) (89 'sys' (CHARACTER 1 ((CONSTANT (INTEGER 4) 0 '3'))) (1
EXPLICIT (CONSTANT (INTEGER 4) 0 '1') (CONSTANT (INTEGER 4) 0 '2')) () 1
0 0 ()) (90 'loctie' (REAL 8) (1 EXPLICIT (CONSTANT (INTEGER 4) 0 '1') (
CONSTANT (INTEGER 4) 0 '3')) () 1 0 0 ()) (91 'constr' (REAL 8) (1
EXPLICIT (CONSTANT (INTEGER 4) 0 '1') (CONSTANT (INTEGER 4) 0 '3')) () 1
0 0 ()) (92 'correl' (REAL 8) (1 EXPLICIT (CONSTANT (INTEGER 4) 0 '1') (
CONSTANT (INTEGER 4) 0 '3')) () 1 0 0 ()) (93 'remark' (CHARACTER 1 ((
CONSTANT (INTEGER 4) 0 '24'))) () () 0 0 0 ()) (94 'applied' (LOGICAL 4)
() () 0 0 0 ())) PUBLIC ())
75 't_coovel' 'd_stacrx' 20 ((DERIVED UNKNOWN UNKNOWN UNKNOWN NONE NONE)
(UNKNOWN) 0 0 () () () '' ((95 'stanam' (CHARACTER 1 ((CONSTANT (
INTEGER 4) 0 '16'))) (1 EXPLICIT (CONSTANT (INTEGER 4) 0 '1') (CONSTANT
(INTEGER 4) 0 '2')) () 1 0 0 ()) (96 'constr' (REAL 8) (1 EXPLICIT (
CONSTANT (INTEGER 4) 0 '1') (CONSTANT (INTEGER 4) 0 '6')) () 1 0 0 ()))
PUBLIC ())
73 't_staprob' 'd_stacrx' 20 ((DERIVED UNKNOWN UNKNOWN UNKNOWN NONE NONE)
(UNKNOWN) 0 0 () () () '' ((97 'stanam' (CHARACTER 1 ((CONSTANT (
INTEGER 4) 0 '16'))) () () 0 0 0 ()) (98 'flg' (CHARACTER 1 ((CONSTANT (
INTEGER 4) 0 '3'))) () () 0 0 0 ()) (99 'timint' (DERIVED 50) () () 0 0
0 ()) (100 'remark' (CHARACTER 1 ((CONSTANT (INTEGER 4) 0 '60'))) () ()
0 0 0 ())) PUBLIC ())
71 't_stainfo' 'd_stacrx' 20 ((DERIVED UNKNOWN UNKNOWN UNKNOWN NONE NONE)
(UNKNOWN) 0 0 () () () '' ((101 'stanam' (CHARACTER 1 ((CONSTANT (
INTEGER 4) 0 '16'))) () () 0 0 0 ()) (102 'flg' (CHARACTER 1 ((CONSTANT
(INTEGER 4) 0 '3'))) () () 0 0 0 ()) (103 'timint' (DERIVED 50) () () 0
0 0 ()) (104 'recnam' (CHARACTER 1 ((CONSTANT (INTEGER 4) 0 '20'))) () ()
0 0 0 ()) (105 'antnam' (CHARACTER 1 ((CONSTANT (INTEGER 4) 0 '20'))) ()
() 0 0 0 ()) (106 'recser' (CHARACTER 1 ((CONSTANT (INTEGER 4) 0 '20')))
() () 0 0 0 ()) (107 'antser' (CHARACTER 1 ((CONSTANT (INTEGER 4) 0 '20')))
() () 0 0 0 ()) (108 'recnum' (INTEGER 4) () () 0 0 0 ()) (109 'antnum'
(INTEGER 4) () () 0 0 0 ()) (110 'antecc' (REAL 8) (1 EXPLICIT (
CONSTANT (INTEGER 4) 0 '1') (CONSTANT (INTEGER 4) 0 '3')) () 1 0 0 ()) (
111 'descri' (CHARACTER 1 ((CONSTANT (INTEGER 4) 0 '22'))) () () 0 0 0 ())
(112 'remark' (CHARACTER 1 ((CONSTANT (INTEGER 4) 0 '24'))) () () 0 0 0
()) (113 'cdpsod' (CHARACTER 1 ((CONSTANT (INTEGER 4) 0 '8'))) () () 0 0
0 ())) PUBLIC ())
69 't_renamsta' 'd_stacrx' 20 ((DERIVED UNKNOWN UNKNOWN UNKNOWN NONE
NONE) (UNKNOWN) 0 0 () () () '' ((114 'stanam' (CHARACTER 1 ((CONSTANT (
INTEGER 4) 0 '16'))) () () 0 0 0 ()) (115 'flg' (CHARACTER 1 ((CONSTANT
(INTEGER 4) 0 '3'))) () () 0 0 0 ()) (116 'timint' (DERIVED 50) () () 0
0 0 ()) (117 'oldnam' (CHARACTER 1 ((CONSTANT (INTEGER 4) 0 '16'))) () ()
0 0 0 ()) (118 'remark' (CHARACTER 1 ((CONSTANT (INTEGER 4) 0 '24'))) ()
() 0 0 0 ())) PUBLIC ())
17 'score' '' 20 ((VARIABLE UNKNOWN UNKNOWN UNKNOWN NONE NONE DUMMY) (
DERIVED 119) 0 0 () () () '' () ())
119 't_score' 'p_fodits' 20 ((DERIVED UNKNOWN UNKNOWN UNKNOWN NONE NONE)
(UNKNOWN) 0 0 () () () '' ((120 'nsta' (INTEGER 4) () () 0 0 0 ()) (121
'nval' (INTEGER 4) () () 0 0 0 ()) (122 'ntotmjd' (INTEGER 4) () () 0 0
0 ()) (123 'begmjd' (REAL 8) () () 0 0 0 ()) (124 'endmjd' (REAL 8) () ()
0 0 0 ()) (125 'deltamjd' (REAL 8) () () 0 0 0 ()) (126 'intimrefcrd' (
REAL 8) () () 0 0 0 ()) (127 'outtimrefcrd' (REAL 8) () () 0 0 0 ()) (
128 'datumname' (CHARACTER 1 ((CONSTANT (INTEGER 4) 0 '16'))) () () 0 0
0 ()) (129 'sta' (DERIVED 130) (1 DEFERRED () ()) () 1 1 0 ()) (131 'mdl'
(DERIVED 132) () () 0 0 0 ()) (133 'lsa' (DERIVED 134) () () 0 0 0 ()) (
135 'lsb' (DERIVED 136) () () 0 0 0 ()) (137 'ctr' (DERIVED 138) () () 0
0 0 ()) (139 'san' (DERIVED 140) () () 0 0 0 ()) (141 'ddf' (DERIVED 142)
() () 0 0 0 ())) PUBLIC ())
142 't_datumdef' 'p_fodits' 20 ((DERIVED UNKNOWN UNKNOWN UNKNOWN NONE
NONE) (UNKNOWN) 0 0 () () () '' ((143 'mjd' (REAL 8) (1 DEFERRED () ())
() 1 1 0 ()) (144 'hlmpar' (REAL 8) (2 DEFERRED () () () ()) () 1 1 0 ())
(145 'rmshlmpar' (REAL 8) (2 DEFERRED () () () ()) () 1 1 0 ()) (146
'rmshlmtra' (REAL 8) (1 DEFERRED () ()) () 1 1 0 ()) (147 'totsta' (
INTEGER 4) (1 DEFERRED () ()) () 1 1 0 ()) (148 'refsta' (INTEGER 4) (1
DEFERRED () ()) () 1 1 0 ()) (149 'rejsta' (INTEGER 4) (1 DEFERRED () ())
() 1 1 0 ()) (150 'hlmparoffst' (REAL 8) (1 EXPLICIT (CONSTANT (INTEGER
4) 0 '1') (CONSTANT (INTEGER 4) 0 '7')) () 1 0 0 ()) (151 'hlmparoffstrms'
(REAL 8) (1 EXPLICIT (CONSTANT (INTEGER 4) 0 '1') (CONSTANT (INTEGER 4)
0 '7')) () 1 0 0 ()) (152 'hlmpardrift' (REAL 8) (1 EXPLICIT (CONSTANT (
INTEGER 4) 0 '1') (CONSTANT (INTEGER 4) 0 '7')) () 1 0 0 ()) (153
'hlmpardriftrms' (REAL 8) (1 EXPLICIT (CONSTANT (INTEGER 4) 0 '1') (
CONSTANT (INTEGER 4) 0 '7')) () 1 0 0 ())) PUBLIC ())
140 't_san' 'p_fodits' 20 ((DERIVED UNKNOWN UNKNOWN UNKNOWN NONE NONE) (
UNKNOWN) 0 0 () () () '' ((154 'nper' (INTEGER 4) () () 0 0 0 ()) (155
'per' (REAL 8) (1 DEFERRED () ()) () 1 1 0 ())) PUBLIC ())
138 't_ctr' 'p_fodits' 20 ((DERIVED UNKNOWN UNKNOWN UNKNOWN NONE NONE) (
UNKNOWN) 0 0 () () () '' ((156 'niterloop' (INTEGER 4) () () 0 0 0 ()) (
157 'modnumiter' (REAL 8) (1 DEFERRED () ()) () 1 1 0 ()) (158
'modnumiteroutl' (REAL 8) (1 DEFERRED () ()) () 1 1 0 ()) (159 'nscrnloop'
(INTEGER 4) () () 0 0 0 ()) (160 'modnumscrn' (REAL 8) (1 DEFERRED () ())
() 1 1 0 ()) (161 'modnumscrnoutl' (REAL 8) (1 DEFERRED () ()) () 1 1 0
()) (162 'nremoloop' (INTEGER 4) () () 0 0 0 ())) PUBLIC ())
136 't_lsb' 'p_fodits' 20 ((DERIVED UNKNOWN UNKNOWN UNKNOWN NONE NONE) (
UNKNOWN) 0 0 () () () '' ((163 'prevvtv' (REAL 8) () () 0 0 0 ()) (164
'm0' (REAL 8) () () 0 0 0 ())) PUBLIC ())
134 't_lsa' 'p_fodits' 20 ((DERIVED UNKNOWN UNKNOWN UNKNOWN NONE NONE) (
UNKNOWN) 0 0 () () () '' ((165 'nnpar' (INTEGER 4) () () 0 0 0 ()) (166
'nnmjd' (INTEGER 4) () () 0 0 0 ()) (167 'a' (REAL 8) (2 DEFERRED () ()
() ()) () 1 1 0 ()) (168 'qxx' (REAL 8) (2 DEFERRED () () () ()) () 1 1
0 ()) (169 'y' (REAL 8) (1 DEFERRED () ()) () 1 1 0 ()) (170 'x' (REAL 8)
(1 DEFERRED () ()) () 1 1 0 ()) (171 'mod' (REAL 8) (1 DEFERRED () ()) ()
1 1 0 ()) (172 'v' (REAL 8) (1 DEFERRED () ()) () 1 1 0 ()) (173 'p' (
REAL 8) (1 DEFERRED () ()) () 1 1 0 ()) (174 'iqyy' (REAL 8) (3 DEFERRED
() () () () () ()) () 1 1 0 ()) (175 'dof' (INTEGER 4) () () 0 0 0 ()) (
176 'detn' (REAL 8) () () 0 0 0 ()) (177 'vtv' (REAL 8) () () 0 0 0 ())
(178 'm0' (REAL 8) () () 0 0 0 ())) PUBLIC ())
132 't_mdl' 'p_fodits' 20 ((DERIVED UNKNOWN UNKNOWN UNKNOWN NONE NONE) (
UNKNOWN) 0 0 () () () '' ((179 'evnt' (DERIVED 180) () () 0 0 0 ()) (
181 'napri' (INTEGER 4) () () 0 0 0 ()) (182 'apri' (DERIVED 180) (1
DEFERRED () ()) () 1 1 0 ()) (183 'niden' (INTEGER 4) () () 0 0 0 ()) (
184 'iden' (DERIVED 180) (1 DEFERRED () ()) () 1 1 0 ()) (185 'namod' (
INTEGER 4) () () 0 0 0 ()) (186 'amod' (DERIVED 180) (1 DEFERRED () ())
() 1 1 0 ()) (187 'outlmjd' (REAL 8) (1 DEFERRED () ()) () 1 1 0 ()))
PUBLIC ())
180 't_evnt' 'p_fodits' 20 ((DERIVED UNKNOWN UNKNOWN UNKNOWN NONE NONE)
(UNKNOWN) 0 0 () () () '' ((188 'type' (INTEGER 4) () () 0 0 0 ()) (189
'info' (INTEGER 4) () () 0 0 0 ()) (190 'mjd' (REAL 8) () () 0 0 0 ()) (
191 'omega' (REAL 8) () () 0 0 0 ()) (192 'timint' (DERIVED 50) () () 0
0 0 ()) (193 'flag' (INTEGER 4) () () 0 0 0 ()) (194 'remark' (
CHARACTER 1 ((CONSTANT (INTEGER 4) 0 '8'))) () () 0 0 0 ()) (195 'index'
(INTEGER 4) () () 0 0 0 ()) (196 'cand' (INTEGER 4) () () 0 0 0 ()) (
197 'par' (REAL 8) (1 EXPLICIT (CONSTANT (INTEGER 4) 0 '1') (CONSTANT (
INTEGER 4) 0 '3')) () 1 0 0 ()) (198 'val' (REAL 8) () () 0 0 0 ()) (
199 'dval' (REAL 8) () () 0 0 0 ()) (200 'vltst' (REAL 8) () () 0 0 0 ())
(201 'sttst' (REAL 8) () () 0 0 0 ()) (202 'sitst' (INTEGER 4) () () 0 0
0 ()) (203 'rename' (CHARACTER 1 ((CONSTANT (INTEGER 4) 0 '2'))) () () 0
0 0 ()) (204 'recchg' (CHARACTER 1 ((CONSTANT (INTEGER 4) 0 '20'))) (1
EXPLICIT (CONSTANT (INTEGER 4) 0 '1') (CONSTANT (INTEGER 4) 0 '2')) () 1
0 0 ()) (205 'antchg' (CHARACTER 1 ((CONSTANT (INTEGER 4) 0 '20'))) (1
EXPLICIT (CONSTANT (INTEGER 4) 0 '1') (CONSTANT (INTEGER 4) 0 '2')) () 1
0 0 ()) (206 'eccchg' (REAL 8) (2 EXPLICIT (CONSTANT (INTEGER 4) 0 '1')
(CONSTANT (INTEGER 4) 0 '3') (CONSTANT (INTEGER 4) 0 '1') (CONSTANT (
INTEGER 4) 0 '2')) () 1 0 0 ()) (207 'mjd2' (REAL 8) () () 0 0 0 ()) (
208 'dpar' (REAL 8) (1 EXPLICIT (CONSTANT (INTEGER 4) 0 '1') (CONSTANT (
INTEGER 4) 0 '3')) () 1 0 0 ()) (209 'phi' (REAL 8) (1 EXPLICIT (
CONSTANT (INTEGER 4) 0 '1') (CONSTANT (INTEGER 4) 0 '3')) () 1 0 0 ()) (
210 'ppar' (REAL 8) (2 EXPLICIT (CONSTANT (INTEGER 4) 0 '1') (CONSTANT (
INTEGER 4) 0 '3') (CONSTANT (INTEGER 4) 0 '1') (CONSTANT (INTEGER 4) 0 '2'))
() 1 0 0 ()) (211 'mod' (REAL 8) (1 EXPLICIT (CONSTANT (INTEGER 4) 0 '1')
(CONSTANT (INTEGER 4) 0 '3')) () 1 0 0 ())) PUBLIC ())
130 't_score_stat' 'p_fodits' 20 ((DERIVED UNKNOWN UNKNOWN UNKNOWN NONE
NONE) (UNKNOWN) 0 0 () () () '' ((212 'name' (CHARACTER 1 ((CONSTANT (
INTEGER 4) 0 '16'))) () () 0 0 0 ()) (213 'irefsta' (INTEGER 4) () () 0
0 0 ()) (214 'nstasta' (INTEGER 4) () () 0 0 0 ()) (215 'stasta' (
DERIVED 216) (1 DEFERRED () ()) () 1 1 0 ()) (217 'outcrdxyz' (REAL 8) (
1 EXPLICIT (CONSTANT (INTEGER 4) 0 '1') (CONSTANT (INTEGER 4) 0 '3')) ()
1 0 0 ()) (218 'outvelxyz' (REAL 8) (1 EXPLICIT (CONSTANT (INTEGER 4) 0
'1') (CONSTANT (INTEGER 4) 0 '3')) () 1 0 0 ()) (219 'nitersteps' (
INTEGER 4) () () 0 0 0 ()) (220 'modrms' (REAL 8) () () 0 0 0 ()) (221
'singular' (INTEGER 4) () () 0 0 0 ()) (222 'ts' (DERIVED 223) () () 0 0
0 ()) (224 'mod' (DERIVED 225) () () 0 0 0 ()) (226 'upd' (DERIVED 227)
() () 0 0 0 ())) PUBLIC ())
227 't_upd' 'p_fodits' 20 ((DERIVED UNKNOWN UNKNOWN UNKNOWN NONE NONE) (
UNKNOWN) 0 0 () () () '' ((228 'nren' (INTEGER 4) () () 0 0 0 ()) (229
'ren' (DERIVED 230) (1 DEFERRED () ()) () 1 1 0 ()) (231 'stastatusref'
(INTEGER 4) () () 0 0 0 ()) (232 'maxtimeinterv' (REAL 8) () () 0 0 0 ()))
PUBLIC ())
230 't_upd_ren' 'p_fodits' 20 ((DERIVED UNKNOWN UNKNOWN UNKNOWN NONE
NONE) (UNKNOWN) 0 0 () () () '' ((233 'type' (INTEGER 4) () () 0 0 0 ())
(234 'info' (INTEGER 4) () () 0 0 0 ()) (235 'timint' (DERIVED 50) () ()
0 0 0 ()) (236 'rename' (CHARACTER 1 ((CONSTANT (INTEGER 4) 0 '2'))) ()
() 0 0 0 ()) (237 'cnstr' (INTEGER 4) () () 0 0 0 ()) (238 'group' (
INTEGER 4) () () 0 0 0 ()) (239 'grouplength' (REAL 8) () () 0 0 0 ()) (
240 'groupnumdata' (INTEGER 4) () () 0 0 0 ()) (241 'remark' (CHARACTER
1 ((CONSTANT (INTEGER 4) 0 '8'))) () () 0 0 0 ())) PUBLIC ())
225 't_mod' 'p_fodits' 20 ((DERIVED UNKNOWN UNKNOWN UNKNOWN NONE NONE) (
UNKNOWN) 0 0 () () () '' ((242 'nevnt' (INTEGER 4) () () 0 0 0 ()) (243
'evnt' (DERIVED 180) (1 DEFERRED () ()) () 1 1 0 ())) PUBLIC ())
223 't_ts' 'p_fodits' 20 ((DERIVED UNKNOWN UNKNOWN UNKNOWN NONE NONE) (
UNKNOWN) 0 0 () () () '' ((244 'nval' (INTEGER 4) () () 0 0 0 ()) (245
'nmjd' (INTEGER 4) () () 0 0 0 ()) (246 'mjd' (REAL 8) (1 DEFERRED () ())
() 1 1 0 ()) (247 'val' (REAL 8) (2 DEFERRED () () () ()) () 1 1 0 ()) (
248 'dval' (REAL 8) (2 DEFERRED () () () ()) () 1 1 0 ()) (249 'vci' (
REAL 8) (3 DEFERRED () () () () () ()) () 1 1 0 ()) (250 'ddef' (REAL 8)
(2 DEFERRED () () () ()) () 1 1 0 ()) (251 'ddefrej' (INTEGER 4) (1
DEFERRED () ()) () 1 1 0 ())) PUBLIC ())
216 't_stasta' 'p_fodits' 20 ((DERIVED UNKNOWN UNKNOWN UNKNOWN NONE NONE)
(UNKNOWN) 0 0 () () () '' ((252 'rename' (CHARACTER 1 ((CONSTANT (
INTEGER 4) 0 '16'))) () () 0 0 0 ()) (253 'timint' (DERIVED 50) () () 0
0 0 ()) (254 'incrdxyz' (REAL 8) (1 EXPLICIT (CONSTANT (INTEGER 4) 0 '1')
(CONSTANT (INTEGER 4) 0 '3')) () 1 0 0 ()) (255 'incrdneu' (REAL 8) (1
EXPLICIT (CONSTANT (INTEGER 4) 0 '1') (CONSTANT (INTEGER 4) 0 '3')) () 1
0 0 ()) (256 'incrdflg' (CHARACTER 1 ((CONSTANT (INTEGER 4) 0 '1'))) ()
() 0 0 0 ()) (257 'invelxyz' (REAL 8) (1 EXPLICIT (CONSTANT (INTEGER 4)
0 '1') (CONSTANT (INTEGER 4) 0 '3')) () 1 0 0 ()) (258 'invelneu' (REAL
8) (1 EXPLICIT (CONSTANT (INTEGER 4) 0 '1') (CONSTANT (INTEGER 4) 0 '3'))
() 1 0 0 ()) (259 'invelflg' (CHARACTER 1 ((CONSTANT (INTEGER 4) 0 '5')))
() () 0 0 0 ()) (260 'invelplate' (CHARACTER 1 ((CONSTANT (INTEGER 4) 0
'4'))) () () 0 0 0 ())) PUBLIC ())
16 'opt' '' 20 ((VARIABLE UNKNOWN UNKNOWN UNKNOWN NONE NONE DUMMY) (
DERIVED 261) 0 0 () () () '' () ())
261 't_opt' 'p_fodits' 20 ((DERIVED UNKNOWN UNKNOWN UNKNOWN NONE NONE) (
UNKNOWN) 0 0 () () () '' ((262 'rdonlystanames' (INTEGER 4) () () 0 0 0
()) (263 'selinptstype' (INTEGER 4) () () 0 0 0 ()) (264 'inpltfile' (
CHARACTER 1 ((CONSTANT (INTEGER 4) 0 '32'))) () () 0 0 0 ()) (265
'inpltfilevciena' (INTEGER 4) () () 0 0 0 ()) (266 'inpltfilevim0' (
REAL 8) () () 0 0 0 ()) (267 'incrdfile' (CHARACTER 1 ((CONSTANT (
INTEGER 4) 0 '32'))) () () 0 0 0 ()) (268 'invelfile' (CHARACTER 1 ((
CONSTANT (INTEGER 4) 0 '32'))) () () 0 0 0 ()) (269 'ncrds' (INTEGER 4)
() () 0 0 0 ()) (270 'crdfilename' (CHARACTER 1 ((CONSTANT (INTEGER 4) 0
'32'))) (1 DEFERRED () ()) () 1 1 0 ()) (271 'inevlfile' (CHARACTER 1 (
(CONSTANT (INTEGER 4) 0 '32'))) () () 0 0 0 ()) (272 'instafile' (
CHARACTER 1 ((CONSTANT (INTEGER 4) 0 '32'))) () () 0 0 0 ()) (273
'inerqfile' (CHARACTER 1 ((CONSTANT (INTEGER 4) 0 '80'))) () () 0 0 0 ())
(274 'const' (CHARACTER 1 ((CONSTANT (INTEGER 4) 0 '32'))) () () 0 0 0 ())
(275 'datum' (CHARACTER 1 ((CONSTANT (INTEGER 4) 0 '32'))) () () 0 0 0 ())
(276 'gvarerqfacta' (REAL 8) () () 0 0 0 ()) (277 'gvarerqfactb' (REAL 8)
() () 0 0 0 ()) (278 'gvarerqmindist' (REAL 8) () () 0 0 0 ()) (279
'incrdfileaddplt' (INTEGER 4) () () 0 0 0 ()) (280 'invelfileaddplt' (
INTEGER 4) () () 0 0 0 ()) (281 'gvarmaxnriterstep' (INTEGER 4) () () 0
0 0 ()) (282 'gvarmaxnrscrnstep' (INTEGER 4) () () 0 0 0 ()) (283
'modnnewoutl' (INTEGER 4) () () 0 0 0 ()) (284 'modnoutlrms' (REAL 8) ()
() 0 0 0 ()) (285 'outevlfile' (CHARACTER 1 ((CONSTANT (INTEGER 4) 0 '32')))
() () 0 0 0 ()) (286 'outstafileforaddneq2' (CHARACTER 1 ((CONSTANT (
INTEGER 4) 0 '32'))) () () 0 0 0 ()) (287 'outpltfile' (CHARACTER 1 ((
CONSTANT (INTEGER 4) 0 '32'))) () () 0 0 0 ()) (288 'outfileverbose' (
INTEGER 4) () () 0 0 0 ()) (289 'outfileverboset' (INTEGER 4) () () 0 0
0 ()) (290 'outfileverbosett' (INTEGER 4) () () 0 0 0 ()) (291 'title' (
CHARACTER 1 ((CONSTANT (INTEGER 4) 0 '80'))) () () 0 0 0 ()) (292
'intruncstaname' (INTEGER 4) () () 0 0 0 ()) (293 'nstasel' (INTEGER 4)
() () 0 0 0 ()) (294 'instaselection' (CHARACTER 1 ((CONSTANT (INTEGER 4)
0 '16'))) (1 DEFERRED () ()) () 1 1 0 ()) (295 'inminnrobs' (INTEGER 4)
() () 0 0 0 ()) (296 'tstevltst' (INTEGER 4) () () 0 0 0 ()) (297
'tststarenamings' (INTEGER 4) () () 0 0 0 ()) (298 'tstrectypechanges' (
INTEGER 4) () () 0 0 0 ()) (299 'tstrecnumberchanges' (INTEGER 4) () ()
0 0 0 ()) (300 'tstanttypechanges' (INTEGER 4) () () 0 0 0 ()) (301
'tstantnumberchanges' (INTEGER 4) () () 0 0 0 ()) (302 'tsteccchanges' (
INTEGER 4) () () 0 0 0 ()) (303 'modpredattest' (INTEGER 4) () () 0 0 0
()) (304 'minintervforvel' (REAL 8) () () 0 0 0 ()) (305 'modperann' (
INTEGER 4) () () 0 0 0 ()) (306 'modaddena' (INTEGER 4) () () 0 0 0 ())
(307 'naddperparam' (INTEGER 4) () () 0 0 0 ()) (308 'modaddperparam' (
REAL 8) (1 DEFERRED () ()) () 1 1 0 ()) (309 'indatumcrdfile' (
CHARACTER 1 ((CONSTANT (INTEGER 4) 0 '32'))) () () 0 0 0 ()) (310
'indatumvelfile' (CHARACTER 1 ((CONSTANT (INTEGER 4) 0 '32'))) () () 0 0
0 ()) (311 'indatumfixfile' (CHARACTER 1 ((CONSTANT (INTEGER 4) 0 '32')))
() () 0 0 0 ()) (312 'dathlmtx' (INTEGER 4) () () 0 0 0 ()) (313
'dathlmty' (INTEGER 4) () () 0 0 0 ()) (314 'dathlmtz' (INTEGER 4) () ()
0 0 0 ()) (315 'dathlmrx' (INTEGER 4) () () 0 0 0 ()) (316 'dathlmry' (
INTEGER 4) () () 0 0 0 ()) (317 'dathlmrz' (INTEGER 4) () () 0 0 0 ()) (
318 'dathlmsc' (INTEGER 4) () () 0 0 0 ()) (319 'datrejectcrd' (INTEGER
4) () () 0 0 0 ()) (320 'datnlimitcrd' (REAL 8) () () 0 0 0 ()) (321
'datelimitcrd' (REAL 8) () () 0 0 0 ()) (322 'datulimitcrd' (REAL 8) ()
() 0 0 0 ()) (323 'datrejectoutlcrd' (INTEGER 4) () () 0 0 0 ()) (324
'modtestvalue' (REAL 8) () () 0 0 0 ()) (325 'modoutltestvalue' (REAL 8)
() () 0 0 0 ()) (326 'modjumpspac' (REAL 8) () () 0 0 0 ()) (327
'modjumpsing' (REAL 8) () () 0 0 0 ()) (328 'modjumphori' (REAL 8) () ()
0 0 0 ()) (329 'modjumpvert' (REAL 8) () () 0 0 0 ()) (330 'modvelospac'
(REAL 8) () () 0 0 0 ()) (331 'modvelosing' (REAL 8) () () 0 0 0 ()) (
332 'modvelohori' (REAL 8) () () 0 0 0 ()) (333 'modvelovert' (REAL 8) ()
() 0 0 0 ()) (334 'modoutlspac' (REAL 8) () () 0 0 0 ()) (335
'modoutlsing' (REAL 8) () () 0 0 0 ()) (336 'modoutlhori' (REAL 8) () ()
0 0 0 ()) (337 'modoutlvert' (REAL 8) () () 0 0 0 ()) (338 'modperispac'
(REAL 8) () () 0 0 0 ()) (339 'modperising' (REAL 8) () () 0 0 0 ()) (
340 'modperihori' (REAL 8) () () 0 0 0 ()) (341 'modperivert' (REAL 8) ()
() 0 0 0 ()) (342 'modnewjumpidentify' (INTEGER 4) () () 0 0 0 ()) (343
'modnewveloidentify' (INTEGER 4) () () 0 0 0 ()) (344 'modnewoutlidentify'
(INTEGER 4) () () 0 0 0 ()) (345 'modnewperiidentify' (INTEGER 4) () ()
0 0 0 ()) (346 'modaddveloaj' (INTEGER 4) () () 0 0 0 ()) (347 'sannlines'
(INTEGER 4) () () 0 0 0 ()) (348 'sanminperiod' (REAL 8) () () 0 0 0 ())
(349 'sanmaxperiod' (REAL 8) () () 0 0 0 ()) (350 'outtimref' (REAL 8) ()
() 0 0 0 ()) (351 'mintimeintlength' (REAL 8) () () 0 0 0 ()) (352
'minpercdatafix' (REAL 8) () () 0 0 0 ()) (353 'incrdfileforaddneq2' (
CHARACTER 1 ((CONSTANT (INTEGER 4) 0 '32'))) () () 0 0 0 ()) (354
'invelfileforaddneq2' (CHARACTER 1 ((CONSTANT (INTEGER 4) 0 '32'))) () ()
0 0 0 ()) (355 'infixfileforaddneq2' (CHARACTER 1 ((CONSTANT (INTEGER 4)
0 '32'))) () () 0 0 0 ()) (356 'insigfileforaddneq2' (CHARACTER 1 ((
CONSTANT (INTEGER 4) 0 '32'))) () () 0 0 0 ()) (357 'outcrdfileforaddneq2'
(CHARACTER 1 ((CONSTANT (INTEGER 4) 0 '32'))) () () 0 0 0 ()) (358
'outvelfileforaddneq2' (CHARACTER 1 ((CONSTANT (INTEGER 4) 0 '32'))) ()
() 0 0 0 ()) (359 'outfixfileforaddneq2' (CHARACTER 1 ((CONSTANT (
INTEGER 4) 0 '32'))) () () 0 0 0 ()) (360 'outsigfileforaddneq2' (
CHARACTER 1 ((CONSTANT (INTEGER 4) 0 '32'))) () () 0 0 0 ()) (361
'updstandays' (INTEGER 4) () () 0 0 0 ()) (362 'gvarcstrcrd' (REAL 8) ()
() 0 0 0 ()) (363 'gvarcstrvel' (REAL 8) () () 0 0 0 ())) PUBLIC ())
14 'vci' '' 364 ((VARIABLE IN UNKNOWN UNKNOWN NONE NONE DIMENSION
OPTIONAL DUMMY) (REAL 8) 0 0 () (2 EXPLICIT (CONSTANT (INTEGER 4) 0 '1')
(CONSTANT (INTEGER 4) 0 '3') (CONSTANT (INTEGER 4) 0 '1') (CONSTANT (
INTEGER 4) 0 '3')) () '' () ())
13 'dval' '' 364 ((VARIABLE IN UNKNOWN UNKNOWN NONE NONE DIMENSION
OPTIONAL DUMMY) (REAL 8) 0 0 () (1 EXPLICIT (CONSTANT (INTEGER 4) 0 '1')
(CONSTANT (INTEGER 4) 0 '3')) () '' () ())
12 'm0' '' 364 ((VARIABLE IN UNKNOWN UNKNOWN NONE NONE DUMMY) (REAL 8) 0
0 () () () '' () ())
11 'val' '' 364 ((VARIABLE IN UNKNOWN UNKNOWN NONE NONE DIMENSION DUMMY)
(REAL 8) 0 0 () (1 EXPLICIT (CONSTANT (INTEGER 4) 0 '1') (CONSTANT (
INTEGER 4) 0 '3')) () '' () ())
10 'mjd' '' 364 ((VARIABLE IN UNKNOWN UNKNOWN NONE NONE DUMMY) (REAL 8)
0 0 () () () '' () ())
9 'imjd' '' 364 ((VARIABLE IN UNKNOWN UNKNOWN NONE NONE DUMMY) (INTEGER
4) 0 0 () () () '' () ())
8 'staname' '' 364 ((VARIABLE IN UNKNOWN UNKNOWN NONE NONE DUMMY) (
CHARACTER 1 ((CONSTANT (INTEGER 4) 0 '16'))) 0 0 () () () '' () ())
7 'pltfil' '' 364 ((VARIABLE IN UNKNOWN UNKNOWN NONE NONE DUMMY) (
INTEGER 4) 0 0 () () () '' () ())
5 'datfil' '' 365 ((VARIABLE UNKNOWN UNKNOWN UNKNOWN NONE NONE DUMMY) (
DERIVED 366) 0 0 () () () '' () ())
366 't_datfil' 'p_fodits' 365 ((DERIVED UNKNOWN UNKNOWN UNKNOWN NONE
NONE) (UNKNOWN) 0 0 () () () '' ((367 'stain' (DERIVED 368) () () 0 0 0
()) (369 'evlin' (DERIVED 370) () () 0 0 0 ()) (371 'erqin' (DERIVED 372)
() () 0 0 0 ()) (373 'staout' (DERIVED 368) () () 0 0 0 ()) (374 'evlout'
(DERIVED 370) () () 0 0 0 ())) PUBLIC ())
372 't_erq' 'p_fodits' 365 ((DERIVED UNKNOWN UNKNOWN UNKNOWN NONE NONE)
(UNKNOWN) 0 0 () () () '' ((375 'nerq' (INTEGER 4) () () 0 0 0 ()) (376
'erq' (DERIVED 377) (1 DEFERRED () ()) () 1 1 0 ())) PUBLIC ())
377 't_erq_nr' 'p_fodits' 365 ((DERIVED UNKNOWN UNKNOWN UNKNOWN NONE
NONE) (UNKNOWN) 0 0 () () () '' ((378 'mjd' (REAL 8) () () 0 0 0 ()) (
379 'lat' (REAL 8) () () 0 0 0 ()) (380 'lon' (REAL 8) () () 0 0 0 ()) (
381 'crdxyz' (REAL 8) (1 EXPLICIT (CONSTANT (INTEGER 4) 0 '1') (
CONSTANT (INTEGER 4) 0 '3')) () 1 0 0 ()) (382 'dep' (INTEGER 4) () () 0
0 0 ()) (383 'mag' (REAL 8) () () 0 0 0 ()) (384 'magdescr' (CHARACTER 1
((CONSTANT (INTEGER 4) 0 '5'))) () () 0 0 0 ())) PUBLIC ())
370 't_evl' 'p_fodits' 365 ((DERIVED UNKNOWN UNKNOWN UNKNOWN NONE NONE)
(UNKNOWN) 0 0 () () () '' ((385 'nsta' (INTEGER 4) () () 0 0 0 ()) (386
'sta' (DERIVED 387) (1 DEFERRED () ()) () 1 1 0 ())) PUBLIC ())
387 't_evl_sta' 'p_fodits' 365 ((DERIVED UNKNOWN UNKNOWN UNKNOWN NONE
NONE) (UNKNOWN) 0 0 () () () '' ((388 'name' (CHARACTER 1 ((CONSTANT (
INTEGER 4) 0 '16'))) () () 0 0 0 ()) (389 'nevnt' (INTEGER 4) () () 0 0
0 ()) (390 'evnt' (DERIVED 391) (1 DEFERRED () ()) () 1 1 0 ())) PUBLIC
())
391 't_evl_sta_evnt' 'p_fodits' 365 ((DERIVED UNKNOWN UNKNOWN UNKNOWN
NONE NONE) (UNKNOWN) 0 0 () () () '' ((392 'type' (CHARACTER 1 ((
CONSTANT (INTEGER 4) 0 '4'))) () () 0 0 0 ()) (393 'omega' (REAL 8) () ()
0 0 0 ()) (394 'timint' (DERIVED 395) () () 0 0 0 ()) (396 'flag' (
CHARACTER 1 ((CONSTANT (INTEGER 4) 0 '3'))) () () 0 0 0 ()) (397 'remark'
(CHARACTER 1 ((CONSTANT (INTEGER 4) 0 '8'))) () () 0 0 0 ()) (398 'par'
(REAL 8) (1 EXPLICIT (CONSTANT (INTEGER 4) 0 '1') (CONSTANT (INTEGER 4)
0 '3')) () 1 0 0 ()) (399 'val' (REAL 8) () () 0 0 0 ()) (400 'dval' (
REAL 8) () () 0 0 0 ()) (401 'sttst' (REAL 8) () () 0 0 0 ()) (402 'sitst'
(INTEGER 4) () () 0 0 0 ()) (403 'phi' (REAL 8) (1 EXPLICIT (CONSTANT (
INTEGER 4) 0 '1') (CONSTANT (INTEGER 4) 0 '3')) () 1 0 0 ())) PUBLIC ())
395 't_timint' 'm_time' 365 ((DERIVED UNKNOWN UNKNOWN UNKNOWN NONE NONE)
(UNKNOWN) 0 0 () () () '' ((404 't' (REAL 8) (1 EXPLICIT (CONSTANT (
INTEGER 4) 0 '1') (CONSTANT (INTEGER 4) 0 '2')) () 1 0 0 ())) PUBLIC ())
368 't_stacrux' 'd_stacrx' 365 ((DERIVED UNKNOWN UNKNOWN UNKNOWN NONE
NONE) (UNKNOWN) 0 0 () () () '' ((405 'nrenam' (INTEGER 4) () () 0 0 0 ())
(406 'ninfo' (INTEGER 4) () () 0 0 0 ()) (407 'nprob' (INTEGER 4) () ()
0 0 0 ()) (408 'ncoovel' (INTEGER 4) () () 0 0 0 ()) (409 'nrelpar' (
INTEGER 4) () () 0 0 0 ()) (410 'nstatype' (INTEGER 4) () () 0 0 0 ()) (
411 'version' (REAL 8) () () 0 0 0 ()) (412 'technique' (CHARACTER 1 ((
CONSTANT (INTEGER 4) 0 '30'))) () () 0 0 0 ()) (413 'renamsta' (DERIVED
414) (1 DEFERRED () ()) () 1 1 0 ()) (415 'stainfo' (DERIVED 416) (1
DEFERRED () ()) () 1 1 0 ()) (417 'staprob' (DERIVED 418) (1 DEFERRED ()
()) () 1 1 0 ()) (419 'coovel' (DERIVED 420) (1 DEFERRED () ()) () 1 1 0
()) (421 'starelpar' (DERIVED 422) (1 DEFERRED () ()) () 1 1 0 ()) (423
'statype' (DERIVED 424) (1 DEFERRED () ()) () 1 1 0 ())) PUBLIC ())
424 't_statype' 'd_stacrx' 365 ((DERIVED UNKNOWN UNKNOWN UNKNOWN NONE
NONE) (UNKNOWN) 0 0 () () () '' ((425 'stanam' (CHARACTER 1 ((CONSTANT (
INTEGER 4) 0 '16'))) () () 0 0 0 ()) (426 'flg' (CHARACTER 1 ((CONSTANT
(INTEGER 4) 0 '3'))) () () 0 0 0 ()) (427 'timint' (DERIVED 395) () () 0
0 0 ()) (428 'markertype' (CHARACTER 1 ((CONSTANT (INTEGER 4) 0 '20')))
() () 0 0 0 ()) (429 'remark' (CHARACTER 1 ((CONSTANT (INTEGER 4) 0 '24')))
() () 0 0 0 ())) PUBLIC ())
422 't_starelpar' 'd_stacrx' 365 ((DERIVED UNKNOWN UNKNOWN UNKNOWN NONE
NONE) (UNKNOWN) 0 0 () () () '' ((430 'stanam' (CHARACTER 1 ((CONSTANT (
INTEGER 4) 0 '16'))) (1 EXPLICIT (CONSTANT (INTEGER 4) 0 '1') (CONSTANT
(INTEGER 4) 0 '2')) () 1 0 0 ()) (431 'flg' (CHARACTER 1 ((CONSTANT (
INTEGER 4) 0 '3'))) () () 0 0 0 ()) (432 'timwin' (DERIVED 395) () () 0
0 0 ()) (433 'partyp' (CHARACTER 1 ((CONSTANT (INTEGER 4) 0 '8'))) () ()
0 0 0 ()) (434 'sys' (CHARACTER 1 ((CONSTANT (INTEGER 4) 0 '3'))) (1
EXPLICIT (CONSTANT (INTEGER 4) 0 '1') (CONSTANT (INTEGER 4) 0 '2')) () 1
0 0 ()) (435 'loctie' (REAL 8) (1 EXPLICIT (CONSTANT (INTEGER 4) 0 '1')
(CONSTANT (INTEGER 4) 0 '3')) () 1 0 0 ()) (436 'constr' (REAL 8) (1
EXPLICIT (CONSTANT (INTEGER 4) 0 '1') (CONSTANT (INTEGER 4) 0 '3')) () 1
0 0 ()) (437 'correl' (REAL 8) (1 EXPLICIT (CONSTANT (INTEGER 4) 0 '1')
(CONSTANT (INTEGER 4) 0 '3')) () 1 0 0 ()) (438 'remark' (CHARACTER 1 (
(CONSTANT (INTEGER 4) 0 '24'))) () () 0 0 0 ()) (439 'applied' (LOGICAL
4) () () 0 0 0 ())) PUBLIC ())
420 't_coovel' 'd_stacrx' 365 ((DERIVED UNKNOWN UNKNOWN UNKNOWN NONE
NONE) (UNKNOWN) 0 0 () () () '' ((440 'stanam' (CHARACTER 1 ((CONSTANT (
INTEGER 4) 0 '16'))) (1 EXPLICIT (CONSTANT (INTEGER 4) 0 '1') (CONSTANT
(INTEGER 4) 0 '2')) () 1 0 0 ()) (441 'constr' (REAL 8) (1 EXPLICIT (
CONSTANT (INTEGER 4) 0 '1') (CONSTANT (INTEGER 4) 0 '6')) () 1 0 0 ()))
PUBLIC ())
418 't_staprob' 'd_stacrx' 365 ((DERIVED UNKNOWN UNKNOWN UNKNOWN NONE
NONE) (UNKNOWN) 0 0 () () () '' ((442 'stanam' (CHARACTER 1 ((CONSTANT (
INTEGER 4) 0 '16'))) () () 0 0 0 ()) (443 'flg' (CHARACTER 1 ((CONSTANT
(INTEGER 4) 0 '3'))) () () 0 0 0 ()) (444 'timint' (DERIVED 395) () () 0
0 0 ()) (445 'remark' (CHARACTER 1 ((CONSTANT (INTEGER 4) 0 '60'))) () ()
0 0 0 ())) PUBLIC ())
416 't_stainfo' 'd_stacrx' 365 ((DERIVED UNKNOWN UNKNOWN UNKNOWN NONE
NONE) (UNKNOWN) 0 0 () () () '' ((446 'stanam' (CHARACTER 1 ((CONSTANT (
INTEGER 4) 0 '16'))) () () 0 0 0 ()) (447 'flg' (CHARACTER 1 ((CONSTANT
(INTEGER 4) 0 '3'))) () () 0 0 0 ()) (448 'timint' (DERIVED 395) () () 0
0 0 ()) (449 'recnam' (CHARACTER 1 ((CONSTANT (INTEGER 4) 0 '20'))) () ()
0 0 0 ()) (450 'antnam' (CHARACTER 1 ((CONSTANT (INTEGER 4) 0 '20'))) ()
() 0 0 0 ()) (451 'recser' (CHARACTER 1 ((CONSTANT (INTEGER 4) 0 '20')))
() () 0 0 0 ()) (452 'antser' (CHARACTER 1 ((CONSTANT (INTEGER 4) 0 '20')))
() () 0 0 0 ()) (453 'recnum' (INTEGER 4) () () 0 0 0 ()) (454 'antnum'
(INTEGER 4) () () 0 0 0 ()) (455 'antecc' (REAL 8) (1 EXPLICIT (
CONSTANT (INTEGER 4) 0 '1') (CONSTANT (INTEGER 4) 0 '3')) () 1 0 0 ()) (
456 'descri' (CHARACTER 1 ((CONSTANT (INTEGER 4) 0 '22'))) () () 0 0 0 ())
(457 'remark' (CHARACTER 1 ((CONSTANT (INTEGER 4) 0 '24'))) () () 0 0 0
()) (458 'cdpsod' (CHARACTER 1 ((CONSTANT (INTEGER 4) 0 '8'))) () () 0 0
0 ())) PUBLIC ())
414 't_renamsta' 'd_stacrx' 365 ((DERIVED UNKNOWN UNKNOWN UNKNOWN NONE
NONE) (UNKNOWN) 0 0 () () () '' ((459 'stanam' (CHARACTER 1 ((CONSTANT (
INTEGER 4) 0 '16'))) () () 0 0 0 ()) (460 'flg' (CHARACTER 1 ((CONSTANT
(INTEGER 4) 0 '3'))) () () 0 0 0 ()) (461 'timint' (DERIVED 395) () () 0
0 0 ()) (462 'oldnam' (CHARACTER 1 ((CONSTANT (INTEGER 4) 0 '16'))) () ()
0 0 0 ()) (463 'remark' (CHARACTER 1 ((CONSTANT (INTEGER 4) 0 '24'))) ()
() 0 0 0 ())) PUBLIC ())
4 'score' '' 365 ((VARIABLE UNKNOWN UNKNOWN UNKNOWN NONE NONE DUMMY) (
DERIVED 464) 0 0 () () () '' () ())
464 't_score' 'p_fodits' 365 ((DERIVED UNKNOWN UNKNOWN UNKNOWN NONE NONE)
(UNKNOWN) 0 0 () () () '' ((465 'nsta' (INTEGER 4) () () 0 0 0 ()) (466
'nval' (INTEGER 4) () () 0 0 0 ()) (467 'ntotmjd' (INTEGER 4) () () 0 0
0 ()) (468 'begmjd' (REAL 8) () () 0 0 0 ()) (469 'endmjd' (REAL 8) () ()
0 0 0 ()) (470 'deltamjd' (REAL 8) () () 0 0 0 ()) (471 'intimrefcrd' (
REAL 8) () () 0 0 0 ()) (472 'outtimrefcrd' (REAL 8) () () 0 0 0 ()) (
473 'datumname' (CHARACTER 1 ((CONSTANT (INTEGER 4) 0 '16'))) () () 0 0
0 ()) (474 'sta' (DERIVED 475) (1 DEFERRED () ()) () 1 1 0 ()) (476 'mdl'
(DERIVED 477) () () 0 0 0 ()) (478 'lsa' (DERIVED 479) () () 0 0 0 ()) (
480 'lsb' (DERIVED 481) () () 0 0 0 ()) (482 'ctr' (DERIVED 483) () () 0
0 0 ()) (484 'san' (DERIVED 485) () () 0 0 0 ()) (486 'ddf' (DERIVED 487)
() () 0 0 0 ())) PUBLIC ())
487 't_datumdef' 'p_fodits' 365 ((DERIVED UNKNOWN UNKNOWN UNKNOWN NONE
NONE) (UNKNOWN) 0 0 () () () '' ((488 'mjd' (REAL 8) (1 DEFERRED () ())
() 1 1 0 ()) (489 'hlmpar' (REAL 8) (2 DEFERRED () () () ()) () 1 1 0 ())
(490 'rmshlmpar' (REAL 8) (2 DEFERRED () () () ()) () 1 1 0 ()) (491
'rmshlmtra' (REAL 8) (1 DEFERRED () ()) () 1 1 0 ()) (492 'totsta' (
INTEGER 4) (1 DEFERRED () ()) () 1 1 0 ()) (493 'refsta' (INTEGER 4) (1
DEFERRED () ()) () 1 1 0 ()) (494 'rejsta' (INTEGER 4) (1 DEFERRED () ())
() 1 1 0 ()) (495 'hlmparoffst' (REAL 8) (1 EXPLICIT (CONSTANT (INTEGER
4) 0 '1') (CONSTANT (INTEGER 4) 0 '7')) () 1 0 0 ()) (496 'hlmparoffstrms'
(REAL 8) (1 EXPLICIT (CONSTANT (INTEGER 4) 0 '1') (CONSTANT (INTEGER 4)
0 '7')) () 1 0 0 ()) (497 'hlmpardrift' (REAL 8) (1 EXPLICIT (CONSTANT (
INTEGER 4) 0 '1') (CONSTANT (INTEGER 4) 0 '7')) () 1 0 0 ()) (498
'hlmpardriftrms' (REAL 8) (1 EXPLICIT (CONSTANT (INTEGER 4) 0 '1') (
CONSTANT (INTEGER 4) 0 '7')) () 1 0 0 ())) PUBLIC ())
485 't_san' 'p_fodits' 365 ((DERIVED UNKNOWN UNKNOWN UNKNOWN NONE NONE)
(UNKNOWN) 0 0 () () () '' ((499 'nper' (INTEGER 4) () () 0 0 0 ()) (500
'per' (REAL 8) (1 DEFERRED () ()) () 1 1 0 ())) PUBLIC ())
483 't_ctr' 'p_fodits' 365 ((DERIVED UNKNOWN UNKNOWN UNKNOWN NONE NONE)
(UNKNOWN) 0 0 () () () '' ((501 'niterloop' (INTEGER 4) () () 0 0 0 ())
(502 'modnumiter' (REAL 8) (1 DEFERRED () ()) () 1 1 0 ()) (503
'modnumiteroutl' (REAL 8) (1 DEFERRED () ()) () 1 1 0 ()) (504 'nscrnloop'
(INTEGER 4) () () 0 0 0 ()) (505 'modnumscrn' (REAL 8) (1 DEFERRED () ())
() 1 1 0 ()) (506 'modnumscrnoutl' (REAL 8) (1 DEFERRED () ()) () 1 1 0
()) (507 'nremoloop' (INTEGER 4) () () 0 0 0 ())) PUBLIC ())
481 't_lsb' 'p_fodits' 365 ((DERIVED UNKNOWN UNKNOWN UNKNOWN NONE NONE)
(UNKNOWN) 0 0 () () () '' ((508 'prevvtv' (REAL 8) () () 0 0 0 ()) (509
'm0' (REAL 8) () () 0 0 0 ())) PUBLIC ())
479 't_lsa' 'p_fodits' 365 ((DERIVED UNKNOWN UNKNOWN UNKNOWN NONE NONE)
(UNKNOWN) 0 0 () () () '' ((510 'nnpar' (INTEGER 4) () () 0 0 0 ()) (
511 'nnmjd' (INTEGER 4) () () 0 0 0 ()) (512 'a' (REAL 8) (2 DEFERRED ()
() () ()) () 1 1 0 ()) (513 'qxx' (REAL 8) (2 DEFERRED () () () ()) () 1
1 0 ()) (514 'y' (REAL 8) (1 DEFERRED () ()) () 1 1 0 ()) (515 'x' (
REAL 8) (1 DEFERRED () ()) () 1 1 0 ()) (516 'mod' (REAL 8) (1 DEFERRED
() ()) () 1 1 0 ()) (517 'v' (REAL 8) (1 DEFERRED () ()) () 1 1 0 ()) (
518 'p' (REAL 8) (1 DEFERRED () ()) () 1 1 0 ()) (519 'iqyy' (REAL 8) (
3 DEFERRED () () () () () ()) () 1 1 0 ()) (520 'dof' (INTEGER 4) () ()
0 0 0 ()) (521 'detn' (REAL 8) () () 0 0 0 ()) (522 'vtv' (REAL 8) () ()
0 0 0 ()) (523 'm0' (REAL 8) () () 0 0 0 ())) PUBLIC ())
477 't_mdl' 'p_fodits' 365 ((DERIVED UNKNOWN UNKNOWN UNKNOWN NONE NONE)
(UNKNOWN) 0 0 () () () '' ((524 'evnt' (DERIVED 525) () () 0 0 0 ()) (
526 'napri' (INTEGER 4) () () 0 0 0 ()) (527 'apri' (DERIVED 525) (1
DEFERRED () ()) () 1 1 0 ()) (528 'niden' (INTEGER 4) () () 0 0 0 ()) (
529 'iden' (DERIVED 525) (1 DEFERRED () ()) () 1 1 0 ()) (530 'namod' (
INTEGER 4) () () 0 0 0 ()) (531 'amod' (DERIVED 525) (1 DEFERRED () ())
() 1 1 0 ()) (532 'outlmjd' (REAL 8) (1 DEFERRED () ()) () 1 1 0 ()))
PUBLIC ())
525 't_evnt' 'p_fodits' 365 ((DERIVED UNKNOWN UNKNOWN UNKNOWN NONE NONE)
(UNKNOWN) 0 0 () () () '' ((533 'type' (INTEGER 4) () () 0 0 0 ()) (534
'info' (INTEGER 4) () () 0 0 0 ()) (535 'mjd' (REAL 8) () () 0 0 0 ()) (
536 'omega' (REAL 8) () () 0 0 0 ()) (537 'timint' (DERIVED 395) () () 0
0 0 ()) (538 'flag' (INTEGER 4) () () 0 0 0 ()) (539 'remark' (
CHARACTER 1 ((CONSTANT (INTEGER 4) 0 '8'))) () () 0 0 0 ()) (540 'index'
(INTEGER 4) () () 0 0 0 ()) (541 'cand' (INTEGER 4) () () 0 0 0 ()) (
542 'par' (REAL 8) (1 EXPLICIT (CONSTANT (INTEGER 4) 0 '1') (CONSTANT (
INTEGER 4) 0 '3')) () 1 0 0 ()) (543 'val' (REAL 8) () () 0 0 0 ()) (
544 'dval' (REAL 8) () () 0 0 0 ()) (545 'vltst' (REAL 8) () () 0 0 0 ())
(546 'sttst' (REAL 8) () () 0 0 0 ()) (547 'sitst' (INTEGER 4) () () 0 0
0 ()) (548 'rename' (CHARACTER 1 ((CONSTANT (INTEGER 4) 0 '2'))) () () 0
0 0 ()) (549 'recchg' (CHARACTER 1 ((CONSTANT (INTEGER 4) 0 '20'))) (1
EXPLICIT (CONSTANT (INTEGER 4) 0 '1') (CONSTANT (INTEGER 4) 0 '2')) () 1
0 0 ()) (550 'antchg' (CHARACTER 1 ((CONSTANT (INTEGER 4) 0 '20'))) (1
EXPLICIT (CONSTANT (INTEGER 4) 0 '1') (CONSTANT (INTEGER 4) 0 '2')) () 1
0 0 ()) (551 'eccchg' (REAL 8) (2 EXPLICIT (CONSTANT (INTEGER 4) 0 '1')
(CONSTANT (INTEGER 4) 0 '3') (CONSTANT (INTEGER 4) 0 '1') (CONSTANT (
INTEGER 4) 0 '2')) () 1 0 0 ()) (552 'mjd2' (REAL 8) () () 0 0 0 ()) (
553 'dpar' (REAL 8) (1 EXPLICIT (CONSTANT (INTEGER 4) 0 '1') (CONSTANT (
INTEGER 4) 0 '3')) () 1 0 0 ()) (554 'phi' (REAL 8) (1 EXPLICIT (
CONSTANT (INTEGER 4) 0 '1') (CONSTANT (INTEGER 4) 0 '3')) () 1 0 0 ()) (
555 'ppar' (REAL 8) (2 EXPLICIT (CONSTANT (INTEGER 4) 0 '1') (CONSTANT (
INTEGER 4) 0 '3') (CONSTANT (INTEGER 4) 0 '1') (CONSTANT (INTEGER 4) 0 '2'))
() 1 0 0 ()) (556 'mod' (REAL 8) (1 EXPLICIT (CONSTANT (INTEGER 4) 0 '1')
(CONSTANT (INTEGER 4) 0 '3')) () 1 0 0 ())) PUBLIC ())
475 't_score_stat' 'p_fodits' 365 ((DERIVED UNKNOWN UNKNOWN UNKNOWN NONE
NONE) (UNKNOWN) 0 0 () () () '' ((557 'name' (CHARACTER 1 ((CONSTANT (
INTEGER 4) 0 '16'))) () () 0 0 0 ()) (558 'irefsta' (INTEGER 4) () () 0
0 0 ()) (559 'nstasta' (INTEGER 4) () () 0 0 0 ()) (560 'stasta' (
DERIVED 561) (1 DEFERRED () ()) () 1 1 0 ()) (562 'outcrdxyz' (REAL 8) (
1 EXPLICIT (CONSTANT (INTEGER 4) 0 '1') (CONSTANT (INTEGER 4) 0 '3')) ()
1 0 0 ()) (563 'outvelxyz' (REAL 8) (1 EXPLICIT (CONSTANT (INTEGER 4) 0
'1') (CONSTANT (INTEGER 4) 0 '3')) () 1 0 0 ()) (564 'nitersteps' (
INTEGER 4) () () 0 0 0 ()) (565 'modrms' (REAL 8) () () 0 0 0 ()) (566
'singular' (INTEGER 4) () () 0 0 0 ()) (567 'ts' (DERIVED 568) () () 0 0
0 ()) (569 'mod' (DERIVED 570) () () 0 0 0 ()) (571 'upd' (DERIVED 572)
() () 0 0 0 ())) PUBLIC ())
572 't_upd' 'p_fodits' 365 ((DERIVED UNKNOWN UNKNOWN UNKNOWN NONE NONE)
(UNKNOWN) 0 0 () () () '' ((573 'nren' (INTEGER 4) () () 0 0 0 ()) (574
'ren' (DERIVED 575) (1 DEFERRED () ()) () 1 1 0 ()) (576 'stastatusref'
(INTEGER 4) () () 0 0 0 ()) (577 'maxtimeinterv' (REAL 8) () () 0 0 0 ()))
PUBLIC ())
575 't_upd_ren' 'p_fodits' 365 ((DERIVED UNKNOWN UNKNOWN UNKNOWN NONE
NONE) (UNKNOWN) 0 0 () () () '' ((578 'type' (INTEGER 4) () () 0 0 0 ())
(579 'info' (INTEGER 4) () () 0 0 0 ()) (580 'timint' (DERIVED 395) () ()
0 0 0 ()) (581 'rename' (CHARACTER 1 ((CONSTANT (INTEGER 4) 0 '2'))) ()
() 0 0 0 ()) (582 'cnstr' (INTEGER 4) () () 0 0 0 ()) (583 'group' (
INTEGER 4) () () 0 0 0 ()) (584 'grouplength' (REAL 8) () () 0 0 0 ()) (
585 'groupnumdata' (INTEGER 4) () () 0 0 0 ()) (586 'remark' (CHARACTER
1 ((CONSTANT (INTEGER 4) 0 '8'))) () () 0 0 0 ())) PUBLIC ())
570 't_mod' 'p_fodits' 365 ((DERIVED UNKNOWN UNKNOWN UNKNOWN NONE NONE)
(UNKNOWN) 0 0 () () () '' ((587 'nevnt' (INTEGER 4) () () 0 0 0 ()) (
588 'evnt' (DERIVED 525) (1 DEFERRED () ()) () 1 1 0 ())) PUBLIC ())
568 't_ts' 'p_fodits' 365 ((DERIVED UNKNOWN UNKNOWN UNKNOWN NONE NONE) (
UNKNOWN) 0 0 () () () '' ((589 'nval' (INTEGER 4) () () 0 0 0 ()) (590
'nmjd' (INTEGER 4) () () 0 0 0 ()) (591 'mjd' (REAL 8) (1 DEFERRED () ())
() 1 1 0 ()) (592 'val' (REAL 8) (2 DEFERRED () () () ()) () 1 1 0 ()) (
593 'dval' (REAL 8) (2 DEFERRED () () () ()) () 1 1 0 ()) (594 'vci' (
REAL 8) (3 DEFERRED () () () () () ()) () 1 1 0 ()) (595 'ddef' (REAL 8)
(2 DEFERRED () () () ()) () 1 1 0 ()) (596 'ddefrej' (INTEGER 4) (1
DEFERRED () ()) () 1 1 0 ())) PUBLIC ())
561 't_stasta' 'p_fodits' 365 ((DERIVED UNKNOWN UNKNOWN UNKNOWN NONE
NONE) (UNKNOWN) 0 0 () () () '' ((597 'rename' (CHARACTER 1 ((CONSTANT (
INTEGER 4) 0 '16'))) () () 0 0 0 ()) (598 'timint' (DERIVED 395) () () 0
0 0 ()) (599 'incrdxyz' (REAL 8) (1 EXPLICIT (CONSTANT (INTEGER 4) 0 '1')
(CONSTANT (INTEGER 4) 0 '3')) () 1 0 0 ()) (600 'incrdneu' (REAL 8) (1
EXPLICIT (CONSTANT (INTEGER 4) 0 '1') (CONSTANT (INTEGER 4) 0 '3')) () 1
0 0 ()) (601 'incrdflg' (CHARACTER 1 ((CONSTANT (INTEGER 4) 0 '1'))) ()
() 0 0 0 ()) (602 'invelxyz' (REAL 8) (1 EXPLICIT (CONSTANT (INTEGER 4)
0 '1') (CONSTANT (INTEGER 4) 0 '3')) () 1 0 0 ()) (603 'invelneu' (REAL
8) (1 EXPLICIT (CONSTANT (INTEGER 4) 0 '1') (CONSTANT (INTEGER 4) 0 '3'))
() 1 0 0 ()) (604 'invelflg' (CHARACTER 1 ((CONSTANT (INTEGER 4) 0 '5')))
() () 0 0 0 ()) (605 'invelplate' (CHARACTER 1 ((CONSTANT (INTEGER 4) 0
'4'))) () () 0 0 0 ())) PUBLIC ())
3 'opt' '' 365 ((VARIABLE UNKNOWN UNKNOWN UNKNOWN NONE NONE DUMMY) (
DERIVED 606) 0 0 () () () '' () ())
606 't_opt' 'p_fodits' 365 ((DERIVED UNKNOWN UNKNOWN UNKNOWN NONE NONE)
(UNKNOWN) 0 0 () () () '' ((607 'rdonlystanames' (INTEGER 4) () () 0 0 0
()) (608 'selinptstype' (INTEGER 4) () () 0 0 0 ()) (609 'inpltfile' (
CHARACTER 1 ((CONSTANT (INTEGER 4) 0 '32'))) () () 0 0 0 ()) (610
'inpltfilevciena' (INTEGER 4) () () 0 0 0 ()) (611 'inpltfilevim0' (
REAL 8) () () 0 0 0 ()) (612 'incrdfile' (CHARACTER 1 ((CONSTANT (
INTEGER 4) 0 '32'))) () () 0 0 0 ()) (613 'invelfile' (CHARACTER 1 ((
CONSTANT (INTEGER 4) 0 '32'))) () () 0 0 0 ()) (614 'ncrds' (INTEGER 4)
() () 0 0 0 ()) (615 'crdfilename' (CHARACTER 1 ((CONSTANT (INTEGER 4) 0
'32'))) (1 DEFERRED () ()) () 1 1 0 ()) (616 'inevlfile' (CHARACTER 1 (
(CONSTANT (INTEGER 4) 0 '32'))) () () 0 0 0 ()) (617 'instafile' (
CHARACTER 1 ((CONSTANT (INTEGER 4) 0 '32'))) () () 0 0 0 ()) (618
'inerqfile' (CHARACTER 1 ((CONSTANT (INTEGER 4) 0 '80'))) () () 0 0 0 ())
(619 'const' (CHARACTER 1 ((CONSTANT (INTEGER 4) 0 '32'))) () () 0 0 0 ())
(620 'datum' (CHARACTER 1 ((CONSTANT (INTEGER 4) 0 '32'))) () () 0 0 0 ())
(621 'gvarerqfacta' (REAL 8) () () 0 0 0 ()) (622 'gvarerqfactb' (REAL 8)
() () 0 0 0 ()) (623 'gvarerqmindist' (REAL 8) () () 0 0 0 ()) (624
'incrdfileaddplt' (INTEGER 4) () () 0 0 0 ()) (625 'invelfileaddplt' (
INTEGER 4) () () 0 0 0 ()) (626 'gvarmaxnriterstep' (INTEGER 4) () () 0
0 0 ()) (627 'gvarmaxnrscrnstep' (INTEGER 4) () () 0 0 0 ()) (628
'modnnewoutl' (INTEGER 4) () () 0 0 0 ()) (629 'modnoutlrms' (REAL 8) ()
() 0 0 0 ()) (630 'outevlfile' (CHARACTER 1 ((CONSTANT (INTEGER 4) 0 '32')))
() () 0 0 0 ()) (631 'outstafileforaddneq2' (CHARACTER 1 ((CONSTANT (
INTEGER 4) 0 '32'))) () () 0 0 0 ()) (632 'outpltfile' (CHARACTER 1 ((
CONSTANT (INTEGER 4) 0 '32'))) () () 0 0 0 ()) (633 'outfileverbose' (
INTEGER 4) () () 0 0 0 ()) (634 'outfileverboset' (INTEGER 4) () () 0 0
0 ()) (635 'outfileverbosett' (INTEGER 4) () () 0 0 0 ()) (636 'title' (
CHARACTER 1 ((CONSTANT (INTEGER 4) 0 '80'))) () () 0 0 0 ()) (637
'intruncstaname' (INTEGER 4) () () 0 0 0 ()) (638 'nstasel' (INTEGER 4)
() () 0 0 0 ()) (639 'instaselection' (CHARACTER 1 ((CONSTANT (INTEGER 4)
0 '16'))) (1 DEFERRED () ()) () 1 1 0 ()) (640 'inminnrobs' (INTEGER 4)
() () 0 0 0 ()) (641 'tstevltst' (INTEGER 4) () () 0 0 0 ()) (642
'tststarenamings' (INTEGER 4) () () 0 0 0 ()) (643 'tstrectypechanges' (
INTEGER 4) () () 0 0 0 ()) (644 'tstrecnumberchanges' (INTEGER 4) () ()
0 0 0 ()) (645 'tstanttypechanges' (INTEGER 4) () () 0 0 0 ()) (646
'tstantnumberchanges' (INTEGER 4) () () 0 0 0 ()) (647 'tsteccchanges' (
INTEGER 4) () () 0 0 0 ()) (648 'modpredattest' (INTEGER 4) () () 0 0 0
()) (649 'minintervforvel' (REAL 8) () () 0 0 0 ()) (650 'modperann' (
INTEGER 4) () () 0 0 0 ()) (651 'modaddena' (INTEGER 4) () () 0 0 0 ())
(652 'naddperparam' (INTEGER 4) () () 0 0 0 ()) (653 'modaddperparam' (
REAL 8) (1 DEFERRED () ()) () 1 1 0 ()) (654 'indatumcrdfile' (
CHARACTER 1 ((CONSTANT (INTEGER 4) 0 '32'))) () () 0 0 0 ()) (655
'indatumvelfile' (CHARACTER 1 ((CONSTANT (INTEGER 4) 0 '32'))) () () 0 0
0 ()) (656 'indatumfixfile' (CHARACTER 1 ((CONSTANT (INTEGER 4) 0 '32')))
() () 0 0 0 ()) (657 'dathlmtx' (INTEGER 4) () () 0 0 0 ()) (658
'dathlmty' (INTEGER 4) () () 0 0 0 ()) (659 'dathlmtz' (INTEGER 4) () ()
0 0 0 ()) (660 'dathlmrx' (INTEGER 4) () () 0 0 0 ()) (661 'dathlmry' (
INTEGER 4) () () 0 0 0 ()) (662 'dathlmrz' (INTEGER 4) () () 0 0 0 ()) (
663 'dathlmsc' (INTEGER 4) () () 0 0 0 ()) (664 'datrejectcrd' (INTEGER
4) () () 0 0 0 ()) (665 'datnlimitcrd' (REAL 8) () () 0 0 0 ()) (666
'datelimitcrd' (REAL 8) () () 0 0 0 ()) (667 'datulimitcrd' (REAL 8) ()
() 0 0 0 ()) (668 'datrejectoutlcrd' (INTEGER 4) () () 0 0 0 ()) (669
'modtestvalue' (REAL 8) () () 0 0 0 ()) (670 'modoutltestvalue' (REAL 8)
() () 0 0 0 ()) (671 'modjumpspac' (REAL 8) () () 0 0 0 ()) (672
'modjumpsing' (REAL 8) () () 0 0 0 ()) (673 'modjumphori' (REAL 8) () ()
0 0 0 ()) (674 'modjumpvert' (REAL 8) () () 0 0 0 ()) (675 'modvelospac'
(REAL 8) () () 0 0 0 ()) (676 'modvelosing' (REAL 8) () () 0 0 0 ()) (
677 'modvelohori' (REAL 8) () () 0 0 0 ()) (678 'modvelovert' (REAL 8) ()
() 0 0 0 ()) (679 'modoutlspac' (REAL 8) () () 0 0 0 ()) (680
'modoutlsing' (REAL 8) () () 0 0 0 ()) (681 'modoutlhori' (REAL 8) () ()
0 0 0 ()) (682 'modoutlvert' (REAL 8) () () 0 0 0 ()) (683 'modperispac'
(REAL 8) () () 0 0 0 ()) (684 'modperising' (REAL 8) () () 0 0 0 ()) (
685 'modperihori' (REAL 8) () () 0 0 0 ()) (686 'modperivert' (REAL 8) ()
() 0 0 0 ()) (687 'modnewjumpidentify' (INTEGER 4) () () 0 0 0 ()) (688
'modnewveloidentify' (INTEGER 4) () () 0 0 0 ()) (689 'modnewoutlidentify'
(INTEGER 4) () () 0 0 0 ()) (690 'modnewperiidentify' (INTEGER 4) () ()
0 0 0 ()) (691 'modaddveloaj' (INTEGER 4) () () 0 0 0 ()) (692 'sannlines'
(INTEGER 4) () () 0 0 0 ()) (693 'sanminperiod' (REAL 8) () () 0 0 0 ())
(694 'sanmaxperiod' (REAL 8) () () 0 0 0 ()) (695 'outtimref' (REAL 8) ()
() 0 0 0 ()) (696 'mintimeintlength' (REAL 8) () () 0 0 0 ()) (697
'minpercdatafix' (REAL 8) () () 0 0 0 ()) (698 'incrdfileforaddneq2' (
CHARACTER 1 ((CONSTANT (INTEGER 4) 0 '32'))) () () 0 0 0 ()) (699
'invelfileforaddneq2' (CHARACTER 1 ((CONSTANT (INTEGER 4) 0 '32'))) () ()
0 0 0 ()) (700 'infixfileforaddneq2' (CHARACTER 1 ((CONSTANT (INTEGER 4)
0 '32'))) () () 0 0 0 ()) (701 'insigfileforaddneq2' (CHARACTER 1 ((
CONSTANT (INTEGER 4) 0 '32'))) () () 0 0 0 ()) (702 'outcrdfileforaddneq2'
(CHARACTER 1 ((CONSTANT (INTEGER 4) 0 '32'))) () () 0 0 0 ()) (703
'outvelfileforaddneq2' (CHARACTER 1 ((CONSTANT (INTEGER 4) 0 '32'))) ()
() 0 0 0 ()) (704 'outfixfileforaddneq2' (CHARACTER 1 ((CONSTANT (
INTEGER 4) 0 '32'))) () () 0 0 0 ()) (705 'outsigfileforaddneq2' (
CHARACTER 1 ((CONSTANT (INTEGER 4) 0 '32'))) () () 0 0 0 ()) (706
'updstandays' (INTEGER 4) () () 0 0 0 ()) (707 'gvarcstrcrd' (REAL 8) ()
() 0 0 0 ()) (708 'gvarcstrvel' (REAL 8) () () 0 0 0 ())) PUBLIC ())
)

('fodiwdat' 0 2 'fodiwdat_pltcrdline' 0 6 'fodiwdat_synthetictimeseries'
0 15 's_fodiwdat' 0 19)
