G95 module created on Thu Jun 25 17:50:14 2020 from ./.fpp/GETABB.f90
If you edit this, you'll get what you deserve.
module-version 9
(() () () () () () () () () () () () () () () () () () () () ())

()

()

()

()

(2 'getabb' 's_getabb' 1 ((PROCEDURE UNKNOWN MODULE-PROC DECL NONE NONE
SUBROUTINE) (PROCEDURE 0) 0 0 (3 NONE 4 NONE 5 NONE 6 NONE 7 NONE) () ()
'' () ())
8 's_getabb' 's_getabb' 1 ((MODULE UNKNOWN UNKNOWN UNKNOWN NONE NONE) (
UNKNOWN) 0 0 () () () '' () ())
7 'abbidx' '' 9 ((VARIABLE UNKNOWN UNKNOWN UNKNOWN NONE NONE DIMENSION
POINTER DUMMY) (INTEGER 4) 0 0 () (1 DEFERRED () ()) () '' () ())
6 'nabb' '' 9 ((VARIABLE UNKNOWN UNKNOWN UNKNOWN NONE NONE DUMMY) (
INTEGER 4) 0 0 () () () '' () ())
5 'abbrev' '' 9 ((VARIABLE UNKNOWN UNKNOWN UNKNOWN NONE NONE DUMMY) (
DERIVED 10) 0 0 () () () '' () ())
10 't_abbrev' 'd_abbrev' 9 ((DERIVED UNKNOWN UNKNOWN UNKNOWN NONE NONE)
(UNKNOWN) 0 0 () () () '' ((11 'title' (CHARACTER 1 ((CONSTANT (INTEGER
4) 0 '255'))) () () 0 0 0 ()) (12 'nabb' (INTEGER 4) () () 0 0 0 ()) (
13 'abb' (DERIVED 14) (1 DEFERRED () ()) () 1 1 0 ())) PUBLIC ())
14 't_abbsta' 'd_abbrev' 9 ((DERIVED UNKNOWN UNKNOWN UNKNOWN NONE NONE)
(UNKNOWN) 0 0 () () () '' ((15 'stanam' (CHARACTER 1 ((CONSTANT (
INTEGER 4) 0 '16'))) () () 0 0 0 ()) (16 'staab4' (CHARACTER 1 ((
CONSTANT (INTEGER 4) 0 '4'))) () () 0 0 0 ()) (17 'staab2' (CHARACTER 1
((CONSTANT (INTEGER 4) 0 '2'))) () () 0 0 0 ()) (18 'remark' (CHARACTER
1 ((CONSTANT (INTEGER 4) 0 '39'))) () () 0 0 0 ())) PUBLIC ())
4 'strtyp' '' 9 ((VARIABLE UNKNOWN UNKNOWN UNKNOWN NONE NONE DUMMY) (
INTEGER 4) 0 0 () () () '' () ())
3 'stastr' '' 9 ((VARIABLE UNKNOWN UNKNOWN UNKNOWN NONE NONE DUMMY) (
CHARACTER 1 (())) 0 0 () () () '' () ())
)

('getabb' 0 2 's_getabb' 0 8)
