G95 module created on Thu Jun 25 17:48:27 2020 from ./.fpp/GTFREQ.f90
If you edit this, you'll get what you deserve.
module-version 9
(() () () () () () () () () () () () () () () () () () () () ())

()

()

()

()

(2 'gtfreq' 's_gtfreq' 1 ((PROCEDURE UNKNOWN MODULE-PROC DECL NONE NONE
SUBROUTINE) (PROCEDURE 0) 0 0 (3 NONE 4 NONE 5 NONE 6 NONE 7 NONE 8 NONE)
() () '' () ())
9 's_gtfreq' 's_gtfreq' 1 ((MODULE UNKNOWN UNKNOWN UNKNOWN NONE NONE) (
UNKNOWN) 0 0 () () () '' () ())
8 'reqfreq' '' 10 ((VARIABLE UNKNOWN UNKNOWN UNKNOWN NONE NONE DUMMY) (
REAL 8) 0 0 () () () '' () ())
7 'epoch' '' 10 ((VARIABLE UNKNOWN UNKNOWN UNKNOWN NONE NONE DUMMY) (
REAL 8) 0 0 () () () '' () ())
6 'frqnam' '' 10 ((VARIABLE UNKNOWN UNKNOWN UNKNOWN NONE NONE DUMMY) (
CHARACTER 1 ((CONSTANT (INTEGER 4) 0 '2'))) 0 0 () () () '' () ())
5 'satsta' '' 10 ((VARIABLE UNKNOWN UNKNOWN UNKNOWN NONE NONE DUMMY) (
CHARACTER 1 ((CONSTANT (INTEGER 4) 0 '16'))) 0 0 () () () '' () ())
4 'meatyp' '' 10 ((VARIABLE UNKNOWN UNKNOWN UNKNOWN NONE NONE DUMMY) (
INTEGER 4) 0 0 () () () '' () ())
3 'freq' '' 10 ((VARIABLE UNKNOWN UNKNOWN UNKNOWN NONE NONE DIMENSION
DUMMY) (DERIVED 11) 0 0 () (1 ASSUMED_SHAPE () ()) () '' () ())
11 't_freq' 'd_frqfil' 10 ((DERIVED UNKNOWN UNKNOWN UNKNOWN NONE NONE) (
UNKNOWN) 0 0 () () () '' ((12 'typstrg' (CHARACTER 1 ((CONSTANT (
INTEGER 4) 0 '5'))) () () 0 0 0 ()) (13 'satsta' (CHARACTER 1 ((
CONSTANT (INTEGER 4) 0 '20'))) () () 0 0 0 ()) (14 'name' (CHARACTER 1 (
(CONSTANT (INTEGER 4) 0 '2'))) () () 0 0 0 ()) (15 'value' (REAL 8) () ()
0 0 0 ()) (16 'unit' (CHARACTER 1 ((CONSTANT (INTEGER 4) 0 '4'))) () ()
0 0 0 ()) (17 'window' (REAL 8) (1 EXPLICIT (CONSTANT (INTEGER 4) 0 '1')
(CONSTANT (INTEGER 4) 0 '2')) () 1 0 0 ()) (18 'remark' (CHARACTER 1 ((
CONSTANT (INTEGER 4) 0 '23'))) () () 0 0 0 ())) PUBLIC ())
)

('gtfreq' 0 2 's_gtfreq' 0 9)
