G95 module created on Thu Jun 25 17:50:44 2020 from ./.fpp/GTORBMD.f90
If you edit this, you'll get what you deserve.
module-version 9
(() () () () () () () () () () () () () () () () () () () () ())

()

()

()

()

(2 'gtorbmd' 's_gtorbmd' 1 ((PROCEDURE UNKNOWN MODULE-PROC DECL NONE
NONE SUBROUTINE) (PROCEDURE 0) 0 0 (3 NONE 4 NONE) () () '' () ())
5 's_gtorbmd' 's_gtorbmd' 1 ((MODULE UNKNOWN UNKNOWN UNKNOWN NONE NONE)
(UNKNOWN) 0 0 () () () '' () ())
4 'orbdsc' '' 6 ((VARIABLE UNKNOWN UNKNOWN UNKNOWN NONE NONE DUMMY) (
DERIVED 7) 0 0 () () () '' () ())
7 't_orbmodel' 'p_orbgen' 6 ((DERIVED UNKNOWN UNKNOWN UNKNOWN NONE NONE)
(UNKNOWN) 0 0 () () () '' ((8 'nlin' (INTEGER 4) () () 0 0 0 ()) (9
'orbmod' (CHARACTER 1 ((CONSTANT (INTEGER 4) 0 '80'))) (1 EXPLICIT (
CONSTANT (INTEGER 4) 0 '1') (CONSTANT (INTEGER 4) 0 '20')) () 1 0 0 ())
(10 'otdmin' (REAL 8) () () 0 0 0 ()) (11 'otddeg' (INTEGER 4) () () 0 0
0 ())) PUBLIC ())
3 'filstd' '' 6 ((VARIABLE UNKNOWN UNKNOWN UNKNOWN NONE NONE DUMMY) (
CHARACTER 1 (())) 0 0 () () () '' () ())
)

('gtorbmd' 0 2 's_gtorbmd' 0 5)
