G95 module created on Thu Jun 25 17:49:01 2020 from ./.fpp/GTSTANUM.f90
If you edit this, you'll get what you deserve.
module-version 9
(() () () () () () () () () () () () () () () () () () () () ())

()

()

()

()

(2 'gtstanum' 's_gtstanum' 1 ((PROCEDURE UNKNOWN MODULE-PROC DECL NONE
NONE SUBROUTINE) (PROCEDURE 0) 0 0 (3 NONE 4 NONE 5 NONE 6 NONE 7 NONE 8
NONE 9 NONE 10 NONE 11 NONE 12 NONE 13 NONE 14 NONE) () () '' () ())
15 's_gtstanum' 's_gtstanum' 1 ((MODULE UNKNOWN UNKNOWN UNKNOWN NONE
NONE) (UNKNOWN) 0 0 () () () '' () ())
14 'weight' '' 16 ((VARIABLE UNKNOWN UNKNOWN UNKNOWN NONE NONE DIMENSION
POINTER DUMMY) (REAL 8) 0 0 () (2 DEFERRED () () () ()) () '' () ())
13 'nweight' '' 16 ((VARIABLE UNKNOWN UNKNOWN UNKNOWN NONE NONE DUMMY) (
INTEGER 4) 0 0 () () () '' () ())
12 'stanam' '' 16 ((VARIABLE UNKNOWN UNKNOWN UNKNOWN NONE NONE DIMENSION
POINTER DUMMY) (CHARACTER 1 (())) 0 0 () (1 DEFERRED () ()) () '' () ())
11 'stanum' '' 16 ((VARIABLE OUT UNKNOWN UNKNOWN NONE NONE DIMENSION
DUMMY) (INTEGER 4) 0 0 () (1 ASSUMED_SHAPE () ()) () '' () ())
10 'nsta' '' 16 ((VARIABLE OUT UNKNOWN UNKNOWN NONE NONE DUMMY) (
INTEGER 4) 0 0 () () () '' () ())
9 'keynameflg' '' 16 ((VARIABLE IN UNKNOWN UNKNOWN NONE NONE DUMMY) (
CHARACTER 1 (())) 0 0 () () () '' () ())
8 'keynamefil' '' 16 ((VARIABLE IN UNKNOWN UNKNOWN NONE NONE DUMMY) (
CHARACTER 1 (())) 0 0 () () () '' () ())
7 'keynamesta' '' 16 ((VARIABLE IN UNKNOWN UNKNOWN NONE NONE DUMMY) (
CHARACTER 1 (())) 0 0 () () () '' () ())
6 'keylist' '' 16 ((VARIABLE IN UNKNOWN UNKNOWN NONE NONE DUMMY) (
CHARACTER 1 (())) 0 0 () () () '' () ())
5 'allstaname' '' 16 ((VARIABLE IN UNKNOWN UNKNOWN NONE NONE DIMENSION
DUMMY) (CHARACTER 1 (())) 0 0 () (1 ASSUMED_SHAPE () ()) () '' () ())
4 'allstanum' '' 16 ((VARIABLE IN UNKNOWN UNKNOWN NONE NONE DIMENSION
DUMMY) (INTEGER 4) 0 0 () (1 ASSUMED_SIZE (CONSTANT (INTEGER 4) 0 '1') ())
() '' () ())
3 'nallsta' '' 16 ((VARIABLE IN UNKNOWN UNKNOWN NONE NONE DUMMY) (
INTEGER 4) 0 0 () () () '' () ())
)

('gtstanum' 0 2 's_gtstanum' 0 15)
