G95 module created on Thu Jun 25 17:48:21 2020 from ./.fpp/GTSATA.f90
If you edit this, you'll get what you deserve.
module-version 9
(() () () () () () () () () () () () () () () () () () () () ())

()

()

()

()

(2 'gtsata' 's_gtsata' 1 ((PROCEDURE UNKNOWN MODULE-PROC DECL NONE NONE
SUBROUTINE) (PROCEDURE 0) 0 0 (3 NONE 4 NONE 5 NONE 6 NONE 7 NONE 8 NONE
9 NONE 10 NONE) () () '' () ())
11 's_gtsata' 's_gtsata' 1 ((MODULE UNKNOWN UNKNOWN UNKNOWN NONE NONE) (
UNKNOWN) 0 0 () () () '' () ())
10 'sennum' '' 12 ((VARIABLE UNKNOWN UNKNOWN UNKNOWN NONE NONE DIMENSION
DUMMY) (INTEGER 4) 0 0 () (1 EXPLICIT (CONSTANT (INTEGER 4) 0 '1') (
VARIABLE (INTEGER 4) 0 3 ())) () '' () ())
9 'satblk' '' 12 ((VARIABLE UNKNOWN UNKNOWN UNKNOWN NONE NONE DIMENSION
DUMMY) (INTEGER 4) 0 0 () (1 EXPLICIT (CONSTANT (INTEGER 4) 0 '1') (
VARIABLE (INTEGER 4) 0 3 ())) () '' () ())
8 'satnam' '' 12 ((VARIABLE UNKNOWN UNKNOWN UNKNOWN NONE NONE DIMENSION
DUMMY) (CHARACTER 1 ((CONSTANT (INTEGER 4) 0 '20'))) 0 0 () (2 EXPLICIT
(CONSTANT (INTEGER 4) 0 '1') (CONSTANT (INTEGER 4) 0 '2') (CONSTANT (
INTEGER 4) 0 '1') (VARIABLE (INTEGER 4) 0 3 ())) () '' () ())
7 'timint' '' 12 ((VARIABLE UNKNOWN UNKNOWN UNKNOWN NONE NONE DIMENSION
DUMMY) (REAL 8) 0 0 () (2 EXPLICIT (CONSTANT (INTEGER 4) 0 '1') (
CONSTANT (INTEGER 4) 0 '2') (CONSTANT (INTEGER 4) 0 '1') (VARIABLE (
INTEGER 4) 0 3 ())) () '' () ())
6 'antoff' '' 12 ((VARIABLE UNKNOWN UNKNOWN UNKNOWN NONE NONE DIMENSION
DUMMY) (REAL 8) 0 0 () (2 EXPLICIT (CONSTANT (INTEGER 4) 0 '1') (
CONSTANT (INTEGER 4) 0 '6') (CONSTANT (INTEGER 4) 0 '1') (VARIABLE (
INTEGER 4) 0 3 ())) () '' () ())
5 'satant' '' 12 ((VARIABLE UNKNOWN UNKNOWN UNKNOWN NONE NONE DIMENSION
DUMMY) (INTEGER 4) 0 0 () (1 EXPLICIT (CONSTANT (INTEGER 4) 0 '1') (
VARIABLE (INTEGER 4) 0 3 ())) () '' () ())
4 'nsaant' '' 12 ((VARIABLE UNKNOWN UNKNOWN UNKNOWN NONE NONE DUMMY) (
INTEGER 4) 0 0 () () () '' () ())
3 'maxsaa' '' 12 ((VARIABLE UNKNOWN UNKNOWN UNKNOWN NONE NONE DUMMY) (
INTEGER 4) 0 0 () () () '' () ())
)

('gtsata' 0 2 's_gtsata' 0 11)
