G95 module created on Thu Jun 25 17:48:13 2020 from ./.fpp/INQUIRE.f90
If you edit this, you'll get what you deserve.
module-version 9
(() () () () () () () () () () () () () () () () () () () () ())

()

()

()

()

(2 'inquire' 's_inquire' 1 ((PROCEDURE UNKNOWN MODULE-PROC DECL NONE
NONE SUBROUTINE) (PROCEDURE 0) 0 0 (3 NONE 4 NONE 5 NONE 6 NONE 7 NONE 8
NONE) () () '' () ())
9 's_inquire' 's_inquire' 1 ((MODULE UNKNOWN UNKNOWN UNKNOWN NONE NONE)
(UNKNOWN) 0 0 () () () '' () ())
8 'number' '' 10 ((VARIABLE OUT UNKNOWN UNKNOWN NONE NONE OPTIONAL DUMMY)
(INTEGER 4) 0 0 () () () '' () ())
7 'opened' '' 10 ((VARIABLE OUT UNKNOWN UNKNOWN NONE NONE OPTIONAL DUMMY)
(LOGICAL 4) 0 0 () () () '' () ())
6 'exist' '' 10 ((VARIABLE OUT UNKNOWN UNKNOWN NONE NONE OPTIONAL DUMMY)
(LOGICAL 4) 0 0 () () () '' () ())
5 'name' '' 10 ((VARIABLE OUT UNKNOWN UNKNOWN NONE NONE OPTIONAL DUMMY)
(CHARACTER 1 (())) 0 0 () () () '' () ())
4 'file' '' 10 ((VARIABLE IN UNKNOWN UNKNOWN NONE NONE OPTIONAL DUMMY) (
CHARACTER 1 (())) 0 0 () () () '' () ())
3 'unit' '' 10 ((VARIABLE IN UNKNOWN UNKNOWN NONE NONE OPTIONAL DUMMY) (
INTEGER 4) 0 0 () () () '' () ())
)

('inquire' 0 2 's_inquire' 0 9)
