G95 module created on Thu Jun 25 17:48:27 2020 from ./.fpp/IONOSI.f
If you edit this, you'll get what you deserve.
module-version 9
(() () () () () () () () () () () () () () () () () () () () ())

()

()

()

()

(2 'ionosi' 's_ionosi' 1 ((PROCEDURE UNKNOWN MODULE-PROC DECL NONE NONE
SUBROUTINE) (PROCEDURE 0) 0 0 (3 NONE 4 NONE 5 NONE 6 NONE 7 NONE 8 NONE
9 NONE 10 NONE) () () '' () ())
11 's_ionosi' 's_ionosi' 1 ((MODULE UNKNOWN UNKNOWN UNKNOWN NONE NONE) (
UNKNOWN) 0 0 () () () '' () ())
10 'ionsig' '' 12 ((VARIABLE UNKNOWN UNKNOWN UNKNOWN NONE NONE DIMENSION
DUMMY) (REAL 8) 0 0 () (2 ASSUMED_SIZE (CONSTANT (INTEGER 4) 0 '1') (
CONSTANT (INTEGER 4) 0 '300') (CONSTANT (INTEGER 4) 0 '1') ()) () '' ()
())
9 'ioncoe' '' 12 ((VARIABLE UNKNOWN UNKNOWN UNKNOWN NONE NONE DIMENSION
DUMMY) (REAL 8) 0 0 () (2 ASSUMED_SIZE (CONSTANT (INTEGER 4) 0 '1') (
CONSTANT (INTEGER 4) 0 '300') (CONSTANT (INTEGER 4) 0 '1') ()) () '' ()
())
8 'nm' '' 12 ((VARIABLE UNKNOWN UNKNOWN UNKNOWN NONE NONE DIMENSION
DUMMY) (INTEGER 4) 0 0 () (3 ASSUMED_SIZE (CONSTANT (INTEGER 4) 0 '1') (
CONSTANT (INTEGER 4) 0 '300') (CONSTANT (INTEGER 4) 0 '1') (CONSTANT (
INTEGER 4) 0 '2') (CONSTANT (INTEGER 4) 0 '1') ()) () '' () ())
7 'nterm' '' 12 ((VARIABLE UNKNOWN UNKNOWN UNKNOWN NONE NONE DIMENSION
DUMMY) (INTEGER 4) 0 0 () (1 ASSUMED_SIZE (CONSTANT (INTEGER 4) 0 '1') ())
() '' () ())
6 'iondev' '' 12 ((VARIABLE UNKNOWN UNKNOWN UNKNOWN NONE NONE DIMENSION
DUMMY) (REAL 8) 0 0 () (2 ASSUMED_SIZE (CONSTANT (INTEGER 4) 0 '1') (
CONSTANT (INTEGER 4) 0 '10') (CONSTANT (INTEGER 4) 0 '1') ()) () '' () ())
5 'ionreq' '' 12 ((VARIABLE UNKNOWN UNKNOWN UNKNOWN NONE NONE DIMENSION
DUMMY) (INTEGER 4) 0 0 () (2 ASSUMED_SIZE (CONSTANT (INTEGER 4) 0 '1') (
CONSTANT (INTEGER 4) 0 '6') (CONSTANT (INTEGER 4) 0 '1') ()) () '' () ())
4 'nmodel' '' 12 ((VARIABLE UNKNOWN UNKNOWN UNKNOWN NONE NONE DUMMY) (
INTEGER 4) 0 0 () () () '' () ())
3 'all' '' 12 ((VARIABLE UNKNOWN UNKNOWN UNKNOWN NONE NONE DUMMY) (
INTEGER 4) 0 0 () () () '' () ())
)

('ionosi' 0 2 's_ionosi' 0 11)
