G95 module created on Thu Jun 25 17:50:40 2020 from ./.fpp/MCPROT.f90
If you edit this, you'll get what you deserve.
module-version 9
(() () () () () () () () () () () () () () () () () () () () ())

()

()

()

()

(2 'mcprot' 's_mcprot' 1 ((PROCEDURE UNKNOWN MODULE-PROC DECL NONE NONE
SUBROUTINE) (PROCEDURE 0) 0 0 (3 NONE 4 NONE 5 NONE 6 NONE 7 NONE 8 NONE
9 NONE 10 NONE 11 NONE 12 NONE) () () '' () ())
13 's_mcprot' 's_mcprot' 1 ((MODULE UNKNOWN UNKNOWN UNKNOWN NONE NONE) (
UNKNOWN) 0 0 () () () '' () ())
12 'dellist' '' 14 ((VARIABLE UNKNOWN UNKNOWN UNKNOWN NONE NONE
DIMENSION POINTER DUMMY) (DERIVED 15) 0 0 () (1 DEFERRED () ()) () '' ()
())
15 't_cluster' 'p_mkclus' 14 ((DERIVED UNKNOWN UNKNOWN UNKNOWN NONE NONE)
(UNKNOWN) 0 0 () () () '' ((16 'filidx' (INTEGER 4) () () 0 0 0 ()) (17
'cluster' (INTEGER 4) () () 0 0 0 ()) (18 'delflg' (INTEGER 4) () () 0 0
0 ())) PUBLIC ())
11 'ndel' '' 14 ((VARIABLE UNKNOWN UNKNOWN UNKNOWN NONE NONE DUMMY) (
INTEGER 4) 0 0 () () () '' () ())
10 'clulist' '' 14 ((VARIABLE UNKNOWN UNKNOWN UNKNOWN NONE NONE
DIMENSION POINTER DUMMY) (DERIVED 15) 0 0 () (1 DEFERRED () ()) () '' ()
())
9 'nclu' '' 14 ((VARIABLE UNKNOWN UNKNOWN UNKNOWN NONE NONE DUMMY) (
INTEGER 4) 0 0 () () () '' () ())
8 'station' '' 14 ((VARIABLE UNKNOWN UNKNOWN UNKNOWN NONE NONE DIMENSION
POINTER DUMMY) (DERIVED 19) 0 0 () (1 DEFERRED () ()) () '' () ())
19 't_station' 'p_mkclus' 14 ((DERIVED UNKNOWN UNKNOWN UNKNOWN NONE NONE)
(UNKNOWN) 0 0 () () () '' ((20 'stanam' (CHARACTER 1 ((CONSTANT (
INTEGER 4) 0 '16'))) () () 0 0 0 ()) (21 'lb' (REAL 8) (1 EXPLICIT (
CONSTANT (INTEGER 4) 0 '1') (CONSTANT (INTEGER 4) 0 '3')) () 1 0 0 ()) (
22 'clkrms' (REAL 8) () () 0 0 0 ()) (23 'nxtsta' (INTEGER 4) (1
DEFERRED () ()) () 1 1 0 ())) PUBLIC ())
7 'nsta' '' 14 ((VARIABLE UNKNOWN UNKNOWN UNKNOWN NONE NONE DUMMY) (
INTEGER 4) 0 0 () () () '' () ())
6 'filinfo' '' 14 ((VARIABLE UNKNOWN UNKNOWN UNKNOWN NONE NONE DIMENSION
POINTER DUMMY) (DERIVED 24) 0 0 () (1 DEFERRED () ()) () '' () ())
24 't_stafil' 'p_mkclus' 14 ((DERIVED UNKNOWN UNKNOWN UNKNOWN NONE NONE)
(UNKNOWN) 0 0 () () () '' ((25 'staidx' (INTEGER 4) (1 EXPLICIT (
CONSTANT (INTEGER 4) 0 '1') (CONSTANT (INTEGER 4) 0 '2')) () 1 0 0 ()) (
26 'ndiff' (INTEGER 4) () () 0 0 0 ()) (27 'length' (REAL 8) () () 0 0 0
()) (28 'numobs' (INTEGER 4) () () 0 0 0 ()) (29 'numamb' (INTEGER 4) ()
() 0 0 0 ()) (30 'cluflg' (INTEGER 4) () () 0 0 0 ())) PUBLIC ())
5 'fillst' '' 14 ((VARIABLE UNKNOWN UNKNOWN UNKNOWN NONE NONE DIMENSION
POINTER DUMMY) (CHARACTER 1 ((CONSTANT (INTEGER 4) 0 '32'))) 0 0 () (2
DEFERRED () () () ()) () '' () ())
4 'nfil' '' 14 ((VARIABLE UNKNOWN UNKNOWN UNKNOWN NONE NONE DUMMY) (
INTEGER 4) 0 0 () () () '' () ())
3 'opt' '' 14 ((VARIABLE UNKNOWN UNKNOWN UNKNOWN NONE NONE DUMMY) (
DERIVED 31) 0 0 () () () '' () ())
31 't_mkclus_opt' 'p_mkclus' 14 ((DERIVED UNKNOWN UNKNOWN UNKNOWN NONE
NONE) (UNKNOWN) 0 0 () () () '' ((32 'clustrat' (INTEGER 4) () () 0 0 0
()) (33 'numclu' (INTEGER 4) () () 0 0 0 ()) (34 'maxsta' (INTEGER 4) ()
() 0 0 0 ()) (35 'stastrat' (INTEGER 4) () () 0 0 0 ()) (36 'satobs' (
INTEGER 4) () () 0 0 0 ()) (37 'staobs' (INTEGER 4) () () 0 0 0 ()) (38
'nsolve' (INTEGER 4) () () 0 0 0 ()) (39 'maxamb' (INTEGER 4) () () 0 0
0 ()) (40 'minobs' (INTEGER 4) () () 0 0 0 ()) (41 'maxrms' (REAL 8) ()
() 0 0 0 ()) (42 'coddel' (INTEGER 4) () () 0 0 0 ()) (43 'isasys' (
INTEGER 4) () () 0 0 0 ()) (44 'nsampl' (INTEGER 4) () () 0 0 0 ()) (45
'obssat' (REAL 8) () () 0 0 0 ())) PUBLIC ())
)

('mcprot' 0 2 's_mcprot' 0 13)
