G95 module created on Thu Jun 25 17:49:52 2020 from ./.fpp/MCDIST.f90
If you edit this, you'll get what you deserve.
module-version 9
(() () () () () () () () () () () () () () () () () () () () ())

()

()

()

()

(2 'mcdist' 's_mcdist' 1 ((PROCEDURE UNKNOWN MODULE-PROC DECL NONE NONE
SUBROUTINE) (PROCEDURE 0) 0 0 (3 NONE 4 NONE 5 NONE) () () '' () ())
6 's_mcdist' 's_mcdist' 1 ((MODULE UNKNOWN UNKNOWN UNKNOWN NONE NONE) (
UNKNOWN) 0 0 () () () '' () ())
5 'dist' '' 7 ((VARIABLE UNKNOWN UNKNOWN UNKNOWN NONE NONE DIMENSION
POINTER DUMMY) (REAL 8) 0 0 () (1 DEFERRED () ()) () '' () ())
4 'station' '' 7 ((VARIABLE UNKNOWN UNKNOWN UNKNOWN NONE NONE DIMENSION
POINTER DUMMY) (DERIVED 8) 0 0 () (1 DEFERRED () ()) () '' () ())
8 't_station' 'p_mkclus' 7 ((DERIVED UNKNOWN UNKNOWN UNKNOWN NONE NONE)
(UNKNOWN) 0 0 () () () '' ((9 'stanam' (CHARACTER 1 ((CONSTANT (INTEGER
4) 0 '16'))) () () 0 0 0 ()) (10 'lb' (REAL 8) (1 EXPLICIT (CONSTANT (
INTEGER 4) 0 '1') (CONSTANT (INTEGER 4) 0 '3')) () 1 0 0 ()) (11 'clkrms'
(REAL 8) () () 0 0 0 ()) (12 'nxtsta' (INTEGER 4) (1 DEFERRED () ()) ()
1 1 0 ())) PUBLIC ())
3 'nsta' '' 7 ((VARIABLE UNKNOWN UNKNOWN UNKNOWN NONE NONE DUMMY) (
INTEGER 4) 0 0 () () () '' () ())
)

('mcdist' 0 2 's_mcdist' 0 6)
