G95 module created on Thu Jun 25 17:49:47 2020 from ./.fpp/MENUPCF3.f90
If you edit this, you'll get what you deserve.
module-version 9
(() () () () () () () () () () () () () () () () () () () () ())

()

()

()

()

(2 'menupcf3' 's_menupcf3' 1 ((PROCEDURE UNKNOWN MODULE-PROC DECL NONE
NONE SUBROUTINE) (PROCEDURE 0) 0 0 (3 NONE 4 NONE 5 NONE) () () '' () ())
6 's_menupcf3' 's_menupcf3' 1 ((MODULE UNKNOWN UNKNOWN UNKNOWN NONE NONE)
(UNKNOWN) 0 0 () () () '' () ())
5 'keys' '' 7 ((VARIABLE UNKNOWN UNKNOWN UNKNOWN NONE NONE DIMENSION
POINTER DUMMY) (DERIVED 8) 0 0 () (1 DEFERRED () ()) () '' () ())
8 't_key' 'm_bern' 7 ((DERIVED UNKNOWN UNKNOWN UNKNOWN NONE NONE) (
UNKNOWN) 0 0 () () () '' ((9 'name' (CHARACTER 1 ((CONSTANT (INTEGER 4)
0 '32'))) () () 0 0 0 ()) (10 'value' (CHARACTER 1 ((CONSTANT (INTEGER 4)
0 '255'))) (1 DEFERRED () ()) () 1 1 0 ())) PUBLIC ())
4 'pcf' '' 7 ((VARIABLE UNKNOWN UNKNOWN UNKNOWN NONE NONE DUMMY) (
DERIVED 11) 0 0 () () () '' () ())
11 't_pcf' 'p_bpe' 7 ((DERIVED UNKNOWN UNKNOWN UNKNOWN NONE NONE) (
UNKNOWN) 0 0 () () () '' ((12 'n_pid' (INTEGER 4) () () 0 0 0 ()) (13
'job' (DERIVED 14) (1 EXPLICIT (CONSTANT (INTEGER 4) 0 '1') (CONSTANT (
INTEGER 4) 0 '400')) () 1 0 0 ()) (15 'nvar' (INTEGER 4) () () 0 0 0 ())
(16 'var' (DERIVED 17) (1 EXPLICIT (CONSTANT (INTEGER 4) 0 '1') (
CONSTANT (INTEGER 4) 0 '60')) () 1 0 0 ()) (18 'ntxt' (INTEGER 4) () ()
0 0 0 ()) (19 'txt' (DERIVED 20) (1 DEFERRED () ()) () 1 1 0 ())) PUBLIC
())
20 't_txt' 'p_bpe' 7 ((DERIVED UNKNOWN UNKNOWN UNKNOWN NONE NONE) (
UNKNOWN) 0 0 () () () '' ((21 'section' (INTEGER 4) () () 0 0 0 ()) (22
'line' (CHARACTER 1 ((CONSTANT (INTEGER 4) 0 '255'))) () () 0 0 0 ()) (
23 'pids' (INTEGER 4) (1 EXPLICIT (CONSTANT (INTEGER 4) 0 '1') (
CONSTANT (INTEGER 4) 0 '2')) () 1 0 0 ())) PUBLIC ())
17 't_var' 'p_bpe' 7 ((DERIVED UNKNOWN UNKNOWN UNKNOWN NONE NONE) (
UNKNOWN) 0 0 () () () '' ((24 'varnam' (CHARACTER 1 ((CONSTANT (INTEGER
4) 0 '8'))) () () 0 0 0 ()) (25 'vardsc' (CHARACTER 1 ((CONSTANT (
INTEGER 4) 0 '40'))) () () 0 0 0 ()) (26 'vardef' (CHARACTER 1 ((
CONSTANT (INTEGER 4) 0 '32'))) () () 0 0 0 ())) PUBLIC ())
14 't_job' 'p_bpe' 7 ((DERIVED UNKNOWN UNKNOWN UNKNOWN NONE NONE) (
UNKNOWN) 0 0 () () () '' ((27 'ipid' (INTEGER 4) () () 0 0 0 ()) (28
'script' (CHARACTER 1 ((CONSTANT (INTEGER 4) 0 '8'))) () () 0 0 0 ()) (
29 'option' (CHARACTER 1 ((CONSTANT (INTEGER 4) 0 '8'))) () () 0 0 0 ())
(30 'camp' (CHARACTER 1 ((CONSTANT (INTEGER 4) 0 '8'))) () () 0 0 0 ())
(31 'cpu' (CHARACTER 1 ((CONSTANT (INTEGER 4) 0 '8'))) () () 0 0 0 ()) (
32 'user' (CHARACTER 1 ((CONSTANT (INTEGER 4) 0 '12'))) () () 0 0 0 ())
(33 'paswrd' (CHARACTER 1 ((CONSTANT (INTEGER 4) 0 '8'))) () () 0 0 0 ())
(34 'n_wait' (INTEGER 4) () () 0 0 0 ()) (35 'iwait' (INTEGER 4) (1
EXPLICIT (CONSTANT (INTEGER 4) 0 '1') (CONSTANT (INTEGER 4) 0 '10')) ()
1 0 0 ()) (36 'ptype' (INTEGER 4) () () 0 0 0 ()) (37 'params' (
CHARACTER 1 ((CONSTANT (INTEGER 4) 0 '80'))) (1 EXPLICIT (CONSTANT (
INTEGER 4) 0 '1') (CONSTANT (INTEGER 4) 0 '9')) () 1 0 0 ()) (38 'jflags'
(CHARACTER 1 ((CONSTANT (INTEGER 4) 0 '1'))) () () 0 0 0 ())) PUBLIC ())
3 'pcffil' '' 7 ((VARIABLE UNKNOWN UNKNOWN UNKNOWN NONE NONE DUMMY) (
CHARACTER 1 (())) 0 0 () () () '' () ())
)

('menupcf3' 0 2 's_menupcf3' 0 6)
