G95 module created on Thu Jun 25 17:50:17 2020 from ./.fpp/MENUAUXS.f90
If you edit this, you'll get what you deserve.
module-version 9
(() () () () () () () () () () () () () () () () () () () () ())

()

()

()

()

(2 'menuauxs' 's_menuauxs' 1 ((PROCEDURE UNKNOWN MODULE-PROC DECL NONE
NONE SUBROUTINE) (PROCEDURE 0) 0 0 (3 NONE) () () '' () ())
4 's_menuauxs' 's_menuauxs' 1 ((MODULE UNKNOWN UNKNOWN UNKNOWN NONE NONE)
(UNKNOWN) 0 0 () () () '' () ())
3 'inpfilename' '' 5 ((VARIABLE IN UNKNOWN UNKNOWN NONE NONE DUMMY) (
CHARACTER 1 (())) 0 0 () () () '' () ())
)

('menuauxs' 0 2 's_menuauxs' 0 4)
