G95 module created on Thu Jun 25 17:50:09 2020 from ./.fpp/MENUPCF4.f90
If you edit this, you'll get what you deserve.
module-version 9
(() () () () () () () () () () () () () () () () () () () () ())

()

()

()

()

(2 'menupcf4' 's_menupcf4' 1 ((PROCEDURE UNKNOWN MODULE-PROC DECL NONE
NONE SUBROUTINE) (PROCEDURE 0) 0 0 (3 NONE 4 NONE 5 NONE 6 NONE) () () ''
() ())
7 's_menupcf4' 's_menupcf4' 1 ((MODULE UNKNOWN UNKNOWN UNKNOWN NONE NONE)
(UNKNOWN) 0 0 () () () '' () ())
6 'idx' '' 8 ((VARIABLE UNKNOWN UNKNOWN UNKNOWN NONE NONE DIMENSION
POINTER DUMMY) (INTEGER 4) 0 0 () (1 DEFERRED () ()) () '' () ())
5 'pcf2' '' 8 ((VARIABLE UNKNOWN UNKNOWN UNKNOWN NONE NONE DUMMY) (
DERIVED 9) 0 0 () () () '' () ())
9 't_pcf' 'p_bpe' 8 ((DERIVED UNKNOWN UNKNOWN UNKNOWN NONE NONE) (
UNKNOWN) 0 0 () () () '' ((10 'n_pid' (INTEGER 4) () () 0 0 0 ()) (11
'job' (DERIVED 12) (1 EXPLICIT (CONSTANT (INTEGER 4) 0 '1') (CONSTANT (
INTEGER 4) 0 '400')) () 1 0 0 ()) (13 'nvar' (INTEGER 4) () () 0 0 0 ())
(14 'var' (DERIVED 15) (1 EXPLICIT (CONSTANT (INTEGER 4) 0 '1') (
CONSTANT (INTEGER 4) 0 '60')) () 1 0 0 ()) (16 'ntxt' (INTEGER 4) () ()
0 0 0 ()) (17 'txt' (DERIVED 18) (1 DEFERRED () ()) () 1 1 0 ())) PUBLIC
())
18 't_txt' 'p_bpe' 8 ((DERIVED UNKNOWN UNKNOWN UNKNOWN NONE NONE) (
UNKNOWN) 0 0 () () () '' ((19 'section' (INTEGER 4) () () 0 0 0 ()) (20
'line' (CHARACTER 1 ((CONSTANT (INTEGER 4) 0 '255'))) () () 0 0 0 ()) (
21 'pids' (INTEGER 4) (1 EXPLICIT (CONSTANT (INTEGER 4) 0 '1') (
CONSTANT (INTEGER 4) 0 '2')) () 1 0 0 ())) PUBLIC ())
15 't_var' 'p_bpe' 8 ((DERIVED UNKNOWN UNKNOWN UNKNOWN NONE NONE) (
UNKNOWN) 0 0 () () () '' ((22 'varnam' (CHARACTER 1 ((CONSTANT (INTEGER
4) 0 '8'))) () () 0 0 0 ()) (23 'vardsc' (CHARACTER 1 ((CONSTANT (
INTEGER 4) 0 '40'))) () () 0 0 0 ()) (24 'vardef' (CHARACTER 1 ((
CONSTANT (INTEGER 4) 0 '32'))) () () 0 0 0 ())) PUBLIC ())
12 't_job' 'p_bpe' 8 ((DERIVED UNKNOWN UNKNOWN UNKNOWN NONE NONE) (
UNKNOWN) 0 0 () () () '' ((25 'ipid' (INTEGER 4) () () 0 0 0 ()) (26
'script' (CHARACTER 1 ((CONSTANT (INTEGER 4) 0 '8'))) () () 0 0 0 ()) (
27 'option' (CHARACTER 1 ((CONSTANT (INTEGER 4) 0 '8'))) () () 0 0 0 ())
(28 'camp' (CHARACTER 1 ((CONSTANT (INTEGER 4) 0 '8'))) () () 0 0 0 ())
(29 'cpu' (CHARACTER 1 ((CONSTANT (INTEGER 4) 0 '8'))) () () 0 0 0 ()) (
30 'user' (CHARACTER 1 ((CONSTANT (INTEGER 4) 0 '12'))) () () 0 0 0 ())
(31 'paswrd' (CHARACTER 1 ((CONSTANT (INTEGER 4) 0 '8'))) () () 0 0 0 ())
(32 'n_wait' (INTEGER 4) () () 0 0 0 ()) (33 'iwait' (INTEGER 4) (1
EXPLICIT (CONSTANT (INTEGER 4) 0 '1') (CONSTANT (INTEGER 4) 0 '10')) ()
1 0 0 ()) (34 'ptype' (INTEGER 4) () () 0 0 0 ()) (35 'params' (
CHARACTER 1 ((CONSTANT (INTEGER 4) 0 '80'))) (1 EXPLICIT (CONSTANT (
INTEGER 4) 0 '1') (CONSTANT (INTEGER 4) 0 '9')) () 1 0 0 ()) (36 'jflags'
(CHARACTER 1 ((CONSTANT (INTEGER 4) 0 '1'))) () () 0 0 0 ())) PUBLIC ())
4 'pcf' '' 8 ((VARIABLE UNKNOWN UNKNOWN UNKNOWN NONE NONE DUMMY) (
DERIVED 9) 0 0 () () () '' () ())
3 'keyword' '' 8 ((VARIABLE UNKNOWN UNKNOWN UNKNOWN NONE NONE DUMMY) (
CHARACTER 1 (())) 0 0 () () () '' () ())
)

('menupcf4' 0 2 's_menupcf4' 0 7)
