G95 module created on Thu Jun 25 17:48:15 2020 from ./.fpp/MJDGPS.f
If you edit this, you'll get what you deserve.
module-version 9
(() () () () () () () () () () () () () () () () () () () () ())

()

()

()

()

(2 'mjdgps' 's_mjdgps' 1 ((PROCEDURE UNKNOWN MODULE-PROC DECL NONE NONE
SUBROUTINE) (PROCEDURE 0) 0 0 (3 NONE 4 NONE 5 NONE) () () '' () ())
6 's_mjdgps' 's_mjdgps' 1 ((MODULE UNKNOWN UNKNOWN UNKNOWN NONE NONE) (
UNKNOWN) 0 0 () () () '' () ())
5 'nweek' '' 7 ((VARIABLE UNKNOWN UNKNOWN UNKNOWN NONE NONE DUMMY) (
INTEGER 4) 0 0 () () () '' () ())
4 'second' '' 7 ((VARIABLE UNKNOWN UNKNOWN UNKNOWN NONE NONE DUMMY) (
REAL 8) 0 0 () () () '' () ())
3 'tjul' '' 7 ((VARIABLE UNKNOWN UNKNOWN UNKNOWN NONE NONE DUMMY) (REAL
8) 0 0 () () () '' () ())
)

('mjdgps' 0 2 's_mjdgps' 0 6)
