G95 module created on Thu Jun 25 17:49:44 2020 from ./.fpp/MRKALL.f90
If you edit this, you'll get what you deserve.
module-version 9
(() () () () () () () () () () () () () () () () () () () () ())

()

()

()

()

(2 'mrkall' 's_mrkall' 1 ((PROCEDURE UNKNOWN MODULE-PROC DECL NONE NONE
SUBROUTINE) (PROCEDURE 0) 0 0 (3 NONE 4 NONE 5 NONE 6 NONE 7 NONE) () ()
'' () ())
8 's_mrkall' 's_mrkall' 1 ((MODULE UNKNOWN UNKNOWN UNKNOWN NONE NONE) (
UNKNOWN) 0 0 () () () '' () ())
7 'edtlst' '' 9 ((VARIABLE UNKNOWN UNKNOWN UNKNOWN NONE NONE DIMENSION
POINTER DUMMY) (DERIVED 10) 0 0 () (1 DEFERRED () ()) () '' () ())
10 't_edtrec' 'd_edit' 9 ((DERIVED UNKNOWN UNKNOWN UNKNOWN NONE NONE) (
UNKNOWN) 0 0 () () () '' ((11 'lstcyc' (REAL 8) () () 0 0 0 ()) (12
'lstedt' (INTEGER 4) (1 EXPLICIT (CONSTANT (INTEGER 4) 0 '1') (CONSTANT
(INTEGER 4) 0 '7')) () 1 0 0 ())) PUBLIC ())
6 'nedt' '' 9 ((VARIABLE UNKNOWN UNKNOWN UNKNOWN NONE NONE DUMMY) (
INTEGER 4) 0 0 () () () '' () ())
5 'obshead' '' 9 ((VARIABLE UNKNOWN UNKNOWN UNKNOWN NONE NONE DUMMY) (
DERIVED 13) 0 0 () () () '' () ())
13 't_obshead' 'd_gpsobs' 9 ((DERIVED UNKNOWN UNKNOWN UNKNOWN NONE NONE)
(UNKNOWN) 0 0 () () () '' ((14 'campgn' (CHARACTER 1 ((CONSTANT (
INTEGER 4) 0 '16'))) () () 0 0 0 ()) (15 'title' (CHARACTER 1 ((
CONSTANT (INTEGER 4) 0 '53'))) () () 0 0 0 ()) (16 'irmark' (INTEGER 4)
() () 0 0 0 ()) (17 'ifrmat' (INTEGER 4) () () 0 0 0 ()) (18 'csess' (
CHARACTER 1 ((CONSTANT (INTEGER 4) 0 '4'))) (1 EXPLICIT (CONSTANT (
INTEGER 4) 0 '1') (CONSTANT (INTEGER 4) 0 '2')) () 1 0 0 ()) (19 'crdate'
(CHARACTER 1 ((CONSTANT (INTEGER 4) 0 '9'))) (1 EXPLICIT (CONSTANT (
INTEGER 4) 0 '1') (CONSTANT (INTEGER 4) 0 '2')) () 1 0 0 ()) (20 'crtime'
(CHARACTER 1 ((CONSTANT (INTEGER 4) 0 '5'))) (1 EXPLICIT (CONSTANT (
INTEGER 4) 0 '1') (CONSTANT (INTEGER 4) 0 '2')) () 1 0 0 ()) (21 'timref'
(REAL 8) () () 0 0 0 ()) (22 'ideltt' (INTEGER 4) () () 0 0 0 ()) (23
'meatyp' (INTEGER 4) () () 0 0 0 ()) (24 'ndiff' (INTEGER 4) () () 0 0 0
()) (25 'nfreq' (INTEGER 4) () () 0 0 0 ()) (26 'nepoch' (INTEGER 4) ()
() 0 0 0 ()) (27 'numamb' (INTEGER 4) () () 0 0 0 ()) (28 'nsatel' (
INTEGER 4) () () 0 0 0 ()) (29 'nepflg' (INTEGER 4) () () 0 0 0 ()) (30
'sta' (DERIVED 31) (1 EXPLICIT (CONSTANT (INTEGER 4) 0 '1') (CONSTANT (
INTEGER 4) 0 '2')) () 1 0 0 ()) (32 'sat' (DERIVED 33) (1 DEFERRED () ())
() 1 1 0 ()) (34 'ambigu' (DERIVED 35) (1 DEFERRED () ()) () 1 1 0 ()))
PUBLIC ())
35 't_ambigu' 'd_ambigu' 9 ((DERIVED UNKNOWN UNKNOWN UNKNOWN NONE NONE)
(UNKNOWN) 0 0 () () () '' ((36 'ambigu' (REAL 8) (1 EXPLICIT (CONSTANT (
INTEGER 4) 0 '1') (CONSTANT (INTEGER 4) 0 '3')) () 1 0 0 ()) (37 'ambsat'
(INTEGER 4) () () 0 0 0 ()) (38 'ambiep' (INTEGER 4) () () 0 0 0 ()) (
39 'ambwlf' (INTEGER 4) (1 EXPLICIT (CONSTANT (INTEGER 4) 0 '1') (
CONSTANT (INTEGER 4) 0 '2')) () 1 0 0 ()) (40 'ambcls' (INTEGER 4) (1
EXPLICIT (CONSTANT (INTEGER 4) 0 '1') (CONSTANT (INTEGER 4) 0 '3')) () 1
0 0 ()) (41 'solved' (LOGICAL 4) () () 0 0 0 ())) PUBLIC ())
33 't_sat' 'd_gpsobs' 9 ((DERIVED UNKNOWN UNKNOWN UNKNOWN NONE NONE) (
UNKNOWN) 0 0 () () () '' ((42 'numsat' (INTEGER 4) () () 0 0 0 ()) (43
'numobs' (INTEGER 4) (1 EXPLICIT (CONSTANT (INTEGER 4) 0 '1') (CONSTANT
(INTEGER 4) 0 '2')) () 1 0 0 ()) (44 'nummrk' (INTEGER 4) (1 EXPLICIT (
CONSTANT (INTEGER 4) 0 '1') (CONSTANT (INTEGER 4) 0 '2')) () 1 0 0 ()) (
45 'obstyp' (CHARACTER 1 ((CONSTANT (INTEGER 4) 0 '3'))) (1 EXPLICIT (
CONSTANT (INTEGER 4) 0 '1') (CONSTANT (INTEGER 4) 0 '8')) () 1 0 0 ()))
PUBLIC ())
31 't_sta' 'd_gpsobs' 9 ((DERIVED UNKNOWN UNKNOWN UNKNOWN NONE NONE) (
UNKNOWN) 0 0 () () () '' ((46 'stanam' (CHARACTER 1 ((CONSTANT (INTEGER
4) 0 '16'))) () () 0 0 0 ()) (47 'oprnam' (CHARACTER 1 ((CONSTANT (
INTEGER 4) 0 '20'))) () () 0 0 0 ()) (48 'rectyp' (CHARACTER 1 ((
CONSTANT (INTEGER 4) 0 '20'))) () () 0 0 0 ()) (49 'irunit' (INTEGER 4)
() () 0 0 0 ()) (50 'anttyp' (CHARACTER 1 ((CONSTANT (INTEGER 4) 0 '20')))
() () 0 0 0 ()) (51 'ianten' (INTEGER 4) () () 0 0 0 ()) (52 'posecc' (
REAL 8) (1 EXPLICIT (CONSTANT (INTEGER 4) 0 '1') (CONSTANT (INTEGER 4) 0
'3')) () 1 0 0 ()) (53 'iclock' (INTEGER 4) () () 0 0 0 ())) PUBLIC ())
4 'opt' '' 9 ((VARIABLE UNKNOWN UNKNOWN UNKNOWN NONE NONE DUMMY) (
DERIVED 54) 0 0 () () () '' () ())
54 't_satmrk_opt' 'p_satmrk' 9 ((DERIVED UNKNOWN UNKNOWN UNKNOWN NONE
NONE) (UNKNOWN) 0 0 () () () '' ((55 'filnam' (CHARACTER 1 ((CONSTANT (
INTEGER 4) 0 '32'))) (2 DEFERRED () () () ()) () 1 1 0 ()) (56 'filsyc'
(CHARACTER 1 ((CONSTANT (INTEGER 4) 0 '32'))) (2 DEFERRED () () () ()) ()
1 1 0 ()) (57 'edtfil' (CHARACTER 1 ((CONSTANT (INTEGER 4) 0 '32'))) ()
() 0 0 0 ()) (58 'syc' (INTEGER 4) () () 0 0 0 ()) (59 'resamb' (
INTEGER 4) () () 0 0 0 ()) (60 'ambsys' (INTEGER 4) () () 0 0 0 ()) (61
'nfil' (INTEGER 4) () () 0 0 0 ()) (62 'yfil' (INTEGER 4) () () 0 0 0 ())
(63 'mrktyp' (INTEGER 4) () () 0 0 0 ()) (64 'mrkfrq' (INTEGER 4) () ()
0 0 0 ()) (65 'mrkepo' (INTEGER 4) (1 EXPLICIT (CONSTANT (INTEGER 4) 0 '1')
(CONSTANT (INTEGER 4) 0 '2')) () 1 0 0 ()) (66 'mrksat' (INTEGER 4) (1
DEFERRED () ()) () 1 1 0 ()) (67 'mrktim' (REAL 8) (1 EXPLICIT (
CONSTANT (INTEGER 4) 0 '1') (CONSTANT (INTEGER 4) 0 '2')) () 1 0 0 ()) (
68 'minamb' (INTEGER 4) () () 0 0 0 ()) (69 'isampl' (INTEGER 4) () () 0
0 0 ())) PUBLIC ())
3 'ifil' '' 9 ((VARIABLE UNKNOWN UNKNOWN UNKNOWN NONE NONE DUMMY) (
INTEGER 4) 0 0 () () () '' () ())
)

('mrkall' 0 2 's_mrkall' 0 8)
