G95 module created on Thu Jun 25 17:50:27 2020 from ./.fpp/NEQSTACK.f90
If you edit this, you'll get what you deserve.
module-version 9
(() () (2) () () () () () () () () () () () () () () () () () ())

()

()

()

()

(2 'addtimint' 'm_time' 1 ((PROCEDURE UNKNOWN MODULE-PROC DECL NONE NONE
FUNCTION) (DERIVED 3) 0 0 (4 NONE 5 NONE) () () '' () ())
3 't_timint' 'm_time' 1 ((DERIVED UNKNOWN UNKNOWN UNKNOWN NONE NONE) (
UNKNOWN) 0 0 () () () '' ((6 't' (REAL 8) (1 EXPLICIT (CONSTANT (
INTEGER 4) 0 '1') (CONSTANT (INTEGER 4) 0 '2')) () 1 0 0 ())) PUBLIC ())
7 'm_time' 'm_time' 1 ((MODULE UNKNOWN UNKNOWN UNKNOWN NONE NONE) (
UNKNOWN) 0 0 () () () '' () ())
8 'neqstack' 's_neqstack' 1 ((PROCEDURE UNKNOWN MODULE-PROC DECL NONE
NONE SUBROUTINE) (PROCEDURE 0) 0 0 (9 NONE 10 NONE 11 NONE) () () '' ()
())
12 's_neqstack' 's_neqstack' 1 ((MODULE UNKNOWN UNKNOWN UNKNOWN NONE
NONE) (UNKNOWN) 0 0 () () () '' () ())
11 'ifil' '' 13 ((VARIABLE UNKNOWN UNKNOWN UNKNOWN NONE NONE DUMMY) (
INTEGER 4) 0 0 () () () '' () ())
10 'neq_1' '' 13 ((VARIABLE UNKNOWN UNKNOWN UNKNOWN NONE NONE DUMMY) (
DERIVED 14) 0 0 () () () '' () ())
14 't_neq' 'd_neq' 13 ((DERIVED UNKNOWN UNKNOWN UNKNOWN NONE NONE) (
UNKNOWN) 0 0 () () () '' ((15 'version' (INTEGER 4) () () 0 0 0 ()) (16
'misc' (DERIVED 17) () () 0 0 0 ()) (18 'par' (DERIVED 19) (1 DEFERRED ()
()) () 1 1 0 ()) (20 'anor' (REAL 8) (1 DEFERRED () ()) () 1 1 0 ()) (
21 'bnor' (REAL 8) (1 DEFERRED () ()) () 1 1 0 ()) (22 'xxx' (REAL 8) (
1 DEFERRED () ()) () 1 1 0 ())) PUBLIC ())
19 't_par' 'd_par' 13 ((DERIVED UNKNOWN UNKNOWN UNKNOWN NONE NONE) (
UNKNOWN) 0 0 () () () '' ((23 'locq' (INTEGER 4) (1 EXPLICIT (CONSTANT (
INTEGER 4) 0 '1') (CONSTANT (INTEGER 4) 0 '7')) () 1 0 0 ()) (24 'name'
(CHARACTER 1 ((CONSTANT (INTEGER 4) 0 '20'))) () () 0 0 0 ()) (25 'time'
(DERIVED 26) () () 0 0 0 ()) (27 'x0' (REAL 8) () () 0 0 0 ()) (28 'scale'
(REAL 8) () () 0 0 0 ()) (29 'techn' (CHARACTER 1 ((CONSTANT (INTEGER 4)
0 '1'))) (1 EXPLICIT (CONSTANT (INTEGER 4) 0 '1') (CONSTANT (INTEGER 4)
0 '2')) () 1 0 0 ()) (30 'obstim' (DERIVED 31) () () 0 0 0 ()) (32 'type'
(CHARACTER 1 ((CONSTANT (INTEGER 4) 0 '2'))) () () 0 0 0 ()) (33 'omega'
(REAL 8) () () 0 0 0 ())) PUBLIC ())
31 't_timint' 'm_time' 13 ((DERIVED UNKNOWN UNKNOWN UNKNOWN NONE NONE) (
UNKNOWN) 0 0 () () () '' ((34 't' (REAL 8) (1 EXPLICIT (CONSTANT (
INTEGER 4) 0 '1') (CONSTANT (INTEGER 4) 0 '2')) () 1 0 0 ())) PUBLIC ())
26 't_time' 'm_time' 13 ((DERIVED UNKNOWN UNKNOWN UNKNOWN NONE NONE
SEQUENCE) (UNKNOWN) 0 0 () () () '' ((35 'mean' (REAL 8) () () 0 0 0 ())
(36 'half' (REAL 8) () () 0 0 0 ())) PUBLIC ())
17 't_misc' 'd_neq' 13 ((DERIVED UNKNOWN UNKNOWN UNKNOWN NONE NONE) (
UNKNOWN) 0 0 () () () '' ((37 'title' (CHARACTER 1 ((CONSTANT (INTEGER 4)
0 '132'))) (1 EXPLICIT (CONSTANT (INTEGER 4) 0 '1') (CONSTANT (INTEGER 4)
0 '2')) () 1 0 0 ()) (38 'datum' (CHARACTER 1 ((CONSTANT (INTEGER 4) 0
'16'))) () () 0 0 0 ()) (39 'nutmod' (CHARACTER 1 ((CONSTANT (INTEGER 4)
0 '16'))) () () 0 0 0 ()) (40 'submod' (CHARACTER 1 ((CONSTANT (INTEGER
4) 0 '16'))) () () 0 0 0 ()) (41 'orbfil' (CHARACTER 1 ((CONSTANT (
INTEGER 4) 0 '32'))) (1 EXPLICIT (CONSTANT (INTEGER 4) 0 '1') (CONSTANT
(INTEGER 4) 0 '2')) () 1 0 0 ()) (42 'gravfil' (CHARACTER 1 ((CONSTANT (
INTEGER 4) 0 '32'))) () () 0 0 0 ()) (43 'nobs' (REAL 8) () () 0 0 0 ())
(44 'npar' (INTEGER 4) () () 0 0 0 ()) (45 'ltpl' (REAL 8) () () 0 0 0 ())
(46 'nparms' (REAL 8) () () 0 0 0 ()) (47 'npseu' (INTEGER 4) () () 0 0
0 ()) (48 'npseuel' (INTEGER 4) () () 0 0 0 ()) (49 'nftot' (INTEGER 4)
() () 0 0 0 ()) (50 'nsmpnq' (INTEGER 4) () () 0 0 0 ()) (51 'ielvnq' (
INTEGER 4) () () 0 0 0 ()) (52 'itropo' (INTEGER 4) () () 0 0 0 ()) (53
'iextra' (INTEGER 4) () () 0 0 0 ()) (54 'itrmap' (INTEGER 4) () () 0 0
0 ()) (55 'itrgrd' (INTEGER 4) () () 0 0 0 ()) (56 'nanoff' (INTEGER 4)
() () 0 0 0 ()) (57 'nsaoff' (INTEGER 4) (1 EXPLICIT (CONSTANT (INTEGER
4) 0 '1') (CONSTANT (INTEGER 4) 0 '260')) () 1 0 0 ()) (58 'satoff' (
INTEGER 4) (2 EXPLICIT (CONSTANT (INTEGER 4) 0 '1') (CONSTANT (INTEGER 4)
0 '130') (CONSTANT (INTEGER 4) 0 '1') (CONSTANT (INTEGER 4) 0 '260')) ()
1 0 0 ()) (59 'nstat_sinex' (INTEGER 4) () () 0 0 0 ()) (60 'sinex' (
DERIVED 61) (1 EXPLICIT (CONSTANT (INTEGER 4) 0 '1') (CONSTANT (INTEGER
4) 0 '2000')) () 1 0 0 ()) (62 'grdneq' (CHARACTER 1 ((CONSTANT (
INTEGER 4) 0 '12'))) (1 EXPLICIT (CONSTANT (INTEGER 4) 0 '1') (CONSTANT
(INTEGER 4) 0 '3')) () 1 0 0 ()) (63 'nobst' (INTEGER 4) () () 0 0 0 ())
(64 'obst' (DERIVED 65) (1 EXPLICIT (CONSTANT (INTEGER 4) 0 '1') (
CONSTANT (INTEGER 4) 0 '30000')) () 1 0 0 ())) PUBLIC ())
65 't_obst' 'd_neq' 13 ((DERIVED UNKNOWN UNKNOWN UNKNOWN NONE NONE) (
UNKNOWN) 0 0 () () () '' ((66 'obstyp' (CHARACTER 1 ((CONSTANT (INTEGER
4) 0 '3'))) (1 EXPLICIT (CONSTANT (INTEGER 4) 0 '1') (CONSTANT (INTEGER
4) 0 '4')) () 1 0 0 ())) PUBLIC ())
61 't_sinex' 'd_neq' 13 ((DERIVED UNKNOWN UNKNOWN UNKNOWN NONE NONE) (
UNKNOWN) 0 0 () () () '' ((67 'timint' (DERIVED 31) () () 0 0 0 ()) (68
'stname' (CHARACTER 1 ((CONSTANT (INTEGER 4) 0 '16'))) () () 0 0 0 ()) (
69 'antecc' (REAL 8) (1 EXPLICIT (CONSTANT (INTEGER 4) 0 '1') (CONSTANT
(INTEGER 4) 0 '3')) () 1 0 0 ()) (70 'antpcv' (DERIVED 71) (1 EXPLICIT (
CONSTANT (INTEGER 4) 0 '0') (CONSTANT (INTEGER 4) 0 '5')) () 1 0 0 ()) (
72 'antnum' (INTEGER 4) () () 0 0 0 ()) (73 'antsta' (CHARACTER 1 ((
CONSTANT (INTEGER 4) 0 '20'))) () () 0 0 0 ()) (74 'antrec' (CHARACTER 1
((CONSTANT (INTEGER 4) 0 '20'))) () () 0 0 0 ())) PUBLIC ())
71 't_sinex_pcv' 'd_neq' 13 ((DERIVED UNKNOWN UNKNOWN UNKNOWN NONE NONE)
(UNKNOWN) 0 0 () () () '' ((75 'nfrq' (INTEGER 4) () () 0 0 0 ()) (76
'antphs' (REAL 8) (2 EXPLICIT (CONSTANT (INTEGER 4) 0 '1') (CONSTANT (
INTEGER 4) 0 '3') (CONSTANT (INTEGER 4) 0 '1') (CONSTANT (INTEGER 4) 0 '2'))
() 1 0 0 ()) (77 'adopted' (INTEGER 4) () () 0 0 0 ()) (78 'individ' (
INTEGER 4) () () 0 0 0 ()) (79 'atxstr' (CHARACTER 1 ((CONSTANT (
INTEGER 4) 0 '10'))) () () 0 0 0 ())) PUBLIC ())
9 'neq' '' 13 ((VARIABLE UNKNOWN UNKNOWN UNKNOWN NONE NONE DUMMY) (
DERIVED 14) 0 0 () () () '' () ())
5 'timint2' '' 80 ((VARIABLE IN UNKNOWN UNKNOWN NONE NONE DUMMY) (
DERIVED 3) 0 0 () () () '' () ())
4 'timint1' '' 80 ((VARIABLE IN UNKNOWN UNKNOWN NONE NONE DUMMY) (
DERIVED 3) 0 0 () () () '' () ())
3 't_timint' 'm_time' 1 ((DERIVED UNKNOWN UNKNOWN UNKNOWN NONE NONE) (
UNKNOWN) 0 0 () () () '' ((6 't' (REAL 8) (1 EXPLICIT (CONSTANT (
INTEGER 4) 0 '1') (CONSTANT (INTEGER 4) 0 '2')) () 1 0 0 ())) PUBLIC ())
2 'addtimint' 'm_time' 1 ((PROCEDURE UNKNOWN MODULE-PROC DECL NONE NONE
FUNCTION) (DERIVED 3) 0 0 (4 NONE 5 NONE) () () '' () ())
)

('m_time' 0 7 'neqstack' 0 8 's_neqstack' 0 12)
