G95 module created on Thu Jun 25 17:50:24 2020 from ./.fpp/NEQREAD.f90
If you edit this, you'll get what you deserve.
module-version 9
(() () () () () () () () () () () () () () () () () () () () ())

()

(('neqread' 2 3))

()

()

(3 'neqread1' 's_neqread' 1 ((PROCEDURE UNKNOWN MODULE-PROC DECL NONE
NONE SUBROUTINE INVOKED) (PROCEDURE 0) 0 0 (4 NONE 5 NONE 6 NONE 7 NONE)
() () '' () ())
2 'neqread2' 's_neqread' 1 ((PROCEDURE UNKNOWN MODULE-PROC DECL NONE
NONE SUBROUTINE INVOKED) (PROCEDURE 0) 0 0 (8 NONE 9 NONE) () () '' () ())
10 'neqreadhlp' 's_neqread' 1 ((PROCEDURE UNKNOWN MODULE-PROC DECL NONE
NONE SUBROUTINE INVOKED) (PROCEDURE 0) 0 0 (11 NONE 12 NONE 13 NONE 14
NONE 15 NONE 16 NONE 17 NONE) () () '' () ())
18 's_neqread' 's_neqread' 1 ((MODULE UNKNOWN UNKNOWN UNKNOWN NONE NONE)
(UNKNOWN) 0 0 () () () '' () ())
17 'ipart' '' 19 ((VARIABLE UNKNOWN UNKNOWN UNKNOWN NONE NONE OPTIONAL
DUMMY) (INTEGER 4) 0 0 () () () '' () ())
16 'maxdyn' '' 19 ((VARIABLE UNKNOWN UNKNOWN UNKNOWN NONE NONE DUMMY) (
INTEGER 4) 0 0 () () () '' () ())
15 'comstat' '' 19 ((VARIABLE UNKNOWN UNKNOWN UNKNOWN NONE NONE DUMMY) (
DERIVED 20) 0 0 () () () '' () ())
20 't_comstat' 'p_addneq' 19 ((DERIVED UNKNOWN UNKNOWN UNKNOWN NONE NONE)
(UNKNOWN) 0 0 () () () '' ((21 'elimi' (INTEGER 4) () () 0 0 0 ()) (22
'rms' (REAL 8) () () 0 0 0 ()) (23 'taecml' (REAL 8) (3 DEFERRED () () ()
() () ()) () 1 1 0 ()) (24 'nflsta' (INTEGER 4) (1 EXPLICIT (CONSTANT (
INTEGER 4) 0 '1') (CONSTANT (INTEGER 4) 0 '2000')) () 1 0 0 ()) (25
'indfil' (INTEGER 4) (2 DEFERRED () () () ()) () 1 1 0 ()) (26 'datcre'
(CHARACTER 1 ((CONSTANT (INTEGER 4) 0 '9'))) (1 DEFERRED () ()) () 1 1 0
()) (27 'timcre' (CHARACTER 1 ((CONSTANT (INTEGER 4) 0 '5'))) (1
DEFERRED () ()) () 1 1 0 ()) (28 'nparl' (INTEGER 4) (1 DEFERRED () ())
() 1 1 0 ()) (29 'titind' (CHARACTER 1 ((CONSTANT (INTEGER 4) 0 '132')))
(1 DEFERRED () ()) () 1 1 0 ()) (30 'loctie' (INTEGER 4) () () 0 0 0 ()))
PUBLIC ())
14 'opt' '' 19 ((VARIABLE UNKNOWN UNKNOWN UNKNOWN NONE NONE DUMMY) (
DERIVED 31) 0 0 () () () '' () ())
31 't_opt' 'p_addneq' 19 ((DERIVED UNKNOWN UNKNOWN UNKNOWN NONE NONE) (
UNKNOWN) 0 0 () () () '' ((32 'title' (CHARACTER 1 ((CONSTANT (INTEGER 4)
0 '80'))) () () 0 0 0 ()) (33 'const' (CHARACTER 1 ((CONSTANT (INTEGER 4)
0 '32'))) () () 0 0 0 ()) (34 'datumfil' (CHARACTER 1 ((CONSTANT (
INTEGER 4) 0 '32'))) () () 0 0 0 ()) (35 'stacrux' (CHARACTER 1 ((
CONSTANT (INTEGER 4) 0 '32'))) () () 0 0 0 ()) (36 'satcrux' (CHARACTER
1 ((CONSTANT (INTEGER 4) 0 '32'))) () () 0 0 0 ()) (37 'satell' (
CHARACTER 1 ((CONSTANT (INTEGER 4) 0 '32'))) () () 0 0 0 ()) (38 'phasecc'
(CHARACTER 1 ((CONSTANT (INTEGER 4) 0 '32'))) () () 0 0 0 ()) (39 'pole'
(CHARACTER 1 ((CONSTANT (INTEGER 4) 0 '32'))) () () 0 0 0 ()) (40
'sinexin' (CHARACTER 1 ((CONSTANT (INTEGER 4) 0 '32'))) () () 0 0 0 ())
(41 'ionexcf' (CHARACTER 1 ((CONSTANT (INTEGER 4) 0 '32'))) () () 0 0 0
()) (42 'coord' (CHARACTER 1 ((CONSTANT (INTEGER 4) 0 '32'))) () () 0 0
0 ()) (43 'velapr' (CHARACTER 1 ((CONSTANT (INTEGER 4) 0 '32'))) () () 0
0 0 ()) (44 'covcomi' (CHARACTER 1 ((CONSTANT (INTEGER 4) 0 '32'))) () ()
0 0 0 ()) (45 'gccinp' (CHARACTER 1 ((CONSTANT (INTEGER 4) 0 '32'))) ()
() 0 0 0 ()) (46 'gccout' (CHARACTER 1 ((CONSTANT (INTEGER 4) 0 '32')))
() () 0 0 0 ()) (47 'dcbinp' (CHARACTER 1 ((CONSTANT (INTEGER 4) 0 '32')))
() () 0 0 0 ()) (48 'rgbinp' (CHARACTER 1 ((CONSTANT (INTEGER 4) 0 '32')))
() () 0 0 0 ()) (49 'ionos' (CHARACTER 1 ((CONSTANT (INTEGER 4) 0 '32')))
() () 0 0 0 ()) (50 'neqout' (CHARACTER 1 ((CONSTANT (INTEGER 4) 0 '32')))
() () 0 0 0 ()) (51 'coordrs' (CHARACTER 1 ((CONSTANT (INTEGER 4) 0 '32')))
() () 0 0 0 ()) (52 'velors' (CHARACTER 1 ((CONSTANT (INTEGER 4) 0 '32')))
() () 0 0 0 ()) (53 'sinexrs' (CHARACTER 1 ((CONSTANT (INTEGER 4) 0 '32')))
() () 0 0 0 ()) (54 'paramin' (CHARACTER 1 ((CONSTANT (INTEGER 4) 0 '32')))
() () 0 0 0 ()) (55 'paramrs' (CHARACTER 1 ((CONSTANT (INTEGER 4) 0 '32')))
() () 0 0 0 ()) (56 'tropsav' (CHARACTER 1 ((CONSTANT (INTEGER 4) 0 '32')))
() () 0 0 0 ()) (57 'tropsnx' (CHARACTER 1 ((CONSTANT (INTEGER 4) 0 '32')))
() () 0 0 0 ()) (58 'dcbout' (CHARACTER 1 ((CONSTANT (INTEGER 4) 0 '32')))
() () 0 0 0 ()) (59 'gravout' (CHARACTER 1 ((CONSTANT (INTEGER 4) 0 '32')))
() () 0 0 0 (CONSTANT (CHARACTER 1 ((CONSTANT (INTEGER 4) 0 '32'))) 0 32
'                                ')) (60 'ionosrs' (CHARACTER 1 ((
CONSTANT (INTEGER 4) 0 '32'))) () () 0 0 0 ()) (61 'ionexrs' (CHARACTER
1 ((CONSTANT (INTEGER 4) 0 '32'))) () () 0 0 0 ()) (62 'polers' (
CHARACTER 1 ((CONSTANT (INTEGER 4) 0 '32'))) () () 0 0 0 ()) (63 'ierspol'
(CHARACTER 1 ((CONSTANT (INTEGER 4) 0 '32'))) () () 0 0 0 ()) (64 'plotrs'
(CHARACTER 1 ((CONSTANT (INTEGER 4) 0 '32'))) () () 0 0 0 ()) (65
'covarrs' (CHARACTER 1 ((CONSTANT (INTEGER 4) 0 '32'))) () () 0 0 0 ())
(66 'covttrs' (CHARACTER 1 ((CONSTANT (INTEGER 4) 0 '32'))) () () 0 0 0
()) (67 'rgbout' (CHARACTER 1 ((CONSTANT (INTEGER 4) 0 '32'))) () () 0 0
0 ()) (68 'wgtout' (CHARACTER 1 ((CONSTANT (INTEGER 4) 0 '32'))) () () 0
0 0 ()) (69 'sysout' (CHARACTER 1 ((CONSTANT (INTEGER 4) 0 '32'))) () ()
0 0 0 ()) (70 'syserr' (CHARACTER 1 ((CONSTANT (INTEGER 4) 0 '32'))) ()
() 0 0 0 ()) (71 'auxfil' (CHARACTER 1 ((CONSTANT (INTEGER 4) 0 '32')))
() () 0 0 0 ()) (72 'maxpar' (INTEGER 4) () () 0 0 0 ()) (73 'neqfilename'
(CHARACTER 1 ((CONSTANT (INTEGER 4) 0 '32'))) (1 DEFERRED () ()) () 1 1
0 ()) (74 'orbfil' (CHARACTER 1 ((CONSTANT (INTEGER 4) 0 '32'))) (2
DEFERRED () () () ()) () 1 1 0 ()) (75 'noinv' (LOGICAL 4) () () 0 0 0 ())
(76 'req' (DERIVED 77) (1 DEFERRED () ()) () 1 1 0 ()) (78 'elimi' (
DERIVED 79) (1 DEFERRED () ()) () 1 1 0 ()) (80 'nstcep' (INTEGER 4) ()
() 0 0 0 ()) (81 'rsw' (INTEGER 4) (1 EXPLICIT (CONSTANT (INTEGER 4) 0 '1')
(CONSTANT (INTEGER 4) 0 '3')) () 1 0 0 ()) (82 'sigrsw' (REAL 8) (1
EXPLICIT (CONSTANT (INTEGER 4) 0 '1') (CONSTANT (INTEGER 4) 0 '3')) () 1
0 0 ()) (83 'numstc' (INTEGER 4) () () 0 0 0 ()) (84 'svnstc' (INTEGER 4)
(1 EXPLICIT (CONSTANT (INTEGER 4) 0 '1') (CONSTANT (INTEGER 4) 0 '130'))
() 1 0 0 ()) (85 'dtstc' (REAL 8) () () 0 0 0 ()) (86 'numdyn' (INTEGER
4) () () 0 0 0 ()) (87 'svndyn' (INTEGER 4) (1 EXPLICIT (CONSTANT (
INTEGER 4) 0 '1') (CONSTANT (INTEGER 4) 0 '130')) () 1 0 0 ()) (88
'numgap' (INTEGER 4) () () 0 0 0 ()) (89 'svngap' (INTEGER 4) (1
EXPLICIT (CONSTANT (INTEGER 4) 0 '1') (CONSTANT (INTEGER 4) 0 '130')) ()
1 0 0 ()) (90 'numnac' (INTEGER 4) () () 0 0 0 ()) (91 'newarc' (
INTEGER 4) (2 EXPLICIT (CONSTANT (INTEGER 4) 0 '1') (CONSTANT (INTEGER 4)
0 '2') (CONSTANT (INTEGER 4) 0 '1') (CONSTANT (INTEGER 4) 0 '3900')) ()
1 0 0 ()) (92 'sigma0' (REAL 8) () () 0 0 0 ()) (93 'sigma' (DERIVED 94)
(1 DEFERRED () ()) () 1 1 0 ()) (95 'trafo' (INTEGER 4) () () 0 0 0 ())
(96 'splitdyn' (INTEGER 4) () () 0 0 0 ()) (97 'polestep' (INTEGER 4) ()
() 0 0 0 ()) (98 'indvsol' (INTEGER 4) () () 0 0 0 ()) (99 'iphelm' (
INTEGER 4) (1 EXPLICIT (CONSTANT (INTEGER 4) 0 '1') (CONSTANT (INTEGER 4)
0 '7')) () 1 0 0 ()) (100 'minsol' (INTEGER 4) () () 0 0 0 ()) (101
'badsol' (REAL 8) (2 EXPLICIT (CONSTANT (INTEGER 4) 0 '1') (CONSTANT (
INTEGER 4) 0 '2') (CONSTANT (INTEGER 4) 0 '1') (CONSTANT (INTEGER 4) 0 '3'))
() 1 0 0 ()) (102 'blkret' (REAL 8) () () 0 0 0 ()) (103 'timrefcrd' (
REAL 8) () () 0 0 0 ()) (104 'helmsig' (REAL 8) (2 EXPLICIT (CONSTANT (
INTEGER 4) 0 '1') (CONSTANT (INTEGER 4) 0 '3') (CONSTANT (INTEGER 4) 0 '1')
(CONSTANT (INTEGER 4) 0 '7')) () 1 0 0 ()) (105 'trpexceptday' (INTEGER
4) () () 0 0 0 ()) (106 'prt' (INTEGER 4) (1 EXPLICIT (CONSTANT (
INTEGER 4) 0 '1') (CONSTANT (INTEGER 4) 0 '10')) () 1 0 0 ()) (107
'setupgcc' (INTEGER 4) () () 0 0 0 ()) (108 'ieuref' (INTEGER 4) () () 0
0 0 ()) (109 'antred' (INTEGER 4) () () 0 0 0 ()) (110 'erprep' (
INTEGER 4) () () 0 0 0 ()) (111 'stasort' (INTEGER 4) (1 EXPLICIT (
CONSTANT (INTEGER 4) 0 '1') (CONSTANT (INTEGER 4) 0 '2')) () 1 0 0 ()) (
112 'snxinc' (INTEGER 4) () () 0 0 0 ()) (113 'snxreg' (REAL 8) () () 0
0 0 ()) (114 'dtrelsig' (REAL 8) (1 EXPLICIT (CONSTANT (INTEGER 4) 0 '1')
(CONSTANT (INTEGER 4) 0 '3')) () 1 0 0 ()) (115 'noabc' (INTEGER 4) () ()
0 0 0 ()) (116 'chrono' (INTEGER 4) () () 0 0 0 ()) (117 'step2' (
INTEGER 4) () () 0 0 0 ()) (118 'step2_t' (REAL 8) (1 EXPLICIT (
CONSTANT (INTEGER 4) 0 '1') (CONSTANT (INTEGER 4) 0 '2')) () 1 0 0 ()) (
119 'sincont' (INTEGER 4) () () 0 0 0 ()) (120 'covmode' (INTEGER 4) ()
() 0 0 0 ()) (121 'stackrgb' (INTEGER 4) () () 0 0 0 ()) (122 'saoopt' (
INTEGER 4) (1 EXPLICIT (CONSTANT (INTEGER 4) 0 '1') (CONSTANT (INTEGER 4)
0 '2')) () 1 0 0 ()) (123 'sapopt' (INTEGER 4) (1 EXPLICIT (CONSTANT (
INTEGER 4) 0 '1') (CONSTANT (INTEGER 4) 0 '2')) () 1 0 0 ()) (124
'grdload' (DERIVED 125) (1 EXPLICIT (CONSTANT (INTEGER 4) 0 '1') (
CONSTANT (INTEGER 4) 0 '3')) () 1 0 0 ()) (126 'hoi' (DERIVED 127) (1
EXPLICIT (CONSTANT (INTEGER 4) 0 '1') (CONSTANT (INTEGER 4) 0 '3')) () 1
0 0 ()) (128 'helmert' (DERIVED 129) (1 EXPLICIT (CONSTANT (INTEGER 4) 0
'1') (CONSTANT (INTEGER 4) 0 '7')) () 1 0 0 ()) (130 'chgrecnam' (
INTEGER 4) () () 0 0 0 ()) (131 'chgantnam' (INTEGER 4) () () 0 0 0 ())
(132 'chgrecnum' (INTEGER 4) () () 0 0 0 ()) (133 'chgantnum' (INTEGER 4)
() () 0 0 0 ()) (134 'chgantecc' (INTEGER 4) () () 0 0 0 ()) (135 'isbout'
(CHARACTER 1 ((CONSTANT (INTEGER 4) 0 '32'))) () () 0 0 0 ()) (136
'rcormgps' (INTEGER 4) () () 0 0 0 ()) (137 'rcotofrq' (INTEGER 4) () ()
0 0 0 ()) (138 'rcofromppp' (INTEGER 4) () () 0 0 0 ()) (139 'maxifb' (
REAL 8) () () 0 0 0 ()) (140 'gtradat' (INTEGER 4) () () 0 0 0 ()) (141
'gtrpdat' (INTEGER 4) () () 0 0 0 ()) (142 'gspstack' (INTEGER 4) () ()
0 0 0 ())) PUBLIC ())
129 't_opthelm' 'p_addneq' 19 ((DERIVED UNKNOWN UNKNOWN UNKNOWN NONE
NONE) (UNKNOWN) 0 0 () () () '' ((143 'stack' (INTEGER 4) () () 0 0 0 ()))
PUBLIC ())
127 't_opthoi' 'p_addneq' 19 ((DERIVED UNKNOWN UNKNOWN UNKNOWN NONE NONE)
(UNKNOWN) 0 0 () () () '' ((144 'x0' (REAL 8) () () 0 0 0 ()) (145 'stack'
(LOGICAL 4) () () 0 0 0 ())) PUBLIC ())
125 't_optload' 'p_addneq' 19 ((DERIVED UNKNOWN UNKNOWN UNKNOWN NONE
NONE) (UNKNOWN) 0 0 () () () '' ((146 'keyw' (CHARACTER 1 ((CONSTANT (
INTEGER 4) 0 '12'))) () () 0 0 0 ()) (147 'nsta' (INTEGER 4) () () 0 0 0
()) (148 'stalst' (CHARACTER 1 ((CONSTANT (INTEGER 4) 0 '16'))) (1
DEFERRED () ()) () 1 1 0 ()) (149 'staclu' (INTEGER 4) (1 DEFERRED () ())
() 1 1 0 ()) (150 'npar' (INTEGER 4) () () 0 0 0 ()) (151 'x0' (INTEGER
4) () () 0 0 0 ())) PUBLIC ())
94 't_sigma' 'p_addneq' 19 ((DERIVED UNKNOWN UNKNOWN UNKNOWN NONE NONE)
(UNKNOWN) 0 0 () () () '' ((152 'locq' (INTEGER 4) (1 EXPLICIT (
CONSTANT (INTEGER 4) 0 '1') (CONSTANT (INTEGER 4) 0 '7')) () 1 0 0 ()) (
153 'name' (CHARACTER 1 ((CONSTANT (INTEGER 4) 0 '20'))) () () 0 0 0 ())
(154 'value' (REAL 8) () () 0 0 0 ()) (155 'typflg' (CHARACTER 1 ((
CONSTANT (INTEGER 4) 0 '1'))) () () 0 0 0 ())) PUBLIC ())
79 't_elimi' 'p_addneq' 19 ((DERIVED UNKNOWN UNKNOWN UNKNOWN NONE NONE)
(UNKNOWN) 0 0 () () () '' ((156 'locq' (INTEGER 4) (1 EXPLICIT (
CONSTANT (INTEGER 4) 0 '1') (CONSTANT (INTEGER 4) 0 '7')) () 1 0 0 ()) (
157 'name' (CHARACTER 1 ((CONSTANT (INTEGER 4) 0 '20'))) () () 0 0 0 ())
(158 'part' (INTEGER 4) () () 0 0 0 ()) (159 'mode' (INTEGER 4) () () 0
0 0 ()) (160 'excp' (INTEGER 4) (1 DEFERRED () ()) () 1 1 0 ()) (161
'deltat' (REAL 8) () () 0 0 0 ()) (162 'eliwin' (DERIVED 163) () () 0 0
0 ()) (164 'wparam' (LOGICAL 4) () () 0 0 0 ()) (165 'descr' (CHARACTER
1 ((CONSTANT (INTEGER 4) 0 '255'))) () () 0 0 0 ())) PUBLIC ())
163 't_timint' 'm_time' 19 ((DERIVED UNKNOWN UNKNOWN UNKNOWN NONE NONE)
(UNKNOWN) 0 0 () () () '' ((166 't' (REAL 8) (1 EXPLICIT (CONSTANT (
INTEGER 4) 0 '1') (CONSTANT (INTEGER 4) 0 '2')) () 1 0 0 ())) PUBLIC ())
77 't_req' 'p_addneq' 19 ((DERIVED UNKNOWN UNKNOWN UNKNOWN NONE NONE) (
UNKNOWN) 0 0 () () () '' ((167 'locq' (INTEGER 4) (1 EXPLICIT (CONSTANT
(INTEGER 4) 0 '1') (CONSTANT (INTEGER 4) 0 '7')) () 1 0 0 ()) (168 'name'
(CHARACTER 1 ((CONSTANT (INTEGER 4) 0 '20'))) () () 0 0 0 ()) (169
'timint' (DERIVED 163) () () 0 0 0 ()) (170 'type' (CHARACTER 1 ((
CONSTANT (INTEGER 4) 0 '2'))) () () 0 0 0 (CONSTANT (CHARACTER 1 ((
CONSTANT (INTEGER 4) 0 '2'))) 0 2 '  ')) (171 'omega' (REAL 8) () () 0 0
0 (CONSTANT (REAL 8) 0 '0' 0 0))) PUBLIC ())
13 'orb' '' 19 ((VARIABLE UNKNOWN UNKNOWN UNKNOWN NONE NONE DUMMY) (
DERIVED 172) 0 0 () () () '' () ())
172 't_orb' 'p_addneq' 19 ((DERIVED UNKNOWN UNKNOWN UNKNOWN NONE NONE) (
UNKNOWN) 0 0 () () () '' ((173 'title' (CHARACTER 1 ((CONSTANT (INTEGER
4) 0 '80'))) () () 0 0 0 ()) (174 'nseff' (INTEGER 4) () () 0 0 0 ()) (
175 'svneff' (INTEGER 4) (1 EXPLICIT (CONSTANT (INTEGER 4) 0 '1') (
CONSTANT (INTEGER 4) 0 '130')) () 1 0 0 ()) (176 'nstoch' (INTEGER 4) ()
() 0 0 0 ()) (177 'arcnum' (INTEGER 4) (2 EXPLICIT (CONSTANT (INTEGER 4)
0 '1') (CONSTANT (INTEGER 4) 0 '130') (CONSTANT (INTEGER 4) 0 '1') (
CONSTANT (INTEGER 4) 0 '30')) () 1 0 0 ()) (178 'manovr' (INTEGER 4) (1
EXPLICIT (CONSTANT (INTEGER 4) 0 '1') (CONSTANT (INTEGER 4) 0 '130')) ()
1 0 0 ()) (179 'ele' (REAL 8) (3 EXPLICIT (CONSTANT (INTEGER 4) 0 '1') (
CONSTANT (INTEGER 4) 0 '7') (CONSTANT (INTEGER 4) 0 '1') (CONSTANT (
INTEGER 4) 0 '130') (CONSTANT (INTEGER 4) 0 '1') (CONSTANT (INTEGER 4) 0
'30')) () 1 0 0 ()) (180 'rpress' (REAL 8) (3 EXPLICIT (CONSTANT (
INTEGER 4) 0 '1') (CONSTANT (INTEGER 4) 0 '12') (CONSTANT (INTEGER 4) 0
'1') (CONSTANT (INTEGER 4) 0 '130') (CONSTANT (INTEGER 4) 0 '1') (
CONSTANT (INTEGER 4) 0 '30')) () 1 0 0 ()) (181 'drpr' (REAL 8) (3
EXPLICIT (CONSTANT (INTEGER 4) 0 '1') (CONSTANT (INTEGER 4) 0 '12') (
CONSTANT (INTEGER 4) 0 '1') (CONSTANT (INTEGER 4) 0 '130') (CONSTANT (
INTEGER 4) 0 '1') (CONSTANT (INTEGER 4) 0 '30')) () 1 0 0 ()) (182 'tosc'
(REAL 8) (1 EXPLICIT (CONSTANT (INTEGER 4) 0 '1') (CONSTANT (INTEGER 4)
0 '30')) () 1 0 0 ()) (183 'tstoch' (REAL 8) (1 EXPLICIT (CONSTANT (
INTEGER 4) 0 '1') (CONSTANT (INTEGER 4) 0 '1800')) () 1 0 0 ()) (184
'kmat' (REAL 8) (4 EXPLICIT (CONSTANT (INTEGER 4) 0 '1') (CONSTANT (
INTEGER 4) 0 '6') (CONSTANT (INTEGER 4) 0 '1') (CONSTANT (INTEGER 4) 0 '6')
(CONSTANT (INTEGER 4) 0 '1') (CONSTANT (INTEGER 4) 0 '130') (CONSTANT (
INTEGER 4) 0 '1') (CONSTANT (INTEGER 4) 0 '30')) () 1 0 0 ()) (185 'lmat'
(REAL 8) (4 EXPLICIT (CONSTANT (INTEGER 4) 0 '1') (CONSTANT (INTEGER 4)
0 '6') (CONSTANT (INTEGER 4) 0 '1') (CONSTANT (INTEGER 4) 0 '12') (
CONSTANT (INTEGER 4) 0 '1') (CONSTANT (INTEGER 4) 0 '130') (CONSTANT (
INTEGER 4) 0 '1') (CONSTANT (INTEGER 4) 0 '30')) () 1 0 0 ()) (186 'mmat'
(REAL 8) (5 EXPLICIT (CONSTANT (INTEGER 4) 0 '1') (CONSTANT (INTEGER 4)
0 '6') (CONSTANT (INTEGER 4) 0 '1') (CONSTANT (INTEGER 4) 0 '12') (
CONSTANT (INTEGER 4) 0 '1') (CONSTANT (INTEGER 4) 0 '130') (CONSTANT (
INTEGER 4) 0 '1') (CONSTANT (INTEGER 4) 0 '30') (CONSTANT (INTEGER 4) 0
'1') (CONSTANT (INTEGER 4) 0 '30')) () 1 0 0 ()) (187 'drho' (REAL 8) (
3 EXPLICIT (CONSTANT (INTEGER 4) 0 '1') (CONSTANT (INTEGER 4) 0 '6') (
CONSTANT (INTEGER 4) 0 '1') (CONSTANT (INTEGER 4) 0 '130') (CONSTANT (
INTEGER 4) 0 '1') (CONSTANT (INTEGER 4) 0 '30')) () 1 0 0 ()) (188 'drhot'
(REAL 8) (3 EXPLICIT (CONSTANT (INTEGER 4) 0 '1') (CONSTANT (INTEGER 4)
0 '6') (CONSTANT (INTEGER 4) 0 '1') (CONSTANT (INTEGER 4) 0 '130') (
CONSTANT (INTEGER 4) 0 '1') (CONSTANT (INTEGER 4) 0 '30')) () 1 0 0 ())
(189 'nman' (INTEGER 4) () () 0 0 0 ()) (190 'man' (DERIVED 191) (1
EXPLICIT (CONSTANT (INTEGER 4) 0 '1') (CONSTANT (INTEGER 4) 0 '100')) ()
1 0 0 ())) PUBLIC ())
191 't_man' 'p_addneq' 19 ((DERIVED UNKNOWN UNKNOWN UNKNOWN NONE NONE) (
UNKNOWN) 0 0 () () () '' ((192 'satman' (INTEGER 4) () () 0 0 0 ()) (
193 'timman' (REAL 8) () () 0 0 0 ())) PUBLIC ())
12 'ifil' '' 19 ((VARIABLE UNKNOWN UNKNOWN UNKNOWN NONE NONE DUMMY) (
INTEGER 4) 0 0 () () () '' () ())
11 'neq' '' 19 ((VARIABLE UNKNOWN UNKNOWN UNKNOWN NONE NONE DUMMY) (
DERIVED 194) 0 0 () () () '' () ())
194 't_neq' 'd_neq' 19 ((DERIVED UNKNOWN UNKNOWN UNKNOWN NONE NONE) (
UNKNOWN) 0 0 () () () '' ((195 'version' (INTEGER 4) () () 0 0 0 ()) (
196 'misc' (DERIVED 197) () () 0 0 0 ()) (198 'par' (DERIVED 199) (1
DEFERRED () ()) () 1 1 0 ()) (200 'anor' (REAL 8) (1 DEFERRED () ()) ()
1 1 0 ()) (201 'bnor' (REAL 8) (1 DEFERRED () ()) () 1 1 0 ()) (202 'xxx'
(REAL 8) (1 DEFERRED () ()) () 1 1 0 ())) PUBLIC ())
199 't_par' 'd_par' 19 ((DERIVED UNKNOWN UNKNOWN UNKNOWN NONE NONE) (
UNKNOWN) 0 0 () () () '' ((203 'locq' (INTEGER 4) (1 EXPLICIT (CONSTANT
(INTEGER 4) 0 '1') (CONSTANT (INTEGER 4) 0 '7')) () 1 0 0 ()) (204 'name'
(CHARACTER 1 ((CONSTANT (INTEGER 4) 0 '20'))) () () 0 0 0 ()) (205 'time'
(DERIVED 206) () () 0 0 0 ()) (207 'x0' (REAL 8) () () 0 0 0 ()) (208
'scale' (REAL 8) () () 0 0 0 ()) (209 'techn' (CHARACTER 1 ((CONSTANT (
INTEGER 4) 0 '1'))) (1 EXPLICIT (CONSTANT (INTEGER 4) 0 '1') (CONSTANT (
INTEGER 4) 0 '2')) () 1 0 0 ()) (210 'obstim' (DERIVED 163) () () 0 0 0
()) (211 'type' (CHARACTER 1 ((CONSTANT (INTEGER 4) 0 '2'))) () () 0 0 0
()) (212 'omega' (REAL 8) () () 0 0 0 ())) PUBLIC ())
206 't_time' 'm_time' 19 ((DERIVED UNKNOWN UNKNOWN UNKNOWN NONE NONE
SEQUENCE) (UNKNOWN) 0 0 () () () '' ((213 'mean' (REAL 8) () () 0 0 0 ())
(214 'half' (REAL 8) () () 0 0 0 ())) PUBLIC ())
197 't_misc' 'd_neq' 19 ((DERIVED UNKNOWN UNKNOWN UNKNOWN NONE NONE) (
UNKNOWN) 0 0 () () () '' ((215 'title' (CHARACTER 1 ((CONSTANT (INTEGER
4) 0 '132'))) (1 EXPLICIT (CONSTANT (INTEGER 4) 0 '1') (CONSTANT (
INTEGER 4) 0 '2')) () 1 0 0 ()) (216 'datum' (CHARACTER 1 ((CONSTANT (
INTEGER 4) 0 '16'))) () () 0 0 0 ()) (217 'nutmod' (CHARACTER 1 ((
CONSTANT (INTEGER 4) 0 '16'))) () () 0 0 0 ()) (218 'submod' (CHARACTER
1 ((CONSTANT (INTEGER 4) 0 '16'))) () () 0 0 0 ()) (219 'orbfil' (
CHARACTER 1 ((CONSTANT (INTEGER 4) 0 '32'))) (1 EXPLICIT (CONSTANT (
INTEGER 4) 0 '1') (CONSTANT (INTEGER 4) 0 '2')) () 1 0 0 ()) (220
'gravfil' (CHARACTER 1 ((CONSTANT (INTEGER 4) 0 '32'))) () () 0 0 0 ())
(221 'nobs' (REAL 8) () () 0 0 0 ()) (222 'npar' (INTEGER 4) () () 0 0 0
()) (223 'ltpl' (REAL 8) () () 0 0 0 ()) (224 'nparms' (REAL 8) () () 0
0 0 ()) (225 'npseu' (INTEGER 4) () () 0 0 0 ()) (226 'npseuel' (
INTEGER 4) () () 0 0 0 ()) (227 'nftot' (INTEGER 4) () () 0 0 0 ()) (
228 'nsmpnq' (INTEGER 4) () () 0 0 0 ()) (229 'ielvnq' (INTEGER 4) () ()
0 0 0 ()) (230 'itropo' (INTEGER 4) () () 0 0 0 ()) (231 'iextra' (
INTEGER 4) () () 0 0 0 ()) (232 'itrmap' (INTEGER 4) () () 0 0 0 ()) (
233 'itrgrd' (INTEGER 4) () () 0 0 0 ()) (234 'nanoff' (INTEGER 4) () ()
0 0 0 ()) (235 'nsaoff' (INTEGER 4) (1 EXPLICIT (CONSTANT (INTEGER 4) 0
'1') (CONSTANT (INTEGER 4) 0 '260')) () 1 0 0 ()) (236 'satoff' (
INTEGER 4) (2 EXPLICIT (CONSTANT (INTEGER 4) 0 '1') (CONSTANT (INTEGER 4)
0 '130') (CONSTANT (INTEGER 4) 0 '1') (CONSTANT (INTEGER 4) 0 '260')) ()
1 0 0 ()) (237 'nstat_sinex' (INTEGER 4) () () 0 0 0 ()) (238 'sinex' (
DERIVED 239) (1 EXPLICIT (CONSTANT (INTEGER 4) 0 '1') (CONSTANT (
INTEGER 4) 0 '2000')) () 1 0 0 ()) (240 'grdneq' (CHARACTER 1 ((
CONSTANT (INTEGER 4) 0 '12'))) (1 EXPLICIT (CONSTANT (INTEGER 4) 0 '1')
(CONSTANT (INTEGER 4) 0 '3')) () 1 0 0 ()) (241 'nobst' (INTEGER 4) () ()
0 0 0 ()) (242 'obst' (DERIVED 243) (1 EXPLICIT (CONSTANT (INTEGER 4) 0
'1') (CONSTANT (INTEGER 4) 0 '30000')) () 1 0 0 ())) PUBLIC ())
243 't_obst' 'd_neq' 19 ((DERIVED UNKNOWN UNKNOWN UNKNOWN NONE NONE) (
UNKNOWN) 0 0 () () () '' ((244 'obstyp' (CHARACTER 1 ((CONSTANT (
INTEGER 4) 0 '3'))) (1 EXPLICIT (CONSTANT (INTEGER 4) 0 '1') (CONSTANT (
INTEGER 4) 0 '4')) () 1 0 0 ())) PUBLIC ())
239 't_sinex' 'd_neq' 19 ((DERIVED UNKNOWN UNKNOWN UNKNOWN NONE NONE) (
UNKNOWN) 0 0 () () () '' ((245 'timint' (DERIVED 163) () () 0 0 0 ()) (
246 'stname' (CHARACTER 1 ((CONSTANT (INTEGER 4) 0 '16'))) () () 0 0 0 ())
(247 'antecc' (REAL 8) (1 EXPLICIT (CONSTANT (INTEGER 4) 0 '1') (
CONSTANT (INTEGER 4) 0 '3')) () 1 0 0 ()) (248 'antpcv' (DERIVED 249) (
1 EXPLICIT (CONSTANT (INTEGER 4) 0 '0') (CONSTANT (INTEGER 4) 0 '5')) ()
1 0 0 ()) (250 'antnum' (INTEGER 4) () () 0 0 0 ()) (251 'antsta' (
CHARACTER 1 ((CONSTANT (INTEGER 4) 0 '20'))) () () 0 0 0 ()) (252 'antrec'
(CHARACTER 1 ((CONSTANT (INTEGER 4) 0 '20'))) () () 0 0 0 ())) PUBLIC ())
249 't_sinex_pcv' 'd_neq' 19 ((DERIVED UNKNOWN UNKNOWN UNKNOWN NONE NONE)
(UNKNOWN) 0 0 () () () '' ((253 'nfrq' (INTEGER 4) () () 0 0 0 ()) (254
'antphs' (REAL 8) (2 EXPLICIT (CONSTANT (INTEGER 4) 0 '1') (CONSTANT (
INTEGER 4) 0 '3') (CONSTANT (INTEGER 4) 0 '1') (CONSTANT (INTEGER 4) 0 '2'))
() 1 0 0 ()) (255 'adopted' (INTEGER 4) () () 0 0 0 ()) (256 'individ' (
INTEGER 4) () () 0 0 0 ()) (257 'atxstr' (CHARACTER 1 ((CONSTANT (
INTEGER 4) 0 '10'))) () () 0 0 0 ())) PUBLIC ())
9 'neq' '' 258 ((VARIABLE UNKNOWN UNKNOWN UNKNOWN NONE NONE DUMMY) (
DERIVED 259) 0 0 () () () '' () ())
259 't_neq' 'd_neq' 258 ((DERIVED UNKNOWN UNKNOWN UNKNOWN NONE NONE) (
UNKNOWN) 0 0 () () () '' ((260 'version' (INTEGER 4) () () 0 0 0 ()) (
261 'misc' (DERIVED 262) () () 0 0 0 ()) (263 'par' (DERIVED 264) (1
DEFERRED () ()) () 1 1 0 ()) (265 'anor' (REAL 8) (1 DEFERRED () ()) ()
1 1 0 ()) (266 'bnor' (REAL 8) (1 DEFERRED () ()) () 1 1 0 ()) (267 'xxx'
(REAL 8) (1 DEFERRED () ()) () 1 1 0 ())) PUBLIC ())
264 't_par' 'd_par' 258 ((DERIVED UNKNOWN UNKNOWN UNKNOWN NONE NONE) (
UNKNOWN) 0 0 () () () '' ((268 'locq' (INTEGER 4) (1 EXPLICIT (CONSTANT
(INTEGER 4) 0 '1') (CONSTANT (INTEGER 4) 0 '7')) () 1 0 0 ()) (269 'name'
(CHARACTER 1 ((CONSTANT (INTEGER 4) 0 '20'))) () () 0 0 0 ()) (270 'time'
(DERIVED 271) () () 0 0 0 ()) (272 'x0' (REAL 8) () () 0 0 0 ()) (273
'scale' (REAL 8) () () 0 0 0 ()) (274 'techn' (CHARACTER 1 ((CONSTANT (
INTEGER 4) 0 '1'))) (1 EXPLICIT (CONSTANT (INTEGER 4) 0 '1') (CONSTANT (
INTEGER 4) 0 '2')) () 1 0 0 ()) (275 'obstim' (DERIVED 276) () () 0 0 0
()) (277 'type' (CHARACTER 1 ((CONSTANT (INTEGER 4) 0 '2'))) () () 0 0 0
()) (278 'omega' (REAL 8) () () 0 0 0 ())) PUBLIC ())
276 't_timint' 'm_time' 258 ((DERIVED UNKNOWN UNKNOWN UNKNOWN NONE NONE)
(UNKNOWN) 0 0 () () () '' ((279 't' (REAL 8) (1 EXPLICIT (CONSTANT (
INTEGER 4) 0 '1') (CONSTANT (INTEGER 4) 0 '2')) () 1 0 0 ())) PUBLIC ())
271 't_time' 'm_time' 258 ((DERIVED UNKNOWN UNKNOWN UNKNOWN NONE NONE
SEQUENCE) (UNKNOWN) 0 0 () () () '' ((280 'mean' (REAL 8) () () 0 0 0 ())
(281 'half' (REAL 8) () () 0 0 0 ())) PUBLIC ())
262 't_misc' 'd_neq' 258 ((DERIVED UNKNOWN UNKNOWN UNKNOWN NONE NONE) (
UNKNOWN) 0 0 () () () '' ((282 'title' (CHARACTER 1 ((CONSTANT (INTEGER
4) 0 '132'))) (1 EXPLICIT (CONSTANT (INTEGER 4) 0 '1') (CONSTANT (
INTEGER 4) 0 '2')) () 1 0 0 ()) (283 'datum' (CHARACTER 1 ((CONSTANT (
INTEGER 4) 0 '16'))) () () 0 0 0 ()) (284 'nutmod' (CHARACTER 1 ((
CONSTANT (INTEGER 4) 0 '16'))) () () 0 0 0 ()) (285 'submod' (CHARACTER
1 ((CONSTANT (INTEGER 4) 0 '16'))) () () 0 0 0 ()) (286 'orbfil' (
CHARACTER 1 ((CONSTANT (INTEGER 4) 0 '32'))) (1 EXPLICIT (CONSTANT (
INTEGER 4) 0 '1') (CONSTANT (INTEGER 4) 0 '2')) () 1 0 0 ()) (287
'gravfil' (CHARACTER 1 ((CONSTANT (INTEGER 4) 0 '32'))) () () 0 0 0 ())
(288 'nobs' (REAL 8) () () 0 0 0 ()) (289 'npar' (INTEGER 4) () () 0 0 0
()) (290 'ltpl' (REAL 8) () () 0 0 0 ()) (291 'nparms' (REAL 8) () () 0
0 0 ()) (292 'npseu' (INTEGER 4) () () 0 0 0 ()) (293 'npseuel' (
INTEGER 4) () () 0 0 0 ()) (294 'nftot' (INTEGER 4) () () 0 0 0 ()) (
295 'nsmpnq' (INTEGER 4) () () 0 0 0 ()) (296 'ielvnq' (INTEGER 4) () ()
0 0 0 ()) (297 'itropo' (INTEGER 4) () () 0 0 0 ()) (298 'iextra' (
INTEGER 4) () () 0 0 0 ()) (299 'itrmap' (INTEGER 4) () () 0 0 0 ()) (
300 'itrgrd' (INTEGER 4) () () 0 0 0 ()) (301 'nanoff' (INTEGER 4) () ()
0 0 0 ()) (302 'nsaoff' (INTEGER 4) (1 EXPLICIT (CONSTANT (INTEGER 4) 0
'1') (CONSTANT (INTEGER 4) 0 '260')) () 1 0 0 ()) (303 'satoff' (
INTEGER 4) (2 EXPLICIT (CONSTANT (INTEGER 4) 0 '1') (CONSTANT (INTEGER 4)
0 '130') (CONSTANT (INTEGER 4) 0 '1') (CONSTANT (INTEGER 4) 0 '260')) ()
1 0 0 ()) (304 'nstat_sinex' (INTEGER 4) () () 0 0 0 ()) (305 'sinex' (
DERIVED 306) (1 EXPLICIT (CONSTANT (INTEGER 4) 0 '1') (CONSTANT (
INTEGER 4) 0 '2000')) () 1 0 0 ()) (307 'grdneq' (CHARACTER 1 ((
CONSTANT (INTEGER 4) 0 '12'))) (1 EXPLICIT (CONSTANT (INTEGER 4) 0 '1')
(CONSTANT (INTEGER 4) 0 '3')) () 1 0 0 ()) (308 'nobst' (INTEGER 4) () ()
0 0 0 ()) (309 'obst' (DERIVED 310) (1 EXPLICIT (CONSTANT (INTEGER 4) 0
'1') (CONSTANT (INTEGER 4) 0 '30000')) () 1 0 0 ())) PUBLIC ())
310 't_obst' 'd_neq' 258 ((DERIVED UNKNOWN UNKNOWN UNKNOWN NONE NONE) (
UNKNOWN) 0 0 () () () '' ((311 'obstyp' (CHARACTER 1 ((CONSTANT (
INTEGER 4) 0 '3'))) (1 EXPLICIT (CONSTANT (INTEGER 4) 0 '1') (CONSTANT (
INTEGER 4) 0 '4')) () 1 0 0 ())) PUBLIC ())
306 't_sinex' 'd_neq' 258 ((DERIVED UNKNOWN UNKNOWN UNKNOWN NONE NONE) (
UNKNOWN) 0 0 () () () '' ((312 'timint' (DERIVED 276) () () 0 0 0 ()) (
313 'stname' (CHARACTER 1 ((CONSTANT (INTEGER 4) 0 '16'))) () () 0 0 0 ())
(314 'antecc' (REAL 8) (1 EXPLICIT (CONSTANT (INTEGER 4) 0 '1') (
CONSTANT (INTEGER 4) 0 '3')) () 1 0 0 ()) (315 'antpcv' (DERIVED 316) (
1 EXPLICIT (CONSTANT (INTEGER 4) 0 '0') (CONSTANT (INTEGER 4) 0 '5')) ()
1 0 0 ()) (317 'antnum' (INTEGER 4) () () 0 0 0 ()) (318 'antsta' (
CHARACTER 1 ((CONSTANT (INTEGER 4) 0 '20'))) () () 0 0 0 ()) (319 'antrec'
(CHARACTER 1 ((CONSTANT (INTEGER 4) 0 '20'))) () () 0 0 0 ())) PUBLIC ())
316 't_sinex_pcv' 'd_neq' 258 ((DERIVED UNKNOWN UNKNOWN UNKNOWN NONE
NONE) (UNKNOWN) 0 0 () () () '' ((320 'nfrq' (INTEGER 4) () () 0 0 0 ())
(321 'antphs' (REAL 8) (2 EXPLICIT (CONSTANT (INTEGER 4) 0 '1') (
CONSTANT (INTEGER 4) 0 '3') (CONSTANT (INTEGER 4) 0 '1') (CONSTANT (
INTEGER 4) 0 '2')) () 1 0 0 ()) (322 'adopted' (INTEGER 4) () () 0 0 0 ())
(323 'individ' (INTEGER 4) () () 0 0 0 ()) (324 'atxstr' (CHARACTER 1 (
(CONSTANT (INTEGER 4) 0 '10'))) () () 0 0 0 ())) PUBLIC ())
8 'neqfilename' '' 258 ((VARIABLE IN UNKNOWN UNKNOWN NONE NONE DUMMY) (
CHARACTER 1 ((CONSTANT (INTEGER 4) 0 '32'))) 0 0 () () () '' () ())
7 'ipart' '' 325 ((VARIABLE UNKNOWN UNKNOWN UNKNOWN NONE NONE OPTIONAL
DUMMY) (INTEGER 4) 0 0 () () () '' () ())
6 'orb' '' 325 ((VARIABLE UNKNOWN UNKNOWN UNKNOWN NONE NONE DUMMY) (
DERIVED 326) 0 0 () () () '' () ())
326 't_orb' 'p_addneq' 325 ((DERIVED UNKNOWN UNKNOWN UNKNOWN NONE NONE)
(UNKNOWN) 0 0 () () () '' ((327 'title' (CHARACTER 1 ((CONSTANT (
INTEGER 4) 0 '80'))) () () 0 0 0 ()) (328 'nseff' (INTEGER 4) () () 0 0
0 ()) (329 'svneff' (INTEGER 4) (1 EXPLICIT (CONSTANT (INTEGER 4) 0 '1')
(CONSTANT (INTEGER 4) 0 '130')) () 1 0 0 ()) (330 'nstoch' (INTEGER 4) ()
() 0 0 0 ()) (331 'arcnum' (INTEGER 4) (2 EXPLICIT (CONSTANT (INTEGER 4)
0 '1') (CONSTANT (INTEGER 4) 0 '130') (CONSTANT (INTEGER 4) 0 '1') (
CONSTANT (INTEGER 4) 0 '30')) () 1 0 0 ()) (332 'manovr' (INTEGER 4) (1
EXPLICIT (CONSTANT (INTEGER 4) 0 '1') (CONSTANT (INTEGER 4) 0 '130')) ()
1 0 0 ()) (333 'ele' (REAL 8) (3 EXPLICIT (CONSTANT (INTEGER 4) 0 '1') (
CONSTANT (INTEGER 4) 0 '7') (CONSTANT (INTEGER 4) 0 '1') (CONSTANT (
INTEGER 4) 0 '130') (CONSTANT (INTEGER 4) 0 '1') (CONSTANT (INTEGER 4) 0
'30')) () 1 0 0 ()) (334 'rpress' (REAL 8) (3 EXPLICIT (CONSTANT (
INTEGER 4) 0 '1') (CONSTANT (INTEGER 4) 0 '12') (CONSTANT (INTEGER 4) 0
'1') (CONSTANT (INTEGER 4) 0 '130') (CONSTANT (INTEGER 4) 0 '1') (
CONSTANT (INTEGER 4) 0 '30')) () 1 0 0 ()) (335 'drpr' (REAL 8) (3
EXPLICIT (CONSTANT (INTEGER 4) 0 '1') (CONSTANT (INTEGER 4) 0 '12') (
CONSTANT (INTEGER 4) 0 '1') (CONSTANT (INTEGER 4) 0 '130') (CONSTANT (
INTEGER 4) 0 '1') (CONSTANT (INTEGER 4) 0 '30')) () 1 0 0 ()) (336 'tosc'
(REAL 8) (1 EXPLICIT (CONSTANT (INTEGER 4) 0 '1') (CONSTANT (INTEGER 4)
0 '30')) () 1 0 0 ()) (337 'tstoch' (REAL 8) (1 EXPLICIT (CONSTANT (
INTEGER 4) 0 '1') (CONSTANT (INTEGER 4) 0 '1800')) () 1 0 0 ()) (338
'kmat' (REAL 8) (4 EXPLICIT (CONSTANT (INTEGER 4) 0 '1') (CONSTANT (
INTEGER 4) 0 '6') (CONSTANT (INTEGER 4) 0 '1') (CONSTANT (INTEGER 4) 0 '6')
(CONSTANT (INTEGER 4) 0 '1') (CONSTANT (INTEGER 4) 0 '130') (CONSTANT (
INTEGER 4) 0 '1') (CONSTANT (INTEGER 4) 0 '30')) () 1 0 0 ()) (339 'lmat'
(REAL 8) (4 EXPLICIT (CONSTANT (INTEGER 4) 0 '1') (CONSTANT (INTEGER 4)
0 '6') (CONSTANT (INTEGER 4) 0 '1') (CONSTANT (INTEGER 4) 0 '12') (
CONSTANT (INTEGER 4) 0 '1') (CONSTANT (INTEGER 4) 0 '130') (CONSTANT (
INTEGER 4) 0 '1') (CONSTANT (INTEGER 4) 0 '30')) () 1 0 0 ()) (340 'mmat'
(REAL 8) (5 EXPLICIT (CONSTANT (INTEGER 4) 0 '1') (CONSTANT (INTEGER 4)
0 '6') (CONSTANT (INTEGER 4) 0 '1') (CONSTANT (INTEGER 4) 0 '12') (
CONSTANT (INTEGER 4) 0 '1') (CONSTANT (INTEGER 4) 0 '130') (CONSTANT (
INTEGER 4) 0 '1') (CONSTANT (INTEGER 4) 0 '30') (CONSTANT (INTEGER 4) 0
'1') (CONSTANT (INTEGER 4) 0 '30')) () 1 0 0 ()) (341 'drho' (REAL 8) (
3 EXPLICIT (CONSTANT (INTEGER 4) 0 '1') (CONSTANT (INTEGER 4) 0 '6') (
CONSTANT (INTEGER 4) 0 '1') (CONSTANT (INTEGER 4) 0 '130') (CONSTANT (
INTEGER 4) 0 '1') (CONSTANT (INTEGER 4) 0 '30')) () 1 0 0 ()) (342 'drhot'
(REAL 8) (3 EXPLICIT (CONSTANT (INTEGER 4) 0 '1') (CONSTANT (INTEGER 4)
0 '6') (CONSTANT (INTEGER 4) 0 '1') (CONSTANT (INTEGER 4) 0 '130') (
CONSTANT (INTEGER 4) 0 '1') (CONSTANT (INTEGER 4) 0 '30')) () 1 0 0 ())
(343 'nman' (INTEGER 4) () () 0 0 0 ()) (344 'man' (DERIVED 345) (1
EXPLICIT (CONSTANT (INTEGER 4) 0 '1') (CONSTANT (INTEGER 4) 0 '100')) ()
1 0 0 ())) PUBLIC ())
345 't_man' 'p_addneq' 325 ((DERIVED UNKNOWN UNKNOWN UNKNOWN NONE NONE)
(UNKNOWN) 0 0 () () () '' ((346 'satman' (INTEGER 4) () () 0 0 0 ()) (
347 'timman' (REAL 8) () () 0 0 0 ())) PUBLIC ())
5 'ifil' '' 325 ((VARIABLE UNKNOWN UNKNOWN UNKNOWN NONE NONE DUMMY) (
INTEGER 4) 0 0 () () () '' () ())
4 'neq' '' 325 ((VARIABLE UNKNOWN UNKNOWN UNKNOWN NONE NONE DUMMY) (
DERIVED 348) 0 0 () () () '' () ())
348 't_neq' 'd_neq' 325 ((DERIVED UNKNOWN UNKNOWN UNKNOWN NONE NONE) (
UNKNOWN) 0 0 () () () '' ((349 'version' (INTEGER 4) () () 0 0 0 ()) (
350 'misc' (DERIVED 351) () () 0 0 0 ()) (352 'par' (DERIVED 353) (1
DEFERRED () ()) () 1 1 0 ()) (354 'anor' (REAL 8) (1 DEFERRED () ()) ()
1 1 0 ()) (355 'bnor' (REAL 8) (1 DEFERRED () ()) () 1 1 0 ()) (356 'xxx'
(REAL 8) (1 DEFERRED () ()) () 1 1 0 ())) PUBLIC ())
353 't_par' 'd_par' 325 ((DERIVED UNKNOWN UNKNOWN UNKNOWN NONE NONE) (
UNKNOWN) 0 0 () () () '' ((357 'locq' (INTEGER 4) (1 EXPLICIT (CONSTANT
(INTEGER 4) 0 '1') (CONSTANT (INTEGER 4) 0 '7')) () 1 0 0 ()) (358 'name'
(CHARACTER 1 ((CONSTANT (INTEGER 4) 0 '20'))) () () 0 0 0 ()) (359 'time'
(DERIVED 360) () () 0 0 0 ()) (361 'x0' (REAL 8) () () 0 0 0 ()) (362
'scale' (REAL 8) () () 0 0 0 ()) (363 'techn' (CHARACTER 1 ((CONSTANT (
INTEGER 4) 0 '1'))) (1 EXPLICIT (CONSTANT (INTEGER 4) 0 '1') (CONSTANT (
INTEGER 4) 0 '2')) () 1 0 0 ()) (364 'obstim' (DERIVED 365) () () 0 0 0
()) (366 'type' (CHARACTER 1 ((CONSTANT (INTEGER 4) 0 '2'))) () () 0 0 0
()) (367 'omega' (REAL 8) () () 0 0 0 ())) PUBLIC ())
365 't_timint' 'm_time' 325 ((DERIVED UNKNOWN UNKNOWN UNKNOWN NONE NONE)
(UNKNOWN) 0 0 () () () '' ((368 't' (REAL 8) (1 EXPLICIT (CONSTANT (
INTEGER 4) 0 '1') (CONSTANT (INTEGER 4) 0 '2')) () 1 0 0 ())) PUBLIC ())
360 't_time' 'm_time' 325 ((DERIVED UNKNOWN UNKNOWN UNKNOWN NONE NONE
SEQUENCE) (UNKNOWN) 0 0 () () () '' ((369 'mean' (REAL 8) () () 0 0 0 ())
(370 'half' (REAL 8) () () 0 0 0 ())) PUBLIC ())
351 't_misc' 'd_neq' 325 ((DERIVED UNKNOWN UNKNOWN UNKNOWN NONE NONE) (
UNKNOWN) 0 0 () () () '' ((371 'title' (CHARACTER 1 ((CONSTANT (INTEGER
4) 0 '132'))) (1 EXPLICIT (CONSTANT (INTEGER 4) 0 '1') (CONSTANT (
INTEGER 4) 0 '2')) () 1 0 0 ()) (372 'datum' (CHARACTER 1 ((CONSTANT (
INTEGER 4) 0 '16'))) () () 0 0 0 ()) (373 'nutmod' (CHARACTER 1 ((
CONSTANT (INTEGER 4) 0 '16'))) () () 0 0 0 ()) (374 'submod' (CHARACTER
1 ((CONSTANT (INTEGER 4) 0 '16'))) () () 0 0 0 ()) (375 'orbfil' (
CHARACTER 1 ((CONSTANT (INTEGER 4) 0 '32'))) (1 EXPLICIT (CONSTANT (
INTEGER 4) 0 '1') (CONSTANT (INTEGER 4) 0 '2')) () 1 0 0 ()) (376
'gravfil' (CHARACTER 1 ((CONSTANT (INTEGER 4) 0 '32'))) () () 0 0 0 ())
(377 'nobs' (REAL 8) () () 0 0 0 ()) (378 'npar' (INTEGER 4) () () 0 0 0
()) (379 'ltpl' (REAL 8) () () 0 0 0 ()) (380 'nparms' (REAL 8) () () 0
0 0 ()) (381 'npseu' (INTEGER 4) () () 0 0 0 ()) (382 'npseuel' (
INTEGER 4) () () 0 0 0 ()) (383 'nftot' (INTEGER 4) () () 0 0 0 ()) (
384 'nsmpnq' (INTEGER 4) () () 0 0 0 ()) (385 'ielvnq' (INTEGER 4) () ()
0 0 0 ()) (386 'itropo' (INTEGER 4) () () 0 0 0 ()) (387 'iextra' (
INTEGER 4) () () 0 0 0 ()) (388 'itrmap' (INTEGER 4) () () 0 0 0 ()) (
389 'itrgrd' (INTEGER 4) () () 0 0 0 ()) (390 'nanoff' (INTEGER 4) () ()
0 0 0 ()) (391 'nsaoff' (INTEGER 4) (1 EXPLICIT (CONSTANT (INTEGER 4) 0
'1') (CONSTANT (INTEGER 4) 0 '260')) () 1 0 0 ()) (392 'satoff' (
INTEGER 4) (2 EXPLICIT (CONSTANT (INTEGER 4) 0 '1') (CONSTANT (INTEGER 4)
0 '130') (CONSTANT (INTEGER 4) 0 '1') (CONSTANT (INTEGER 4) 0 '260')) ()
1 0 0 ()) (393 'nstat_sinex' (INTEGER 4) () () 0 0 0 ()) (394 'sinex' (
DERIVED 395) (1 EXPLICIT (CONSTANT (INTEGER 4) 0 '1') (CONSTANT (
INTEGER 4) 0 '2000')) () 1 0 0 ()) (396 'grdneq' (CHARACTER 1 ((
CONSTANT (INTEGER 4) 0 '12'))) (1 EXPLICIT (CONSTANT (INTEGER 4) 0 '1')
(CONSTANT (INTEGER 4) 0 '3')) () 1 0 0 ()) (397 'nobst' (INTEGER 4) () ()
0 0 0 ()) (398 'obst' (DERIVED 399) (1 EXPLICIT (CONSTANT (INTEGER 4) 0
'1') (CONSTANT (INTEGER 4) 0 '30000')) () 1 0 0 ())) PUBLIC ())
399 't_obst' 'd_neq' 325 ((DERIVED UNKNOWN UNKNOWN UNKNOWN NONE NONE) (
UNKNOWN) 0 0 () () () '' ((400 'obstyp' (CHARACTER 1 ((CONSTANT (
INTEGER 4) 0 '3'))) (1 EXPLICIT (CONSTANT (INTEGER 4) 0 '1') (CONSTANT (
INTEGER 4) 0 '4')) () 1 0 0 ())) PUBLIC ())
395 't_sinex' 'd_neq' 325 ((DERIVED UNKNOWN UNKNOWN UNKNOWN NONE NONE) (
UNKNOWN) 0 0 () () () '' ((401 'timint' (DERIVED 365) () () 0 0 0 ()) (
402 'stname' (CHARACTER 1 ((CONSTANT (INTEGER 4) 0 '16'))) () () 0 0 0 ())
(403 'antecc' (REAL 8) (1 EXPLICIT (CONSTANT (INTEGER 4) 0 '1') (
CONSTANT (INTEGER 4) 0 '3')) () 1 0 0 ()) (404 'antpcv' (DERIVED 405) (
1 EXPLICIT (CONSTANT (INTEGER 4) 0 '0') (CONSTANT (INTEGER 4) 0 '5')) ()
1 0 0 ()) (406 'antnum' (INTEGER 4) () () 0 0 0 ()) (407 'antsta' (
CHARACTER 1 ((CONSTANT (INTEGER 4) 0 '20'))) () () 0 0 0 ()) (408 'antrec'
(CHARACTER 1 ((CONSTANT (INTEGER 4) 0 '20'))) () () 0 0 0 ())) PUBLIC ())
405 't_sinex_pcv' 'd_neq' 325 ((DERIVED UNKNOWN UNKNOWN UNKNOWN NONE
NONE) (UNKNOWN) 0 0 () () () '' ((409 'nfrq' (INTEGER 4) () () 0 0 0 ())
(410 'antphs' (REAL 8) (2 EXPLICIT (CONSTANT (INTEGER 4) 0 '1') (
CONSTANT (INTEGER 4) 0 '3') (CONSTANT (INTEGER 4) 0 '1') (CONSTANT (
INTEGER 4) 0 '2')) () 1 0 0 ()) (411 'adopted' (INTEGER 4) () () 0 0 0 ())
(412 'individ' (INTEGER 4) () () 0 0 0 ()) (413 'atxstr' (CHARACTER 1 (
(CONSTANT (INTEGER 4) 0 '10'))) () () 0 0 0 ())) PUBLIC ())
3 'neqread1' 's_neqread' 1 ((PROCEDURE UNKNOWN MODULE-PROC DECL NONE
NONE SUBROUTINE INVOKED) (PROCEDURE 0) 0 0 (4 NONE 5 NONE 6 NONE 7 NONE)
() () '' () ())
2 'neqread2' 's_neqread' 1 ((PROCEDURE UNKNOWN MODULE-PROC DECL NONE
NONE SUBROUTINE INVOKED) (PROCEDURE 0) 0 0 (8 NONE 9 NONE) () () '' () ())
)

('neqread1' 0 3 'neqread2' 0 2 'neqreadhlp' 0 10 's_neqread' 0 18)
