G95 module created on Thu Jun 25 17:51:07 2020 from ./.fpp/NEQDELNO.f90
If you edit this, you'll get what you deserve.
module-version 9
(() () () () () () () () () () () () () () () () () () () () ())

()

()

()

()

(2 'neqdelno' 's_neqdelno' 1 ((PROCEDURE UNKNOWN MODULE-PROC DECL NONE
NONE SUBROUTINE) (PROCEDURE 0) 0 0 (3 NONE 4 NONE 5 NONE) () () '' () ())
6 's_neqdelno' 's_neqdelno' 1 ((MODULE UNKNOWN UNKNOWN UNKNOWN NONE NONE)
(UNKNOWN) 0 0 () () () '' () ())
5 'orb' '' 7 ((VARIABLE UNKNOWN UNKNOWN UNKNOWN NONE NONE DUMMY) (
DERIVED 8) 0 0 () () () '' () ())
8 't_orb' 'p_addneq' 7 ((DERIVED UNKNOWN UNKNOWN UNKNOWN NONE NONE) (
UNKNOWN) 0 0 () () () '' ((9 'title' (CHARACTER 1 ((CONSTANT (INTEGER 4)
0 '80'))) () () 0 0 0 ()) (10 'nseff' (INTEGER 4) () () 0 0 0 ()) (11
'svneff' (INTEGER 4) (1 EXPLICIT (CONSTANT (INTEGER 4) 0 '1') (CONSTANT
(INTEGER 4) 0 '130')) () 1 0 0 ()) (12 'nstoch' (INTEGER 4) () () 0 0 0
()) (13 'arcnum' (INTEGER 4) (2 EXPLICIT (CONSTANT (INTEGER 4) 0 '1') (
CONSTANT (INTEGER 4) 0 '130') (CONSTANT (INTEGER 4) 0 '1') (CONSTANT (
INTEGER 4) 0 '30')) () 1 0 0 ()) (14 'manovr' (INTEGER 4) (1 EXPLICIT (
CONSTANT (INTEGER 4) 0 '1') (CONSTANT (INTEGER 4) 0 '130')) () 1 0 0 ())
(15 'ele' (REAL 8) (3 EXPLICIT (CONSTANT (INTEGER 4) 0 '1') (CONSTANT (
INTEGER 4) 0 '7') (CONSTANT (INTEGER 4) 0 '1') (CONSTANT (INTEGER 4) 0
'130') (CONSTANT (INTEGER 4) 0 '1') (CONSTANT (INTEGER 4) 0 '30')) () 1
0 0 ()) (16 'rpress' (REAL 8) (3 EXPLICIT (CONSTANT (INTEGER 4) 0 '1') (
CONSTANT (INTEGER 4) 0 '12') (CONSTANT (INTEGER 4) 0 '1') (CONSTANT (
INTEGER 4) 0 '130') (CONSTANT (INTEGER 4) 0 '1') (CONSTANT (INTEGER 4) 0
'30')) () 1 0 0 ()) (17 'drpr' (REAL 8) (3 EXPLICIT (CONSTANT (INTEGER 4)
0 '1') (CONSTANT (INTEGER 4) 0 '12') (CONSTANT (INTEGER 4) 0 '1') (
CONSTANT (INTEGER 4) 0 '130') (CONSTANT (INTEGER 4) 0 '1') (CONSTANT (
INTEGER 4) 0 '30')) () 1 0 0 ()) (18 'tosc' (REAL 8) (1 EXPLICIT (
CONSTANT (INTEGER 4) 0 '1') (CONSTANT (INTEGER 4) 0 '30')) () 1 0 0 ())
(19 'tstoch' (REAL 8) (1 EXPLICIT (CONSTANT (INTEGER 4) 0 '1') (
CONSTANT (INTEGER 4) 0 '1800')) () 1 0 0 ()) (20 'kmat' (REAL 8) (4
EXPLICIT (CONSTANT (INTEGER 4) 0 '1') (CONSTANT (INTEGER 4) 0 '6') (
CONSTANT (INTEGER 4) 0 '1') (CONSTANT (INTEGER 4) 0 '6') (CONSTANT (
INTEGER 4) 0 '1') (CONSTANT (INTEGER 4) 0 '130') (CONSTANT (INTEGER 4) 0
'1') (CONSTANT (INTEGER 4) 0 '30')) () 1 0 0 ()) (21 'lmat' (REAL 8) (4
EXPLICIT (CONSTANT (INTEGER 4) 0 '1') (CONSTANT (INTEGER 4) 0 '6') (
CONSTANT (INTEGER 4) 0 '1') (CONSTANT (INTEGER 4) 0 '12') (CONSTANT (
INTEGER 4) 0 '1') (CONSTANT (INTEGER 4) 0 '130') (CONSTANT (INTEGER 4) 0
'1') (CONSTANT (INTEGER 4) 0 '30')) () 1 0 0 ()) (22 'mmat' (REAL 8) (5
EXPLICIT (CONSTANT (INTEGER 4) 0 '1') (CONSTANT (INTEGER 4) 0 '6') (
CONSTANT (INTEGER 4) 0 '1') (CONSTANT (INTEGER 4) 0 '12') (CONSTANT (
INTEGER 4) 0 '1') (CONSTANT (INTEGER 4) 0 '130') (CONSTANT (INTEGER 4) 0
'1') (CONSTANT (INTEGER 4) 0 '30') (CONSTANT (INTEGER 4) 0 '1') (
CONSTANT (INTEGER 4) 0 '30')) () 1 0 0 ()) (23 'drho' (REAL 8) (3
EXPLICIT (CONSTANT (INTEGER 4) 0 '1') (CONSTANT (INTEGER 4) 0 '6') (
CONSTANT (INTEGER 4) 0 '1') (CONSTANT (INTEGER 4) 0 '130') (CONSTANT (
INTEGER 4) 0 '1') (CONSTANT (INTEGER 4) 0 '30')) () 1 0 0 ()) (24 'drhot'
(REAL 8) (3 EXPLICIT (CONSTANT (INTEGER 4) 0 '1') (CONSTANT (INTEGER 4)
0 '6') (CONSTANT (INTEGER 4) 0 '1') (CONSTANT (INTEGER 4) 0 '130') (
CONSTANT (INTEGER 4) 0 '1') (CONSTANT (INTEGER 4) 0 '30')) () 1 0 0 ())
(25 'nman' (INTEGER 4) () () 0 0 0 ()) (26 'man' (DERIVED 27) (1
EXPLICIT (CONSTANT (INTEGER 4) 0 '1') (CONSTANT (INTEGER 4) 0 '100')) ()
1 0 0 ())) PUBLIC ())
27 't_man' 'p_addneq' 7 ((DERIVED UNKNOWN UNKNOWN UNKNOWN NONE NONE) (
UNKNOWN) 0 0 () () () '' ((28 'satman' (INTEGER 4) () () 0 0 0 ()) (29
'timman' (REAL 8) () () 0 0 0 ())) PUBLIC ())
4 'numfil' '' 7 ((VARIABLE UNKNOWN UNKNOWN UNKNOWN NONE NONE DUMMY) (
INTEGER 4) 0 0 () () () '' () ())
3 'neq' '' 7 ((VARIABLE UNKNOWN UNKNOWN UNKNOWN NONE NONE DUMMY) (
DERIVED 30) 0 0 () () () '' () ())
30 't_neq' 'd_neq' 7 ((DERIVED UNKNOWN UNKNOWN UNKNOWN NONE NONE) (
UNKNOWN) 0 0 () () () '' ((31 'version' (INTEGER 4) () () 0 0 0 ()) (32
'misc' (DERIVED 33) () () 0 0 0 ()) (34 'par' (DERIVED 35) (1 DEFERRED ()
()) () 1 1 0 ()) (36 'anor' (REAL 8) (1 DEFERRED () ()) () 1 1 0 ()) (
37 'bnor' (REAL 8) (1 DEFERRED () ()) () 1 1 0 ()) (38 'xxx' (REAL 8) (
1 DEFERRED () ()) () 1 1 0 ())) PUBLIC ())
35 't_par' 'd_par' 7 ((DERIVED UNKNOWN UNKNOWN UNKNOWN NONE NONE) (
UNKNOWN) 0 0 () () () '' ((39 'locq' (INTEGER 4) (1 EXPLICIT (CONSTANT (
INTEGER 4) 0 '1') (CONSTANT (INTEGER 4) 0 '7')) () 1 0 0 ()) (40 'name'
(CHARACTER 1 ((CONSTANT (INTEGER 4) 0 '20'))) () () 0 0 0 ()) (41 'time'
(DERIVED 42) () () 0 0 0 ()) (43 'x0' (REAL 8) () () 0 0 0 ()) (44 'scale'
(REAL 8) () () 0 0 0 ()) (45 'techn' (CHARACTER 1 ((CONSTANT (INTEGER 4)
0 '1'))) (1 EXPLICIT (CONSTANT (INTEGER 4) 0 '1') (CONSTANT (INTEGER 4)
0 '2')) () 1 0 0 ()) (46 'obstim' (DERIVED 47) () () 0 0 0 ()) (48 'type'
(CHARACTER 1 ((CONSTANT (INTEGER 4) 0 '2'))) () () 0 0 0 ()) (49 'omega'
(REAL 8) () () 0 0 0 ())) PUBLIC ())
47 't_timint' 'm_time' 7 ((DERIVED UNKNOWN UNKNOWN UNKNOWN NONE NONE) (
UNKNOWN) 0 0 () () () '' ((50 't' (REAL 8) (1 EXPLICIT (CONSTANT (
INTEGER 4) 0 '1') (CONSTANT (INTEGER 4) 0 '2')) () 1 0 0 ())) PUBLIC ())
42 't_time' 'm_time' 7 ((DERIVED UNKNOWN UNKNOWN UNKNOWN NONE NONE
SEQUENCE) (UNKNOWN) 0 0 () () () '' ((51 'mean' (REAL 8) () () 0 0 0 ())
(52 'half' (REAL 8) () () 0 0 0 ())) PUBLIC ())
33 't_misc' 'd_neq' 7 ((DERIVED UNKNOWN UNKNOWN UNKNOWN NONE NONE) (
UNKNOWN) 0 0 () () () '' ((53 'title' (CHARACTER 1 ((CONSTANT (INTEGER 4)
0 '132'))) (1 EXPLICIT (CONSTANT (INTEGER 4) 0 '1') (CONSTANT (INTEGER 4)
0 '2')) () 1 0 0 ()) (54 'datum' (CHARACTER 1 ((CONSTANT (INTEGER 4) 0
'16'))) () () 0 0 0 ()) (55 'nutmod' (CHARACTER 1 ((CONSTANT (INTEGER 4)
0 '16'))) () () 0 0 0 ()) (56 'submod' (CHARACTER 1 ((CONSTANT (INTEGER
4) 0 '16'))) () () 0 0 0 ()) (57 'orbfil' (CHARACTER 1 ((CONSTANT (
INTEGER 4) 0 '32'))) (1 EXPLICIT (CONSTANT (INTEGER 4) 0 '1') (CONSTANT
(INTEGER 4) 0 '2')) () 1 0 0 ()) (58 'gravfil' (CHARACTER 1 ((CONSTANT (
INTEGER 4) 0 '32'))) () () 0 0 0 ()) (59 'nobs' (REAL 8) () () 0 0 0 ())
(60 'npar' (INTEGER 4) () () 0 0 0 ()) (61 'ltpl' (REAL 8) () () 0 0 0 ())
(62 'nparms' (REAL 8) () () 0 0 0 ()) (63 'npseu' (INTEGER 4) () () 0 0
0 ()) (64 'npseuel' (INTEGER 4) () () 0 0 0 ()) (65 'nftot' (INTEGER 4)
() () 0 0 0 ()) (66 'nsmpnq' (INTEGER 4) () () 0 0 0 ()) (67 'ielvnq' (
INTEGER 4) () () 0 0 0 ()) (68 'itropo' (INTEGER 4) () () 0 0 0 ()) (69
'iextra' (INTEGER 4) () () 0 0 0 ()) (70 'itrmap' (INTEGER 4) () () 0 0
0 ()) (71 'itrgrd' (INTEGER 4) () () 0 0 0 ()) (72 'nanoff' (INTEGER 4)
() () 0 0 0 ()) (73 'nsaoff' (INTEGER 4) (1 EXPLICIT (CONSTANT (INTEGER
4) 0 '1') (CONSTANT (INTEGER 4) 0 '260')) () 1 0 0 ()) (74 'satoff' (
INTEGER 4) (2 EXPLICIT (CONSTANT (INTEGER 4) 0 '1') (CONSTANT (INTEGER 4)
0 '130') (CONSTANT (INTEGER 4) 0 '1') (CONSTANT (INTEGER 4) 0 '260')) ()
1 0 0 ()) (75 'nstat_sinex' (INTEGER 4) () () 0 0 0 ()) (76 'sinex' (
DERIVED 77) (1 EXPLICIT (CONSTANT (INTEGER 4) 0 '1') (CONSTANT (INTEGER
4) 0 '2000')) () 1 0 0 ()) (78 'grdneq' (CHARACTER 1 ((CONSTANT (
INTEGER 4) 0 '12'))) (1 EXPLICIT (CONSTANT (INTEGER 4) 0 '1') (CONSTANT
(INTEGER 4) 0 '3')) () 1 0 0 ()) (79 'nobst' (INTEGER 4) () () 0 0 0 ())
(80 'obst' (DERIVED 81) (1 EXPLICIT (CONSTANT (INTEGER 4) 0 '1') (
CONSTANT (INTEGER 4) 0 '30000')) () 1 0 0 ())) PUBLIC ())
81 't_obst' 'd_neq' 7 ((DERIVED UNKNOWN UNKNOWN UNKNOWN NONE NONE) (
UNKNOWN) 0 0 () () () '' ((82 'obstyp' (CHARACTER 1 ((CONSTANT (INTEGER
4) 0 '3'))) (1 EXPLICIT (CONSTANT (INTEGER 4) 0 '1') (CONSTANT (INTEGER
4) 0 '4')) () 1 0 0 ())) PUBLIC ())
77 't_sinex' 'd_neq' 7 ((DERIVED UNKNOWN UNKNOWN UNKNOWN NONE NONE) (
UNKNOWN) 0 0 () () () '' ((83 'timint' (DERIVED 47) () () 0 0 0 ()) (84
'stname' (CHARACTER 1 ((CONSTANT (INTEGER 4) 0 '16'))) () () 0 0 0 ()) (
85 'antecc' (REAL 8) (1 EXPLICIT (CONSTANT (INTEGER 4) 0 '1') (CONSTANT
(INTEGER 4) 0 '3')) () 1 0 0 ()) (86 'antpcv' (DERIVED 87) (1 EXPLICIT (
CONSTANT (INTEGER 4) 0 '0') (CONSTANT (INTEGER 4) 0 '5')) () 1 0 0 ()) (
88 'antnum' (INTEGER 4) () () 0 0 0 ()) (89 'antsta' (CHARACTER 1 ((
CONSTANT (INTEGER 4) 0 '20'))) () () 0 0 0 ()) (90 'antrec' (CHARACTER 1
((CONSTANT (INTEGER 4) 0 '20'))) () () 0 0 0 ())) PUBLIC ())
87 't_sinex_pcv' 'd_neq' 7 ((DERIVED UNKNOWN UNKNOWN UNKNOWN NONE NONE)
(UNKNOWN) 0 0 () () () '' ((91 'nfrq' (INTEGER 4) () () 0 0 0 ()) (92
'antphs' (REAL 8) (2 EXPLICIT (CONSTANT (INTEGER 4) 0 '1') (CONSTANT (
INTEGER 4) 0 '3') (CONSTANT (INTEGER 4) 0 '1') (CONSTANT (INTEGER 4) 0 '2'))
() 1 0 0 ()) (93 'adopted' (INTEGER 4) () () 0 0 0 ()) (94 'individ' (
INTEGER 4) () () 0 0 0 ()) (95 'atxstr' (CHARACTER 1 ((CONSTANT (
INTEGER 4) 0 '10'))) () () 0 0 0 ())) PUBLIC ())
)

('neqdelno' 0 2 's_neqdelno' 0 6)
