G95 module created on Thu Jun 25 17:48:30 2020 from ./.fpp/NMFDRY.f
If you edit this, you'll get what you deserve.
module-version 9
(() () () () () () () () () () () () () () () () () () () () ())

()

()

()

()

(2 'nmfdry' 's_nmfdry' 1 ((PROCEDURE UNKNOWN MODULE-PROC DECL NONE NONE
SUBROUTINE) (PROCEDURE 0) 0 0 (3 NONE 4 NONE 5 NONE 6 NONE 7 NONE) () ()
'' () ())
8 's_nmfdry' 's_nmfdry' 1 ((MODULE UNKNOWN UNKNOWN UNKNOWN NONE NONE) (
UNKNOWN) 0 0 () () () '' () ())
7 'hmf' '' 9 ((VARIABLE UNKNOWN UNKNOWN UNKNOWN NONE NONE DIMENSION
DUMMY) (REAL 8) 0 0 () (1 EXPLICIT (CONSTANT (INTEGER 4) 0 '1') (
CONSTANT (INTEGER 4) 0 '2')) () '' () ())
6 'zen' '' 9 ((VARIABLE UNKNOWN UNKNOWN UNKNOWN NONE NONE DUMMY) (REAL 8)
0 0 () () () '' () ())
5 'height' '' 9 ((VARIABLE UNKNOWN UNKNOWN UNKNOWN NONE NONE DUMMY) (
REAL 8) 0 0 () () () '' () ())
4 'lat' '' 9 ((VARIABLE UNKNOWN UNKNOWN UNKNOWN NONE NONE DUMMY) (REAL 8)
0 0 () () () '' () ())
3 'epoch' '' 9 ((VARIABLE UNKNOWN UNKNOWN UNKNOWN NONE NONE DUMMY) (
REAL 8) 0 0 () () () '' () ())
)

('nmfdry' 0 2 's_nmfdry' 0 8)
