G95 module created on Thu Jun 25 17:50:56 2020 from ./.fpp/OBSEDT.f90
If you edit this, you'll get what you deserve.
module-version 9
(() () () () () () () () () () () () () () () () () () () () ())

()

()

()

()

(2 'obsedt' 's_obsedt' 1 ((PROCEDURE UNKNOWN MODULE-PROC DECL NONE NONE
SUBROUTINE) (PROCEDURE 0) 0 0 (3 NONE 4 NONE 5 NONE 6 NONE 7 NONE 8 NONE
9 NONE 10 NONE 11 NONE 12 NONE 13 NONE) () () '' () ())
14 's_obsedt' 's_obsedt' 1 ((MODULE UNKNOWN UNKNOWN UNKNOWN NONE NONE) (
UNKNOWN) 0 0 () () () '' () ())
13 'amblst' '' 15 ((VARIABLE UNKNOWN UNKNOWN UNKNOWN NONE NONE DIMENSION
POINTER DUMMY) (DERIVED 16) 0 0 () (1 DEFERRED () ()) () '' () ())
16 't_edtrec' 'd_edit' 15 ((DERIVED UNKNOWN UNKNOWN UNKNOWN NONE NONE) (
UNKNOWN) 0 0 () () () '' ((17 'lstcyc' (REAL 8) () () 0 0 0 ()) (18
'lstedt' (INTEGER 4) (1 EXPLICIT (CONSTANT (INTEGER 4) 0 '1') (CONSTANT
(INTEGER 4) 0 '7')) () 1 0 0 ())) PUBLIC ())
12 'namb' '' 15 ((VARIABLE UNKNOWN UNKNOWN UNKNOWN NONE NONE DUMMY) (
INTEGER 4) 0 0 () () () '' () ())
11 'ifrlst' '' 15 ((VARIABLE UNKNOWN UNKNOWN UNKNOWN NONE NONE DIMENSION
POINTER DUMMY) (INTEGER 4) 0 0 () (2 DEFERRED () () () ()) () '' () ())
10 'obstim' '' 15 ((VARIABLE UNKNOWN UNKNOWN UNKNOWN NONE NONE DIMENSION
DUMMY) (REAL 8) 0 0 () (1 EXPLICIT (CONSTANT (INTEGER 4) 0 '1') (
CONSTANT (INTEGER 4) 0 '2')) () '' () ())
9 'fildid' '' 15 ((VARIABLE UNKNOWN UNKNOWN UNKNOWN NONE NONE DIMENSION
POINTER DUMMY) (INTEGER 4) 0 0 () (2 DEFERRED () () () ()) () '' () ())
8 'iedit' '' 15 ((VARIABLE UNKNOWN UNKNOWN UNKNOWN NONE NONE DUMMY) (
INTEGER 4) 0 0 () () () '' () ())
7 'edtlst' '' 15 ((VARIABLE UNKNOWN UNKNOWN UNKNOWN NONE NONE DIMENSION
POINTER DUMMY) (DERIVED 16) 0 0 () (1 DEFERRED () ()) () '' () ())
6 'nedt' '' 15 ((VARIABLE UNKNOWN UNKNOWN UNKNOWN NONE NONE DUMMY) (
INTEGER 4) 0 0 () () () '' () ())
5 'obshead' '' 15 ((VARIABLE UNKNOWN UNKNOWN UNKNOWN NONE NONE DUMMY) (
DERIVED 19) 0 0 () () () '' () ())
19 't_obshead' 'd_gpsobs' 15 ((DERIVED UNKNOWN UNKNOWN UNKNOWN NONE NONE)
(UNKNOWN) 0 0 () () () '' ((20 'campgn' (CHARACTER 1 ((CONSTANT (
INTEGER 4) 0 '16'))) () () 0 0 0 ()) (21 'title' (CHARACTER 1 ((
CONSTANT (INTEGER 4) 0 '53'))) () () 0 0 0 ()) (22 'irmark' (INTEGER 4)
() () 0 0 0 ()) (23 'ifrmat' (INTEGER 4) () () 0 0 0 ()) (24 'csess' (
CHARACTER 1 ((CONSTANT (INTEGER 4) 0 '4'))) (1 EXPLICIT (CONSTANT (
INTEGER 4) 0 '1') (CONSTANT (INTEGER 4) 0 '2')) () 1 0 0 ()) (25 'crdate'
(CHARACTER 1 ((CONSTANT (INTEGER 4) 0 '9'))) (1 EXPLICIT (CONSTANT (
INTEGER 4) 0 '1') (CONSTANT (INTEGER 4) 0 '2')) () 1 0 0 ()) (26 'crtime'
(CHARACTER 1 ((CONSTANT (INTEGER 4) 0 '5'))) (1 EXPLICIT (CONSTANT (
INTEGER 4) 0 '1') (CONSTANT (INTEGER 4) 0 '2')) () 1 0 0 ()) (27 'timref'
(REAL 8) () () 0 0 0 ()) (28 'ideltt' (INTEGER 4) () () 0 0 0 ()) (29
'meatyp' (INTEGER 4) () () 0 0 0 ()) (30 'ndiff' (INTEGER 4) () () 0 0 0
()) (31 'nfreq' (INTEGER 4) () () 0 0 0 ()) (32 'nepoch' (INTEGER 4) ()
() 0 0 0 ()) (33 'numamb' (INTEGER 4) () () 0 0 0 ()) (34 'nsatel' (
INTEGER 4) () () 0 0 0 ()) (35 'nepflg' (INTEGER 4) () () 0 0 0 ()) (36
'sta' (DERIVED 37) (1 EXPLICIT (CONSTANT (INTEGER 4) 0 '1') (CONSTANT (
INTEGER 4) 0 '2')) () 1 0 0 ()) (38 'sat' (DERIVED 39) (1 DEFERRED () ())
() 1 1 0 ()) (40 'ambigu' (DERIVED 41) (1 DEFERRED () ()) () 1 1 0 ()))
PUBLIC ())
41 't_ambigu' 'd_ambigu' 15 ((DERIVED UNKNOWN UNKNOWN UNKNOWN NONE NONE)
(UNKNOWN) 0 0 () () () '' ((42 'ambigu' (REAL 8) (1 EXPLICIT (CONSTANT (
INTEGER 4) 0 '1') (CONSTANT (INTEGER 4) 0 '3')) () 1 0 0 ()) (43 'ambsat'
(INTEGER 4) () () 0 0 0 ()) (44 'ambiep' (INTEGER 4) () () 0 0 0 ()) (
45 'ambwlf' (INTEGER 4) (1 EXPLICIT (CONSTANT (INTEGER 4) 0 '1') (
CONSTANT (INTEGER 4) 0 '2')) () 1 0 0 ()) (46 'ambcls' (INTEGER 4) (1
EXPLICIT (CONSTANT (INTEGER 4) 0 '1') (CONSTANT (INTEGER 4) 0 '3')) () 1
0 0 ()) (47 'solved' (LOGICAL 4) () () 0 0 0 ())) PUBLIC ())
39 't_sat' 'd_gpsobs' 15 ((DERIVED UNKNOWN UNKNOWN UNKNOWN NONE NONE) (
UNKNOWN) 0 0 () () () '' ((48 'numsat' (INTEGER 4) () () 0 0 0 ()) (49
'numobs' (INTEGER 4) (1 EXPLICIT (CONSTANT (INTEGER 4) 0 '1') (CONSTANT
(INTEGER 4) 0 '2')) () 1 0 0 ()) (50 'nummrk' (INTEGER 4) (1 EXPLICIT (
CONSTANT (INTEGER 4) 0 '1') (CONSTANT (INTEGER 4) 0 '2')) () 1 0 0 ()) (
51 'obstyp' (CHARACTER 1 ((CONSTANT (INTEGER 4) 0 '3'))) (1 EXPLICIT (
CONSTANT (INTEGER 4) 0 '1') (CONSTANT (INTEGER 4) 0 '8')) () 1 0 0 ()))
PUBLIC ())
37 't_sta' 'd_gpsobs' 15 ((DERIVED UNKNOWN UNKNOWN UNKNOWN NONE NONE) (
UNKNOWN) 0 0 () () () '' ((52 'stanam' (CHARACTER 1 ((CONSTANT (INTEGER
4) 0 '16'))) () () 0 0 0 ()) (53 'oprnam' (CHARACTER 1 ((CONSTANT (
INTEGER 4) 0 '20'))) () () 0 0 0 ()) (54 'rectyp' (CHARACTER 1 ((
CONSTANT (INTEGER 4) 0 '20'))) () () 0 0 0 ()) (55 'irunit' (INTEGER 4)
() () 0 0 0 ()) (56 'anttyp' (CHARACTER 1 ((CONSTANT (INTEGER 4) 0 '20')))
() () 0 0 0 ()) (57 'ianten' (INTEGER 4) () () 0 0 0 ()) (58 'posecc' (
REAL 8) (1 EXPLICIT (CONSTANT (INTEGER 4) 0 '1') (CONSTANT (INTEGER 4) 0
'3')) () 1 0 0 ()) (59 'iclock' (INTEGER 4) () () 0 0 0 ())) PUBLIC ())
4 'opt' '' 15 ((VARIABLE UNKNOWN UNKNOWN UNKNOWN NONE NONE DUMMY) (
DERIVED 60) 0 0 () () () '' () ())
60 't_satmrk_opt' 'p_satmrk' 15 ((DERIVED UNKNOWN UNKNOWN UNKNOWN NONE
NONE) (UNKNOWN) 0 0 () () () '' ((61 'filnam' (CHARACTER 1 ((CONSTANT (
INTEGER 4) 0 '32'))) (2 DEFERRED () () () ()) () 1 1 0 ()) (62 'filsyc'
(CHARACTER 1 ((CONSTANT (INTEGER 4) 0 '32'))) (2 DEFERRED () () () ()) ()
1 1 0 ()) (63 'edtfil' (CHARACTER 1 ((CONSTANT (INTEGER 4) 0 '32'))) ()
() 0 0 0 ()) (64 'syc' (INTEGER 4) () () 0 0 0 ()) (65 'resamb' (
INTEGER 4) () () 0 0 0 ()) (66 'ambsys' (INTEGER 4) () () 0 0 0 ()) (67
'nfil' (INTEGER 4) () () 0 0 0 ()) (68 'yfil' (INTEGER 4) () () 0 0 0 ())
(69 'mrktyp' (INTEGER 4) () () 0 0 0 ()) (70 'mrkfrq' (INTEGER 4) () ()
0 0 0 ()) (71 'mrkepo' (INTEGER 4) (1 EXPLICIT (CONSTANT (INTEGER 4) 0 '1')
(CONSTANT (INTEGER 4) 0 '2')) () 1 0 0 ()) (72 'mrksat' (INTEGER 4) (1
DEFERRED () ()) () 1 1 0 ()) (73 'mrktim' (REAL 8) (1 EXPLICIT (
CONSTANT (INTEGER 4) 0 '1') (CONSTANT (INTEGER 4) 0 '2')) () 1 0 0 ()) (
74 'minamb' (INTEGER 4) () () 0 0 0 ()) (75 'isampl' (INTEGER 4) () () 0
0 0 ())) PUBLIC ())
3 'ifil' '' 15 ((VARIABLE UNKNOWN UNKNOWN UNKNOWN NONE NONE DUMMY) (
INTEGER 4) 0 0 () () () '' () ())
)

('obsedt' 0 2 's_obsedt' 0 14)
