G95 module created on Thu Jun 25 17:49:20 2020 from ./.fpp/OBSFILLST.f90
If you edit this, you'll get what you deserve.
module-version 9
(() () () () () () () () () () () () () () () () () () () () ())

()

()

()

()

(2 'obsfillst' 's_obsfillst' 1 ((PROCEDURE UNKNOWN MODULE-PROC DECL NONE
NONE SUBROUTINE) (PROCEDURE 0) 0 0 (3 NONE 4 NONE 5 NONE 6 NONE 7 NONE 8
NONE 9 NONE 10 NONE 11 NONE 12 NONE 13 NONE 14 NONE) () () '' () ())
15 's_obsfillst' 's_obsfillst' 1 ((MODULE UNKNOWN UNKNOWN UNKNOWN NONE
NONE) (UNKNOWN) 0 0 () () () '' () ())
14 'syncfilelist' '' 16 ((VARIABLE UNKNOWN UNKNOWN UNKNOWN NONE NONE
DIMENSION POINTER DUMMY) (CHARACTER 1 ((CONSTANT (INTEGER 4) 0 '32'))) 0
0 () (2 DEFERRED () () () ()) () '' () ())
13 'filelist' '' 16 ((VARIABLE UNKNOWN UNKNOWN UNKNOWN NONE NONE
DIMENSION POINTER DUMMY) (CHARACTER 1 ((CONSTANT (INTEGER 4) 0 '32'))) 0
0 () (2 DEFERRED () () () ()) () '' () ())
12 'filenumber' '' 16 ((VARIABLE UNKNOWN UNKNOWN UNKNOWN NONE NONE
DIMENSION DUMMY) (INTEGER 4) 0 0 () (1 EXPLICIT (CONSTANT (INTEGER 4) 0
'1') (CONSTANT (INTEGER 4) 0 '5')) () '' () ())
11 'nflcol' '' 16 ((VARIABLE UNKNOWN UNKNOWN UNKNOWN NONE NONE DUMMY) (
INTEGER 4) 0 0 () () () '' () ())
10 'prtfillst' '' 16 ((VARIABLE UNKNOWN UNKNOWN UNKNOWN NONE NONE DUMMY)
(INTEGER 4) 0 0 () () () '' () ())
9 'hedobs' '' 16 ((VARIABLE UNKNOWN UNKNOWN UNKNOWN NONE NONE DUMMY) (
INTEGER 4) 0 0 () () () '' () ())
8 'obssync' '' 16 ((VARIABLE UNKNOWN UNKNOWN UNKNOWN NONE NONE DUMMY) (
INTEGER 4) 0 0 () () () '' () ())
7 'rangekey' '' 16 ((VARIABLE UNKNOWN UNKNOWN UNKNOWN NONE NONE DUMMY) (
CHARACTER 1 (())) 0 0 () () () '' () ())
6 'singkey' '' 16 ((VARIABLE UNKNOWN UNKNOWN UNKNOWN NONE NONE DIMENSION
DUMMY) (CHARACTER 1 (())) 0 0 () (1 ASSUMED_SHAPE () ()) () '' () ())
5 'zerokey' '' 16 ((VARIABLE UNKNOWN UNKNOWN UNKNOWN NONE NONE DIMENSION
DUMMY) (CHARACTER 1 (())) 0 0 () (1 ASSUMED_SHAPE () ()) () '' () ())
4 'obskeylst' '' 16 ((VARIABLE UNKNOWN UNKNOWN UNKNOWN NONE NONE
DIMENSION DUMMY) (CHARACTER 1 (())) 0 0 () (1 ASSUMED_SHAPE () ()) () ''
() ())
3 'obskey' '' 16 ((VARIABLE UNKNOWN UNKNOWN UNKNOWN NONE NONE DUMMY) (
CHARACTER 1 (())) 0 0 () () () '' () ())
)

('obsfillst' 0 2 's_obsfillst' 0 15)
