G95 module created on Thu Jun 25 17:49:00 2020 from ./.fpp/OPNSYS.f90
If you edit this, you'll get what you deserve.
module-version 9
(() () () () () () () () () () () () () () () () () () () () ())

()

()

()

()

(2 'opnsys' 's_opnsys' 1 ((PROCEDURE UNKNOWN MODULE-PROC DECL NONE NONE
SUBROUTINE) (PROCEDURE 0) 0 0 () () () '' () ())
3 's_opnsys' 's_opnsys' 1 ((MODULE UNKNOWN UNKNOWN UNKNOWN NONE NONE) (
UNKNOWN) 0 0 () () () '' () ())
)

('opnsys' 0 2 's_opnsys' 0 3)
