G95 module created on Thu Jun 25 17:49:52 2020 from ./.fpp/ORBMDCHK.f90
If you edit this, you'll get what you deserve.
module-version 9
(() () () () () () () () () () () () () () () () () () () () ())

()

()

()

()

(2 'orbmdchk' 's_orbmdchk' 1 ((PROCEDURE UNKNOWN MODULE-PROC DECL NONE
NONE SUBROUTINE) (PROCEDURE 0) 0 0 (3 NONE 4 NONE 5 NONE) () () '' () ())
6 's_orbmdchk' 's_orbmdchk' 1 ((MODULE UNKNOWN UNKNOWN UNKNOWN NONE NONE)
(UNKNOWN) 0 0 () () () '' () ())
5 'ircode' '' 7 ((VARIABLE UNKNOWN UNKNOWN UNKNOWN NONE NONE DUMMY) (
INTEGER 4) 0 0 () () () '' () ())
4 'orbdsci' '' 7 ((VARIABLE UNKNOWN UNKNOWN UNKNOWN NONE NONE DUMMY) (
DERIVED 8) 0 0 () () () '' () ())
8 't_orbmodel' 'p_orbgen' 7 ((DERIVED UNKNOWN UNKNOWN UNKNOWN NONE NONE)
(UNKNOWN) 0 0 () () () '' ((9 'nlin' (INTEGER 4) () () 0 0 0 ()) (10
'orbmod' (CHARACTER 1 ((CONSTANT (INTEGER 4) 0 '80'))) (1 EXPLICIT (
CONSTANT (INTEGER 4) 0 '1') (CONSTANT (INTEGER 4) 0 '20')) () 1 0 0 ())
(11 'otdmin' (REAL 8) () () 0 0 0 ()) (12 'otddeg' (INTEGER 4) () () 0 0
0 ())) PUBLIC ())
3 'isel' '' 7 ((VARIABLE UNKNOWN UNKNOWN UNKNOWN NONE NONE DUMMY) (
INTEGER 4) 0 0 () () () '' () ())
)

('orbmdchk' 0 2 's_orbmdchk' 0 6)
