G95 module created on Thu Jun 25 17:49:57 2020 from ./.fpp/ORBSTORE.f90
If you edit this, you'll get what you deserve.
module-version 9
(() () () () () () () () () () () () () () () () () () () () ())

()

()

()

()

(2 'orbstore' 's_orbstore' 1 ((PROCEDURE UNKNOWN MODULE-PROC DECL NONE
NONE SUBROUTINE) (PROCEDURE 0) 0 0 (3 NONE 4 NONE) () () '' () ())
5 's_orbstore' 's_orbstore' 1 ((MODULE UNKNOWN UNKNOWN UNKNOWN NONE NONE)
(UNKNOWN) 0 0 () () () '' () ())
4 'orb' '' 6 ((VARIABLE UNKNOWN UNKNOWN UNKNOWN NONE NONE DUMMY) (
DERIVED 7) 0 0 () () () '' () ())
7 't_orb' 'p_addneq' 6 ((DERIVED UNKNOWN UNKNOWN UNKNOWN NONE NONE) (
UNKNOWN) 0 0 () () () '' ((8 'title' (CHARACTER 1 ((CONSTANT (INTEGER 4)
0 '80'))) () () 0 0 0 ()) (9 'nseff' (INTEGER 4) () () 0 0 0 ()) (10
'svneff' (INTEGER 4) (1 EXPLICIT (CONSTANT (INTEGER 4) 0 '1') (CONSTANT
(INTEGER 4) 0 '130')) () 1 0 0 ()) (11 'nstoch' (INTEGER 4) () () 0 0 0
()) (12 'arcnum' (INTEGER 4) (2 EXPLICIT (CONSTANT (INTEGER 4) 0 '1') (
CONSTANT (INTEGER 4) 0 '130') (CONSTANT (INTEGER 4) 0 '1') (CONSTANT (
INTEGER 4) 0 '30')) () 1 0 0 ()) (13 'manovr' (INTEGER 4) (1 EXPLICIT (
CONSTANT (INTEGER 4) 0 '1') (CONSTANT (INTEGER 4) 0 '130')) () 1 0 0 ())
(14 'ele' (REAL 8) (3 EXPLICIT (CONSTANT (INTEGER 4) 0 '1') (CONSTANT (
INTEGER 4) 0 '7') (CONSTANT (INTEGER 4) 0 '1') (CONSTANT (INTEGER 4) 0
'130') (CONSTANT (INTEGER 4) 0 '1') (CONSTANT (INTEGER 4) 0 '30')) () 1
0 0 ()) (15 'rpress' (REAL 8) (3 EXPLICIT (CONSTANT (INTEGER 4) 0 '1') (
CONSTANT (INTEGER 4) 0 '12') (CONSTANT (INTEGER 4) 0 '1') (CONSTANT (
INTEGER 4) 0 '130') (CONSTANT (INTEGER 4) 0 '1') (CONSTANT (INTEGER 4) 0
'30')) () 1 0 0 ()) (16 'drpr' (REAL 8) (3 EXPLICIT (CONSTANT (INTEGER 4)
0 '1') (CONSTANT (INTEGER 4) 0 '12') (CONSTANT (INTEGER 4) 0 '1') (
CONSTANT (INTEGER 4) 0 '130') (CONSTANT (INTEGER 4) 0 '1') (CONSTANT (
INTEGER 4) 0 '30')) () 1 0 0 ()) (17 'tosc' (REAL 8) (1 EXPLICIT (
CONSTANT (INTEGER 4) 0 '1') (CONSTANT (INTEGER 4) 0 '30')) () 1 0 0 ())
(18 'tstoch' (REAL 8) (1 EXPLICIT (CONSTANT (INTEGER 4) 0 '1') (
CONSTANT (INTEGER 4) 0 '1800')) () 1 0 0 ()) (19 'kmat' (REAL 8) (4
EXPLICIT (CONSTANT (INTEGER 4) 0 '1') (CONSTANT (INTEGER 4) 0 '6') (
CONSTANT (INTEGER 4) 0 '1') (CONSTANT (INTEGER 4) 0 '6') (CONSTANT (
INTEGER 4) 0 '1') (CONSTANT (INTEGER 4) 0 '130') (CONSTANT (INTEGER 4) 0
'1') (CONSTANT (INTEGER 4) 0 '30')) () 1 0 0 ()) (20 'lmat' (REAL 8) (4
EXPLICIT (CONSTANT (INTEGER 4) 0 '1') (CONSTANT (INTEGER 4) 0 '6') (
CONSTANT (INTEGER 4) 0 '1') (CONSTANT (INTEGER 4) 0 '12') (CONSTANT (
INTEGER 4) 0 '1') (CONSTANT (INTEGER 4) 0 '130') (CONSTANT (INTEGER 4) 0
'1') (CONSTANT (INTEGER 4) 0 '30')) () 1 0 0 ()) (21 'mmat' (REAL 8) (5
EXPLICIT (CONSTANT (INTEGER 4) 0 '1') (CONSTANT (INTEGER 4) 0 '6') (
CONSTANT (INTEGER 4) 0 '1') (CONSTANT (INTEGER 4) 0 '12') (CONSTANT (
INTEGER 4) 0 '1') (CONSTANT (INTEGER 4) 0 '130') (CONSTANT (INTEGER 4) 0
'1') (CONSTANT (INTEGER 4) 0 '30') (CONSTANT (INTEGER 4) 0 '1') (
CONSTANT (INTEGER 4) 0 '30')) () 1 0 0 ()) (22 'drho' (REAL 8) (3
EXPLICIT (CONSTANT (INTEGER 4) 0 '1') (CONSTANT (INTEGER 4) 0 '6') (
CONSTANT (INTEGER 4) 0 '1') (CONSTANT (INTEGER 4) 0 '130') (CONSTANT (
INTEGER 4) 0 '1') (CONSTANT (INTEGER 4) 0 '30')) () 1 0 0 ()) (23 'drhot'
(REAL 8) (3 EXPLICIT (CONSTANT (INTEGER 4) 0 '1') (CONSTANT (INTEGER 4)
0 '6') (CONSTANT (INTEGER 4) 0 '1') (CONSTANT (INTEGER 4) 0 '130') (
CONSTANT (INTEGER 4) 0 '1') (CONSTANT (INTEGER 4) 0 '30')) () 1 0 0 ())
(24 'nman' (INTEGER 4) () () 0 0 0 ()) (25 'man' (DERIVED 26) (1
EXPLICIT (CONSTANT (INTEGER 4) 0 '1') (CONSTANT (INTEGER 4) 0 '100')) ()
1 0 0 ())) PUBLIC ())
26 't_man' 'p_addneq' 6 ((DERIVED UNKNOWN UNKNOWN UNKNOWN NONE NONE) (
UNKNOWN) 0 0 () () () '' ((27 'satman' (INTEGER 4) () () 0 0 0 ()) (28
'timman' (REAL 8) () () 0 0 0 ())) PUBLIC ())
3 'neq' '' 6 ((VARIABLE UNKNOWN UNKNOWN UNKNOWN NONE NONE DUMMY) (
DERIVED 29) 0 0 () () () '' () ())
29 't_neq' 'd_neq' 6 ((DERIVED UNKNOWN UNKNOWN UNKNOWN NONE NONE) (
UNKNOWN) 0 0 () () () '' ((30 'version' (INTEGER 4) () () 0 0 0 ()) (31
'misc' (DERIVED 32) () () 0 0 0 ()) (33 'par' (DERIVED 34) (1 DEFERRED ()
()) () 1 1 0 ()) (35 'anor' (REAL 8) (1 DEFERRED () ()) () 1 1 0 ()) (
36 'bnor' (REAL 8) (1 DEFERRED () ()) () 1 1 0 ()) (37 'xxx' (REAL 8) (
1 DEFERRED () ()) () 1 1 0 ())) PUBLIC ())
34 't_par' 'd_par' 6 ((DERIVED UNKNOWN UNKNOWN UNKNOWN NONE NONE) (
UNKNOWN) 0 0 () () () '' ((38 'locq' (INTEGER 4) (1 EXPLICIT (CONSTANT (
INTEGER 4) 0 '1') (CONSTANT (INTEGER 4) 0 '7')) () 1 0 0 ()) (39 'name'
(CHARACTER 1 ((CONSTANT (INTEGER 4) 0 '20'))) () () 0 0 0 ()) (40 'time'
(DERIVED 41) () () 0 0 0 ()) (42 'x0' (REAL 8) () () 0 0 0 ()) (43 'scale'
(REAL 8) () () 0 0 0 ()) (44 'techn' (CHARACTER 1 ((CONSTANT (INTEGER 4)
0 '1'))) (1 EXPLICIT (CONSTANT (INTEGER 4) 0 '1') (CONSTANT (INTEGER 4)
0 '2')) () 1 0 0 ()) (45 'obstim' (DERIVED 46) () () 0 0 0 ()) (47 'type'
(CHARACTER 1 ((CONSTANT (INTEGER 4) 0 '2'))) () () 0 0 0 ()) (48 'omega'
(REAL 8) () () 0 0 0 ())) PUBLIC ())
46 't_timint' 'm_time' 6 ((DERIVED UNKNOWN UNKNOWN UNKNOWN NONE NONE) (
UNKNOWN) 0 0 () () () '' ((49 't' (REAL 8) (1 EXPLICIT (CONSTANT (
INTEGER 4) 0 '1') (CONSTANT (INTEGER 4) 0 '2')) () 1 0 0 ())) PUBLIC ())
41 't_time' 'm_time' 6 ((DERIVED UNKNOWN UNKNOWN UNKNOWN NONE NONE
SEQUENCE) (UNKNOWN) 0 0 () () () '' ((50 'mean' (REAL 8) () () 0 0 0 ())
(51 'half' (REAL 8) () () 0 0 0 ())) PUBLIC ())
32 't_misc' 'd_neq' 6 ((DERIVED UNKNOWN UNKNOWN UNKNOWN NONE NONE) (
UNKNOWN) 0 0 () () () '' ((52 'title' (CHARACTER 1 ((CONSTANT (INTEGER 4)
0 '132'))) (1 EXPLICIT (CONSTANT (INTEGER 4) 0 '1') (CONSTANT (INTEGER 4)
0 '2')) () 1 0 0 ()) (53 'datum' (CHARACTER 1 ((CONSTANT (INTEGER 4) 0
'16'))) () () 0 0 0 ()) (54 'nutmod' (CHARACTER 1 ((CONSTANT (INTEGER 4)
0 '16'))) () () 0 0 0 ()) (55 'submod' (CHARACTER 1 ((CONSTANT (INTEGER
4) 0 '16'))) () () 0 0 0 ()) (56 'orbfil' (CHARACTER 1 ((CONSTANT (
INTEGER 4) 0 '32'))) (1 EXPLICIT (CONSTANT (INTEGER 4) 0 '1') (CONSTANT
(INTEGER 4) 0 '2')) () 1 0 0 ()) (57 'gravfil' (CHARACTER 1 ((CONSTANT (
INTEGER 4) 0 '32'))) () () 0 0 0 ()) (58 'nobs' (REAL 8) () () 0 0 0 ())
(59 'npar' (INTEGER 4) () () 0 0 0 ()) (60 'ltpl' (REAL 8) () () 0 0 0 ())
(61 'nparms' (REAL 8) () () 0 0 0 ()) (62 'npseu' (INTEGER 4) () () 0 0
0 ()) (63 'npseuel' (INTEGER 4) () () 0 0 0 ()) (64 'nftot' (INTEGER 4)
() () 0 0 0 ()) (65 'nsmpnq' (INTEGER 4) () () 0 0 0 ()) (66 'ielvnq' (
INTEGER 4) () () 0 0 0 ()) (67 'itropo' (INTEGER 4) () () 0 0 0 ()) (68
'iextra' (INTEGER 4) () () 0 0 0 ()) (69 'itrmap' (INTEGER 4) () () 0 0
0 ()) (70 'itrgrd' (INTEGER 4) () () 0 0 0 ()) (71 'nanoff' (INTEGER 4)
() () 0 0 0 ()) (72 'nsaoff' (INTEGER 4) (1 EXPLICIT (CONSTANT (INTEGER
4) 0 '1') (CONSTANT (INTEGER 4) 0 '260')) () 1 0 0 ()) (73 'satoff' (
INTEGER 4) (2 EXPLICIT (CONSTANT (INTEGER 4) 0 '1') (CONSTANT (INTEGER 4)
0 '130') (CONSTANT (INTEGER 4) 0 '1') (CONSTANT (INTEGER 4) 0 '260')) ()
1 0 0 ()) (74 'nstat_sinex' (INTEGER 4) () () 0 0 0 ()) (75 'sinex' (
DERIVED 76) (1 EXPLICIT (CONSTANT (INTEGER 4) 0 '1') (CONSTANT (INTEGER
4) 0 '2000')) () 1 0 0 ()) (77 'grdneq' (CHARACTER 1 ((CONSTANT (
INTEGER 4) 0 '12'))) (1 EXPLICIT (CONSTANT (INTEGER 4) 0 '1') (CONSTANT
(INTEGER 4) 0 '3')) () 1 0 0 ()) (78 'nobst' (INTEGER 4) () () 0 0 0 ())
(79 'obst' (DERIVED 80) (1 EXPLICIT (CONSTANT (INTEGER 4) 0 '1') (
CONSTANT (INTEGER 4) 0 '30000')) () 1 0 0 ())) PUBLIC ())
80 't_obst' 'd_neq' 6 ((DERIVED UNKNOWN UNKNOWN UNKNOWN NONE NONE) (
UNKNOWN) 0 0 () () () '' ((81 'obstyp' (CHARACTER 1 ((CONSTANT (INTEGER
4) 0 '3'))) (1 EXPLICIT (CONSTANT (INTEGER 4) 0 '1') (CONSTANT (INTEGER
4) 0 '4')) () 1 0 0 ())) PUBLIC ())
76 't_sinex' 'd_neq' 6 ((DERIVED UNKNOWN UNKNOWN UNKNOWN NONE NONE) (
UNKNOWN) 0 0 () () () '' ((82 'timint' (DERIVED 46) () () 0 0 0 ()) (83
'stname' (CHARACTER 1 ((CONSTANT (INTEGER 4) 0 '16'))) () () 0 0 0 ()) (
84 'antecc' (REAL 8) (1 EXPLICIT (CONSTANT (INTEGER 4) 0 '1') (CONSTANT
(INTEGER 4) 0 '3')) () 1 0 0 ()) (85 'antpcv' (DERIVED 86) (1 EXPLICIT (
CONSTANT (INTEGER 4) 0 '0') (CONSTANT (INTEGER 4) 0 '5')) () 1 0 0 ()) (
87 'antnum' (INTEGER 4) () () 0 0 0 ()) (88 'antsta' (CHARACTER 1 ((
CONSTANT (INTEGER 4) 0 '20'))) () () 0 0 0 ()) (89 'antrec' (CHARACTER 1
((CONSTANT (INTEGER 4) 0 '20'))) () () 0 0 0 ())) PUBLIC ())
86 't_sinex_pcv' 'd_neq' 6 ((DERIVED UNKNOWN UNKNOWN UNKNOWN NONE NONE)
(UNKNOWN) 0 0 () () () '' ((90 'nfrq' (INTEGER 4) () () 0 0 0 ()) (91
'antphs' (REAL 8) (2 EXPLICIT (CONSTANT (INTEGER 4) 0 '1') (CONSTANT (
INTEGER 4) 0 '3') (CONSTANT (INTEGER 4) 0 '1') (CONSTANT (INTEGER 4) 0 '2'))
() 1 0 0 ()) (92 'adopted' (INTEGER 4) () () 0 0 0 ()) (93 'individ' (
INTEGER 4) () () 0 0 0 ()) (94 'atxstr' (CHARACTER 1 ((CONSTANT (
INTEGER 4) 0 '10'))) () () 0 0 0 ())) PUBLIC ())
)

('orbstore' 0 2 's_orbstore' 0 5)
