G95 module created on Thu Jun 25 17:49:59 2020 from ./.fpp/PARSTACK.f90
If you edit this, you'll get what you deserve.
module-version 9
(() () (2) () () () () () () () () () () () () () () () () () ())

()

()

()

()

(2 'addtimint' 'm_time' 1 ((PROCEDURE UNKNOWN MODULE-PROC DECL NONE NONE
FUNCTION INVOKED) (DERIVED 3) 0 0 (4 NONE 5 NONE) () () '' () ())
3 't_timint' 'm_time' 1 ((DERIVED UNKNOWN UNKNOWN UNKNOWN NONE NONE) (
UNKNOWN) 0 0 () () () '' ((6 't' (REAL 8) (1 EXPLICIT (CONSTANT (
INTEGER 4) 0 '1') (CONSTANT (INTEGER 4) 0 '2')) () 1 0 0 ())) PUBLIC ())
7 'm_time' 'm_time' 1 ((MODULE UNKNOWN UNKNOWN UNKNOWN NONE NONE) (
UNKNOWN) 0 0 () () () '' () ())
8 'parstack' 's_parstack' 1 ((PROCEDURE UNKNOWN MODULE-PROC DECL NONE
NONE SUBROUTINE) (PROCEDURE 0) 0 0 (9 NONE) () () '' () ())
10 's_parstack' 's_parstack' 1 ((MODULE UNKNOWN UNKNOWN UNKNOWN NONE
NONE) (UNKNOWN) 0 0 () () () '' () ())
9 'neq' '' 11 ((VARIABLE UNKNOWN UNKNOWN UNKNOWN NONE NONE DUMMY) (
DERIVED 12) 0 0 () () () '' () ())
12 't_neq' 'd_neq' 11 ((DERIVED UNKNOWN UNKNOWN UNKNOWN NONE NONE) (
UNKNOWN) 0 0 () () () '' ((13 'version' (INTEGER 4) () () 0 0 0 ()) (14
'misc' (DERIVED 15) () () 0 0 0 ()) (16 'par' (DERIVED 17) (1 DEFERRED ()
()) () 1 1 0 ()) (18 'anor' (REAL 8) (1 DEFERRED () ()) () 1 1 0 ()) (
19 'bnor' (REAL 8) (1 DEFERRED () ()) () 1 1 0 ()) (20 'xxx' (REAL 8) (
1 DEFERRED () ()) () 1 1 0 ())) PUBLIC ())
17 't_par' 'd_par' 11 ((DERIVED UNKNOWN UNKNOWN UNKNOWN NONE NONE) (
UNKNOWN) 0 0 () () () '' ((21 'locq' (INTEGER 4) (1 EXPLICIT (CONSTANT (
INTEGER 4) 0 '1') (CONSTANT (INTEGER 4) 0 '7')) () 1 0 0 ()) (22 'name'
(CHARACTER 1 ((CONSTANT (INTEGER 4) 0 '20'))) () () 0 0 0 ()) (23 'time'
(DERIVED 24) () () 0 0 0 ()) (25 'x0' (REAL 8) () () 0 0 0 ()) (26 'scale'
(REAL 8) () () 0 0 0 ()) (27 'techn' (CHARACTER 1 ((CONSTANT (INTEGER 4)
0 '1'))) (1 EXPLICIT (CONSTANT (INTEGER 4) 0 '1') (CONSTANT (INTEGER 4)
0 '2')) () 1 0 0 ()) (28 'obstim' (DERIVED 29) () () 0 0 0 ()) (30 'type'
(CHARACTER 1 ((CONSTANT (INTEGER 4) 0 '2'))) () () 0 0 0 ()) (31 'omega'
(REAL 8) () () 0 0 0 ())) PUBLIC ())
29 't_timint' 'm_time' 11 ((DERIVED UNKNOWN UNKNOWN UNKNOWN NONE NONE) (
UNKNOWN) 0 0 () () () '' ((32 't' (REAL 8) (1 EXPLICIT (CONSTANT (
INTEGER 4) 0 '1') (CONSTANT (INTEGER 4) 0 '2')) () 1 0 0 ())) PUBLIC ())
24 't_time' 'm_time' 11 ((DERIVED UNKNOWN UNKNOWN UNKNOWN NONE NONE
SEQUENCE) (UNKNOWN) 0 0 () () () '' ((33 'mean' (REAL 8) () () 0 0 0 ())
(34 'half' (REAL 8) () () 0 0 0 ())) PUBLIC ())
15 't_misc' 'd_neq' 11 ((DERIVED UNKNOWN UNKNOWN UNKNOWN NONE NONE) (
UNKNOWN) 0 0 () () () '' ((35 'title' (CHARACTER 1 ((CONSTANT (INTEGER 4)
0 '132'))) (1 EXPLICIT (CONSTANT (INTEGER 4) 0 '1') (CONSTANT (INTEGER 4)
0 '2')) () 1 0 0 ()) (36 'datum' (CHARACTER 1 ((CONSTANT (INTEGER 4) 0
'16'))) () () 0 0 0 ()) (37 'nutmod' (CHARACTER 1 ((CONSTANT (INTEGER 4)
0 '16'))) () () 0 0 0 ()) (38 'submod' (CHARACTER 1 ((CONSTANT (INTEGER
4) 0 '16'))) () () 0 0 0 ()) (39 'orbfil' (CHARACTER 1 ((CONSTANT (
INTEGER 4) 0 '32'))) (1 EXPLICIT (CONSTANT (INTEGER 4) 0 '1') (CONSTANT
(INTEGER 4) 0 '2')) () 1 0 0 ()) (40 'gravfil' (CHARACTER 1 ((CONSTANT (
INTEGER 4) 0 '32'))) () () 0 0 0 ()) (41 'nobs' (REAL 8) () () 0 0 0 ())
(42 'npar' (INTEGER 4) () () 0 0 0 ()) (43 'ltpl' (REAL 8) () () 0 0 0 ())
(44 'nparms' (REAL 8) () () 0 0 0 ()) (45 'npseu' (INTEGER 4) () () 0 0
0 ()) (46 'npseuel' (INTEGER 4) () () 0 0 0 ()) (47 'nftot' (INTEGER 4)
() () 0 0 0 ()) (48 'nsmpnq' (INTEGER 4) () () 0 0 0 ()) (49 'ielvnq' (
INTEGER 4) () () 0 0 0 ()) (50 'itropo' (INTEGER 4) () () 0 0 0 ()) (51
'iextra' (INTEGER 4) () () 0 0 0 ()) (52 'itrmap' (INTEGER 4) () () 0 0
0 ()) (53 'itrgrd' (INTEGER 4) () () 0 0 0 ()) (54 'nanoff' (INTEGER 4)
() () 0 0 0 ()) (55 'nsaoff' (INTEGER 4) (1 EXPLICIT (CONSTANT (INTEGER
4) 0 '1') (CONSTANT (INTEGER 4) 0 '260')) () 1 0 0 ()) (56 'satoff' (
INTEGER 4) (2 EXPLICIT (CONSTANT (INTEGER 4) 0 '1') (CONSTANT (INTEGER 4)
0 '130') (CONSTANT (INTEGER 4) 0 '1') (CONSTANT (INTEGER 4) 0 '260')) ()
1 0 0 ()) (57 'nstat_sinex' (INTEGER 4) () () 0 0 0 ()) (58 'sinex' (
DERIVED 59) (1 EXPLICIT (CONSTANT (INTEGER 4) 0 '1') (CONSTANT (INTEGER
4) 0 '2000')) () 1 0 0 ()) (60 'grdneq' (CHARACTER 1 ((CONSTANT (
INTEGER 4) 0 '12'))) (1 EXPLICIT (CONSTANT (INTEGER 4) 0 '1') (CONSTANT
(INTEGER 4) 0 '3')) () 1 0 0 ()) (61 'nobst' (INTEGER 4) () () 0 0 0 ())
(62 'obst' (DERIVED 63) (1 EXPLICIT (CONSTANT (INTEGER 4) 0 '1') (
CONSTANT (INTEGER 4) 0 '30000')) () 1 0 0 ())) PUBLIC ())
63 't_obst' 'd_neq' 11 ((DERIVED UNKNOWN UNKNOWN UNKNOWN NONE NONE) (
UNKNOWN) 0 0 () () () '' ((64 'obstyp' (CHARACTER 1 ((CONSTANT (INTEGER
4) 0 '3'))) (1 EXPLICIT (CONSTANT (INTEGER 4) 0 '1') (CONSTANT (INTEGER
4) 0 '4')) () 1 0 0 ())) PUBLIC ())
59 't_sinex' 'd_neq' 11 ((DERIVED UNKNOWN UNKNOWN UNKNOWN NONE NONE) (
UNKNOWN) 0 0 () () () '' ((65 'timint' (DERIVED 29) () () 0 0 0 ()) (66
'stname' (CHARACTER 1 ((CONSTANT (INTEGER 4) 0 '16'))) () () 0 0 0 ()) (
67 'antecc' (REAL 8) (1 EXPLICIT (CONSTANT (INTEGER 4) 0 '1') (CONSTANT
(INTEGER 4) 0 '3')) () 1 0 0 ()) (68 'antpcv' (DERIVED 69) (1 EXPLICIT (
CONSTANT (INTEGER 4) 0 '0') (CONSTANT (INTEGER 4) 0 '5')) () 1 0 0 ()) (
70 'antnum' (INTEGER 4) () () 0 0 0 ()) (71 'antsta' (CHARACTER 1 ((
CONSTANT (INTEGER 4) 0 '20'))) () () 0 0 0 ()) (72 'antrec' (CHARACTER 1
((CONSTANT (INTEGER 4) 0 '20'))) () () 0 0 0 ())) PUBLIC ())
69 't_sinex_pcv' 'd_neq' 11 ((DERIVED UNKNOWN UNKNOWN UNKNOWN NONE NONE)
(UNKNOWN) 0 0 () () () '' ((73 'nfrq' (INTEGER 4) () () 0 0 0 ()) (74
'antphs' (REAL 8) (2 EXPLICIT (CONSTANT (INTEGER 4) 0 '1') (CONSTANT (
INTEGER 4) 0 '3') (CONSTANT (INTEGER 4) 0 '1') (CONSTANT (INTEGER 4) 0 '2'))
() 1 0 0 ()) (75 'adopted' (INTEGER 4) () () 0 0 0 ()) (76 'individ' (
INTEGER 4) () () 0 0 0 ()) (77 'atxstr' (CHARACTER 1 ((CONSTANT (
INTEGER 4) 0 '10'))) () () 0 0 0 ())) PUBLIC ())
5 'timint2' '' 78 ((VARIABLE IN UNKNOWN UNKNOWN NONE NONE DUMMY) (
DERIVED 3) 0 0 () () () '' () ())
4 'timint1' '' 78 ((VARIABLE IN UNKNOWN UNKNOWN NONE NONE DUMMY) (
DERIVED 3) 0 0 () () () '' () ())
3 't_timint' 'm_time' 1 ((DERIVED UNKNOWN UNKNOWN UNKNOWN NONE NONE) (
UNKNOWN) 0 0 () () () '' ((6 't' (REAL 8) (1 EXPLICIT (CONSTANT (
INTEGER 4) 0 '1') (CONSTANT (INTEGER 4) 0 '2')) () 1 0 0 ())) PUBLIC ())
2 'addtimint' 'm_time' 1 ((PROCEDURE UNKNOWN MODULE-PROC DECL NONE NONE
FUNCTION INVOKED) (DERIVED 3) 0 0 (4 NONE 5 NONE) () () '' () ())
)

('m_time' 0 7 'parstack' 0 8 's_parstack' 0 10)
