G95 module created on Thu Jun 25 17:49:50 2020 from ./.fpp/PARTRANS.f90
If you edit this, you'll get what you deserve.
module-version 9
(() () () () () () () () () () () () () () () () () () () () ())

()

()

()

()

(2 'partrans' 's_partrans' 1 ((PROCEDURE UNKNOWN MODULE-PROC DECL NONE
NONE SUBROUTINE) (PROCEDURE 0) 0 0 (3 NONE 4 NONE 5 NONE 6 NONE) () () ''
() ())
7 's_partrans' 's_partrans' 1 ((MODULE UNKNOWN UNKNOWN UNKNOWN NONE NONE)
(UNKNOWN) 0 0 () () () '' () ())
6 'ifil' '' 8 ((VARIABLE UNKNOWN UNKNOWN UNKNOWN NONE NONE DUMMY) (
INTEGER 4) 0 0 () () () '' () ())
5 'part' '' 8 ((VARIABLE UNKNOWN UNKNOWN UNKNOWN NONE NONE DUMMY) (
INTEGER 4) 0 0 () () () '' () ())
4 'req' '' 8 ((VARIABLE IN UNKNOWN UNKNOWN NONE NONE DUMMY) (DERIVED 9)
0 0 () () () '' () ())
9 't_req' 'p_addneq' 8 ((DERIVED UNKNOWN UNKNOWN UNKNOWN NONE NONE) (
UNKNOWN) 0 0 () () () '' ((10 'locq' (INTEGER 4) (1 EXPLICIT (CONSTANT (
INTEGER 4) 0 '1') (CONSTANT (INTEGER 4) 0 '7')) () 1 0 0 ()) (11 'name'
(CHARACTER 1 ((CONSTANT (INTEGER 4) 0 '20'))) () () 0 0 0 ()) (12 'timint'
(DERIVED 13) () () 0 0 0 ()) (14 'type' (CHARACTER 1 ((CONSTANT (
INTEGER 4) 0 '2'))) () () 0 0 0 (CONSTANT (CHARACTER 1 ((CONSTANT (
INTEGER 4) 0 '2'))) 0 2 '  ')) (15 'omega' (REAL 8) () () 0 0 0 (
CONSTANT (REAL 8) 0 '0' 0 0))) PUBLIC ())
13 't_timint' 'm_time' 8 ((DERIVED UNKNOWN UNKNOWN UNKNOWN NONE NONE) (
UNKNOWN) 0 0 () () () '' ((16 't' (REAL 8) (1 EXPLICIT (CONSTANT (
INTEGER 4) 0 '1') (CONSTANT (INTEGER 4) 0 '2')) () 1 0 0 ())) PUBLIC ())
3 'neq' '' 8 ((VARIABLE UNKNOWN UNKNOWN UNKNOWN NONE NONE DUMMY) (
DERIVED 17) 0 0 () () () '' () ())
17 't_neq' 'd_neq' 8 ((DERIVED UNKNOWN UNKNOWN UNKNOWN NONE NONE) (
UNKNOWN) 0 0 () () () '' ((18 'version' (INTEGER 4) () () 0 0 0 ()) (19
'misc' (DERIVED 20) () () 0 0 0 ()) (21 'par' (DERIVED 22) (1 DEFERRED ()
()) () 1 1 0 ()) (23 'anor' (REAL 8) (1 DEFERRED () ()) () 1 1 0 ()) (
24 'bnor' (REAL 8) (1 DEFERRED () ()) () 1 1 0 ()) (25 'xxx' (REAL 8) (
1 DEFERRED () ()) () 1 1 0 ())) PUBLIC ())
22 't_par' 'd_par' 8 ((DERIVED UNKNOWN UNKNOWN UNKNOWN NONE NONE) (
UNKNOWN) 0 0 () () () '' ((26 'locq' (INTEGER 4) (1 EXPLICIT (CONSTANT (
INTEGER 4) 0 '1') (CONSTANT (INTEGER 4) 0 '7')) () 1 0 0 ()) (27 'name'
(CHARACTER 1 ((CONSTANT (INTEGER 4) 0 '20'))) () () 0 0 0 ()) (28 'time'
(DERIVED 29) () () 0 0 0 ()) (30 'x0' (REAL 8) () () 0 0 0 ()) (31 'scale'
(REAL 8) () () 0 0 0 ()) (32 'techn' (CHARACTER 1 ((CONSTANT (INTEGER 4)
0 '1'))) (1 EXPLICIT (CONSTANT (INTEGER 4) 0 '1') (CONSTANT (INTEGER 4)
0 '2')) () 1 0 0 ()) (33 'obstim' (DERIVED 13) () () 0 0 0 ()) (34 'type'
(CHARACTER 1 ((CONSTANT (INTEGER 4) 0 '2'))) () () 0 0 0 ()) (35 'omega'
(REAL 8) () () 0 0 0 ())) PUBLIC ())
29 't_time' 'm_time' 8 ((DERIVED UNKNOWN UNKNOWN UNKNOWN NONE NONE
SEQUENCE) (UNKNOWN) 0 0 () () () '' ((36 'mean' (REAL 8) () () 0 0 0 ())
(37 'half' (REAL 8) () () 0 0 0 ())) PUBLIC ())
20 't_misc' 'd_neq' 8 ((DERIVED UNKNOWN UNKNOWN UNKNOWN NONE NONE) (
UNKNOWN) 0 0 () () () '' ((38 'title' (CHARACTER 1 ((CONSTANT (INTEGER 4)
0 '132'))) (1 EXPLICIT (CONSTANT (INTEGER 4) 0 '1') (CONSTANT (INTEGER 4)
0 '2')) () 1 0 0 ()) (39 'datum' (CHARACTER 1 ((CONSTANT (INTEGER 4) 0
'16'))) () () 0 0 0 ()) (40 'nutmod' (CHARACTER 1 ((CONSTANT (INTEGER 4)
0 '16'))) () () 0 0 0 ()) (41 'submod' (CHARACTER 1 ((CONSTANT (INTEGER
4) 0 '16'))) () () 0 0 0 ()) (42 'orbfil' (CHARACTER 1 ((CONSTANT (
INTEGER 4) 0 '32'))) (1 EXPLICIT (CONSTANT (INTEGER 4) 0 '1') (CONSTANT
(INTEGER 4) 0 '2')) () 1 0 0 ()) (43 'gravfil' (CHARACTER 1 ((CONSTANT (
INTEGER 4) 0 '32'))) () () 0 0 0 ()) (44 'nobs' (REAL 8) () () 0 0 0 ())
(45 'npar' (INTEGER 4) () () 0 0 0 ()) (46 'ltpl' (REAL 8) () () 0 0 0 ())
(47 'nparms' (REAL 8) () () 0 0 0 ()) (48 'npseu' (INTEGER 4) () () 0 0
0 ()) (49 'npseuel' (INTEGER 4) () () 0 0 0 ()) (50 'nftot' (INTEGER 4)
() () 0 0 0 ()) (51 'nsmpnq' (INTEGER 4) () () 0 0 0 ()) (52 'ielvnq' (
INTEGER 4) () () 0 0 0 ()) (53 'itropo' (INTEGER 4) () () 0 0 0 ()) (54
'iextra' (INTEGER 4) () () 0 0 0 ()) (55 'itrmap' (INTEGER 4) () () 0 0
0 ()) (56 'itrgrd' (INTEGER 4) () () 0 0 0 ()) (57 'nanoff' (INTEGER 4)
() () 0 0 0 ()) (58 'nsaoff' (INTEGER 4) (1 EXPLICIT (CONSTANT (INTEGER
4) 0 '1') (CONSTANT (INTEGER 4) 0 '260')) () 1 0 0 ()) (59 'satoff' (
INTEGER 4) (2 EXPLICIT (CONSTANT (INTEGER 4) 0 '1') (CONSTANT (INTEGER 4)
0 '130') (CONSTANT (INTEGER 4) 0 '1') (CONSTANT (INTEGER 4) 0 '260')) ()
1 0 0 ()) (60 'nstat_sinex' (INTEGER 4) () () 0 0 0 ()) (61 'sinex' (
DERIVED 62) (1 EXPLICIT (CONSTANT (INTEGER 4) 0 '1') (CONSTANT (INTEGER
4) 0 '2000')) () 1 0 0 ()) (63 'grdneq' (CHARACTER 1 ((CONSTANT (
INTEGER 4) 0 '12'))) (1 EXPLICIT (CONSTANT (INTEGER 4) 0 '1') (CONSTANT
(INTEGER 4) 0 '3')) () 1 0 0 ()) (64 'nobst' (INTEGER 4) () () 0 0 0 ())
(65 'obst' (DERIVED 66) (1 EXPLICIT (CONSTANT (INTEGER 4) 0 '1') (
CONSTANT (INTEGER 4) 0 '30000')) () 1 0 0 ())) PUBLIC ())
66 't_obst' 'd_neq' 8 ((DERIVED UNKNOWN UNKNOWN UNKNOWN NONE NONE) (
UNKNOWN) 0 0 () () () '' ((67 'obstyp' (CHARACTER 1 ((CONSTANT (INTEGER
4) 0 '3'))) (1 EXPLICIT (CONSTANT (INTEGER 4) 0 '1') (CONSTANT (INTEGER
4) 0 '4')) () 1 0 0 ())) PUBLIC ())
62 't_sinex' 'd_neq' 8 ((DERIVED UNKNOWN UNKNOWN UNKNOWN NONE NONE) (
UNKNOWN) 0 0 () () () '' ((68 'timint' (DERIVED 13) () () 0 0 0 ()) (69
'stname' (CHARACTER 1 ((CONSTANT (INTEGER 4) 0 '16'))) () () 0 0 0 ()) (
70 'antecc' (REAL 8) (1 EXPLICIT (CONSTANT (INTEGER 4) 0 '1') (CONSTANT
(INTEGER 4) 0 '3')) () 1 0 0 ()) (71 'antpcv' (DERIVED 72) (1 EXPLICIT (
CONSTANT (INTEGER 4) 0 '0') (CONSTANT (INTEGER 4) 0 '5')) () 1 0 0 ()) (
73 'antnum' (INTEGER 4) () () 0 0 0 ()) (74 'antsta' (CHARACTER 1 ((
CONSTANT (INTEGER 4) 0 '20'))) () () 0 0 0 ()) (75 'antrec' (CHARACTER 1
((CONSTANT (INTEGER 4) 0 '20'))) () () 0 0 0 ())) PUBLIC ())
72 't_sinex_pcv' 'd_neq' 8 ((DERIVED UNKNOWN UNKNOWN UNKNOWN NONE NONE)
(UNKNOWN) 0 0 () () () '' ((76 'nfrq' (INTEGER 4) () () 0 0 0 ()) (77
'antphs' (REAL 8) (2 EXPLICIT (CONSTANT (INTEGER 4) 0 '1') (CONSTANT (
INTEGER 4) 0 '3') (CONSTANT (INTEGER 4) 0 '1') (CONSTANT (INTEGER 4) 0 '2'))
() 1 0 0 ()) (78 'adopted' (INTEGER 4) () () 0 0 0 ()) (79 'individ' (
INTEGER 4) () () 0 0 0 ()) (80 'atxstr' (CHARACTER 1 ((CONSTANT (
INTEGER 4) 0 '10'))) () () 0 0 0 ())) PUBLIC ())
)

('partrans' 0 2 's_partrans' 0 7)
