G95 module created on Thu Jun 25 17:50:53 2020 from ./.fpp/POLSTORE.f90
If you edit this, you'll get what you deserve.
module-version 9
(() () () () () () () () () () () () () () () () () () () () ())

()

()

()

()

(2 'polstore' 's_polstore' 1 ((PROCEDURE UNKNOWN MODULE-PROC DECL NONE
NONE SUBROUTINE) (PROCEDURE 0) 0 0 (3 NONE) () () '' () ())
4 's_polstore' 's_polstore' 1 ((MODULE UNKNOWN UNKNOWN UNKNOWN NONE NONE)
(UNKNOWN) 0 0 () () () '' () ())
3 'neq' '' 5 ((VARIABLE UNKNOWN UNKNOWN UNKNOWN NONE NONE DUMMY) (
DERIVED 6) 0 0 () () () '' () ())
6 't_neq' 'd_neq' 5 ((DERIVED UNKNOWN UNKNOWN UNKNOWN NONE NONE) (
UNKNOWN) 0 0 () () () '' ((7 'version' (INTEGER 4) () () 0 0 0 ()) (8
'misc' (DERIVED 9) () () 0 0 0 ()) (10 'par' (DERIVED 11) (1 DEFERRED ()
()) () 1 1 0 ()) (12 'anor' (REAL 8) (1 DEFERRED () ()) () 1 1 0 ()) (
13 'bnor' (REAL 8) (1 DEFERRED () ()) () 1 1 0 ()) (14 'xxx' (REAL 8) (
1 DEFERRED () ()) () 1 1 0 ())) PUBLIC ())
11 't_par' 'd_par' 5 ((DERIVED UNKNOWN UNKNOWN UNKNOWN NONE NONE) (
UNKNOWN) 0 0 () () () '' ((15 'locq' (INTEGER 4) (1 EXPLICIT (CONSTANT (
INTEGER 4) 0 '1') (CONSTANT (INTEGER 4) 0 '7')) () 1 0 0 ()) (16 'name'
(CHARACTER 1 ((CONSTANT (INTEGER 4) 0 '20'))) () () 0 0 0 ()) (17 'time'
(DERIVED 18) () () 0 0 0 ()) (19 'x0' (REAL 8) () () 0 0 0 ()) (20 'scale'
(REAL 8) () () 0 0 0 ()) (21 'techn' (CHARACTER 1 ((CONSTANT (INTEGER 4)
0 '1'))) (1 EXPLICIT (CONSTANT (INTEGER 4) 0 '1') (CONSTANT (INTEGER 4)
0 '2')) () 1 0 0 ()) (22 'obstim' (DERIVED 23) () () 0 0 0 ()) (24 'type'
(CHARACTER 1 ((CONSTANT (INTEGER 4) 0 '2'))) () () 0 0 0 ()) (25 'omega'
(REAL 8) () () 0 0 0 ())) PUBLIC ())
23 't_timint' 'm_time' 5 ((DERIVED UNKNOWN UNKNOWN UNKNOWN NONE NONE) (
UNKNOWN) 0 0 () () () '' ((26 't' (REAL 8) (1 EXPLICIT (CONSTANT (
INTEGER 4) 0 '1') (CONSTANT (INTEGER 4) 0 '2')) () 1 0 0 ())) PUBLIC ())
18 't_time' 'm_time' 5 ((DERIVED UNKNOWN UNKNOWN UNKNOWN NONE NONE
SEQUENCE) (UNKNOWN) 0 0 () () () '' ((27 'mean' (REAL 8) () () 0 0 0 ())
(28 'half' (REAL 8) () () 0 0 0 ())) PUBLIC ())
9 't_misc' 'd_neq' 5 ((DERIVED UNKNOWN UNKNOWN UNKNOWN NONE NONE) (
UNKNOWN) 0 0 () () () '' ((29 'title' (CHARACTER 1 ((CONSTANT (INTEGER 4)
0 '132'))) (1 EXPLICIT (CONSTANT (INTEGER 4) 0 '1') (CONSTANT (INTEGER 4)
0 '2')) () 1 0 0 ()) (30 'datum' (CHARACTER 1 ((CONSTANT (INTEGER 4) 0
'16'))) () () 0 0 0 ()) (31 'nutmod' (CHARACTER 1 ((CONSTANT (INTEGER 4)
0 '16'))) () () 0 0 0 ()) (32 'submod' (CHARACTER 1 ((CONSTANT (INTEGER
4) 0 '16'))) () () 0 0 0 ()) (33 'orbfil' (CHARACTER 1 ((CONSTANT (
INTEGER 4) 0 '32'))) (1 EXPLICIT (CONSTANT (INTEGER 4) 0 '1') (CONSTANT
(INTEGER 4) 0 '2')) () 1 0 0 ()) (34 'gravfil' (CHARACTER 1 ((CONSTANT (
INTEGER 4) 0 '32'))) () () 0 0 0 ()) (35 'nobs' (REAL 8) () () 0 0 0 ())
(36 'npar' (INTEGER 4) () () 0 0 0 ()) (37 'ltpl' (REAL 8) () () 0 0 0 ())
(38 'nparms' (REAL 8) () () 0 0 0 ()) (39 'npseu' (INTEGER 4) () () 0 0
0 ()) (40 'npseuel' (INTEGER 4) () () 0 0 0 ()) (41 'nftot' (INTEGER 4)
() () 0 0 0 ()) (42 'nsmpnq' (INTEGER 4) () () 0 0 0 ()) (43 'ielvnq' (
INTEGER 4) () () 0 0 0 ()) (44 'itropo' (INTEGER 4) () () 0 0 0 ()) (45
'iextra' (INTEGER 4) () () 0 0 0 ()) (46 'itrmap' (INTEGER 4) () () 0 0
0 ()) (47 'itrgrd' (INTEGER 4) () () 0 0 0 ()) (48 'nanoff' (INTEGER 4)
() () 0 0 0 ()) (49 'nsaoff' (INTEGER 4) (1 EXPLICIT (CONSTANT (INTEGER
4) 0 '1') (CONSTANT (INTEGER 4) 0 '260')) () 1 0 0 ()) (50 'satoff' (
INTEGER 4) (2 EXPLICIT (CONSTANT (INTEGER 4) 0 '1') (CONSTANT (INTEGER 4)
0 '130') (CONSTANT (INTEGER 4) 0 '1') (CONSTANT (INTEGER 4) 0 '260')) ()
1 0 0 ()) (51 'nstat_sinex' (INTEGER 4) () () 0 0 0 ()) (52 'sinex' (
DERIVED 53) (1 EXPLICIT (CONSTANT (INTEGER 4) 0 '1') (CONSTANT (INTEGER
4) 0 '2000')) () 1 0 0 ()) (54 'grdneq' (CHARACTER 1 ((CONSTANT (
INTEGER 4) 0 '12'))) (1 EXPLICIT (CONSTANT (INTEGER 4) 0 '1') (CONSTANT
(INTEGER 4) 0 '3')) () 1 0 0 ()) (55 'nobst' (INTEGER 4) () () 0 0 0 ())
(56 'obst' (DERIVED 57) (1 EXPLICIT (CONSTANT (INTEGER 4) 0 '1') (
CONSTANT (INTEGER 4) 0 '30000')) () 1 0 0 ())) PUBLIC ())
57 't_obst' 'd_neq' 5 ((DERIVED UNKNOWN UNKNOWN UNKNOWN NONE NONE) (
UNKNOWN) 0 0 () () () '' ((58 'obstyp' (CHARACTER 1 ((CONSTANT (INTEGER
4) 0 '3'))) (1 EXPLICIT (CONSTANT (INTEGER 4) 0 '1') (CONSTANT (INTEGER
4) 0 '4')) () 1 0 0 ())) PUBLIC ())
53 't_sinex' 'd_neq' 5 ((DERIVED UNKNOWN UNKNOWN UNKNOWN NONE NONE) (
UNKNOWN) 0 0 () () () '' ((59 'timint' (DERIVED 23) () () 0 0 0 ()) (60
'stname' (CHARACTER 1 ((CONSTANT (INTEGER 4) 0 '16'))) () () 0 0 0 ()) (
61 'antecc' (REAL 8) (1 EXPLICIT (CONSTANT (INTEGER 4) 0 '1') (CONSTANT
(INTEGER 4) 0 '3')) () 1 0 0 ()) (62 'antpcv' (DERIVED 63) (1 EXPLICIT (
CONSTANT (INTEGER 4) 0 '0') (CONSTANT (INTEGER 4) 0 '5')) () 1 0 0 ()) (
64 'antnum' (INTEGER 4) () () 0 0 0 ()) (65 'antsta' (CHARACTER 1 ((
CONSTANT (INTEGER 4) 0 '20'))) () () 0 0 0 ()) (66 'antrec' (CHARACTER 1
((CONSTANT (INTEGER 4) 0 '20'))) () () 0 0 0 ())) PUBLIC ())
63 't_sinex_pcv' 'd_neq' 5 ((DERIVED UNKNOWN UNKNOWN UNKNOWN NONE NONE)
(UNKNOWN) 0 0 () () () '' ((67 'nfrq' (INTEGER 4) () () 0 0 0 ()) (68
'antphs' (REAL 8) (2 EXPLICIT (CONSTANT (INTEGER 4) 0 '1') (CONSTANT (
INTEGER 4) 0 '3') (CONSTANT (INTEGER 4) 0 '1') (CONSTANT (INTEGER 4) 0 '2'))
() 1 0 0 ()) (69 'adopted' (INTEGER 4) () () 0 0 0 ()) (70 'individ' (
INTEGER 4) () () 0 0 0 ()) (71 'atxstr' (CHARACTER 1 ((CONSTANT (
INTEGER 4) 0 '10'))) () () 0 0 0 ())) PUBLIC ())
)

('polstore' 0 2 's_polstore' 0 4)
