G95 module created on Thu Jun 25 17:48:57 2020 from ./.fpp/PRIGRD.f90
If you edit this, you'll get what you deserve.
module-version 9
(() () () () () () () () () () () () () () () () () () () () ())

()

()

()

()

(2 'prigrd' 's_prigrd' 1 ((PROCEDURE UNKNOWN MODULE-PROC DECL NONE NONE
SUBROUTINE) (PROCEDURE 0) 0 0 (3 NONE 4 NONE) () () '' () ())
5 's_prigrd' 's_prigrd' 1 ((MODULE UNKNOWN UNKNOWN UNKNOWN NONE NONE) (
UNKNOWN) 0 0 () () () '' () ())
4 'titles' '' 6 ((VARIABLE UNKNOWN UNKNOWN UNKNOWN NONE NONE DIMENSION
DUMMY) (CHARACTER 1 (())) 0 0 () (1 ASSUMED_SHAPE () ()) () '' () ())
3 'opload' '' 6 ((VARIABLE UNKNOWN UNKNOWN UNKNOWN NONE NONE DIMENSION
DUMMY) (DERIVED 7) 0 0 () (1 ASSUMED_SHAPE () ()) () '' () ())
7 't_optload' 'p_gpsest' 6 ((DERIVED UNKNOWN UNKNOWN UNKNOWN NONE NONE)
(UNKNOWN) 0 0 () () () '' ((8 'keyw' (CHARACTER 1 ((CONSTANT (INTEGER 4)
0 '12'))) () () 0 0 0 ()) (9 'nsta' (INTEGER 4) () () 0 0 0 ()) (10
'stalst' (CHARACTER 1 ((CONSTANT (INTEGER 4) 0 '16'))) (1 DEFERRED () ())
() 1 1 0 ()) (11 'staclu' (INTEGER 4) (1 DEFERRED () ()) () 1 1 0 ()) (
12 'npar' (INTEGER 4) () () 0 0 0 ()) (13 'sigma' (REAL 8) (1 EXPLICIT (
CONSTANT (INTEGER 4) 0 '1') (CONSTANT (INTEGER 4) 0 '3')) () 1 0 0 ()))
PUBLIC ())
)

('prigrd' 0 2 's_prigrd' 0 5)
