G95 module created on Thu Jun 25 17:50:10 2020 from ./.fpp/PRISAO.f90
If you edit this, you'll get what you deserve.
module-version 9
(() () () () () () () () () () () () () () () () () () () () ())

()

()

()

()

(2 'prisao' 's_prisao' 1 ((PROCEDURE UNKNOWN MODULE-PROC DECL NONE NONE
SUBROUTINE) (PROCEDURE 0) 0 0 (3 NONE) () () '' () ())
4 's_prisao' 's_prisao' 1 ((MODULE UNKNOWN UNKNOWN UNKNOWN NONE NONE) (
UNKNOWN) 0 0 () () () '' () ())
3 'parsao' '' 5 ((VARIABLE UNKNOWN UNKNOWN UNKNOWN NONE NONE DIMENSION
POINTER DUMMY) (DERIVED 6) 0 0 () (1 DEFERRED () ()) () '' () ())
6 't_parsao' 'p_addneq' 5 ((DERIVED UNKNOWN UNKNOWN UNKNOWN NONE NONE) (
UNKNOWN) 0 0 () () () '' ((7 'nanoff' (INTEGER 4) () () 0 0 0 ()) (8
'nsaoff' (INTEGER 4) (1 DEFERRED () ()) () 1 1 0 ()) (9 'satoff' (
INTEGER 4) (2 DEFERRED () () () ()) () 1 1 0 ()) (10 'santoff' (INTEGER
4) (2 EXPLICIT (CONSTANT (INTEGER 4) 0 '1') (CONSTANT (INTEGER 4) 0 '260')
(CONSTANT (INTEGER 4) 0 '1') (CONSTANT (INTEGER 4) 0 '3')) () 1 0 0 ())
(11 'nrqoff' (INTEGER 4) () () 0 0 0 ()) (12 'grpoff' (INTEGER 4) (1
EXPLICIT (CONSTANT (INTEGER 4) 0 '1') (CONSTANT (INTEGER 4) 0 '260')) ()
1 0 0 ()) (13 'gnroff' (INTEGER 4) (1 EXPLICIT (CONSTANT (INTEGER 4) 0 '1')
(CONSTANT (INTEGER 4) 0 '260')) () 1 0 0 ()) (14 'ncoreq' (INTEGER 4) (
1 EXPLICIT (CONSTANT (INTEGER 4) 0 '1') (CONSTANT (INTEGER 4) 0 '260'))
() 1 0 0 ()) (15 'timoff' (REAL 8) (2 EXPLICIT (CONSTANT (INTEGER 4) 0 '1')
(CONSTANT (INTEGER 4) 0 '2') (CONSTANT (INTEGER 4) 0 '1') (CONSTANT (
INTEGER 4) 0 '260')) () 1 0 0 ())) PUBLIC ())
)

('prisao' 0 2 's_prisao' 0 4)
