G95 module created on Thu Jun 25 17:50:18 2020 from ./.fpp/PRISAP.f90
If you edit this, you'll get what you deserve.
module-version 9
(() () () () () () () () () () () () () () () () () () () () ())

()

()

()

()

(2 'prisap' 's_prisap' 1 ((PROCEDURE UNKNOWN MODULE-PROC DECL NONE NONE
SUBROUTINE) (PROCEDURE 0) 0 0 (3 NONE) () () '' () ())
4 's_prisap' 's_prisap' 1 ((MODULE UNKNOWN UNKNOWN UNKNOWN NONE NONE) (
UNKNOWN) 0 0 () () () '' () ())
3 'parsap' '' 5 ((VARIABLE UNKNOWN UNKNOWN UNKNOWN NONE NONE DIMENSION
POINTER DUMMY) (DERIVED 6) 0 0 () (1 DEFERRED () ()) () '' () ())
6 't_parsap' 'p_addneq' 5 ((DERIVED UNKNOWN UNKNOWN UNKNOWN NONE NONE) (
UNKNOWN) 0 0 () () () '' ((7 'nanspv' (INTEGER 4) () () 0 0 0 ()) (8
'nsaspv' (INTEGER 4) (1 DEFERRED () ()) () 1 1 0 ()) (9 'satspv' (
INTEGER 4) (2 DEFERRED () () () ()) () 1 1 0 ()) (10 'gnrspv' (INTEGER 4)
(1 EXPLICIT (CONSTANT (INTEGER 4) 0 '1') (CONSTANT (INTEGER 4) 0 '260'))
() 1 0 0 ()) (11 'nptspv' (INTEGER 4) (2 EXPLICIT (CONSTANT (INTEGER 4)
0 '1') (CONSTANT (INTEGER 4) 0 '2') (CONSTANT (INTEGER 4) 0 '1') (
CONSTANT (INTEGER 4) 0 '260')) () 1 0 0 ()) (12 'timspv' (REAL 8) (2
EXPLICIT (CONSTANT (INTEGER 4) 0 '1') (CONSTANT (INTEGER 4) 0 '2') (
CONSTANT (INTEGER 4) 0 '1') (CONSTANT (INTEGER 4) 0 '260')) () 1 0 0 ()))
PUBLIC ())
)

('prisap' 0 2 's_prisap' 0 4)
