G95 module created on Thu Jun 25 17:48:55 2020 from ./.fpp/PRISPV.f
If you edit this, you'll get what you deserve.
module-version 9
(() () () () () () () () () () () () () () () () () () () () ())

()

()

()

()

(2 'prispv' 's_prispv' 1 ((PROCEDURE UNKNOWN MODULE-PROC DECL NONE NONE
SUBROUTINE) (PROCEDURE 0) 0 0 (3 NONE 4 NONE 5 NONE 6 NONE 7 NONE 8 NONE
9 NONE) () () '' () ())
10 's_prispv' 's_prispv' 1 ((MODULE UNKNOWN UNKNOWN UNKNOWN NONE NONE) (
UNKNOWN) 0 0 () () () '' () ())
9 'nadmax' '' 11 ((VARIABLE UNKNOWN UNKNOWN UNKNOWN NONE NONE DUMMY) (
REAL 8) 0 0 () () () '' () ())
8 'sigspv' '' 11 ((VARIABLE UNKNOWN UNKNOWN UNKNOWN NONE NONE DIMENSION
DUMMY) (REAL 8) 0 0 () (1 ASSUMED_SIZE (CONSTANT (INTEGER 4) 0 '1') ())
() '' () ())
7 'nptspv' '' 11 ((VARIABLE UNKNOWN UNKNOWN UNKNOWN NONE NONE DIMENSION
DUMMY) (INTEGER 4) 0 0 () (2 ASSUMED_SIZE (CONSTANT (INTEGER 4) 0 '1') (
CONSTANT (INTEGER 4) 0 '2') (CONSTANT (INTEGER 4) 0 '1') ()) () '' () ())
6 'gnrspv' '' 11 ((VARIABLE UNKNOWN UNKNOWN UNKNOWN NONE NONE DIMENSION
DUMMY) (INTEGER 4) 0 0 () (1 ASSUMED_SIZE (CONSTANT (INTEGER 4) 0 '1') ())
() '' () ())
5 'satspv' '' 11 ((VARIABLE UNKNOWN UNKNOWN UNKNOWN NONE NONE DIMENSION
DUMMY) (INTEGER 4) 0 0 () (2 ASSUMED_SIZE (CONSTANT (INTEGER 4) 0 '1') (
VARIABLE (INTEGER 4) 0 12 ()) (CONSTANT (INTEGER 4) 0 '1') ()) () '' ()
())
12 'mxcsgr' '' 11 ((VARIABLE UNKNOWN UNKNOWN UNKNOWN NONE NONE IN_COMMON)
(INTEGER 4) 0 13 () () () '' () ())
13 'mxnsgr' '' 11 ((VARIABLE UNKNOWN UNKNOWN UNKNOWN NONE NONE IN_COMMON)
(CHARACTER 1 ((CONSTANT (INTEGER 4) 0 '6'))) 0 0 () () () '' () ())
4 'nsaspv' '' 11 ((VARIABLE UNKNOWN UNKNOWN UNKNOWN NONE NONE DIMENSION
DUMMY) (INTEGER 4) 0 0 () (1 ASSUMED_SIZE (CONSTANT (INTEGER 4) 0 '1') ())
() '' () ())
3 'nanspv' '' 11 ((VARIABLE UNKNOWN UNKNOWN UNKNOWN NONE NONE DUMMY) (
INTEGER 4) 0 0 () () () '' () ())
)

('prispv' 0 2 's_prispv' 0 10)
