G95 module created on Thu Jun 25 17:48:22 2020 from ./.fpp/PRITIT.f90
If you edit this, you'll get what you deserve.
module-version 9
(() () () () () () () () () () () () () () () () () () () () ())

()

()

()

()

(2 'pritit' 's_pritit' 1 ((PROCEDURE UNKNOWN MODULE-PROC DECL NONE NONE
SUBROUTINE) (PROCEDURE 0) 0 0 (3 NONE 4 NONE 5 NONE) () () '' () ())
6 's_pritit' 's_pritit' 1 ((MODULE UNKNOWN UNKNOWN UNKNOWN NONE NONE) (
UNKNOWN) 0 0 () () () '' () ())
5 'ncol' '' 7 ((VARIABLE UNKNOWN UNKNOWN UNKNOWN NONE NONE OPTIONAL
DUMMY) (INTEGER 4) 0 0 () () () '' () ())
4 'pgmdescr' '' 7 ((VARIABLE UNKNOWN UNKNOWN UNKNOWN NONE NONE DUMMY) (
CHARACTER 1 (())) 0 0 () () () '' () ())
3 'pgmnam' '' 7 ((VARIABLE UNKNOWN UNKNOWN UNKNOWN NONE NONE DUMMY) (
CHARACTER 1 (())) 0 0 () () () '' () ())
)

('pritit' 0 2 's_pritit' 0 6)
