G95 module created on Thu Jun 25 17:48:46 2020 from ./.fpp/PRCEPO.f
If you edit this, you'll get what you deserve.
module-version 9
(() () () () () () () () () () () () () () () () () () () () ())

()

()

()

()

(2 'prcepo' 's_prcepo' 1 ((PROCEDURE UNKNOWN MODULE-PROC DECL NONE NONE
SUBROUTINE) (PROCEDURE 0) 0 0 (3 NONE 4 NONE 5 NONE 6 NONE 7 NONE 8 NONE
9 NONE 10 NONE 11 NONE 12 NONE 13 NONE 14 NONE 15 NONE 16 NONE 17 NONE
18 NONE 19 NONE 20 NONE 21 NONE 22 NONE 23 NONE 24 NONE 25 NONE 26 NONE
27 NONE 28 NONE 29 NONE 30 NONE 31 NONE 32 NONE 33 NONE 34 NONE 35 NONE
36 NONE 37 NONE 38 NONE 39 NONE 40 NONE 41 NONE 42 NONE 43 NONE 44 NONE
45 NONE 46 NONE 47 NONE 48 NONE 49 NONE 50 NONE 51 NONE 52 NONE 53 NONE
54 NONE 55 NONE 56 NONE 57 NONE 58 NONE 59 NONE 60 NONE 61 NONE 62 NONE
63 NONE 64 NONE 65 NONE 66 NONE 67 NONE 68 NONE 69 NONE 70 NONE 71 NONE
72 NONE 73 NONE 74 NONE 75 NONE 76 NONE 77 NONE 78 NONE 79 NONE 80 NONE
81 NONE 82 NONE 83 NONE 84 NONE 85 NONE 86 NONE 87 NONE 88 NONE 89 NONE
90 NONE 91 NONE 92 NONE 93 NONE 94 NONE 95 NONE 96 NONE 97 NONE 98 NONE
99 NONE 100 NONE 101 NONE 102 NONE 103 NONE 104 NONE 105 NONE 106 NONE
107 NONE 108 NONE 109 NONE 110 NONE 111 NONE 112 NONE 113 NONE 114 NONE
115 NONE 116 NONE 117 NONE 118 NONE 119 NONE 120 NONE 121 NONE 122 NONE
123 NONE 124 NONE 125 NONE 126 NONE 127 NONE 128 NONE 129 NONE 130 NONE
131 NONE 132 NONE 133 NONE 134 NONE 135 NONE 136 NONE 137 NONE 138 NONE
139 NONE 140 NONE 141 NONE 142 NONE 143 NONE 144 NONE 145 NONE 146 NONE
147 NONE 148 NONE 149 NONE 150 NONE 151 NONE 152 NONE 153 NONE 154 NONE
155 NONE 156 NONE 157 NONE 158 NONE 159 NONE 160 NONE 161 NONE 162 NONE
163 NONE 164 NONE 165 NONE 166 NONE 167 NONE 168 NONE 169 NONE 170 NONE
171 NONE 172 NONE 173 NONE 174 NONE 175 NONE 176 NONE 177 NONE 178 NONE
179 NONE 180 NONE 181 NONE 182 NONE 183 NONE 184 NONE 185 NONE 186 NONE
187 NONE 188 NONE) () () '' () ())
189 's_prcepo' 's_prcepo' 1 ((MODULE UNKNOWN UNKNOWN UNKNOWN NONE NONE)
(UNKNOWN) 0 0 () () () '' () ())
188 'irel2' '' 190 ((VARIABLE UNKNOWN UNKNOWN UNKNOWN NONE NONE DUMMY) (
INTEGER 4) 0 0 () () () '' () ())
187 'timisb' '' 190 ((VARIABLE UNKNOWN UNKNOWN UNKNOWN NONE NONE
DIMENSION DUMMY) (REAL 8) 0 0 () (2 ASSUMED_SIZE (CONSTANT (INTEGER 4) 0
'1') (CONSTANT (INTEGER 4) 0 '3') (CONSTANT (INTEGER 4) 0 '1') ()) () ''
() ())
186 'opload' '' 190 ((VARIABLE UNKNOWN UNKNOWN UNKNOWN NONE NONE
DIMENSION DUMMY) (DERIVED 191) 0 0 () (1 ASSUMED_SHAPE () ()) () '' () ())
191 't_optload' 'p_gpsest' 190 ((DERIVED UNKNOWN UNKNOWN UNKNOWN NONE
NONE) (UNKNOWN) 0 0 () () () '' ((192 'keyw' (CHARACTER 1 ((CONSTANT (
INTEGER 4) 0 '12'))) () () 0 0 0 ()) (193 'nsta' (INTEGER 4) () () 0 0 0
()) (194 'stalst' (CHARACTER 1 ((CONSTANT (INTEGER 4) 0 '16'))) (1
DEFERRED () ()) () 1 1 0 ()) (195 'staclu' (INTEGER 4) (1 DEFERRED () ())
() 1 1 0 ()) (196 'npar' (INTEGER 4) () () 0 0 0 ()) (197 'sigma' (REAL
8) (1 EXPLICIT (CONSTANT (INTEGER 4) 0 '1') (CONSTANT (INTEGER 4) 0 '3'))
() 1 0 0 ())) PUBLIC ())
185 'nrgb' '' 190 ((VARIABLE UNKNOWN UNKNOWN UNKNOWN NONE NONE DUMMY) (
INTEGER 4) 0 0 () () () '' () ())
184 'xstell' '' 190 ((VARIABLE UNKNOWN UNKNOWN UNKNOWN NONE NONE
DIMENSION DUMMY) (REAL 8) 0 0 () (2 ASSUMED_SIZE (CONSTANT (INTEGER 4) 0
'1') (CONSTANT (INTEGER 4) 0 '3') (CONSTANT (INTEGER 4) 0 '1') ()) () ''
() ())
183 'nobazis' '' 190 ((VARIABLE UNKNOWN UNKNOWN UNKNOWN NONE NONE
DIMENSION DUMMY) (INTEGER 4) 0 0 () (4 ASSUMED_SIZE (CONSTANT (INTEGER 4)
0 '1') (CONSTANT (INTEGER 4) 0 '2') (CONSTANT (INTEGER 4) 0 '1') (
CONSTANT (INTEGER 4) 0 '36') (CONSTANT (INTEGER 4) 0 '1') (VARIABLE (
INTEGER 4) 0 198 ()) (CONSTANT (INTEGER 4) 0 '1') ()) () '' () ())
198 'mxcsat' '' 190 ((VARIABLE UNKNOWN UNKNOWN UNKNOWN NONE NONE
IN_COMMON) (INTEGER 4) 0 199 () () () '' () ())
199 'mxnsat' '' 190 ((VARIABLE UNKNOWN UNKNOWN UNKNOWN NONE NONE
IN_COMMON) (CHARACTER 1 ((CONSTANT (INTEGER 4) 0 '6'))) 0 0 () () () ''
() ())
182 'lstses' '' 190 ((VARIABLE UNKNOWN UNKNOWN UNKNOWN NONE NONE DUMMY)
(LOGICAL 4) 0 0 () () () '' () ())
181 'maxsat' '' 190 ((VARIABLE UNKNOWN UNKNOWN UNKNOWN NONE NONE DUMMY)
(INTEGER 4) 0 0 () () () '' () ())
180 'maxfrs' '' 190 ((VARIABLE UNKNOWN UNKNOWN UNKNOWN NONE NONE DUMMY)
(INTEGER 4) 0 0 () () () '' () ())
179 'maxsas' '' 190 ((VARIABLE UNKNOWN UNKNOWN UNKNOWN NONE NONE DUMMY)
(INTEGER 4) 0 0 () () () '' () ())
178 'maxfls' '' 190 ((VARIABLE UNKNOWN UNKNOWN UNKNOWN NONE NONE DUMMY)
(INTEGER 4) 0 0 () () () '' () ())
177 'maxsng' '' 190 ((VARIABLE UNKNOWN UNKNOWN UNKNOWN NONE NONE DUMMY)
(INTEGER 4) 0 0 () () () '' () ())
176 'iclu' '' 190 ((VARIABLE UNKNOWN UNKNOWN UNKNOWN NONE NONE DIMENSION
DUMMY) (INTEGER 4) 0 0 () (3 ASSUMED_SIZE (CONSTANT (INTEGER 4) 0 '0') (
CONSTANT (INTEGER 4) 0 '6') (CONSTANT (INTEGER 4) 0 '1') (VARIABLE (
INTEGER 4) 0 200 ()) (CONSTANT (INTEGER 4) 0 '1') ()) () '' () ())
200 'mxcamb' '' 190 ((VARIABLE UNKNOWN UNKNOWN UNKNOWN NONE NONE
IN_COMMON) (INTEGER 4) 0 201 () () () '' () ())
201 'mxnamb' '' 190 ((VARIABLE UNKNOWN UNKNOWN UNKNOWN NONE NONE
IN_COMMON) (CHARACTER 1 ((CONSTANT (INTEGER 4) 0 '6'))) 0 0 () () () ''
() ())
175 'timfil' '' 190 ((VARIABLE UNKNOWN UNKNOWN UNKNOWN NONE NONE
DIMENSION DUMMY) (DERIVED 202) 0 0 () (2 ASSUMED_SIZE (CONSTANT (
INTEGER 4) 0 '0') (CONSTANT (INTEGER 4) 0 '6') (CONSTANT (INTEGER 4) 0 '1')
()) () '' () ())
202 't_ambtime' 'p_gpsest' 190 ((DERIVED UNKNOWN UNKNOWN UNKNOWN NONE
NONE) (UNKNOWN) 0 0 () () () '' ((203 'ninter' (INTEGER 4) () () 0 0 0 ())
(204 'ambint' (DERIVED 205) (1 DEFERRED () ()) () 1 1 0 ())) PUBLIC ())
205 't_ambtimerec' 'p_gpsest' 190 ((DERIVED UNKNOWN UNKNOWN UNKNOWN NONE
NONE) (UNKNOWN) 0 0 () () () '' ((206 'int' (DERIVED 207) () () 0 0 0 ())
(208 'ref' (INTEGER 4) () () 0 0 0 ()) (209 'clu' (INTEGER 4) (1
DEFERRED () ()) () 1 1 0 ())) PUBLIC ())
207 't_timint' 'm_time' 190 ((DERIVED UNKNOWN UNKNOWN UNKNOWN NONE NONE)
(UNKNOWN) 0 0 () () () '' ((210 't' (REAL 8) (1 EXPLICIT (CONSTANT (
INTEGER 4) 0 '1') (CONSTANT (INTEGER 4) 0 '2')) () 1 0 0 ())) PUBLIC ())
174 'obsepo' '' 190 ((VARIABLE UNKNOWN UNKNOWN UNKNOWN NONE NONE
DIMENSION DUMMY) (INTEGER 4) 0 0 () (3 ASSUMED_SIZE (CONSTANT (INTEGER 4)
0 '1') (VARIABLE (INTEGER 4) 0 198 ()) (CONSTANT (INTEGER 4) 0 '1') (
VARIABLE (INTEGER 4) 0 211 ()) (CONSTANT (INTEGER 4) 0 '1') ()) () '' ()
())
211 'mxcfrq' '' 190 ((VARIABLE UNKNOWN UNKNOWN UNKNOWN NONE NONE
IN_COMMON) (INTEGER 4) 0 212 () () () '' () ())
212 'mxnfrq' '' 190 ((VARIABLE UNKNOWN UNKNOWN UNKNOWN NONE NONE
IN_COMMON) (CHARACTER 1 ((CONSTANT (INTEGER 4) 0 '6'))) 0 0 () () () ''
() ())
173 'flgshd' '' 190 ((VARIABLE UNKNOWN UNKNOWN UNKNOWN NONE NONE
DIMENSION DUMMY) (INTEGER 4) 0 0 () (1 ASSUMED_SIZE (CONSTANT (INTEGER 4)
0 '1') ()) () '' () ())
172 'timshd' '' 190 ((VARIABLE UNKNOWN UNKNOWN UNKNOWN NONE NONE
DIMENSION DUMMY) (REAL 8) 0 0 () (2 ASSUMED_SIZE (CONSTANT (INTEGER 4) 0
'1') (CONSTANT (INTEGER 4) 0 '2') (CONSTANT (INTEGER 4) 0 '1') ()) () ''
() ())
171 'satshd' '' 190 ((VARIABLE UNKNOWN UNKNOWN UNKNOWN NONE NONE
DIMENSION DUMMY) (INTEGER 4) 0 0 () (1 ASSUMED_SIZE (CONSTANT (INTEGER 4)
0 '1') ()) () '' () ())
170 'nshd' '' 190 ((VARIABLE UNKNOWN UNKNOWN UNKNOWN NONE NONE DUMMY) (
INTEGER 4) 0 0 () () () '' () ())
169 'rapzenmax' '' 190 ((VARIABLE UNKNOWN UNKNOWN UNKNOWN NONE NONE
DUMMY) (REAL 8) 0 0 () () () '' () ())
168 'nadimm' '' 190 ((VARIABLE UNKNOWN UNKNOWN UNKNOWN NONE NONE
DIMENSION DUMMY) (REAL 8) 0 0 () (2 ASSUMED_SIZE (CONSTANT (INTEGER 4) 0
'1') (CONSTANT (INTEGER 4) 0 '2') (CONSTANT (INTEGER 4) 0 '1') ()) () ''
() ())
167 'nobnad' '' 190 ((VARIABLE UNKNOWN UNKNOWN UNKNOWN NONE NONE
DIMENSION DUMMY) (INTEGER 4) 0 0 () (3 ASSUMED_SIZE (CONSTANT (INTEGER 4)
0 '1') (CONSTANT (INTEGER 4) 0 '2') (CONSTANT (INTEGER 4) 0 '1') (
CONSTANT (INTEGER 4) 0 '30') (CONSTANT (INTEGER 4) 0 '1') ()) () '' () ())
166 'namax' '' 190 ((VARIABLE UNKNOWN UNKNOWN UNKNOWN NONE NONE DUMMY) (
REAL 8) 0 0 () () () '' () ())
165 'nadmax' '' 190 ((VARIABLE UNKNOWN UNKNOWN UNKNOWN NONE NONE DUMMY)
(REAL 8) 0 0 () () () '' () ())
164 'satspv' '' 190 ((VARIABLE UNKNOWN UNKNOWN UNKNOWN NONE NONE
DIMENSION DUMMY) (INTEGER 4) 0 0 () (2 ASSUMED_SIZE (CONSTANT (INTEGER 4)
0 '1') (VARIABLE (INTEGER 4) 0 213 ()) (CONSTANT (INTEGER 4) 0 '1') ())
() '' () ())
213 'mxcsgr' '' 190 ((VARIABLE UNKNOWN UNKNOWN UNKNOWN NONE NONE
IN_COMMON) (INTEGER 4) 0 214 () () () '' () ())
214 'mxnsgr' '' 190 ((VARIABLE UNKNOWN UNKNOWN UNKNOWN NONE NONE
IN_COMMON) (CHARACTER 1 ((CONSTANT (INTEGER 4) 0 '6'))) 0 0 () () () ''
() ())
163 'nsaspv' '' 190 ((VARIABLE UNKNOWN UNKNOWN UNKNOWN NONE NONE
DIMENSION DUMMY) (INTEGER 4) 0 0 () (1 ASSUMED_SIZE (CONSTANT (INTEGER 4)
0 '1') ()) () '' () ())
162 'scell' '' 190 ((VARIABLE UNKNOWN UNKNOWN UNKNOWN NONE NONE DUMMY) (
REAL 8) 0 0 () () () '' () ())
161 'drell' '' 190 ((VARIABLE UNKNOWN UNKNOWN UNKNOWN NONE NONE
DIMENSION DUMMY) (REAL 8) 0 0 () (1 EXPLICIT (CONSTANT (INTEGER 4) 0 '1')
(CONSTANT (INTEGER 4) 0 '3')) () '' () ())
160 'dxell' '' 190 ((VARIABLE UNKNOWN UNKNOWN UNKNOWN NONE NONE
DIMENSION DUMMY) (REAL 8) 0 0 () (1 EXPLICIT (CONSTANT (INTEGER 4) 0 '1')
(CONSTANT (INTEGER 4) 0 '3')) () '' () ())
159 'bell' '' 190 ((VARIABLE UNKNOWN UNKNOWN UNKNOWN NONE NONE DUMMY) (
REAL 8) 0 0 () () () '' () ())
158 'aell' '' 190 ((VARIABLE UNKNOWN UNKNOWN UNKNOWN NONE NONE DUMMY) (
REAL 8) 0 0 () () () '' () ())
157 'posecc' '' 190 ((VARIABLE UNKNOWN UNKNOWN UNKNOWN NONE NONE
DIMENSION DUMMY) (REAL 8) 0 0 () (3 ASSUMED_SIZE (CONSTANT (INTEGER 4) 0
'1') (CONSTANT (INTEGER 4) 0 '3') (CONSTANT (INTEGER 4) 0 '1') (
CONSTANT (INTEGER 4) 0 '2') (CONSTANT (INTEGER 4) 0 '1') ()) () '' () ())
156 'zmxleo' '' 190 ((VARIABLE UNKNOWN UNKNOWN UNKNOWN NONE NONE DUMMY)
(REAL 8) 0 0 () () () '' () ())
155 'timstc2' '' 190 ((VARIABLE UNKNOWN UNKNOWN UNKNOWN NONE NONE
DIMENSION DUMMY) (REAL 8) 0 0 () (4 ASSUMED_SIZE (CONSTANT (INTEGER 4) 0
'1') (CONSTANT (INTEGER 4) 0 '3') (CONSTANT (INTEGER 4) 0 '1') (
VARIABLE (INTEGER 4) 0 215 ()) (CONSTANT (INTEGER 4) 0 '1') (VARIABLE (
INTEGER 4) 0 198 ()) (CONSTANT (INTEGER 4) 0 '1') ()) () '' () ())
215 'mxcstc' '' 190 ((VARIABLE UNKNOWN UNKNOWN UNKNOWN NONE NONE
IN_COMMON) (INTEGER 4) 0 216 () () () '' () ())
216 'mxnstc' '' 190 ((VARIABLE UNKNOWN UNKNOWN UNKNOWN NONE NONE
IN_COMMON) (CHARACTER 1 ((CONSTANT (INTEGER 4) 0 '6'))) 0 0 () () () ''
() ())
154 'tbound2' '' 190 ((VARIABLE UNKNOWN UNKNOWN UNKNOWN NONE NONE
DIMENSION DUMMY) (REAL 8) 0 0 () (1 EXPLICIT (CONSTANT (INTEGER 4) 0 '1')
(CONSTANT (INTEGER 4) 0 '2')) () '' () ())
153 'leoarc' '' 190 ((VARIABLE UNKNOWN UNKNOWN UNKNOWN NONE NONE DUMMY)
(INTEGER 4) 0 0 () () () '' () ())
152 'iretc' '' 190 ((VARIABLE UNKNOWN UNKNOWN UNKNOWN NONE NONE DUMMY) (
INTEGER 4) 0 0 () () () '' () ())
151 'tobs' '' 190 ((VARIABLE UNKNOWN UNKNOWN UNKNOWN NONE NONE DUMMY) (
REAL 8) 0 0 () () () '' () ())
150 'isasys' '' 190 ((VARIABLE UNKNOWN UNKNOWN UNKNOWN NONE NONE DUMMY)
(INTEGER 4) 0 0 () () () '' () ())
149 'ieppar' '' 190 ((VARIABLE UNKNOWN UNKNOWN UNKNOWN NONE NONE DUMMY)
(INTEGER 4) 0 0 () () () '' () ())
148 'optdcb' '' 190 ((VARIABLE UNKNOWN UNKNOWN UNKNOWN NONE NONE
DIMENSION DUMMY) (INTEGER 4) 0 0 () (1 ASSUMED_SIZE (CONSTANT (INTEGER 4)
0 '1') ()) () '' () ())
147 'obsnum' '' 190 ((VARIABLE UNKNOWN UNKNOWN UNKNOWN NONE NONE
DIMENSION DUMMY) (INTEGER 4) 0 0 () (1 ASSUMED_SIZE (CONSTANT (INTEGER 4)
0 '1') ()) () '' () ())
146 'edtlvl' '' 190 ((VARIABLE UNKNOWN UNKNOWN UNKNOWN NONE NONE DUMMY)
(REAL 8) 0 0 () () () '' () ())
145 'ndble' '' 190 ((VARIABLE UNKNOWN UNKNOWN UNKNOWN NONE NONE DUMMY) (
INTEGER 4) 0 0 () () () '' () ())
144 'clkpar' '' 190 ((VARIABLE UNKNOWN UNKNOWN UNKNOWN NONE NONE
DIMENSION DUMMY) (INTEGER 4) 0 0 () (2 ASSUMED_SIZE (CONSTANT (INTEGER 4)
0 '1') (CONSTANT (INTEGER 4) 0 '2') (CONSTANT (INTEGER 4) 0 '1') ()) () ''
() ())
143 'clkrec' '' 190 ((VARIABLE UNKNOWN UNKNOWN UNKNOWN NONE NONE DUMMY)
(DERIVED 217) 0 0 () () () '' () ())
217 't_clkrec' 'd_clkrnx' 190 ((DERIVED UNKNOWN UNKNOWN UNKNOWN NONE
NONE) (UNKNOWN) 0 0 () () () '' ((218 'iepo' (INTEGER 4) () () 0 0 0 ())
(219 'nepo' (INTEGER 4) () () 0 0 0 ()) (220 'epoch' (REAL 8) (1
DEFERRED () ()) () 1 1 0 ()) (221 'clock' (REAL 8) (2 DEFERRED () () ()
()) () 1 1 0 ()) (222 'sigma' (REAL 8) (2 DEFERRED () () () ()) () 1 1 0
()) (223 'clkflg' (CHARACTER 1 ((CONSTANT (INTEGER 4) 0 '1'))) (2
DEFERRED () () () ()) () 1 1 0 ())) PUBLIC ())
142 'clkhed' '' 190 ((VARIABLE UNKNOWN UNKNOWN UNKNOWN NONE NONE DUMMY)
(DERIVED 224) 0 0 () () () '' () ())
224 't_clkhead' 'd_clkrnx' 190 ((DERIVED UNKNOWN UNKNOWN UNKNOWN NONE
NONE) (UNKNOWN) 0 0 () () () '' ((225 'rnxvers' (REAL 8) () () 0 0 0 ())
(226 'ncomment' (INTEGER 4) () () 0 0 0 ()) (227 'comment' (CHARACTER 1
((CONSTANT (INTEGER 4) 0 '60'))) (1 DEFERRED () ()) () 1 1 0 ()) (228
'prognam' (CHARACTER 1 ((CONSTANT (INTEGER 4) 0 '20'))) () () 0 0 0 ())
(229 'runby' (CHARACTER 1 ((CONSTANT (INTEGER 4) 0 '20'))) () () 0 0 0 ())
(230 'crdate' (CHARACTER 1 ((CONSTANT (INTEGER 4) 0 '20'))) () () 0 0 0
()) (231 'leapsec' (INTEGER 4) () () 0 0 0 ()) (232 'numtyp' (INTEGER 4)
() () 0 0 0 ()) (233 'dattyp' (CHARACTER 1 ((CONSTANT (INTEGER 4) 0 '2')))
(1 DEFERRED () ()) () 1 1 0 ()) (234 'clk0name' (CHARACTER 1 ((CONSTANT
(INTEGER 4) 0 '16'))) () () 0 0 0 ()) (235 'calname' (CHARACTER 1 ((
CONSTANT (INTEGER 4) 0 '60'))) () () 0 0 0 ()) (236 'ac' (CHARACTER 1 (
(CONSTANT (INTEGER 4) 0 '3'))) () () 0 0 0 ()) (237 'acname' (CHARACTER
1 ((CONSTANT (INTEGER 4) 0 '55'))) () () 0 0 0 ()) (238 'timsys' (
CHARACTER 1 ((CONSTANT (INTEGER 4) 0 '3'))) () () 0 0 0 ()) (239 'pgmnam'
(CHARACTER 1 ((CONSTANT (INTEGER 4) 0 '17'))) () () 0 0 0 ()) (240
'dcbstr' (CHARACTER 1 ((CONSTANT (INTEGER 4) 0 '40'))) () () 0 0 0 ()) (
241 'pcvstr' (CHARACTER 1 ((CONSTANT (INTEGER 4) 0 '40'))) () () 0 0 0 ())
(242 'tfirst' (REAL 8) () () 0 0 0 ()) (243 'numref' (INTEGER 4) () () 0
0 0 ()) (244 'ref' (DERIVED 245) (1 DEFERRED () ()) () 1 1 0 ()) (246
'trfname' (CHARACTER 1 ((CONSTANT (INTEGER 4) 0 '50'))) () () 0 0 0 ())
(247 'nsta' (INTEGER 4) () () 0 0 0 ()) (248 'nsat' (INTEGER 4) () () 0
0 0 ()) (249 'clkname' (CHARACTER 1 ((CONSTANT (INTEGER 4) 0 '16'))) (1
DEFERRED () ()) () 1 1 0 ()) (250 'stacoord' (REAL 8) (2 DEFERRED () ()
() ()) () 1 1 0 ())) PUBLIC ())
245 't_ref' 'd_clkrnx' 190 ((DERIVED UNKNOWN UNKNOWN UNKNOWN NONE NONE)
(UNKNOWN) 0 0 () () () '' ((251 'nref' (INTEGER 4) () () 0 0 0 ()) (252
'clk' (DERIVED 253) (1 DEFERRED () ()) () 1 1 0 ()) (254 'refwin' (
DERIVED 207) () () 0 0 0 ())) PUBLIC ())
253 't_refclk' 'd_clkrnx' 190 ((DERIVED UNKNOWN UNKNOWN UNKNOWN NONE
NONE) (UNKNOWN) 0 0 () () () '' ((255 'name' (CHARACTER 1 ((CONSTANT (
INTEGER 4) 0 '16'))) () () 0 0 0 ()) (256 'sigma' (REAL 8) () () 0 0 0 ())
(257 'idx' (INTEGER 4) () () 0 0 0 ()) (258 'idx0' (INTEGER 4) () () 0 0
0 ())) PUBLIC ())
141 'clksys' '' 190 ((VARIABLE UNKNOWN UNKNOWN UNKNOWN NONE NONE DUMMY)
(INTEGER 4) 0 0 () () () '' () ())
140 'noinclk' '' 190 ((VARIABLE UNKNOWN UNKNOWN UNKNOWN NONE NONE
DIMENSION DUMMY) (INTEGER 4) 0 0 () (1 EXPLICIT (CONSTANT (INTEGER 4) 0
'1') (CONSTANT (INTEGER 4) 0 '3')) () '' () ())
139 'clksat' '' 190 ((VARIABLE UNKNOWN UNKNOWN UNKNOWN NONE NONE
DIMENSION DUMMY) (INTEGER 4) 0 0 () (1 ASSUMED_SIZE (CONSTANT (INTEGER 4)
0 '1') ()) () '' () ())
138 'nclksa' '' 190 ((VARIABLE UNKNOWN UNKNOWN UNKNOWN NONE NONE DUMMY)
(INTEGER 4) 0 0 () () () '' () ())
137 'clksta' '' 190 ((VARIABLE UNKNOWN UNKNOWN UNKNOWN NONE NONE
DIMENSION DUMMY) (INTEGER 4) 0 0 () (1 ASSUMED_SIZE (CONSTANT (INTEGER 4)
0 '1') ()) () '' () ())
136 'nclkst' '' 190 ((VARIABLE UNKNOWN UNKNOWN UNKNOWN NONE NONE DUMMY)
(INTEGER 4) 0 0 () () () '' () ())
135 'ndiff' '' 190 ((VARIABLE UNKNOWN UNKNOWN UNKNOWN NONE NONE
DIMENSION DUMMY) (INTEGER 4) 0 0 () (1 ASSUMED_SIZE (CONSTANT (INTEGER 4)
0 '1') ()) () '' () ())
134 'iclust' '' 190 ((VARIABLE UNKNOWN UNKNOWN UNKNOWN NONE NONE
DIMENSION DUMMY) (INTEGER 4) 0 0 () (1 ASSUMED_SIZE (CONSTANT (INTEGER 4)
0 '1') ()) () '' () ())
133 'obscls' '' 190 ((VARIABLE UNKNOWN UNKNOWN UNKNOWN NONE NONE
DIMENSION DUMMY) (INTEGER 4) 0 0 () (1 ASSUMED_SIZE (CONSTANT (INTEGER 4)
0 '1') ()) () '' () ())
132 'nobelv' '' 190 ((VARIABLE UNKNOWN UNKNOWN UNKNOWN NONE NONE
DIMENSION DUMMY) (INTEGER 4) 0 0 () (3 ASSUMED_SIZE (CONSTANT (INTEGER 4)
0 '1') (CONSTANT (INTEGER 4) 0 '2') (CONSTANT (INTEGER 4) 0 '1') (
CONSTANT (INTEGER 4) 0 '18') (CONSTANT (INTEGER 4) 0 '1') ()) () '' () ())
131 'elevmm' '' 190 ((VARIABLE UNKNOWN UNKNOWN UNKNOWN NONE NONE
DIMENSION DUMMY) (REAL 8) 0 0 () (2 ASSUMED_SIZE (CONSTANT (INTEGER 4) 0
'1') (CONSTANT (INTEGER 4) 0 '2') (CONSTANT (INTEGER 4) 0 '1') ()) () ''
() ())
130 'nobspa' '' 190 ((VARIABLE UNKNOWN UNKNOWN UNKNOWN NONE NONE
DIMENSION DUMMY) (INTEGER 4) 0 0 () (2 ASSUMED_SHAPE () () () ()) () ''
() ())
129 'nobs' '' 190 ((VARIABLE UNKNOWN UNKNOWN UNKNOWN NONE NONE DUMMY) (
INTEGER 4) 0 0 () () () '' () ())
128 'rmsses' '' 190 ((VARIABLE UNKNOWN UNKNOWN UNKNOWN NONE NONE DUMMY)
(REAL 8) 0 0 () () () '' () ())
127 'rmssum' '' 190 ((VARIABLE UNKNOWN UNKNOWN UNKNOWN NONE NONE DUMMY)
(REAL 8) 0 0 () () () '' () ())
126 'partyp' '' 190 ((VARIABLE UNKNOWN UNKNOWN UNKNOWN NONE NONE
DIMENSION DUMMY) (DERIVED 259) 0 0 () (1 ASSUMED_SHAPE () ()) () '' () ())
259 't_partyp' 'p_gpsest' 190 ((DERIVED UNKNOWN UNKNOWN UNKNOWN NONE
NONE) (UNKNOWN) 0 0 () () () '' ((260 'type' (CHARACTER 1 ((CONSTANT (
INTEGER 4) 0 '2'))) () () 0 0 0 ()) (261 'omega' (REAL 8) () () 0 0 0 ()))
PUBLIC ())
125 'xxref' '' 190 ((VARIABLE UNKNOWN UNKNOWN UNKNOWN NONE NONE
DIMENSION DUMMY) (DERIVED 262) 0 0 () (1 ASSUMED_SHAPE () ()) () '' () ())
262 't_par' 'd_par' 190 ((DERIVED UNKNOWN UNKNOWN UNKNOWN NONE NONE) (
UNKNOWN) 0 0 () () () '' ((263 'locq' (INTEGER 4) (1 EXPLICIT (CONSTANT
(INTEGER 4) 0 '1') (CONSTANT (INTEGER 4) 0 '7')) () 1 0 0 ()) (264 'name'
(CHARACTER 1 ((CONSTANT (INTEGER 4) 0 '20'))) () () 0 0 0 ()) (265 'time'
(DERIVED 266) () () 0 0 0 ()) (267 'x0' (REAL 8) () () 0 0 0 ()) (268
'scale' (REAL 8) () () 0 0 0 ()) (269 'techn' (CHARACTER 1 ((CONSTANT (
INTEGER 4) 0 '1'))) (1 EXPLICIT (CONSTANT (INTEGER 4) 0 '1') (CONSTANT (
INTEGER 4) 0 '2')) () 1 0 0 ()) (270 'obstim' (DERIVED 207) () () 0 0 0
()) (271 'type' (CHARACTER 1 ((CONSTANT (INTEGER 4) 0 '2'))) () () 0 0 0
()) (272 'omega' (REAL 8) () () 0 0 0 ())) PUBLIC ())
266 't_time' 'm_time' 190 ((DERIVED UNKNOWN UNKNOWN UNKNOWN NONE NONE
SEQUENCE) (UNKNOWN) 0 0 () () () '' ((273 'mean' (REAL 8) () () 0 0 0 ())
(274 'half' (REAL 8) () () 0 0 0 ())) PUBLIC ())
124 'xxx0' '' 190 ((VARIABLE UNKNOWN UNKNOWN UNKNOWN NONE NONE DIMENSION
DUMMY) (REAL 8) 0 0 () (1 ASSUMED_SIZE (CONSTANT (INTEGER 4) 0 '1') ())
() '' () ())
123 'bnor' '' 190 ((VARIABLE UNKNOWN UNKNOWN UNKNOWN NONE NONE DIMENSION
DUMMY) (REAL 8) 0 0 () (1 ASSUMED_SIZE (CONSTANT (INTEGER 4) 0 '1') ())
() '' () ())
122 'anor' '' 190 ((VARIABLE UNKNOWN UNKNOWN UNKNOWN NONE NONE DIMENSION
DUMMY) (REAL 8) 0 0 () (1 ASSUMED_SIZE (CONSTANT (INTEGER 4) 0 '1') ())
() '' () ())
121 'parlst' '' 190 ((VARIABLE UNKNOWN UNKNOWN UNKNOWN NONE NONE
DIMENSION DUMMY) (INTEGER 4) 0 0 () (2 ASSUMED_SIZE (CONSTANT (INTEGER 4)
0 '1') (CONSTANT (INTEGER 4) 0 '5') (CONSTANT (INTEGER 4) 0 '1') ()) () ''
() ())
120 'nparms' '' 190 ((VARIABLE UNKNOWN UNKNOWN UNKNOWN NONE NONE DUMMY)
(INTEGER 4) 0 0 () () () '' () ())
119 'stkin' '' 190 ((VARIABLE UNKNOWN UNKNOWN UNKNOWN NONE NONE
DIMENSION DUMMY) (INTEGER 4) 0 0 () (1 ASSUMED_SIZE (CONSTANT (INTEGER 4)
0 '1') ()) () '' () ())
118 'nkin' '' 190 ((VARIABLE UNKNOWN UNKNOWN UNKNOWN NONE NONE DUMMY) (
INTEGER 4) 0 0 () () () '' () ())
117 'opteli' '' 190 ((VARIABLE UNKNOWN UNKNOWN UNKNOWN NONE NONE
DIMENSION DUMMY) (INTEGER 4) 0 0 () (1 ASSUMED_SIZE (CONSTANT (INTEGER 4)
0 '1') ()) () '' () ())
116 'prnrao' '' 190 ((VARIABLE UNKNOWN UNKNOWN UNKNOWN NONE NONE
DIMENSION DUMMY) (INTEGER 4) 0 0 () (1 ASSUMED_SIZE (CONSTANT (INTEGER 4)
0 '1') ()) () '' () ())
115 'numrao' '' 190 ((VARIABLE UNKNOWN UNKNOWN UNKNOWN NONE NONE
DIMENSION DUMMY) (INTEGER 4) 0 0 () (2 ASSUMED_SIZE (CONSTANT (INTEGER 4)
0 '1') (CONSTANT (INTEGER 4) 0 '2') (CONSTANT (INTEGER 4) 0 '1') ()) () ''
() ())
114 'antrao' '' 190 ((VARIABLE UNKNOWN UNKNOWN UNKNOWN NONE NONE
DIMENSION DUMMY) (CHARACTER 1 ((CONSTANT (INTEGER 4) 0 '20'))) 0 0 () (
2 ASSUMED_SIZE (CONSTANT (INTEGER 4) 0 '1') (CONSTANT (INTEGER 4) 0 '2')
(CONSTANT (INTEGER 4) 0 '1') ()) () '' () ())
113 'scagim' '' 190 ((VARIABLE UNKNOWN UNKNOWN UNKNOWN NONE NONE
DIMENSION DUMMY) (REAL 8) 0 0 () (1 ASSUMED_SIZE (CONSTANT (INTEGER 4) 0
'1') ()) () '' () ())
112 'epogim' '' 190 ((VARIABLE UNKNOWN UNKNOWN UNKNOWN NONE NONE
DIMENSION DUMMY) (REAL 8) 0 0 () (2 ASSUMED_SIZE (CONSTANT (INTEGER 4) 0
'1') (CONSTANT (INTEGER 4) 0 '2') (CONSTANT (INTEGER 4) 0 '1') ()) () ''
() ())
111 'polgim' '' 190 ((VARIABLE UNKNOWN UNKNOWN UNKNOWN NONE NONE
DIMENSION DUMMY) (REAL 8) 0 0 () (2 ASSUMED_SIZE (CONSTANT (INTEGER 4) 0
'1') (CONSTANT (INTEGER 4) 0 '3') (CONSTANT (INTEGER 4) 0 '1') ()) () ''
() ())
110 'optgim' '' 190 ((VARIABLE UNKNOWN UNKNOWN UNKNOWN NONE NONE
DIMENSION DUMMY) (INTEGER 4) 0 0 () (1 ASSUMED_SIZE (CONSTANT (INTEGER 4)
0 '1') ()) () '' () ())
109 'optdip' '' 190 ((VARIABLE UNKNOWN UNKNOWN UNKNOWN NONE NONE
DIMENSION DUMMY) (INTEGER 4) 0 0 () (1 ASSUMED_SIZE (CONSTANT (INTEGER 4)
0 '1') ()) () '' () ())
108 'prncal' '' 190 ((VARIABLE UNKNOWN UNKNOWN UNKNOWN NONE NONE
DIMENSION DUMMY) (INTEGER 4) 0 0 () (1 ASSUMED_SIZE (CONSTANT (INTEGER 4)
0 '1') ()) () '' () ())
107 'numcal' '' 190 ((VARIABLE UNKNOWN UNKNOWN UNKNOWN NONE NONE
DIMENSION DUMMY) (INTEGER 4) 0 0 () (2 ASSUMED_SIZE (CONSTANT (INTEGER 4)
0 '1') (CONSTANT (INTEGER 4) 0 '2') (CONSTANT (INTEGER 4) 0 '1') ()) () ''
() ())
106 'antcal' '' 190 ((VARIABLE UNKNOWN UNKNOWN UNKNOWN NONE NONE
DIMENSION DUMMY) (CHARACTER 1 ((CONSTANT (INTEGER 4) 0 '20'))) 0 0 () (
2 ASSUMED_SIZE (CONSTANT (INTEGER 4) 0 '1') (CONSTANT (INTEGER 4) 0 '2')
(CONSTANT (INTEGER 4) 0 '1') ()) () '' () ())
105 'polars' '' 190 ((VARIABLE UNKNOWN UNKNOWN UNKNOWN NONE NONE
DIMENSION DUMMY) (REAL 8) 0 0 () (3 ASSUMED_SIZE (CONSTANT (INTEGER 4) 0
'1') (VARIABLE (INTEGER 4) 0 200 ()) (CONSTANT (INTEGER 4) 0 '1') (
VARIABLE (INTEGER 4) 0 211 ()) (CONSTANT (INTEGER 4) 0 '1') ()) () '' ()
())
104 'itrgrd' '' 190 ((VARIABLE UNKNOWN UNKNOWN UNKNOWN NONE NONE
DIMENSION DUMMY) (INTEGER 4) 0 0 () (1 ASSUMED_SIZE (CONSTANT (INTEGER 4)
0 '1') ()) () '' () ())
103 'itrmap' '' 190 ((VARIABLE UNKNOWN UNKNOWN UNKNOWN NONE NONE DUMMY)
(INTEGER 4) 0 0 () () () '' () ())
102 'satalb' '' 190 ((VARIABLE UNKNOWN UNKNOWN UNKNOWN NONE NONE
DIMENSION DUMMY) (INTEGER 4) 0 0 () (2 ASSUMED_SIZE (CONSTANT (INTEGER 4)
0 '1') (VARIABLE (INTEGER 4) 0 198 ()) (CONSTANT (INTEGER 4) 0 '1') ())
() '' () ())
101 'nsaalb' '' 190 ((VARIABLE UNKNOWN UNKNOWN UNKNOWN NONE NONE
DIMENSION DUMMY) (INTEGER 4) 0 0 () (1 ASSUMED_SIZE (CONSTANT (INTEGER 4)
0 '1') ()) () '' () ())
100 'scacen' '' 190 ((VARIABLE UNKNOWN UNKNOWN UNKNOWN NONE NONE DUMMY)
(REAL 8) 0 0 () () () '' () ())
99 'scaalb' '' 190 ((VARIABLE UNKNOWN UNKNOWN UNKNOWN NONE NONE DUMMY) (
REAL 8) 0 0 () () () '' () ())
98 'timoff' '' 190 ((VARIABLE UNKNOWN UNKNOWN UNKNOWN NONE NONE
DIMENSION DUMMY) (REAL 8) 0 0 () (2 ASSUMED_SIZE (CONSTANT (INTEGER 4) 0
'1') (CONSTANT (INTEGER 4) 0 '2') (CONSTANT (INTEGER 4) 0 '1') ()) () ''
() ())
97 'satoff' '' 190 ((VARIABLE UNKNOWN UNKNOWN UNKNOWN NONE NONE
DIMENSION DUMMY) (INTEGER 4) 0 0 () (2 ASSUMED_SIZE (CONSTANT (INTEGER 4)
0 '1') (VARIABLE (INTEGER 4) 0 213 ()) (CONSTANT (INTEGER 4) 0 '1') ())
() '' () ())
96 'nsaoff' '' 190 ((VARIABLE UNKNOWN UNKNOWN UNKNOWN NONE NONE
DIMENSION DUMMY) (INTEGER 4) 0 0 () (1 ASSUMED_SIZE (CONSTANT (INTEGER 4)
0 '1') ()) () '' () ())
95 'scapot' '' 190 ((VARIABLE UNKNOWN UNKNOWN UNKNOWN NONE NONE DUMMY) (
REAL 8) 0 0 () () () '' () ())
94 'scahil' '' 190 ((VARIABLE UNKNOWN UNKNOWN UNKNOWN NONE NONE DUMMY) (
REAL 8) 0 0 () () () '' () ())
93 'scastc' '' 190 ((VARIABLE UNKNOWN UNKNOWN UNKNOWN NONE NONE
DIMENSION DUMMY) (REAL 8) 0 0 () (1 ASSUMED_SIZE (CONSTANT (INTEGER 4) 0
'1') ()) () '' () ())
92 'timstc' '' 190 ((VARIABLE UNKNOWN UNKNOWN UNKNOWN NONE NONE
DIMENSION DUMMY) (REAL 8) 0 0 () (4 ASSUMED_SIZE (CONSTANT (INTEGER 4) 0
'1') (CONSTANT (INTEGER 4) 0 '3') (CONSTANT (INTEGER 4) 0 '1') (
VARIABLE (INTEGER 4) 0 215 ()) (CONSTANT (INTEGER 4) 0 '1') (VARIABLE (
INTEGER 4) 0 198 ()) (CONSTANT (INTEGER 4) 0 '1') ()) () '' () ())
91 'weight' '' 190 ((VARIABLE UNKNOWN UNKNOWN UNKNOWN NONE NONE
DIMENSION DUMMY) (REAL 8) 0 0 () (1 ASSUMED_SIZE (CONSTANT (INTEGER 4) 0
'1') ()) () '' () ())
90 'bobs' '' 190 ((VARIABLE UNKNOWN UNKNOWN UNKNOWN NONE NONE DIMENSION
DUMMY) (REAL 8) 0 0 () (1 ASSUMED_SIZE (CONSTANT (INTEGER 4) 0 '1') ())
() '' () ())
89 'indaux' '' 190 ((VARIABLE UNKNOWN UNKNOWN UNKNOWN NONE NONE
DIMENSION DUMMY) (INTEGER 4) 0 0 () (1 ASSUMED_SIZE (CONSTANT (INTEGER 4)
0 '1') ()) () '' () ())
88 'inda' '' 190 ((VARIABLE UNKNOWN UNKNOWN UNKNOWN NONE NONE DIMENSION
DUMMY) (INTEGER 4) 0 0 () (1 ASSUMED_SIZE (CONSTANT (INTEGER 4) 0 '1') ())
() '' () ())
87 'ahelp' '' 190 ((VARIABLE UNKNOWN UNKNOWN UNKNOWN NONE NONE DIMENSION
DUMMY) (REAL 8) 0 0 () (1 ASSUMED_SIZE (CONSTANT (INTEGER 4) 0 '1') ())
() '' () ())
86 'aaux' '' 190 ((VARIABLE UNKNOWN UNKNOWN UNKNOWN NONE NONE DIMENSION
DUMMY) (REAL 8) 0 0 () (1 ASSUMED_SIZE (CONSTANT (INTEGER 4) 0 '1') ())
() '' () ())
85 'aobs' '' 190 ((VARIABLE UNKNOWN UNKNOWN UNKNOWN NONE NONE DIMENSION
DUMMY) (REAL 8) 0 0 () (1 ASSUMED_SIZE (CONSTANT (INTEGER 4) 0 '1') ())
() '' () ())
84 'ipolar' '' 190 ((VARIABLE UNKNOWN UNKNOWN UNKNOWN NONE NONE DUMMY) (
INTEGER 4) 0 0 () () () '' () ())
83 'tpol' '' 190 ((VARIABLE UNKNOWN UNKNOWN UNKNOWN NONE NONE DIMENSION
DUMMY) (REAL 8) 0 0 () (2 ASSUMED_SIZE (CONSTANT (INTEGER 4) 0 '1') (
CONSTANT (INTEGER 4) 0 '2') (CONSTANT (INTEGER 4) 0 '1') ()) () '' () ())
82 'trplms' '' 190 ((VARIABLE UNKNOWN UNKNOWN UNKNOWN NONE NONE
DIMENSION DUMMY) (REAL 8) 0 0 () (2 ASSUMED_SIZE (CONSTANT (INTEGER 4) 0
'1') (CONSTANT (INTEGER 4) 0 '2') (CONSTANT (INTEGER 4) 0 '1') ()) () ''
() ())
81 'trplim' '' 190 ((VARIABLE UNKNOWN UNKNOWN UNKNOWN NONE NONE
DIMENSION DUMMY) (REAL 8) 0 0 () (2 ASSUMED_SIZE (CONSTANT (INTEGER 4) 0
'1') (CONSTANT (INTEGER 4) 0 '2') (CONSTANT (INTEGER 4) 0 '1') ()) () ''
() ())
80 'svnfi1' '' 190 ((VARIABLE UNKNOWN UNKNOWN UNKNOWN NONE NONE
DIMENSION DUMMY) (INTEGER 4) 0 0 () (1 ASSUMED_SIZE (CONSTANT (INTEGER 4)
0 '1') ()) () '' () ())
79 'obser1' '' 190 ((VARIABLE UNKNOWN UNKNOWN UNKNOWN NONE NONE
DIMENSION DUMMY) (REAL 8) 0 0 () (2 ASSUMED_SIZE (CONSTANT (INTEGER 4) 0
'1') (VARIABLE (INTEGER 4) 0 198 ()) (CONSTANT (INTEGER 4) 0 '1') ()) ()
'' () ())
78 'obsfl1' '' 190 ((VARIABLE UNKNOWN UNKNOWN UNKNOWN NONE NONE
DIMENSION DUMMY) (CHARACTER 1 ((CONSTANT (INTEGER 4) 0 '1'))) 0 0 () (2
ASSUMED_SIZE (CONSTANT (INTEGER 4) 0 '1') (VARIABLE (INTEGER 4) 0 198 ())
(CONSTANT (INTEGER 4) 0 '1') ()) () '' () ())
77 'svnfil' '' 190 ((VARIABLE UNKNOWN UNKNOWN UNKNOWN NONE NONE
DIMENSION DUMMY) (INTEGER 4) 0 0 () (2 ASSUMED_SIZE (CONSTANT (INTEGER 4)
0 '1') (VARIABLE (INTEGER 4) 0 198 ()) (CONSTANT (INTEGER 4) 0 '1') ())
() '' () ())
76 'observ' '' 190 ((VARIABLE UNKNOWN UNKNOWN UNKNOWN NONE NONE
DIMENSION DUMMY) (REAL 8) 0 0 () (3 ASSUMED_SIZE (CONSTANT (INTEGER 4) 0
'1') (VARIABLE (INTEGER 4) 0 198 ()) (CONSTANT (INTEGER 4) 0 '1') (
VARIABLE (INTEGER 4) 0 211 ()) (CONSTANT (INTEGER 4) 0 '1') ()) () '' ()
())
75 'obsflg' '' 190 ((VARIABLE UNKNOWN UNKNOWN UNKNOWN NONE NONE
DIMENSION DUMMY) (CHARACTER 1 ((CONSTANT (INTEGER 4) 0 '1'))) 0 0 () (3
ASSUMED_SIZE (CONSTANT (INTEGER 4) 0 '1') (VARIABLE (INTEGER 4) 0 198 ())
(CONSTANT (INTEGER 4) 0 '1') (VARIABLE (INTEGER 4) 0 211 ()) (CONSTANT (
INTEGER 4) 0 '1') ()) () '' () ())
74 'wgtwgt' '' 190 ((VARIABLE UNKNOWN UNKNOWN UNKNOWN NONE NONE
DIMENSION DUMMY) (REAL 8) 0 0 () (1 ASSUMED_SIZE (CONSTANT (INTEGER 4) 0
'1') ()) () '' () ())
73 'timwgt' '' 190 ((VARIABLE UNKNOWN UNKNOWN UNKNOWN NONE NONE
DIMENSION DUMMY) (REAL 8) 0 0 () (2 ASSUMED_SIZE (CONSTANT (INTEGER 4) 0
'1') (CONSTANT (INTEGER 4) 0 '2') (CONSTANT (INTEGER 4) 0 '1') ()) () ''
() ())
72 'satwgt' '' 190 ((VARIABLE UNKNOWN UNKNOWN UNKNOWN NONE NONE
DIMENSION DUMMY) (INTEGER 4) 0 0 () (1 ASSUMED_SIZE (CONSTANT (INTEGER 4)
0 '1') ()) () '' () ())
71 'nwgt' '' 190 ((VARIABLE UNKNOWN UNKNOWN UNKNOWN NONE NONE DUMMY) (
INTEGER 4) 0 0 () () () '' () ())
70 'csess' '' 190 ((VARIABLE UNKNOWN UNKNOWN UNKNOWN NONE NONE DIMENSION
DUMMY) (CHARACTER 1 ((CONSTANT (INTEGER 4) 0 '4'))) 0 0 () (2
ASSUMED_SIZE (CONSTANT (INTEGER 4) 0 '1') (CONSTANT (INTEGER 4) 0 '2') (
CONSTANT (INTEGER 4) 0 '1') ()) () '' () ())
69 'ianten' '' 190 ((VARIABLE UNKNOWN UNKNOWN UNKNOWN NONE NONE
DIMENSION DUMMY) (INTEGER 4) 0 0 () (2 ASSUMED_SIZE (CONSTANT (INTEGER 4)
0 '1') (CONSTANT (INTEGER 4) 0 '2') (CONSTANT (INTEGER 4) 0 '1') ()) () ''
() ())
68 'anttyp' '' 190 ((VARIABLE UNKNOWN UNKNOWN UNKNOWN NONE NONE
DIMENSION DUMMY) (CHARACTER 1 ((CONSTANT (INTEGER 4) 0 '20'))) 0 0 () (
2 ASSUMED_SIZE (CONSTANT (INTEGER 4) 0 '1') (CONSTANT (INTEGER 4) 0 '2')
(CONSTANT (INTEGER 4) 0 '1') ()) () '' () ())
67 'rectyp' '' 190 ((VARIABLE UNKNOWN UNKNOWN UNKNOWN NONE NONE
DIMENSION DUMMY) (CHARACTER 1 ((CONSTANT (INTEGER 4) 0 '20'))) 0 0 () (
2 ASSUMED_SIZE (CONSTANT (INTEGER 4) 0 '1') (CONSTANT (INTEGER 4) 0 '2')
(CONSTANT (INTEGER 4) 0 '1') ()) () '' () ())
66 'locq' '' 190 ((VARIABLE UNKNOWN UNKNOWN UNKNOWN NONE NONE DIMENSION
DUMMY) (INTEGER 4) 0 0 () (2 ASSUMED_SIZE (CONSTANT (INTEGER 4) 0 '1') (
VARIABLE (INTEGER 4) 0 275 ()) (CONSTANT (INTEGER 4) 0 '1') ()) () '' ()
())
275 'mxclcq' '' 190 ((VARIABLE UNKNOWN UNKNOWN UNKNOWN NONE NONE
IN_COMMON) (INTEGER 4) 0 276 () () () '' () ())
276 'mxnlcq' '' 190 ((VARIABLE UNKNOWN UNKNOWN UNKNOWN NONE NONE
IN_COMMON) (CHARACTER 1 ((CONSTANT (INTEGER 4) 0 '6'))) 0 0 () () () ''
() ())
65 'tbound' '' 190 ((VARIABLE UNKNOWN UNKNOWN UNKNOWN NONE NONE
DIMENSION DUMMY) (REAL 8) 0 0 () (1 EXPLICIT (CONSTANT (INTEGER 4) 0 '1')
(CONSTANT (INTEGER 4) 0 '2')) () '' () ())
64 'indarc' '' 190 ((VARIABLE UNKNOWN UNKNOWN UNKNOWN NONE NONE DUMMY) (
INTEGER 4) 0 0 () () () '' () ())
63 'izerod' '' 190 ((VARIABLE UNKNOWN UNKNOWN UNKNOWN NONE NONE DUMMY) (
INTEGER 4) 0 0 () () () '' () ())
62 'melwub' '' 190 ((VARIABLE UNKNOWN UNKNOWN UNKNOWN NONE NONE DUMMY) (
INTEGER 4) 0 0 () () () '' () ())
61 'clfrto' '' 190 ((VARIABLE UNKNOWN UNKNOWN UNKNOWN NONE NONE
DIMENSION DUMMY) (REAL 8) 0 0 () (2 ASSUMED_SIZE (CONSTANT (INTEGER 4) 0
'1') (CONSTANT (INTEGER 4) 0 '2') (CONSTANT (INTEGER 4) 0 '1') ()) () ''
() ())
60 'xstat' '' 190 ((VARIABLE UNKNOWN UNKNOWN UNKNOWN NONE NONE DIMENSION
DUMMY) (REAL 8) 0 0 () (2 ASSUMED_SIZE (CONSTANT (INTEGER 4) 0 '1') (
CONSTANT (INTEGER 4) 0 '3') (CONSTANT (INTEGER 4) 0 '1') ()) () '' () ())
59 'stfil' '' 190 ((VARIABLE UNKNOWN UNKNOWN UNKNOWN NONE NONE DIMENSION
DUMMY) (INTEGER 4) 0 0 () (2 ASSUMED_SIZE (CONSTANT (INTEGER 4) 0 '1') (
CONSTANT (INTEGER 4) 0 '2') (CONSTANT (INTEGER 4) 0 '1') ()) () '' () ())
58 'iphsep' '' 190 ((VARIABLE UNKNOWN UNKNOWN UNKNOWN NONE NONE DUMMY) (
INTEGER 4) 0 0 () () () '' () ())
57 'npaepo' '' 190 ((VARIABLE UNKNOWN UNKNOWN UNKNOWN NONE NONE DUMMY) (
INTEGER 4) 0 0 () () () '' () ())
56 'nparn' '' 190 ((VARIABLE UNKNOWN UNKNOWN UNKNOWN NONE NONE DUMMY) (
INTEGER 4) 0 0 () () () '' () ())
55 'npar' '' 190 ((VARIABLE UNKNOWN UNKNOWN UNKNOWN NONE NONE DUMMY) (
INTEGER 4) 0 0 () () () '' () ())
54 'xmaxcl' '' 190 ((VARIABLE UNKNOWN UNKNOWN UNKNOWN NONE NONE
DIMENSION DUMMY) (REAL 8) 0 0 () (1 ASSUMED_SIZE (CONSTANT (INTEGER 4) 0
'1') ()) () '' () ())
53 'isyncr' '' 190 ((VARIABLE UNKNOWN UNKNOWN UNKNOWN NONE NONE DUMMY) (
INTEGER 4) 0 0 () () () '' () ())
52 'sync' '' 190 ((VARIABLE UNKNOWN UNKNOWN UNKNOWN NONE NONE DIMENSION
DUMMY) (REAL 8) 0 0 () (2 ASSUMED_SIZE (CONSTANT (INTEGER 4) 0 '1') (
VARIABLE (INTEGER 4) 0 198 ()) (CONSTANT (INTEGER 4) 0 '1') ()) () '' ()
())
51 'isync' '' 190 ((VARIABLE UNKNOWN UNKNOWN UNKNOWN NONE NONE DIMENSION
DUMMY) (INTEGER 4) 0 0 () (2 ASSUMED_SIZE (CONSTANT (INTEGER 4) 0 '1') (
VARIABLE (INTEGER 4) 0 198 ()) (CONSTANT (INTEGER 4) 0 '1') ()) () '' ()
())
50 'syncm' '' 190 ((VARIABLE UNKNOWN UNKNOWN UNKNOWN NONE NONE DIMENSION
DUMMY) (REAL 8) 0 0 () (1 ASSUMED_SIZE (CONSTANT (INTEGER 4) 0 '1') ())
() '' () ())
49 'amb0' '' 190 ((VARIABLE UNKNOWN UNKNOWN UNKNOWN NONE NONE DIMENSION
DUMMY) (REAL 8) 0 0 () (3 ASSUMED_SIZE (CONSTANT (INTEGER 4) 0 '1') (
VARIABLE (INTEGER 4) 0 200 ()) (CONSTANT (INTEGER 4) 0 '1') (VARIABLE (
INTEGER 4) 0 211 ()) (CONSTANT (INTEGER 4) 0 '1') ()) () '' () ())
48 'ambigu' '' 190 ((VARIABLE UNKNOWN UNKNOWN UNKNOWN NONE NONE
DIMENSION DUMMY) (REAL 8) 0 0 () (3 ASSUMED_SIZE (CONSTANT (INTEGER 4) 0
'1') (VARIABLE (INTEGER 4) 0 200 ()) (CONSTANT (INTEGER 4) 0 '1') (
CONSTANT (INTEGER 4) 0 '3') (CONSTANT (INTEGER 4) 0 '1') ()) () '' () ())
47 'nfreq' '' 190 ((VARIABLE UNKNOWN UNKNOWN UNKNOWN NONE NONE DIMENSION
DUMMY) (INTEGER 4) 0 0 () (1 ASSUMED_SIZE (CONSTANT (INTEGER 4) 0 '1') ())
() '' () ())
46 'nfrfil' '' 190 ((VARIABLE UNKNOWN UNKNOWN UNKNOWN NONE NONE
DIMENSION DUMMY) (INTEGER 4) 0 0 () (1 ASSUMED_SIZE (CONSTANT (INTEGER 4)
0 '1') ()) () '' () ())
45 'ambwlf' '' 190 ((VARIABLE UNKNOWN UNKNOWN UNKNOWN NONE NONE
DIMENSION DUMMY) (INTEGER 4) 0 0 () (3 ASSUMED_SIZE (CONSTANT (INTEGER 4)
0 '1') (VARIABLE (INTEGER 4) 0 200 ()) (CONSTANT (INTEGER 4) 0 '1') (
CONSTANT (INTEGER 4) 0 '2') (CONSTANT (INTEGER 4) 0 '1') ()) () '' () ())
44 'ambcls' '' 190 ((VARIABLE UNKNOWN UNKNOWN UNKNOWN NONE NONE
DIMENSION DUMMY) (INTEGER 4) 0 0 () (3 ASSUMED_SIZE (CONSTANT (INTEGER 4)
0 '1') (VARIABLE (INTEGER 4) 0 200 ()) (CONSTANT (INTEGER 4) 0 '1') (
CONSTANT (INTEGER 4) 0 '3') (CONSTANT (INTEGER 4) 0 '1') ()) () '' () ())
43 'ambiep' '' 190 ((VARIABLE UNKNOWN UNKNOWN UNKNOWN NONE NONE
DIMENSION DUMMY) (INTEGER 4) 0 0 () (2 ASSUMED_SIZE (CONSTANT (INTEGER 4)
0 '1') (VARIABLE (INTEGER 4) 0 200 ()) (CONSTANT (INTEGER 4) 0 '1') ())
() '' () ())
42 'ambsat' '' 190 ((VARIABLE UNKNOWN UNKNOWN UNKNOWN NONE NONE
DIMENSION DUMMY) (INTEGER 4) 0 0 () (2 ASSUMED_SIZE (CONSTANT (INTEGER 4)
0 '1') (VARIABLE (INTEGER 4) 0 200 ()) (CONSTANT (INTEGER 4) 0 '1') ())
() '' () ())
41 'numamb' '' 190 ((VARIABLE UNKNOWN UNKNOWN UNKNOWN NONE NONE
DIMENSION DUMMY) (INTEGER 4) 0 0 () (1 ASSUMED_SIZE (CONSTANT (INTEGER 4)
0 '1') ()) () '' () ())
40 'numsat' '' 190 ((VARIABLE UNKNOWN UNKNOWN UNKNOWN NONE NONE
DIMENSION DUMMY) (INTEGER 4) 0 0 () (2 ASSUMED_SIZE (CONSTANT (INTEGER 4)
0 '1') (VARIABLE (INTEGER 4) 0 198 ()) (CONSTANT (INTEGER 4) 0 '1') ())
() '' () ())
39 'nsatel' '' 190 ((VARIABLE UNKNOWN UNKNOWN UNKNOWN NONE NONE
DIMENSION DUMMY) (INTEGER 4) 0 0 () (1 ASSUMED_SIZE (CONSTANT (INTEGER 4)
0 '1') ()) () '' () ())
38 'ambdef' '' 190 ((VARIABLE UNKNOWN UNKNOWN UNKNOWN NONE NONE
DIMENSION DUMMY) (INTEGER 4) 0 0 () (1 ASSUMED_SIZE (CONSTANT (INTEGER 4)
0 '1') ()) () '' () ())
37 'iamb1' '' 190 ((VARIABLE UNKNOWN UNKNOWN UNKNOWN NONE NONE DIMENSION
DUMMY) (CHARACTER 1 ((CONSTANT (INTEGER 4) 0 '1'))) 0 0 () (3
ASSUMED_SIZE (CONSTANT (INTEGER 4) 0 '1') (VARIABLE (INTEGER 4) 0 200 ())
(CONSTANT (INTEGER 4) 0 '1') (VARIABLE (INTEGER 4) 0 211 ()) (CONSTANT (
INTEGER 4) 0 '1') ()) () '' () ())
36 'icoelv' '' 190 ((VARIABLE UNKNOWN UNKNOWN UNKNOWN NONE NONE
DIMENSION DUMMY) (INTEGER 4) 0 0 () (2 ASSUMED_SIZE (CONSTANT (INTEGER 4)
0 '1') (CONSTANT (INTEGER 4) 0 '2') (CONSTANT (INTEGER 4) 0 '1') ()) () ''
() ())
35 'corstr' '' 190 ((VARIABLE UNKNOWN UNKNOWN UNKNOWN NONE NONE DUMMY) (
INTEGER 4) 0 0 () () () '' () ())
34 'iextra' '' 190 ((VARIABLE UNKNOWN UNKNOWN UNKNOWN NONE NONE DUMMY) (
INTEGER 4) 0 0 () () () '' () ())
33 'itropo' '' 190 ((VARIABLE UNKNOWN UNKNOWN UNKNOWN NONE NONE DUMMY) (
INTEGER 4) 0 0 () () () '' () ())
32 'zenmax' '' 190 ((VARIABLE UNKNOWN UNKNOWN UNKNOWN NONE NONE DUMMY) (
REAL 8) 0 0 () () () '' () ())
31 'isatco' '' 190 ((VARIABLE UNKNOWN UNKNOWN UNKNOWN NONE NONE DUMMY) (
INTEGER 4) 0 0 () () () '' () ())
30 'ellses' '' 190 ((VARIABLE UNKNOWN UNKNOWN UNKNOWN NONE NONE
DIMENSION DUMMY) (REAL 8) 0 0 () (4 ASSUMED_SIZE (CONSTANT (INTEGER 4) 0
'1') (CONSTANT (INTEGER 4) 0 '3') (CONSTANT (INTEGER 4) 0 '1') (
CONSTANT (INTEGER 4) 0 '2') (CONSTANT (INTEGER 4) 0 '1') (VARIABLE (
INTEGER 4) 0 211 ()) (CONSTANT (INTEGER 4) 0 '1') ()) () '' () ())
29 'wgsses' '' 190 ((VARIABLE UNKNOWN UNKNOWN UNKNOWN NONE NONE
DIMENSION DUMMY) (REAL 8) 0 0 () (4 ASSUMED_SIZE (CONSTANT (INTEGER 4) 0
'1') (CONSTANT (INTEGER 4) 0 '3') (CONSTANT (INTEGER 4) 0 '1') (
CONSTANT (INTEGER 4) 0 '2') (CONSTANT (INTEGER 4) 0 '1') (VARIABLE (
INTEGER 4) 0 211 ()) (CONSTANT (INTEGER 4) 0 '1') ()) () '' () ())
28 'stname' '' 190 ((VARIABLE UNKNOWN UNKNOWN UNKNOWN NONE NONE
DIMENSION DUMMY) (CHARACTER 1 ((CONSTANT (INTEGER 4) 0 '16'))) 0 0 () (
1 ASSUMED_SIZE (CONSTANT (INTEGER 4) 0 '1') ()) () '' () ())
27 'numobs' '' 190 ((VARIABLE UNKNOWN UNKNOWN UNKNOWN NONE NONE
DIMENSION DUMMY) (INTEGER 4) 0 0 () (2 ASSUMED_SIZE (CONSTANT (INTEGER 4)
0 '1') (VARIABLE (INTEGER 4) 0 211 ()) (CONSTANT (INTEGER 4) 0 '1') ())
() '' () ())
26 'satses' '' 190 ((VARIABLE UNKNOWN UNKNOWN UNKNOWN NONE NONE
DIMENSION DUMMY) (INTEGER 4) 0 0 () (1 ASSUMED_SIZE (CONSTANT (INTEGER 4)
0 '1') ()) () '' () ())
25 'meatyp' '' 190 ((VARIABLE UNKNOWN UNKNOWN UNKNOWN NONE NONE
DIMENSION DUMMY) (INTEGER 4) 0 0 () (1 ASSUMED_SIZE (CONSTANT (INTEGER 4)
0 '1') ()) () '' () ())
24 'icarr' '' 190 ((VARIABLE UNKNOWN UNKNOWN UNKNOWN NONE NONE DIMENSION
DUMMY) (INTEGER 4) 0 0 () (2 ASSUMED_SIZE (CONSTANT (INTEGER 4) 0 '1') (
VARIABLE (INTEGER 4) 0 211 ()) (CONSTANT (INTEGER 4) 0 '1') ()) () '' ()
())
23 'ifrmat' '' 190 ((VARIABLE UNKNOWN UNKNOWN UNKNOWN NONE NONE
DIMENSION DUMMY) (INTEGER 4) 0 0 () (1 ASSUMED_SIZE (CONSTANT (INTEGER 4)
0 '1') ()) () '' () ())
22 'secipl' '' 190 ((VARIABLE UNKNOWN UNKNOWN UNKNOWN NONE NONE DUMMY) (
REAL 8) 0 0 () () () '' () ())
21 'ideltt' '' 190 ((VARIABLE UNKNOWN UNKNOWN UNKNOWN NONE NONE
DIMENSION DUMMY) (INTEGER 4) 0 0 () (1 ASSUMED_SIZE (CONSTANT (INTEGER 4)
0 '1') ()) () '' () ())
20 'timref' '' 190 ((VARIABLE UNKNOWN UNKNOWN UNKNOWN NONE NONE
DIMENSION DUMMY) (REAL 8) 0 0 () (1 ASSUMED_SIZE (CONSTANT (INTEGER 4) 0
'1') ()) () '' () ())
19 'dtsim' '' 190 ((VARIABLE UNKNOWN UNKNOWN UNKNOWN NONE NONE DUMMY) (
REAL 8) 0 0 () () () '' () ())
18 'window' '' 190 ((VARIABLE UNKNOWN UNKNOWN UNKNOWN NONE NONE
DIMENSION DUMMY) (REAL 8) 0 0 () (2 ASSUMED_SIZE (CONSTANT (INTEGER 4) 0
'1') (CONSTANT (INTEGER 4) 0 '2') (CONSTANT (INTEGER 4) 0 '1') ()) () ''
() ())
17 'nsampl' '' 190 ((VARIABLE UNKNOWN UNKNOWN UNKNOWN NONE NONE
DIMENSION DUMMY) (INTEGER 4) 0 0 () (1 EXPLICIT (CONSTANT (INTEGER 4) 0
'1') (CONSTANT (INTEGER 4) 0 '3')) () '' () ())
16 'icentr' '' 190 ((VARIABLE UNKNOWN UNKNOWN UNKNOWN NONE NONE
DIMENSION DUMMY) (INTEGER 4) 0 0 () (1 ASSUMED_SIZE (CONSTANT (INTEGER 4)
0 '1') ()) () '' () ())
15 'nstat' '' 190 ((VARIABLE UNKNOWN UNKNOWN UNKNOWN NONE NONE DUMMY) (
INTEGER 4) 0 0 () () () '' () ())
14 'tlast' '' 190 ((VARIABLE UNKNOWN UNKNOWN UNKNOWN NONE NONE DUMMY) (
REAL 8) 0 0 () () () '' () ())
13 'filnum' '' 190 ((VARIABLE UNKNOWN UNKNOWN UNKNOWN NONE NONE
DIMENSION DUMMY) (INTEGER 4) 0 0 () (1 ASSUMED_SIZE (CONSTANT (INTEGER 4)
0 '1') ()) () '' () ())
12 'frqses' '' 190 ((VARIABLE UNKNOWN UNKNOWN UNKNOWN NONE NONE
DIMENSION DUMMY) (INTEGER 4) 0 0 () (1 ASSUMED_SIZE (CONSTANT (INTEGER 4)
0 '1') ()) () '' () ())
11 'nfrses' '' 190 ((VARIABLE UNKNOWN UNKNOWN UNKNOWN NONE NONE DUMMY) (
INTEGER 4) 0 0 () () () '' () ())
10 'nflses' '' 190 ((VARIABLE UNKNOWN UNKNOWN UNKNOWN NONE NONE DUMMY) (
INTEGER 4) 0 0 () () () '' () ())
9 'nsases' '' 190 ((VARIABLE UNKNOWN UNKNOWN UNKNOWN NONE NONE DUMMY) (
INTEGER 4) 0 0 () () () '' () ())
8 'npases' '' 190 ((VARIABLE UNKNOWN UNKNOWN UNKNOWN NONE NONE DUMMY) (
INTEGER 4) 0 0 () () () '' () ())
7 'tprint' '' 190 ((VARIABLE UNKNOWN UNKNOWN UNKNOWN NONE NONE DUMMY) (
REAL 8) 0 0 () () () '' () ())
6 'priopt' '' 190 ((VARIABLE UNKNOWN UNKNOWN UNKNOWN NONE NONE DIMENSION
DUMMY) (INTEGER 4) 0 0 () (1 ASSUMED_SIZE (CONSTANT (INTEGER 4) 0 '1') ())
() '' () ())
5 'iresid' '' 190 ((VARIABLE UNKNOWN UNKNOWN UNKNOWN NONE NONE DUMMY) (
INTEGER 4) 0 0 () () () '' () ())
4 'stramb' '' 190 ((VARIABLE UNKNOWN UNKNOWN UNKNOWN NONE NONE DIMENSION
DUMMY) (INTEGER 4) 0 0 () (1 ASSUMED_SIZE (CONSTANT (INTEGER 4) 0 '1') ())
() '' () ())
3 'sessid' '' 190 ((VARIABLE UNKNOWN UNKNOWN UNKNOWN NONE NONE DUMMY) (
CHARACTER 1 ((CONSTANT (INTEGER 4) 0 '4'))) 0 0 () () () '' () ())
)

('prcepo' 0 2 's_prcepo' 0 189)
