G95 module created on Thu Jun 25 17:51:03 2020 from ./.fpp/QLWTRX.f90
If you edit this, you'll get what you deserve.
module-version 9
(() () () () () () () () () () () () () () () () () () () () ())

()

()

()

()

(2 'qlwtrx' 's_qlwtrx' 1 ((PROCEDURE UNKNOWN MODULE-PROC DECL NONE NONE
SUBROUTINE) (PROCEDURE 0) 0 0 (3 NONE 4 NONE 5 NONE 6 NONE 7 NONE 8 NONE
9 NONE 10 NONE 11 NONE 12 NONE) () () '' () ())
13 's_qlwtrx' 's_qlwtrx' 1 ((MODULE UNKNOWN UNKNOWN UNKNOWN NONE NONE) (
UNKNOWN) 0 0 () () () '' () ())
12 'devout' '' 14 ((VARIABLE UNKNOWN UNKNOWN UNKNOWN NONE NONE DUMMY) (
CHARACTER 1 ((CONSTANT (INTEGER 4) 0 '32'))) 0 0 () () () '' () ())
11 'yearid' '' 14 ((VARIABLE UNKNOWN UNKNOWN UNKNOWN NONE NONE DUMMY) (
CHARACTER 1 ((CONSTANT (INTEGER 4) 0 '2'))) 0 0 () () () '' () ())
10 'sessid' '' 14 ((VARIABLE UNKNOWN UNKNOWN UNKNOWN NONE NONE DUMMY) (
CHARACTER 1 ((CONSTANT (INTEGER 4) 0 '4'))) 0 0 () () () '' () ())
9 'title' '' 14 ((VARIABLE UNKNOWN UNKNOWN UNKNOWN NONE NONE DUMMY) (
CHARACTER 1 ((CONSTANT (INTEGER 4) 0 '80'))) 0 0 () () () '' () ())
8 'indexs' '' 14 ((VARIABLE UNKNOWN UNKNOWN UNKNOWN NONE NONE DIMENSION
DUMMY) (INTEGER 4) 0 0 () (1 ASSUMED_SHAPE () ()) () '' () ())
7 'qlobs' '' 14 ((VARIABLE UNKNOWN UNKNOWN UNKNOWN NONE NONE DUMMY) (
DERIVED 15) 0 0 () () () '' () ())
15 't_qlobs' 'd_qlfil' 14 ((DERIVED UNKNOWN UNKNOWN UNKNOWN NONE NONE) (
UNKNOWN) 0 0 () () () '' ((16 'iwlfac' (INTEGER 4) (1 EXPLICIT (
CONSTANT (INTEGER 4) 0 '1') (CONSTANT (INTEGER 4) 0 '2')) () 1 0 0 ()) (
17 'cdps' (INTEGER 4) () () 0 0 0 ()) (18 'cdpo' (INTEGER 4) () () 0 0 0
()) (19 'timsy' (INTEGER 4) () () 0 0 0 ()) (20 'syscf' (INTEGER 4) () ()
0 0 0 ()) (21 'revnr' (INTEGER 4) () () 0 0 0 ()) (22 'qlrec' (DERIVED
23) (1 DEFERRED () ()) () 1 1 0 ())) PUBLIC ())
23 't_qlrec' 'd_qlfil' 14 ((DERIVED UNKNOWN UNKNOWN UNKNOWN NONE NONE) (
UNKNOWN) 0 0 () () () '' ((24 'satnr' (INTEGER 4) () () 0 0 0 ()) (25
'iobstp' (INTEGER 4) () () 0 0 0 ()) (26 'numnpt' (INTEGER 4) () () 0 0
0 ()) (27 'llinpt' (INTEGER 4) () () 0 0 0 ()) (28 'range' (REAL 8) () ()
0 0 0 ()) (29 'epoch' (REAL 8) (1 EXPLICIT (CONSTANT (INTEGER 4) 0 '1')
(CONSTANT (INTEGER 4) 0 '2')) () 1 0 0 ()) (30 'press' (REAL 8) () () 0
0 0 ()) (31 'temp' (REAL 8) () () 0 0 0 ()) (32 'humid' (REAL 8) () () 0
0 0 ()) (33 'versnr' (INTEGER 4) () () 0 0 0 ())) PUBLIC ())
6 'sitnum' '' 14 ((VARIABLE UNKNOWN UNKNOWN UNKNOWN NONE NONE DUMMY) (
CHARACTER 1 ((CONSTANT (INTEGER 4) 0 '20'))) 0 0 () () () '' () ())
5 'sitnam' '' 14 ((VARIABLE UNKNOWN UNKNOWN UNKNOWN NONE NONE DUMMY) (
CHARACTER 1 ((CONSTANT (INTEGER 4) 0 '60'))) 0 0 () () () '' () ())
4 'sta4' '' 14 ((VARIABLE UNKNOWN UNKNOWN UNKNOWN NONE NONE DUMMY) (
CHARACTER 1 ((CONSTANT (INTEGER 4) 0 '4'))) 0 0 () () () '' () ())
3 'stanam' '' 14 ((VARIABLE UNKNOWN UNKNOWN UNKNOWN NONE NONE DUMMY) (
CHARACTER 1 ((CONSTANT (INTEGER 4) 0 '4'))) 0 0 () () () '' () ())
)

('qlwtrx' 0 2 's_qlwtrx' 0 13)
