G95 module created on Thu Jun 25 17:49:40 2020 from ./.fpp/RCSTACHK.f90
If you edit this, you'll get what you deserve.
module-version 9
(() () () () () () () () () () () () () () () () () () () () ())

()

()

()

()

(2 'rcstachk' 's_rcstachk' 1 ((PROCEDURE UNKNOWN MODULE-PROC DECL NONE
NONE SUBROUTINE) (PROCEDURE 0) 0 0 (3 NONE 4 NONE 5 NONE 6 NONE 7 NONE 8
NONE 9 NONE) () () '' () ())
10 's_rcstachk' 's_rcstachk' 1 ((MODULE UNKNOWN UNKNOWN UNKNOWN NONE
NONE) (UNKNOWN) 0 0 () () () '' () ())
9 'ircode' '' 11 ((VARIABLE UNKNOWN UNKNOWN UNKNOWN NONE NONE DUMMY) (
INTEGER 4) 0 0 () () () '' () ())
8 'badsta' '' 11 ((VARIABLE UNKNOWN UNKNOWN UNKNOWN NONE NONE DIMENSION
POINTER DUMMY) (DERIVED 12) 0 0 () (1 DEFERRED () ()) () '' () ())
12 't_badsta' 'p_reschk' 11 ((DERIVED UNKNOWN UNKNOWN UNKNOWN NONE NONE)
(UNKNOWN) 0 0 () () () '' ((13 'stanam' (CHARACTER 1 ((CONSTANT (
INTEGER 4) 0 '20'))) () () 0 0 0 ()) (14 'filnam' (CHARACTER 1 ((
CONSTANT (INTEGER 4) 0 '32'))) () () 0 0 0 ()) (15 'nsta' (INTEGER 4) ()
() 0 0 0 ()) (16 'rmssum' (REAL 8) () () 0 0 0 ()) (17 'rmsratio' (REAL
8) () () 0 0 0 ())) PUBLIC ())
7 'nbad' '' 11 ((VARIABLE UNKNOWN UNKNOWN UNKNOWN NONE NONE DUMMY) (
INTEGER 4) 0 0 () () () '' () ())
6 'rmstot' '' 11 ((VARIABLE UNKNOWN UNKNOWN UNKNOWN NONE NONE DUMMY) (
REAL 8) 0 0 () () () '' () ())
5 'rmssta' '' 11 ((VARIABLE UNKNOWN UNKNOWN UNKNOWN NONE NONE DIMENSION
POINTER DUMMY) (DERIVED 18) 0 0 () (1 DEFERRED () ()) () '' () ())
18 't_rmssta' 'p_reschk' 11 ((DERIVED UNKNOWN UNKNOWN UNKNOWN NONE NONE)
(UNKNOWN) 0 0 () () () '' ((19 'stanam' (CHARACTER 1 ((CONSTANT (
INTEGER 4) 0 '20'))) (1 EXPLICIT (CONSTANT (INTEGER 4) 0 '1') (CONSTANT
(INTEGER 4) 0 '2')) () 1 0 0 ()) (20 'filnam' (CHARACTER 1 ((CONSTANT (
INTEGER 4) 0 '32'))) (1 EXPLICIT (CONSTANT (INTEGER 4) 0 '1') (CONSTANT
(INTEGER 4) 0 '2')) () 1 0 0 ()) (21 'rms' (REAL 8) () () 0 0 0 ()))
PUBLIC ())
4 'nsta' '' 11 ((VARIABLE UNKNOWN UNKNOWN UNKNOWN NONE NONE DUMMY) (
INTEGER 4) 0 0 () () () '' () ())
3 'opt' '' 11 ((VARIABLE UNKNOWN UNKNOWN UNKNOWN NONE NONE DUMMY) (
DERIVED 22) 0 0 () () () '' () ())
22 't_reschk_opt' 'p_reschk' 11 ((DERIVED UNKNOWN UNKNOWN UNKNOWN NONE
NONE) (UNKNOWN) 0 0 () () () '' ((23 'satcrux' (CHARACTER 1 ((CONSTANT (
INTEGER 4) 0 '32'))) () () 0 0 0 ()) (24 'sesfile' (CHARACTER 1 ((
CONSTANT (INTEGER 4) 0 '32'))) () () 0 0 0 ()) (25 'abbpan' (CHARACTER 1
((CONSTANT (INTEGER 4) 0 '32'))) () () 0 0 0 ()) (26 'asplit' (
CHARACTER 1 ((CONSTANT (INTEGER 4) 0 '32'))) () () 0 0 0 ()) (27 'codxtr'
(CHARACTER 1 ((CONSTANT (INTEGER 4) 0 '32'))) () () 0 0 0 ()) (28 'resrms'
(CHARACTER 1 ((CONSTANT (INTEGER 4) 0 '32'))) () () 0 0 0 ()) (29 'delsta'
(CHARACTER 1 ((CONSTANT (INTEGER 4) 0 '32'))) () () 0 0 0 ()) (30 'sumout'
(CHARACTER 1 ((CONSTANT (INTEGER 4) 0 '32'))) () () 0 0 0 ()) (31 'title'
(CHARACTER 1 ((CONSTANT (INTEGER 4) 0 '80'))) () () 0 0 0 ()) (32
'summary' (INTEGER 4) () () 0 0 0 ()) (33 'iyear4' (INTEGER 4) () () 0 0
0 ()) (34 'badsta' (LOGICAL 4) () () 0 0 0 ()) (35 'ndiff' (INTEGER 4) ()
() 0 0 0 ()) (36 'maxsta0' (INTEGER 4) () () 0 0 0 ()) (37 'maxrms0' (
REAL 8) () () 0 0 0 ()) (38 'badsol0' (REAL 8) () () 0 0 0 ()) (39
'maxsta1' (INTEGER 4) () () 0 0 0 ()) (40 'maxrms1' (REAL 8) () () 0 0 0
()) (41 'dir_czh' (CHARACTER 1 ((CONSTANT (INTEGER 4) 0 '255'))) () () 0
0 0 ()) (42 'dir_czo' (CHARACTER 1 ((CONSTANT (INTEGER 4) 0 '255'))) ()
() 0 0 0 ()) (43 'dir_pzh' (CHARACTER 1 ((CONSTANT (INTEGER 4) 0 '255')))
() () 0 0 0 ()) (44 'dir_pzo' (CHARACTER 1 ((CONSTANT (INTEGER 4) 0 '255')))
() () 0 0 0 ()) (45 'ext_czh' (CHARACTER 1 ((CONSTANT (INTEGER 4) 0 '3')))
() () 0 0 0 ()) (46 'ext_czo' (CHARACTER 1 ((CONSTANT (INTEGER 4) 0 '3')))
() () 0 0 0 ()) (47 'ext_pzh' (CHARACTER 1 ((CONSTANT (INTEGER 4) 0 '3')))
() () 0 0 0 ()) (48 'ext_pzo' (CHARACTER 1 ((CONSTANT (INTEGER 4) 0 '3')))
() () 0 0 0 ()) (49 'mansat' (LOGICAL 4) () () 0 0 0 ()) (50 'maxrrms' (
REAL 8) () () 0 0 0 ()) (51 'maxdel' (REAL 8) () () 0 0 0 ()) (52
'maxarms' (REAL 8) () () 0 0 0 ()) (53 'maxorb' (REAL 8) () () 0 0 0 ())
(54 'maxmrms' (REAL 8) () () 0 0 0 ()) (55 'minobsg' (REAL 8) () () 0 0
0 ()) (56 'minobsr' (REAL 8) () () 0 0 0 ()) (57 'del1sat' (LOGICAL 4) ()
() 0 0 0 ()) (58 'tstmode' (LOGICAL 4) () () 0 0 0 ())) PUBLIC ())
)

('rcstachk' 0 2 's_rcstachk' 0 10)
