G95 module created on Thu Jun 25 17:49:52 2020 from ./.fpp/RCINPT.f90
If you edit this, you'll get what you deserve.
module-version 9
(() () () () () () () () () () () () () () () () () () () () ())

()

()

()

()

(2 'rcinpt' 's_rcinpt' 1 ((PROCEDURE UNKNOWN MODULE-PROC DECL NONE NONE
SUBROUTINE) (PROCEDURE 0) 0 0 (3 NONE 4 NONE) () () '' () ())
5 's_rcinpt' 's_rcinpt' 1 ((MODULE UNKNOWN UNKNOWN UNKNOWN NONE NONE) (
UNKNOWN) 0 0 () () () '' () ())
4 'ircode' '' 6 ((VARIABLE UNKNOWN UNKNOWN UNKNOWN NONE NONE DUMMY) (
INTEGER 4) 0 0 () () () '' () ())
3 'opt' '' 6 ((VARIABLE UNKNOWN UNKNOWN UNKNOWN NONE NONE DUMMY) (
DERIVED 7) 0 0 () () () '' () ())
7 't_reschk_opt' 'p_reschk' 6 ((DERIVED UNKNOWN UNKNOWN UNKNOWN NONE
NONE) (UNKNOWN) 0 0 () () () '' ((8 'satcrux' (CHARACTER 1 ((CONSTANT (
INTEGER 4) 0 '32'))) () () 0 0 0 ()) (9 'sesfile' (CHARACTER 1 ((
CONSTANT (INTEGER 4) 0 '32'))) () () 0 0 0 ()) (10 'abbpan' (CHARACTER 1
((CONSTANT (INTEGER 4) 0 '32'))) () () 0 0 0 ()) (11 'asplit' (
CHARACTER 1 ((CONSTANT (INTEGER 4) 0 '32'))) () () 0 0 0 ()) (12 'codxtr'
(CHARACTER 1 ((CONSTANT (INTEGER 4) 0 '32'))) () () 0 0 0 ()) (13 'resrms'
(CHARACTER 1 ((CONSTANT (INTEGER 4) 0 '32'))) () () 0 0 0 ()) (14 'delsta'
(CHARACTER 1 ((CONSTANT (INTEGER 4) 0 '32'))) () () 0 0 0 ()) (15 'sumout'
(CHARACTER 1 ((CONSTANT (INTEGER 4) 0 '32'))) () () 0 0 0 ()) (16 'title'
(CHARACTER 1 ((CONSTANT (INTEGER 4) 0 '80'))) () () 0 0 0 ()) (17
'summary' (INTEGER 4) () () 0 0 0 ()) (18 'iyear4' (INTEGER 4) () () 0 0
0 ()) (19 'badsta' (LOGICAL 4) () () 0 0 0 ()) (20 'ndiff' (INTEGER 4) ()
() 0 0 0 ()) (21 'maxsta0' (INTEGER 4) () () 0 0 0 ()) (22 'maxrms0' (
REAL 8) () () 0 0 0 ()) (23 'badsol0' (REAL 8) () () 0 0 0 ()) (24
'maxsta1' (INTEGER 4) () () 0 0 0 ()) (25 'maxrms1' (REAL 8) () () 0 0 0
()) (26 'dir_czh' (CHARACTER 1 ((CONSTANT (INTEGER 4) 0 '255'))) () () 0
0 0 ()) (27 'dir_czo' (CHARACTER 1 ((CONSTANT (INTEGER 4) 0 '255'))) ()
() 0 0 0 ()) (28 'dir_pzh' (CHARACTER 1 ((CONSTANT (INTEGER 4) 0 '255')))
() () 0 0 0 ()) (29 'dir_pzo' (CHARACTER 1 ((CONSTANT (INTEGER 4) 0 '255')))
() () 0 0 0 ()) (30 'ext_czh' (CHARACTER 1 ((CONSTANT (INTEGER 4) 0 '3')))
() () 0 0 0 ()) (31 'ext_czo' (CHARACTER 1 ((CONSTANT (INTEGER 4) 0 '3')))
() () 0 0 0 ()) (32 'ext_pzh' (CHARACTER 1 ((CONSTANT (INTEGER 4) 0 '3')))
() () 0 0 0 ()) (33 'ext_pzo' (CHARACTER 1 ((CONSTANT (INTEGER 4) 0 '3')))
() () 0 0 0 ()) (34 'mansat' (LOGICAL 4) () () 0 0 0 ()) (35 'maxrrms' (
REAL 8) () () 0 0 0 ()) (36 'maxdel' (REAL 8) () () 0 0 0 ()) (37
'maxarms' (REAL 8) () () 0 0 0 ()) (38 'maxorb' (REAL 8) () () 0 0 0 ())
(39 'maxmrms' (REAL 8) () () 0 0 0 ()) (40 'minobsg' (REAL 8) () () 0 0
0 ()) (41 'minobsr' (REAL 8) () () 0 0 0 ()) (42 'del1sat' (LOGICAL 4) ()
() 0 0 0 ()) (43 'tstmode' (LOGICAL 4) () () 0 0 0 ())) PUBLIC ())
)

('rcinpt' 0 2 's_rcinpt' 0 5)
