G95 module created on Thu Jun 25 17:48:15 2020 from ./.fpp/RDSCRA.f90
If you edit this, you'll get what you deserve.
module-version 9
(() () () () () () () () () () () () () () () () () () () () ())

()

()

()

()

(2 'rdscra' 's_rdscra' 1 ((PROCEDURE UNKNOWN MODULE-PROC DECL NONE NONE
SUBROUTINE) (PROCEDURE 0) 0 0 (3 NONE 4 NONE 5 NONE 6 NONE 7 NONE 8 NONE
9 NONE 10 NONE 11 NONE 12 NONE) () () '' () ())
13 's_rdscra' 's_rdscra' 1 ((MODULE UNKNOWN UNKNOWN UNKNOWN NONE NONE) (
UNKNOWN) 0 0 () () () '' () ())
12 'ios' '' 14 ((VARIABLE UNKNOWN UNKNOWN UNKNOWN NONE NONE DUMMY) (
INTEGER 4) 0 0 () () () '' () ())
11 'atmp' '' 14 ((VARIABLE UNKNOWN UNKNOWN UNKNOWN NONE NONE DIMENSION
DUMMY) (REAL 8) 0 0 () (1 EXPLICIT (CONSTANT (INTEGER 4) 0 '1') (
CONSTANT (INTEGER 4) 0 '6')) () '' () ())
10 'xtmp' '' 14 ((VARIABLE UNKNOWN UNKNOWN UNKNOWN NONE NONE DIMENSION
DUMMY) (REAL 8) 0 0 () (1 EXPLICIT (CONSTANT (INTEGER 4) 0 '1') (
CONSTANT (INTEGER 4) 0 '3')) () '' () ())
9 'xxx0' '' 14 ((VARIABLE UNKNOWN UNKNOWN UNKNOWN NONE NONE DIMENSION
DUMMY) (REAL 8) 0 0 () (1 EXPLICIT (CONSTANT (INTEGER 4) 0 '1') (
CONSTANT (INTEGER 4) 0 '3')) () '' () ())
8 'locq' '' 14 ((VARIABLE UNKNOWN UNKNOWN UNKNOWN NONE NONE DIMENSION
DUMMY) (INTEGER 4) 0 0 () (2 EXPLICIT (CONSTANT (INTEGER 4) 0 '1') (
VARIABLE (INTEGER 4) 0 3 ()) (CONSTANT (INTEGER 4) 0 '1') (CONSTANT (
INTEGER 4) 0 '3')) () '' () ())
7 'tobs' '' 14 ((VARIABLE UNKNOWN UNKNOWN UNKNOWN NONE NONE DUMMY) (
REAL 8) 0 0 () () () '' () ())
6 'jnum' '' 14 ((VARIABLE UNKNOWN UNKNOWN UNKNOWN NONE NONE DUMMY) (
INTEGER 4) 0 0 () () () '' () ())
5 'jtyp' '' 14 ((VARIABLE UNKNOWN UNKNOWN UNKNOWN NONE NONE DUMMY) (
INTEGER 4) 0 0 () () () '' () ())
4 'lfnaux' '' 14 ((VARIABLE UNKNOWN UNKNOWN UNKNOWN NONE NONE DUMMY) (
INTEGER 4) 0 0 () () () '' () ())
3 'mxclcq' '' 14 ((VARIABLE UNKNOWN UNKNOWN UNKNOWN NONE NONE DUMMY) (
INTEGER 4) 0 0 () () () '' () ())
)

('rdscra' 0 2 's_rdscra' 0 13)
