G95 module created on Thu Jun 25 17:49:43 2020 from ./.fpp/RDCLKN.f90
If you edit this, you'll get what you deserve.
module-version 9
(() () () () () () () () () () () () () () () () () () () () ())

()

()

()

()

(2 'rdclkn' 's_rdclkn' 1 ((PROCEDURE UNKNOWN MODULE-PROC DECL NONE NONE
SUBROUTINE) (PROCEDURE 0) 0 0 (3 NONE) () () '' () ())
4 's_rdclkn' 's_rdclkn' 1 ((MODULE UNKNOWN UNKNOWN UNKNOWN NONE NONE) (
UNKNOWN) 0 0 () () () '' () ())
3 'clkopt' '' 5 ((VARIABLE UNKNOWN UNKNOWN UNKNOWN NONE NONE DUMMY) (
DERIVED 6) 0 0 () () () '' () ())
6 't_clkopt' 'p_clkest' 5 ((DERIVED UNKNOWN UNKNOWN UNKNOWN NONE NONE) (
UNKNOWN) 0 0 () () () '' ((7 'nsampl' (INTEGER 4) () () 0 0 0 ()) (8
'lincom' (INTEGER 4) () () 0 0 0 ()) (9 'irfsel' (INTEGER 4) () () 0 0 0
()) (10 'irfclk' (INTEGER 4) () () 0 0 0 ()) (11 'minsta' (INTEGER 4) ()
() 0 0 0 ()) (12 'irelj2' (INTEGER 4) () () 0 0 0 ()) (13 'iextra' (
INTEGER 4) () () 0 0 0 ()) (14 'itropo' (INTEGER 4) () () 0 0 0 ()) (15
'chktrp' (INTEGER 4) () () 0 0 0 ()) (16 'cmbsel' (INTEGER 4) () () 0 0
0 ()) (17 'ifix' (INTEGER 4) () () 0 0 0 ()) (18 'allign' (INTEGER 4) ()
() 0 0 0 ()) (19 'maxitc' (INTEGER 4) () () 0 0 0 ()) (20 'maxitp' (
INTEGER 4) () () 0 0 0 ()) (21 'nocode' (INTEGER 4) () () 0 0 0 ()) (22
'remove' (INTEGER 4) () () 0 0 0 ()) (23 'ncom' (INTEGER 4) () () 0 0 0
()) (24 'nrfsta' (INTEGER 4) () () 0 0 0 ()) (25 'nrxsta' (INTEGER 4) ()
() 0 0 0 ()) (26 'clkwrt' (INTEGER 4) () () 0 0 0 ()) (27 'cpyrnx' (
INTEGER 4) () () 0 0 0 ()) (28 'delrnx' (INTEGER 4) () () 0 0 0 ()) (29
'clksel' (INTEGER 4) () () 0 0 0 ()) (30 'debug' (INTEGER 4) () () 0 0 0
()) (31 'maxzen' (REAL 8) () () 0 0 0 ()) (32 'omcmxc' (REAL 8) () () 0
0 0 ()) (33 'aprsic' (REAL 8) () () 0 0 0 ()) (34 'resmxc' (REAL 8) () ()
0 0 0 ()) (35 'rmsmxc' (REAL 8) () () 0 0 0 ()) (36 'omcmax' (REAL 8) ()
() 0 0 0 ()) (37 'aprsip' (REAL 8) () () 0 0 0 ()) (38 'resmxp' (REAL 8)
() () 0 0 0 ()) (39 'rmsmxp' (REAL 8) () () 0 0 0 ()) (40 'dtfix' (REAL
8) () () 0 0 0 ()) (41 'dtsim' (REAL 8) () () 0 0 0 ()) (42 'secipl' (
REAL 8) () () 0 0 0 ()) (43 'epowin' (DERIVED 44) () () 0 0 0 ()) (45
'titclk' (CHARACTER 1 ((CONSTANT (INTEGER 4) 0 '80'))) () () 0 0 0 ()) (
46 'runby' (CHARACTER 1 ((CONSTANT (INTEGER 4) 0 '20'))) () () 0 0 0 ())
(47 'ac' (CHARACTER 1 ((CONSTANT (INTEGER 4) 0 '3'))) () () 0 0 0 ()) (
48 'acname' (CHARACTER 1 ((CONSTANT (INTEGER 4) 0 '55'))) () () 0 0 0 ())
(49 'timsys' (CHARACTER 1 ((CONSTANT (INTEGER 4) 0 '3'))) () () 0 0 0 ())
(50 'dcbstr' (CHARACTER 1 ((CONSTANT (INTEGER 4) 0 '40'))) () () 0 0 0 ())
(51 'coment' (CHARACTER 1 ((CONSTANT (INTEGER 4) 0 '60'))) (1 DEFERRED ()
()) () 1 1 0 ()) (52 'refsta' (CHARACTER 1 ((CONSTANT (INTEGER 4) 0 '4')))
(1 DEFERRED () ()) () 1 1 0 ()) (53 'rnxsta' (CHARACTER 1 ((CONSTANT (
INTEGER 4) 0 '4'))) (1 DEFERRED () ()) () 1 1 0 ()) (54 'refclk' (
CHARACTER 1 ((CONSTANT (INTEGER 4) 0 '4'))) () () 0 0 0 ())) PUBLIC ())
44 't_timint' 'm_time' 5 ((DERIVED UNKNOWN UNKNOWN UNKNOWN NONE NONE) (
UNKNOWN) 0 0 () () () '' ((55 't' (REAL 8) (1 EXPLICIT (CONSTANT (
INTEGER 4) 0 '1') (CONSTANT (INTEGER 4) 0 '2')) () 1 0 0 ())) PUBLIC ())
)

('rdclkn' 0 2 's_rdclkn' 0 4)
