G95 module created on Thu Jun 25 17:49:27 2020 from ./.fpp/RDRESH2.f90
If you edit this, you'll get what you deserve.
module-version 9
(() () () () () () () () () () () () () () () () () () () () ())

()

()

()

()

(2 'rdresh2' 's_rdresh2' 1 ((PROCEDURE UNKNOWN MODULE-PROC DECL NONE
NONE SUBROUTINE) (PROCEDURE 0) 0 0 (3 NONE 4 NONE) () () '' () ())
5 's_rdresh2' 's_rdresh2' 1 ((MODULE UNKNOWN UNKNOWN UNKNOWN NONE NONE)
(UNKNOWN) 0 0 () () () '' () ())
4 'reshed' '' 6 ((VARIABLE UNKNOWN UNKNOWN UNKNOWN NONE NONE DUMMY) (
DERIVED 7) 0 0 () () () '' () ())
7 't_reshead' 'd_resfil' 6 ((DERIVED UNKNOWN UNKNOWN UNKNOWN NONE NONE)
(UNKNOWN) 0 0 () () () '' ((8 'title' (CHARACTER 1 ((CONSTANT (INTEGER 4)
0 '80'))) () () 0 0 0 ()) (9 'dsc' (DERIVED 10) () () 0 0 0 ()) (11 'nfil'
(INTEGER 4) () () 0 0 0 ()) (12 'filhead' (DERIVED 13) (1 DEFERRED () ())
() 1 1 0 ())) PUBLIC ())
13 't_filhead' 'd_resfil' 6 ((DERIVED UNKNOWN UNKNOWN UNKNOWN NONE NONE)
(UNKNOWN) 0 0 () () () '' ((14 'meatyp' (INTEGER 4) () () 0 0 0 ()) (15
'nfrfil' (INTEGER 4) () () 0 0 0 ()) (16 'icarr' (INTEGER 4) (1 EXPLICIT
(CONSTANT (INTEGER 4) 0 '1') (CONSTANT (INTEGER 4) 0 '3')) () 1 0 0 ())
(17 'stanam' (CHARACTER 1 ((CONSTANT (INTEGER 4) 0 '16'))) (1 EXPLICIT (
CONSTANT (INTEGER 4) 0 '1') (CONSTANT (INTEGER 4) 0 '2')) () 1 0 0 ()) (
18 'csess' (CHARACTER 1 ((CONSTANT (INTEGER 4) 0 '4'))) (1 EXPLICIT (
CONSTANT (INTEGER 4) 0 '1') (CONSTANT (INTEGER 4) 0 '2')) () 1 0 0 ()) (
19 'ideltt' (INTEGER 4) () () 0 0 0 ()) (20 'timref' (REAL 8) () () 0 0
0 ()) (21 'nsatel' (INTEGER 4) () () 0 0 0 ()) (22 'numsat' (INTEGER 4)
(1 DEFERRED () ()) () 1 1 0 ())) PUBLIC ())
10 't_descr' 'd_resfil' 6 ((DERIVED UNKNOWN UNKNOWN UNKNOWN NONE NONE) (
UNKNOWN) 0 0 () () () '' ((23 'irecfmt' (INTEGER 4) () () 0 0 0 ()) (24
'pgname' (CHARACTER 1 ((CONSTANT (INTEGER 4) 0 '10'))) () () 0 0 0 ()) (
25 'nresat' (INTEGER 4) () () 0 0 0 ()) (26 'nresta' (INTEGER 4) () () 0
0 0 ()) (27 'nresep' (INTEGER 4) () () 0 0 0 ()) (28 'ityp' (INTEGER 4)
() () 0 0 0 ()) (29 'ndiff' (INTEGER 4) () () 0 0 0 ()) (30 'npar' (
INTEGER 4) () () 0 0 0 ()) (31 'ielvaz' (INTEGER 4) () () 0 0 0 ()))
PUBLIC ())
3 'lfn' '' 6 ((VARIABLE UNKNOWN UNKNOWN UNKNOWN NONE NONE DUMMY) (
INTEGER 4) 0 0 () () () '' () ())
)

('rdresh2' 0 2 's_rdresh2' 0 5)
