G95 module created on Thu Jun 25 17:48:27 2020 from ./.fpp/RDFREQ.f90
If you edit this, you'll get what you deserve.
module-version 9
(() () () () () () () () () () () () () () () () () () () () ())

()

()

()

()

(2 'rdfreq' 's_rdfreq' 1 ((PROCEDURE UNKNOWN MODULE-PROC DECL NONE NONE
SUBROUTINE) (PROCEDURE 0) 0 0 (3 NONE) () () '' () ())
4 's_rdfreq' 's_rdfreq' 1 ((MODULE UNKNOWN UNKNOWN UNKNOWN NONE NONE) (
UNKNOWN) 0 0 () () () '' () ())
3 'frqinfo' '' 5 ((VARIABLE UNKNOWN UNKNOWN UNKNOWN NONE NONE DUMMY) (
DERIVED 6) 0 0 () () () '' () ())
6 't_frqinfo' 'd_frqfil' 5 ((DERIVED UNKNOWN UNKNOWN UNKNOWN NONE NONE)
(UNKNOWN) 0 0 () () () '' ((7 'freq' (DERIVED 8) (1 DEFERRED () ()) () 1
1 0 ()) (9 'headline' (CHARACTER 1 ((CONSTANT (INTEGER 4) 0 '255'))) (1
EXPLICIT (CONSTANT (INTEGER 4) 0 '1') (CONSTANT (INTEGER 4) 0 '5')) () 1
0 0 ()) (10 'footline' (CHARACTER 1 ((CONSTANT (INTEGER 4) 0 '255'))) (
1 DEFERRED () ()) () 1 1 0 ()) (11 'frqfile' (CHARACTER 1 ((CONSTANT (
INTEGER 4) 0 '32'))) () () 0 0 0 ())) PUBLIC ())
8 't_freq' 'd_frqfil' 5 ((DERIVED UNKNOWN UNKNOWN UNKNOWN NONE NONE) (
UNKNOWN) 0 0 () () () '' ((12 'typstrg' (CHARACTER 1 ((CONSTANT (
INTEGER 4) 0 '5'))) () () 0 0 0 ()) (13 'satsta' (CHARACTER 1 ((
CONSTANT (INTEGER 4) 0 '20'))) () () 0 0 0 ()) (14 'name' (CHARACTER 1 (
(CONSTANT (INTEGER 4) 0 '2'))) () () 0 0 0 ()) (15 'value' (REAL 8) () ()
0 0 0 ()) (16 'unit' (CHARACTER 1 ((CONSTANT (INTEGER 4) 0 '4'))) () ()
0 0 0 ()) (17 'window' (REAL 8) (1 EXPLICIT (CONSTANT (INTEGER 4) 0 '1')
(CONSTANT (INTEGER 4) 0 '2')) () 1 0 0 ()) (18 'remark' (CHARACTER 1 ((
CONSTANT (INTEGER 4) 0 '23'))) () () 0 0 0 ())) PUBLIC ())
)

('rdfreq' 0 2 's_rdfreq' 0 4)
