G95 module created on Thu Jun 25 17:49:02 2020 from ./.fpp/RDSESS.f90
If you edit this, you'll get what you deserve.
module-version 9
(() () () () () () () () () () () () () () () () () () ()
() ())

()

()

()

()

(2 'rdsess' 's_rdsess' 1 ((PROCEDURE UNKNOWN MODULE-PROC DECL NONE NONE
SUBROUTINE) (PROCEDURE 0) 0 0 (3 NONE 4 NONE) () () '' () ())
5 's_rdsess' 's_rdsess' 1 ((MODULE UNKNOWN UNKNOWN UNKNOWN NONE NONE) (
UNKNOWN) 0 0 () () () '' () ())
4 'sestbl' '' 6 ((VARIABLE UNKNOWN UNKNOWN UNKNOWN NONE NONE DUMMY) (
DERIVED 7) 0 0 () () () '' () ())
7 't_seslst' 'd_sess' 6 ((DERIVED UNKNOWN UNKNOWN UNKNOWN NONE NONE) (
UNKNOWN) 0 0 () () () '' ((8 'fix' (LOGICAL 4) () () 0 0 0 ()) (9 'nsess'
(INTEGER 4) () () 0 0 0 ()) (10 'sess' (DERIVED 11) (1 DEFERRED () ()) ()
1 1 0 ())) PUBLIC ())
11 't_sess' 'd_sess' 6 ((DERIVED UNKNOWN UNKNOWN UNKNOWN NONE NONE) (
UNKNOWN) 0 0 () () () '' ((12 'sessid' (CHARACTER 1 ((CONSTANT (INTEGER
4) 0 '4'))) () () 0 0 0 ()) (13 'timint' (DERIVED 14) () () 0 0 0 ()))
PUBLIC ())
14 't_timint' 'm_time' 6 ((DERIVED UNKNOWN UNKNOWN UNKNOWN NONE NONE) (
UNKNOWN) 0 0 () () () '' ((15 't' (REAL 8) (1 EXPLICIT (CONSTANT (
INTEGER 4) 0 '1') (CONSTANT (INTEGER 4) 0 '2')) () 1 0 0 ())) PUBLIC ())
3 'sesfil' '' 6 ((VARIABLE UNKNOWN UNKNOWN UNKNOWN NONE NONE DUMMY) (
CHARACTER 1 (())) 0 0 () () () '' () ())
)

('rdsess' 0 2 's_rdsess' 0 5)
