G95 module created on Thu Jun 25 17:48:34 2020 from ./.fpp/RDCRXR.f90
If you edit this, you'll get what you deserve.
module-version 9
(() () () () () () () () () () () () () () () () () () () () ())

()

()

()

()

(2 'rdcrxr' 's_rdcrxr' 1 ((PROCEDURE UNKNOWN MODULE-PROC DECL NONE NONE
SUBROUTINE) (PROCEDURE 0) 0 0 (3 NONE 4 NONE 5 NONE 6 NONE 7 NONE 8 NONE)
() () '' () ())
9 's_rdcrxr' 's_rdcrxr' 1 ((MODULE UNKNOWN UNKNOWN UNKNOWN NONE NONE) (
UNKNOWN) 0 0 () () () '' () ())
8 'ircode' '' 10 ((VARIABLE UNKNOWN UNKNOWN UNKNOWN NONE NONE DUMMY) (
INTEGER 4) 0 0 () () () '' () ())
7 'clkrec' '' 10 ((VARIABLE UNKNOWN UNKNOWN UNKNOWN NONE NONE DUMMY) (
DERIVED 11) 0 0 () () () '' () ())
11 't_clkrec' 'd_clkrnx' 10 ((DERIVED UNKNOWN UNKNOWN UNKNOWN NONE NONE)
(UNKNOWN) 0 0 () () () '' ((12 'iepo' (INTEGER 4) () () 0 0 0 ()) (13
'nepo' (INTEGER 4) () () 0 0 0 ()) (14 'epoch' (REAL 8) (1 DEFERRED () ())
() 1 1 0 ()) (15 'clock' (REAL 8) (2 DEFERRED () () () ()) () 1 1 0 ())
(16 'sigma' (REAL 8) (2 DEFERRED () () () ()) () 1 1 0 ()) (17 'clkflg'
(CHARACTER 1 ((CONSTANT (INTEGER 4) 0 '1'))) (2 DEFERRED () () () ()) ()
1 1 0 ())) PUBLIC ())
6 'clkhead' '' 10 ((VARIABLE UNKNOWN UNKNOWN UNKNOWN NONE NONE DUMMY) (
DERIVED 18) 0 0 () () () '' () ())
18 't_clkhead' 'd_clkrnx' 10 ((DERIVED UNKNOWN UNKNOWN UNKNOWN NONE NONE)
(UNKNOWN) 0 0 () () () '' ((19 'rnxvers' (REAL 8) () () 0 0 0 ()) (20
'ncomment' (INTEGER 4) () () 0 0 0 ()) (21 'comment' (CHARACTER 1 ((
CONSTANT (INTEGER 4) 0 '60'))) (1 DEFERRED () ()) () 1 1 0 ()) (22
'prognam' (CHARACTER 1 ((CONSTANT (INTEGER 4) 0 '20'))) () () 0 0 0 ())
(23 'runby' (CHARACTER 1 ((CONSTANT (INTEGER 4) 0 '20'))) () () 0 0 0 ())
(24 'crdate' (CHARACTER 1 ((CONSTANT (INTEGER 4) 0 '20'))) () () 0 0 0 ())
(25 'leapsec' (INTEGER 4) () () 0 0 0 ()) (26 'numtyp' (INTEGER 4) () ()
0 0 0 ()) (27 'dattyp' (CHARACTER 1 ((CONSTANT (INTEGER 4) 0 '2'))) (1
DEFERRED () ()) () 1 1 0 ()) (28 'clk0name' (CHARACTER 1 ((CONSTANT (
INTEGER 4) 0 '16'))) () () 0 0 0 ()) (29 'calname' (CHARACTER 1 ((
CONSTANT (INTEGER 4) 0 '60'))) () () 0 0 0 ()) (30 'ac' (CHARACTER 1 ((
CONSTANT (INTEGER 4) 0 '3'))) () () 0 0 0 ()) (31 'acname' (CHARACTER 1
((CONSTANT (INTEGER 4) 0 '55'))) () () 0 0 0 ()) (32 'timsys' (
CHARACTER 1 ((CONSTANT (INTEGER 4) 0 '3'))) () () 0 0 0 ()) (33 'pgmnam'
(CHARACTER 1 ((CONSTANT (INTEGER 4) 0 '17'))) () () 0 0 0 ()) (34 'dcbstr'
(CHARACTER 1 ((CONSTANT (INTEGER 4) 0 '40'))) () () 0 0 0 ()) (35 'pcvstr'
(CHARACTER 1 ((CONSTANT (INTEGER 4) 0 '40'))) () () 0 0 0 ()) (36 'tfirst'
(REAL 8) () () 0 0 0 ()) (37 'numref' (INTEGER 4) () () 0 0 0 ()) (38
'ref' (DERIVED 39) (1 DEFERRED () ()) () 1 1 0 ()) (40 'trfname' (
CHARACTER 1 ((CONSTANT (INTEGER 4) 0 '50'))) () () 0 0 0 ()) (41 'nsta'
(INTEGER 4) () () 0 0 0 ()) (42 'nsat' (INTEGER 4) () () 0 0 0 ()) (43
'clkname' (CHARACTER 1 ((CONSTANT (INTEGER 4) 0 '16'))) (1 DEFERRED () ())
() 1 1 0 ()) (44 'stacoord' (REAL 8) (2 DEFERRED () () () ()) () 1 1 0 ()))
PUBLIC ())
39 't_ref' 'd_clkrnx' 10 ((DERIVED UNKNOWN UNKNOWN UNKNOWN NONE NONE) (
UNKNOWN) 0 0 () () () '' ((45 'nref' (INTEGER 4) () () 0 0 0 ()) (46 'clk'
(DERIVED 47) (1 DEFERRED () ()) () 1 1 0 ()) (48 'refwin' (DERIVED 49) ()
() 0 0 0 ())) PUBLIC ())
49 't_timint' 'm_time' 10 ((DERIVED UNKNOWN UNKNOWN UNKNOWN NONE NONE) (
UNKNOWN) 0 0 () () () '' ((50 't' (REAL 8) (1 EXPLICIT (CONSTANT (
INTEGER 4) 0 '1') (CONSTANT (INTEGER 4) 0 '2')) () 1 0 0 ())) PUBLIC ())
47 't_refclk' 'd_clkrnx' 10 ((DERIVED UNKNOWN UNKNOWN UNKNOWN NONE NONE)
(UNKNOWN) 0 0 () () () '' ((51 'name' (CHARACTER 1 ((CONSTANT (INTEGER 4)
0 '16'))) () () 0 0 0 ()) (52 'sigma' (REAL 8) () () 0 0 0 ()) (53 'idx'
(INTEGER 4) () () 0 0 0 ()) (54 'idx0' (INTEGER 4) () () 0 0 0 ()))
PUBLIC ())
5 'timewin' '' 10 ((VARIABLE UNKNOWN UNKNOWN UNKNOWN NONE NONE DIMENSION
DUMMY) (REAL 8) 0 0 () (1 EXPLICIT (CONSTANT (INTEGER 4) 0 '1') (
CONSTANT (INTEGER 4) 0 '2')) () '' () ())
4 'lfnmsg' '' 10 ((VARIABLE UNKNOWN UNKNOWN UNKNOWN NONE NONE DUMMY) (
INTEGER 4) 0 0 () () () '' () ())
3 'lfnclk' '' 10 ((VARIABLE UNKNOWN UNKNOWN UNKNOWN NONE NONE DUMMY) (
INTEGER 4) 0 0 () () () '' () ())
)

('rdcrxr' 0 2 's_rdcrxr' 0 9)
