G95 module created on Thu Jun 25 17:49:31 2020 from ./.fpp/RDPCF2.f90
If you edit this, you'll get what you deserve.
module-version 9
(() () () () () () () () () () () () () () () () () () () () ())

()

()

()

()

(2 'rdpcf2' 's_rdpcf2' 1 ((PROCEDURE UNKNOWN MODULE-PROC DECL NONE NONE
SUBROUTINE) (PROCEDURE 0) 0 0 (3 NONE 4 NONE 5 NONE) () () '' () ())
6 's_rdpcf2' 's_rdpcf2' 1 ((MODULE UNKNOWN UNKNOWN UNKNOWN NONE NONE) (
UNKNOWN) 0 0 () () () '' () ())
5 'ircode' '' 7 ((VARIABLE UNKNOWN UNKNOWN UNKNOWN NONE NONE DUMMY) (
INTEGER 4) 0 0 () () () '' () ())
4 'pcf' '' 7 ((VARIABLE UNKNOWN UNKNOWN UNKNOWN NONE NONE DUMMY) (
DERIVED 8) 0 0 () () () '' () ())
8 't_pcf' 'p_bpe' 7 ((DERIVED UNKNOWN UNKNOWN UNKNOWN NONE NONE) (
UNKNOWN) 0 0 () () () '' ((9 'n_pid' (INTEGER 4) () () 0 0 0 ()) (10 'job'
(DERIVED 11) (1 EXPLICIT (CONSTANT (INTEGER 4) 0 '1') (CONSTANT (
INTEGER 4) 0 '400')) () 1 0 0 ()) (12 'nvar' (INTEGER 4) () () 0 0 0 ())
(13 'var' (DERIVED 14) (1 EXPLICIT (CONSTANT (INTEGER 4) 0 '1') (
CONSTANT (INTEGER 4) 0 '60')) () 1 0 0 ()) (15 'ntxt' (INTEGER 4) () ()
0 0 0 ()) (16 'txt' (DERIVED 17) (1 DEFERRED () ()) () 1 1 0 ())) PUBLIC
())
17 't_txt' 'p_bpe' 7 ((DERIVED UNKNOWN UNKNOWN UNKNOWN NONE NONE) (
UNKNOWN) 0 0 () () () '' ((18 'section' (INTEGER 4) () () 0 0 0 ()) (19
'line' (CHARACTER 1 ((CONSTANT (INTEGER 4) 0 '255'))) () () 0 0 0 ()) (
20 'pids' (INTEGER 4) (1 EXPLICIT (CONSTANT (INTEGER 4) 0 '1') (
CONSTANT (INTEGER 4) 0 '2')) () 1 0 0 ())) PUBLIC ())
14 't_var' 'p_bpe' 7 ((DERIVED UNKNOWN UNKNOWN UNKNOWN NONE NONE) (
UNKNOWN) 0 0 () () () '' ((21 'varnam' (CHARACTER 1 ((CONSTANT (INTEGER
4) 0 '8'))) () () 0 0 0 ()) (22 'vardsc' (CHARACTER 1 ((CONSTANT (
INTEGER 4) 0 '40'))) () () 0 0 0 ()) (23 'vardef' (CHARACTER 1 ((
CONSTANT (INTEGER 4) 0 '32'))) () () 0 0 0 ())) PUBLIC ())
11 't_job' 'p_bpe' 7 ((DERIVED UNKNOWN UNKNOWN UNKNOWN NONE NONE) (
UNKNOWN) 0 0 () () () '' ((24 'ipid' (INTEGER 4) () () 0 0 0 ()) (25
'script' (CHARACTER 1 ((CONSTANT (INTEGER 4) 0 '8'))) () () 0 0 0 ()) (
26 'option' (CHARACTER 1 ((CONSTANT (INTEGER 4) 0 '8'))) () () 0 0 0 ())
(27 'camp' (CHARACTER 1 ((CONSTANT (INTEGER 4) 0 '8'))) () () 0 0 0 ())
(28 'cpu' (CHARACTER 1 ((CONSTANT (INTEGER 4) 0 '8'))) () () 0 0 0 ()) (
29 'user' (CHARACTER 1 ((CONSTANT (INTEGER 4) 0 '12'))) () () 0 0 0 ())
(30 'paswrd' (CHARACTER 1 ((CONSTANT (INTEGER 4) 0 '8'))) () () 0 0 0 ())
(31 'n_wait' (INTEGER 4) () () 0 0 0 ()) (32 'iwait' (INTEGER 4) (1
EXPLICIT (CONSTANT (INTEGER 4) 0 '1') (CONSTANT (INTEGER 4) 0 '10')) ()
1 0 0 ()) (33 'ptype' (INTEGER 4) () () 0 0 0 ()) (34 'params' (
CHARACTER 1 ((CONSTANT (INTEGER 4) 0 '80'))) (1 EXPLICIT (CONSTANT (
INTEGER 4) 0 '1') (CONSTANT (INTEGER 4) 0 '9')) () 1 0 0 ()) (35 'jflags'
(CHARACTER 1 ((CONSTANT (INTEGER 4) 0 '1'))) () () 0 0 0 ())) PUBLIC ())
3 'pcffil' '' 7 ((VARIABLE UNKNOWN UNKNOWN UNKNOWN NONE NONE DUMMY) (
CHARACTER 1 (())) 0 0 () () () '' () ())
)

('rdpcf2' 0 2 's_rdpcf2' 0 6)
