G95 module created on Thu Jun 25 17:50:52 2020 from ./.fpp/RDATXANT.f90
If you edit this, you'll get what you deserve.
module-version 9
(() () () () () () () () () () () () () () () () () () () () ())

()

()

()

()

(2 'rdatxant' 's_rdatxant' 1 ((PROCEDURE UNKNOWN MODULE-PROC DECL NONE
NONE SUBROUTINE) (PROCEDURE 0) 0 0 (3 NONE 4 NONE 5 NONE 6 NONE 7 NONE 8
NONE 9 NONE 10 NONE) () () '' () ())
11 's_rdatxant' 's_rdatxant' 1 ((MODULE UNKNOWN UNKNOWN UNKNOWN NONE
NONE) (UNKNOWN) 0 0 () () () '' () ())
10 'timint' '' 12 ((VARIABLE UNKNOWN UNKNOWN UNKNOWN NONE NONE OPTIONAL
DUMMY) (DERIVED 13) 0 0 () () () '' () ())
13 't_timint' 'm_time' 12 ((DERIVED UNKNOWN UNKNOWN UNKNOWN NONE NONE) (
UNKNOWN) 0 0 () () () '' ((14 't' (REAL 8) (1 EXPLICIT (CONSTANT (
INTEGER 4) 0 '1') (CONSTANT (INTEGER 4) 0 '2')) () 1 0 0 ())) PUBLIC ())
9 'aoapcv' '' 12 ((VARIABLE UNKNOWN UNKNOWN UNKNOWN NONE NONE DIMENSION
POINTER DUMMY) (REAL 8) 0 0 () (2 DEFERRED () () () ()) () '' () ())
8 'maxsys' '' 12 ((VARIABLE UNKNOWN UNKNOWN UNKNOWN NONE NONE DUMMY) (
INTEGER 4) 0 0 () () () '' () ())
7 'aoadmt' '' 12 ((VARIABLE UNKNOWN UNKNOWN UNKNOWN NONE NONE DUMMY) (
INTEGER 4) 0 0 () () () '' () ())
6 'filext' '' 12 ((VARIABLE UNKNOWN UNKNOWN UNKNOWN NONE NONE DUMMY) (
CHARACTER 1 ((CONSTANT (INTEGER 4) 0 '32'))) 0 0 () () () '' () ())
5 'iant' '' 12 ((VARIABLE UNKNOWN UNKNOWN UNKNOWN NONE NONE DUMMY) (
INTEGER 4) 0 0 () () () '' () ())
4 'antbuf' '' 12 ((VARIABLE UNKNOWN UNKNOWN UNKNOWN NONE NONE DIMENSION
POINTER DUMMY) (DERIVED 15) 0 0 () (1 DEFERRED () ()) () '' () ())
15 't_phasfil' 'd_phaecc' 12 ((DERIVED UNKNOWN UNKNOWN UNKNOWN NONE NONE)
(UNKNOWN) 0 0 () () () '' ((16 'name' (CHARACTER 1 ((CONSTANT (INTEGER 4)
0 '20'))) () () 0 0 0 ()) (17 'numb' (INTEGER 4) () () 0 0 0 ()) (18 'sys'
(DERIVED 19) (1 DEFERRED () ()) () 1 1 0 ()) (20 'individ' (INTEGER 4) ()
() 0 0 0 ())) PUBLIC ())
19 't_sys' 'd_phaecc' 12 ((DERIVED UNKNOWN UNKNOWN UNKNOWN NONE NONE) (
UNKNOWN) 0 0 () () () '' ((21 'freq' (DERIVED 22) (1 DEFERRED () ()) ()
1 1 0 ()) (23 'nfreq' (INTEGER 4) () () 0 0 0 ()) (24 'typ' (INTEGER 4)
() () 0 0 0 ()) (25 'resolu' (INTEGER 4) (1 EXPLICIT (CONSTANT (INTEGER
4) 0 '1') (CONSTANT (INTEGER 4) 0 '4')) () 1 0 0 ()) (26 'sinex' (
CHARACTER 1 ((CONSTANT (INTEGER 4) 0 '10'))) () () 0 0 0 ()) (27 'method'
(CHARACTER 1 ((CONSTANT (INTEGER 4) 0 '20'))) () () 0 0 0 ()) (28 'date'
(CHARACTER 1 ((CONSTANT (INTEGER 4) 0 '10'))) () () 0 0 0 ()) (29 'remark'
(CHARACTER 1 ((CONSTANT (INTEGER 4) 0 '255'))) () () 0 0 0 ())) PUBLIC ())
22 't_freq' 'd_phaecc' 12 ((DERIVED UNKNOWN UNKNOWN UNKNOWN NONE NONE) (
UNKNOWN) 0 0 () () () '' ((30 'freq' (INTEGER 4) () () 0 0 0 ()) (31 'off'
(REAL 8) (2 DEFERRED () () () ()) () 1 1 0 ()) (32 'pat' (REAL 8) (3
DEFERRED () () () () () ()) () 1 1 0 ()) (33 'fac' (REAL 8) (1 DEFERRED
() ()) () 1 1 0 ())) PUBLIC ())
3 'issat' '' 12 ((VARIABLE UNKNOWN UNKNOWN UNKNOWN NONE NONE DUMMY) (
INTEGER 4) 0 0 () () () '' () ())
)

('rdatxant' 0 2 's_rdatxant' 0 11)
