G95 module created on Thu Jun 25 17:48:47 2020 from ./.fpp/RDPWIN.f90
If you edit this, you'll get what you deserve.
module-version 9
(() () () () () () () () () () () () () () () () () () () () ())

()

()

()

()

(2 'rdpwin' 's_rdpwin' 1 ((PROCEDURE UNKNOWN MODULE-PROC DECL NONE NONE
SUBROUTINE) (PROCEDURE 0) 0 0 (3 NONE 4 NONE 5 NONE 6 NONE) () () '' ()
())
7 's_rdpwin' 's_rdpwin' 1 ((MODULE UNKNOWN UNKNOWN UNKNOWN NONE NONE) (
UNKNOWN) 0 0 () () () '' () ())
6 'dt_0' '' 8 ((VARIABLE UNKNOWN UNKNOWN UNKNOWN NONE NONE DUMMY) (REAL
8) 0 0 () () () '' () ())
5 't_0' '' 8 ((VARIABLE UNKNOWN UNKNOWN UNKNOWN NONE NONE DUMMY) (REAL 8)
0 0 () () () '' () ())
4 'key_t0' '' 8 ((VARIABLE UNKNOWN UNKNOWN UNKNOWN NONE NONE DIMENSION
DUMMY) (CHARACTER 1 (())) 0 0 () (1 EXPLICIT (CONSTANT (INTEGER 4) 0 '1')
(CONSTANT (INTEGER 4) 0 '2')) () '' () ())
3 'key_dt' '' 8 ((VARIABLE UNKNOWN UNKNOWN UNKNOWN NONE NONE DUMMY) (
CHARACTER 1 (())) 0 0 () () () '' () ())
)

('rdpwin' 0 2 's_rdpwin' 0 7)
