G95 module created on Thu Jun 25 17:49:06 2020 from ./.fpp/RDIGRD.f90
If you edit this, you'll get what you deserve.
module-version 9
(() () () () () () () () () () () () () () () () () () () () ())

()

()

()

()

(2 'rdigrd' 's_rdigrd' 1 ((PROCEDURE UNKNOWN MODULE-PROC DECL NONE NONE
SUBROUTINE) (PROCEDURE 0) 0 0 (3 NONE 4 NONE 5 NONE 6 NONE) () () '' ()
())
7 's_rdigrd' 's_rdigrd' 1 ((MODULE UNKNOWN UNKNOWN UNKNOWN NONE NONE) (
UNKNOWN) 0 0 () () () '' () ())
6 'opload' '' 8 ((VARIABLE UNKNOWN UNKNOWN UNKNOWN NONE NONE DIMENSION
DUMMY) (DERIVED 9) 0 0 () (1 EXPLICIT (CONSTANT (INTEGER 4) 0 '1') (
CONSTANT (INTEGER 4) 0 '3')) () '' () ())
9 't_optload' 'p_gpsest' 8 ((DERIVED UNKNOWN UNKNOWN UNKNOWN NONE NONE)
(UNKNOWN) 0 0 () () () '' ((10 'keyw' (CHARACTER 1 ((CONSTANT (INTEGER 4)
0 '12'))) () () 0 0 0 ()) (11 'nsta' (INTEGER 4) () () 0 0 0 ()) (12
'stalst' (CHARACTER 1 ((CONSTANT (INTEGER 4) 0 '16'))) (1 DEFERRED () ())
() 1 1 0 ()) (13 'staclu' (INTEGER 4) (1 DEFERRED () ()) () 1 1 0 ()) (
14 'npar' (INTEGER 4) () () 0 0 0 ()) (15 'sigma' (REAL 8) (1 EXPLICIT (
CONSTANT (INTEGER 4) 0 '1') (CONSTANT (INTEGER 4) 0 '3')) () 1 0 0 ()))
PUBLIC ())
5 'allstaname' '' 8 ((VARIABLE UNKNOWN UNKNOWN UNKNOWN NONE NONE
DIMENSION DUMMY) (CHARACTER 1 ((CONSTANT (INTEGER 4) 0 '16'))) 0 0 () (
1 ASSUMED_SHAPE () ()) () '' () ())
4 'allstanum' '' 8 ((VARIABLE UNKNOWN UNKNOWN UNKNOWN NONE NONE
DIMENSION DUMMY) (INTEGER 4) 0 0 () (1 ASSUMED_SIZE (CONSTANT (INTEGER 4)
0 '1') ()) () '' () ())
3 'nallsta' '' 8 ((VARIABLE UNKNOWN UNKNOWN UNKNOWN NONE NONE DUMMY) (
INTEGER 4) 0 0 () () () '' () ())
)

('rdigrd' 0 2 's_rdigrd' 0 7)
