G95 module created on Thu Jun 25 17:49:05 2020 from ./.fpp/RDICLK.f90
If you edit this, you'll get what you deserve.
module-version 9
(() () () () () () () () () () () () () () () () () () () () ())

()

()

()

()

(2 'rdiclk' 's_rdiclk' 1 ((PROCEDURE UNKNOWN MODULE-PROC DECL NONE NONE
SUBROUTINE) (PROCEDURE 0) 0 0 (3 NONE 4 NONE 5 NONE 6 NONE 7 NONE 8 NONE
9 NONE 10 NONE 11 NONE 12 NONE 13 NONE 14 NONE 15 NONE 16 NONE) () () ''
() ())
17 's_rdiclk' 's_rdiclk' 1 ((MODULE UNKNOWN UNKNOWN UNKNOWN NONE NONE) (
UNKNOWN) 0 0 () () () '' () ())
16 'clkhed' '' 18 ((VARIABLE UNKNOWN UNKNOWN UNKNOWN NONE NONE DUMMY) (
DERIVED 19) 0 0 () () () '' () ())
19 't_clkhead' 'd_clkrnx' 18 ((DERIVED UNKNOWN UNKNOWN UNKNOWN NONE NONE)
(UNKNOWN) 0 0 () () () '' ((20 'rnxvers' (REAL 8) () () 0 0 0 ()) (21
'ncomment' (INTEGER 4) () () 0 0 0 ()) (22 'comment' (CHARACTER 1 ((
CONSTANT (INTEGER 4) 0 '60'))) (1 DEFERRED () ()) () 1 1 0 ()) (23
'prognam' (CHARACTER 1 ((CONSTANT (INTEGER 4) 0 '20'))) () () 0 0 0 ())
(24 'runby' (CHARACTER 1 ((CONSTANT (INTEGER 4) 0 '20'))) () () 0 0 0 ())
(25 'crdate' (CHARACTER 1 ((CONSTANT (INTEGER 4) 0 '20'))) () () 0 0 0 ())
(26 'leapsec' (INTEGER 4) () () 0 0 0 ()) (27 'numtyp' (INTEGER 4) () ()
0 0 0 ()) (28 'dattyp' (CHARACTER 1 ((CONSTANT (INTEGER 4) 0 '2'))) (1
DEFERRED () ()) () 1 1 0 ()) (29 'clk0name' (CHARACTER 1 ((CONSTANT (
INTEGER 4) 0 '16'))) () () 0 0 0 ()) (30 'calname' (CHARACTER 1 ((
CONSTANT (INTEGER 4) 0 '60'))) () () 0 0 0 ()) (31 'ac' (CHARACTER 1 ((
CONSTANT (INTEGER 4) 0 '3'))) () () 0 0 0 ()) (32 'acname' (CHARACTER 1
((CONSTANT (INTEGER 4) 0 '55'))) () () 0 0 0 ()) (33 'timsys' (
CHARACTER 1 ((CONSTANT (INTEGER 4) 0 '3'))) () () 0 0 0 ()) (34 'pgmnam'
(CHARACTER 1 ((CONSTANT (INTEGER 4) 0 '17'))) () () 0 0 0 ()) (35 'dcbstr'
(CHARACTER 1 ((CONSTANT (INTEGER 4) 0 '40'))) () () 0 0 0 ()) (36 'pcvstr'
(CHARACTER 1 ((CONSTANT (INTEGER 4) 0 '40'))) () () 0 0 0 ()) (37 'tfirst'
(REAL 8) () () 0 0 0 ()) (38 'numref' (INTEGER 4) () () 0 0 0 ()) (39
'ref' (DERIVED 40) (1 DEFERRED () ()) () 1 1 0 ()) (41 'trfname' (
CHARACTER 1 ((CONSTANT (INTEGER 4) 0 '50'))) () () 0 0 0 ()) (42 'nsta'
(INTEGER 4) () () 0 0 0 ()) (43 'nsat' (INTEGER 4) () () 0 0 0 ()) (44
'clkname' (CHARACTER 1 ((CONSTANT (INTEGER 4) 0 '16'))) (1 DEFERRED () ())
() 1 1 0 ()) (45 'stacoord' (REAL 8) (2 DEFERRED () () () ()) () 1 1 0 ()))
PUBLIC ())
40 't_ref' 'd_clkrnx' 18 ((DERIVED UNKNOWN UNKNOWN UNKNOWN NONE NONE) (
UNKNOWN) 0 0 () () () '' ((46 'nref' (INTEGER 4) () () 0 0 0 ()) (47 'clk'
(DERIVED 48) (1 DEFERRED () ()) () 1 1 0 ()) (49 'refwin' (DERIVED 50) ()
() 0 0 0 ())) PUBLIC ())
50 't_timint' 'm_time' 18 ((DERIVED UNKNOWN UNKNOWN UNKNOWN NONE NONE) (
UNKNOWN) 0 0 () () () '' ((51 't' (REAL 8) (1 EXPLICIT (CONSTANT (
INTEGER 4) 0 '1') (CONSTANT (INTEGER 4) 0 '2')) () 1 0 0 ())) PUBLIC ())
48 't_refclk' 'd_clkrnx' 18 ((DERIVED UNKNOWN UNKNOWN UNKNOWN NONE NONE)
(UNKNOWN) 0 0 () () () '' ((52 'name' (CHARACTER 1 ((CONSTANT (INTEGER 4)
0 '16'))) () () 0 0 0 ()) (53 'sigma' (REAL 8) () () 0 0 0 ()) (54 'idx'
(INTEGER 4) () () 0 0 0 ()) (55 'idx0' (INTEGER 4) () () 0 0 0 ()))
PUBLIC ())
15 'clksys' '' 18 ((VARIABLE UNKNOWN UNKNOWN UNKNOWN NONE NONE DUMMY) (
INTEGER 4) 0 0 () () () '' () ())
14 'irel2' '' 18 ((VARIABLE UNKNOWN UNKNOWN UNKNOWN NONE NONE DUMMY) (
INTEGER 4) 0 0 () () () '' () ())
13 'nepobs' '' 18 ((VARIABLE UNKNOWN UNKNOWN UNKNOWN NONE NONE DIMENSION
DUMMY) (INTEGER 4) 0 0 () (1 ASSUMED_SIZE (CONSTANT (INTEGER 4) 0 '1') ())
() '' () ())
12 'clksat' '' 18 ((VARIABLE UNKNOWN UNKNOWN UNKNOWN NONE NONE DIMENSION
DUMMY) (INTEGER 4) 0 0 () (1 ASSUMED_SIZE (CONSTANT (INTEGER 4) 0 '1') ())
() '' () ())
11 'clksta' '' 18 ((VARIABLE UNKNOWN UNKNOWN UNKNOWN NONE NONE DIMENSION
DUMMY) (INTEGER 4) 0 0 () (1 ASSUMED_SIZE (CONSTANT (INTEGER 4) 0 '1') ())
() '' () ())
10 'nclksa' '' 18 ((VARIABLE UNKNOWN UNKNOWN UNKNOWN NONE NONE DUMMY) (
INTEGER 4) 0 0 () () () '' () ())
9 'nclkst' '' 18 ((VARIABLE UNKNOWN UNKNOWN UNKNOWN NONE NONE DUMMY) (
INTEGER 4) 0 0 () () () '' () ())
8 'isasys' '' 18 ((VARIABLE UNKNOWN UNKNOWN UNKNOWN NONE NONE DUMMY) (
INTEGER 4) 0 0 () () () '' () ())
7 'allsatnum' '' 18 ((VARIABLE UNKNOWN UNKNOWN UNKNOWN NONE NONE
DIMENSION DUMMY) (INTEGER 4) 0 0 () (1 ASSUMED_SIZE (CONSTANT (INTEGER 4)
0 '1') ()) () '' () ())
6 'nallsat' '' 18 ((VARIABLE UNKNOWN UNKNOWN UNKNOWN NONE NONE DUMMY) (
INTEGER 4) 0 0 () () () '' () ())
5 'allstaname' '' 18 ((VARIABLE UNKNOWN UNKNOWN UNKNOWN NONE NONE
DIMENSION DUMMY) (CHARACTER 1 ((CONSTANT (INTEGER 4) 0 '16'))) 0 0 () (
1 ASSUMED_SHAPE () ()) () '' () ())
4 'allstanum' '' 18 ((VARIABLE UNKNOWN UNKNOWN UNKNOWN NONE NONE
DIMENSION DUMMY) (INTEGER 4) 0 0 () (1 ASSUMED_SIZE (CONSTANT (INTEGER 4)
0 '1') ()) () '' () ())
3 'nallsta' '' 18 ((VARIABLE UNKNOWN UNKNOWN UNKNOWN NONE NONE DUMMY) (
INTEGER 4) 0 0 () () () '' () ())
)

('rdiclk' 0 2 's_rdiclk' 0 17)
