G95 module created on Thu Jun 25 17:50:13 2020 from ./.fpp/RDFMTH2.f90
If you edit this, you'll get what you deserve.
module-version 9
(() () () () () () () () () () () () () () () () () () () () ())

()

()

()

()

(2 'rdfmth2' 's_rdfmth2' 1 ((PROCEDURE UNKNOWN MODULE-PROC DECL NONE
NONE SUBROUTINE) (PROCEDURE 0) 0 0 (3 NONE 4 NONE) () () '' () ())
5 's_rdfmth2' 's_rdfmth2' 1 ((MODULE UNKNOWN UNKNOWN UNKNOWN NONE NONE)
(UNKNOWN) 0 0 () () () '' () ())
4 'head' '' 6 ((VARIABLE UNKNOWN UNKNOWN UNKNOWN NONE NONE DUMMY) (
DERIVED 7) 0 0 () () () '' () ())
7 't_obshead' 'd_gpsobs' 6 ((DERIVED UNKNOWN UNKNOWN UNKNOWN NONE NONE)
(UNKNOWN) 0 0 () () () '' ((8 'campgn' (CHARACTER 1 ((CONSTANT (INTEGER
4) 0 '16'))) () () 0 0 0 ()) (9 'title' (CHARACTER 1 ((CONSTANT (
INTEGER 4) 0 '53'))) () () 0 0 0 ()) (10 'irmark' (INTEGER 4) () () 0 0
0 ()) (11 'ifrmat' (INTEGER 4) () () 0 0 0 ()) (12 'csess' (CHARACTER 1
((CONSTANT (INTEGER 4) 0 '4'))) (1 EXPLICIT (CONSTANT (INTEGER 4) 0 '1')
(CONSTANT (INTEGER 4) 0 '2')) () 1 0 0 ()) (13 'crdate' (CHARACTER 1 ((
CONSTANT (INTEGER 4) 0 '9'))) (1 EXPLICIT (CONSTANT (INTEGER 4) 0 '1') (
CONSTANT (INTEGER 4) 0 '2')) () 1 0 0 ()) (14 'crtime' (CHARACTER 1 ((
CONSTANT (INTEGER 4) 0 '5'))) (1 EXPLICIT (CONSTANT (INTEGER 4) 0 '1') (
CONSTANT (INTEGER 4) 0 '2')) () 1 0 0 ()) (15 'timref' (REAL 8) () () 0
0 0 ()) (16 'ideltt' (INTEGER 4) () () 0 0 0 ()) (17 'meatyp' (INTEGER 4)
() () 0 0 0 ()) (18 'ndiff' (INTEGER 4) () () 0 0 0 ()) (19 'nfreq' (
INTEGER 4) () () 0 0 0 ()) (20 'nepoch' (INTEGER 4) () () 0 0 0 ()) (21
'numamb' (INTEGER 4) () () 0 0 0 ()) (22 'nsatel' (INTEGER 4) () () 0 0
0 ()) (23 'nepflg' (INTEGER 4) () () 0 0 0 ()) (24 'sta' (DERIVED 25) (
1 EXPLICIT (CONSTANT (INTEGER 4) 0 '1') (CONSTANT (INTEGER 4) 0 '2')) ()
1 0 0 ()) (26 'sat' (DERIVED 27) (1 DEFERRED () ()) () 1 1 0 ()) (28
'ambigu' (DERIVED 29) (1 DEFERRED () ()) () 1 1 0 ())) PUBLIC ())
29 't_ambigu' 'd_ambigu' 6 ((DERIVED UNKNOWN UNKNOWN UNKNOWN NONE NONE)
(UNKNOWN) 0 0 () () () '' ((30 'ambigu' (REAL 8) (1 EXPLICIT (CONSTANT (
INTEGER 4) 0 '1') (CONSTANT (INTEGER 4) 0 '3')) () 1 0 0 ()) (31 'ambsat'
(INTEGER 4) () () 0 0 0 ()) (32 'ambiep' (INTEGER 4) () () 0 0 0 ()) (
33 'ambwlf' (INTEGER 4) (1 EXPLICIT (CONSTANT (INTEGER 4) 0 '1') (
CONSTANT (INTEGER 4) 0 '2')) () 1 0 0 ()) (34 'ambcls' (INTEGER 4) (1
EXPLICIT (CONSTANT (INTEGER 4) 0 '1') (CONSTANT (INTEGER 4) 0 '3')) () 1
0 0 ()) (35 'solved' (LOGICAL 4) () () 0 0 0 ())) PUBLIC ())
27 't_sat' 'd_gpsobs' 6 ((DERIVED UNKNOWN UNKNOWN UNKNOWN NONE NONE) (
UNKNOWN) 0 0 () () () '' ((36 'numsat' (INTEGER 4) () () 0 0 0 ()) (37
'numobs' (INTEGER 4) (1 EXPLICIT (CONSTANT (INTEGER 4) 0 '1') (CONSTANT
(INTEGER 4) 0 '2')) () 1 0 0 ()) (38 'nummrk' (INTEGER 4) (1 EXPLICIT (
CONSTANT (INTEGER 4) 0 '1') (CONSTANT (INTEGER 4) 0 '2')) () 1 0 0 ()) (
39 'obstyp' (CHARACTER 1 ((CONSTANT (INTEGER 4) 0 '3'))) (1 EXPLICIT (
CONSTANT (INTEGER 4) 0 '1') (CONSTANT (INTEGER 4) 0 '8')) () 1 0 0 ()))
PUBLIC ())
25 't_sta' 'd_gpsobs' 6 ((DERIVED UNKNOWN UNKNOWN UNKNOWN NONE NONE) (
UNKNOWN) 0 0 () () () '' ((40 'stanam' (CHARACTER 1 ((CONSTANT (INTEGER
4) 0 '16'))) () () 0 0 0 ()) (41 'oprnam' (CHARACTER 1 ((CONSTANT (
INTEGER 4) 0 '20'))) () () 0 0 0 ()) (42 'rectyp' (CHARACTER 1 ((
CONSTANT (INTEGER 4) 0 '20'))) () () 0 0 0 ()) (43 'irunit' (INTEGER 4)
() () 0 0 0 ()) (44 'anttyp' (CHARACTER 1 ((CONSTANT (INTEGER 4) 0 '20')))
() () 0 0 0 ()) (45 'ianten' (INTEGER 4) () () 0 0 0 ()) (46 'posecc' (
REAL 8) (1 EXPLICIT (CONSTANT (INTEGER 4) 0 '1') (CONSTANT (INTEGER 4) 0
'3')) () 1 0 0 ()) (47 'iclock' (INTEGER 4) () () 0 0 0 ())) PUBLIC ())
3 'lfnrdf' '' 6 ((VARIABLE UNKNOWN UNKNOWN UNKNOWN NONE NONE DUMMY) (
INTEGER 4) 0 0 () () () '' () ())
)

('rdfmth2' 0 2 's_rdfmth2' 0 5)
