G95 module created on Thu Jun 25 17:49:44 2020 from ./.fpp/RDEDIT2.f90
If you edit this, you'll get what you deserve.
module-version 9
(() () () () () () () () () () () () () () () () () () () () ())

()

()

()

()

(2 'rdedit2' 's_rdedit2' 1 ((PROCEDURE UNKNOWN MODULE-PROC DECL NONE
NONE SUBROUTINE) (PROCEDURE 0) 0 0 (3 NONE) () () '' () ())
4 's_rdedit2' 's_rdedit2' 1 ((MODULE UNKNOWN UNKNOWN UNKNOWN NONE NONE)
(UNKNOWN) 0 0 () () () '' () ())
3 'edt' '' 5 ((VARIABLE UNKNOWN UNKNOWN UNKNOWN NONE NONE DUMMY) (
DERIVED 6) 0 0 () () () '' () ())
6 't_edit' 'd_edit' 5 ((DERIVED UNKNOWN UNKNOWN UNKNOWN NONE NONE) (
UNKNOWN) 0 0 () () () '' ((7 'head' (DERIVED 8) (1 DEFERRED () ()) () 1
1 0 ()) (9 'rec' (DERIVED 10) (1 DEFERRED () ()) () 1 1 0 ()) (11 'title'
(CHARACTER 1 ((CONSTANT (INTEGER 4) 0 '80'))) () () 0 0 0 ()) (12 'filnam'
(CHARACTER 1 ((CONSTANT (INTEGER 4) 0 '32'))) () () 0 0 0 ()) (13 'resmax'
(REAL 8) (1 EXPLICIT (CONSTANT (INTEGER 4) 0 '1') (CONSTANT (INTEGER 4)
0 '3')) () 1 0 0 ()) (14 'nedfil' (INTEGER 4) () () 0 0 0 ()) (15 'nedt'
(INTEGER 4) () () 0 0 0 ()) (16 'nsampl' (INTEGER 4) () () 0 0 0 ()) (
17 'minamb' (INTEGER 4) () () 0 0 0 ()) (18 'minint' (INTEGER 4) () () 0
0 0 ()) (19 'isampl' (INTEGER 4) () () 0 0 0 ())) PUBLIC ())
10 't_edtrec' 'd_edit' 5 ((DERIVED UNKNOWN UNKNOWN UNKNOWN NONE NONE) (
UNKNOWN) 0 0 () () () '' ((20 'lstcyc' (REAL 8) () () 0 0 0 ()) (21
'lstedt' (INTEGER 4) (1 EXPLICIT (CONSTANT (INTEGER 4) 0 '1') (CONSTANT
(INTEGER 4) 0 '7')) () 1 0 0 ())) PUBLIC ())
8 't_edthead' 'd_edit' 5 ((DERIVED UNKNOWN UNKNOWN UNKNOWN NONE NONE) (
UNKNOWN) 0 0 () () () '' ((22 'cseedt' (CHARACTER 1 ((CONSTANT (INTEGER
4) 0 '4'))) (1 EXPLICIT (CONSTANT (INTEGER 4) 0 '1') (CONSTANT (INTEGER
4) 0 '2')) () 1 0 0 ()) (23 'staedt' (CHARACTER 1 ((CONSTANT (INTEGER 4)
0 '16'))) (1 EXPLICIT (CONSTANT (INTEGER 4) 0 '1') (CONSTANT (INTEGER 4)
0 '2')) () 1 0 0 ()) (24 'timedt' (REAL 8) () () 0 0 0 ()) (25 'idtedt'
(INTEGER 4) () () 0 0 0 ()) (26 'meaedt' (INTEGER 4) () () 0 0 0 ()))
PUBLIC ())
)

('rdedit2' 0 2 's_rdedit2' 0 4)
