G95 module created on Thu Jun 25 17:48:39 2020 from ./.fpp/RHSHIL.f
If you edit this, you'll get what you deserve.
module-version 9
(() () (2 3 4) () () () () () () () () () () () () () () () () () ())

()

()

()

()

(2 'addtimwin' 'm_epoch' 1 ((PROCEDURE UNKNOWN MODULE-PROC DECL NONE
NONE FUNCTION INVOKED) (DERIVED 5) 0 0 (6 NONE 7 NONE) () () '' () ())
3 'addepoch' 'm_epoch' 1 ((PROCEDURE UNKNOWN MODULE-PROC DECL NONE NONE
FUNCTION INVOKED) (DERIVED 8) 0 0 (9 NONE 10 NONE) () () '' () ())
4 'addfrac' 'm_epoch' 1 ((PROCEDURE UNKNOWN MODULE-PROC DECL NONE NONE
FUNCTION INVOKED) (DERIVED 8) 0 0 (11 NONE 12 NONE) () () '' () ())
8 't_epoch' 'm_epoch' 1 ((DERIVED UNKNOWN UNKNOWN UNKNOWN NONE NONE) (
UNKNOWN) 0 0 () () () '' ((13 'day' (INTEGER 4) () () 0 0 0 ()) (14 'frac'
(REAL 8) () () 0 0 0 ())) PUBLIC ())
5 't_timwin' 'm_epoch' 1 ((DERIVED UNKNOWN UNKNOWN UNKNOWN NONE NONE) (
UNKNOWN) 0 0 () () () '' ((15 't' (DERIVED 8) (1 EXPLICIT (CONSTANT (
INTEGER 4) 0 '1') (CONSTANT (INTEGER 4) 0 '2')) () 1 0 0 ())) PUBLIC ())
16 'm_epoch' 'm_epoch' 1 ((MODULE UNKNOWN UNKNOWN UNKNOWN NONE NONE) (
UNKNOWN) 0 0 () () () '' () ())
17 'rhshil' 's_rhshil' 1 ((PROCEDURE UNKNOWN MODULE-PROC DECL NONE NONE
SUBROUTINE) (PROCEDURE 0) 0 0 (18 NONE 19 NONE 20 NONE 21 NONE 22 NONE
23 NONE 24 NONE 25 NONE 26 NONE 27 NONE 28 NONE 29 NONE 30 NONE) () () ''
() ())
31 's_rhshil' 's_rhshil' 1 ((MODULE UNKNOWN UNKNOWN UNKNOWN NONE NONE) (
UNKNOWN) 0 0 () () () '' () ())
30 'rhs' '' 32 ((VARIABLE UNKNOWN UNKNOWN UNKNOWN NONE NONE DIMENSION
DUMMY) (REAL 8) 0 0 () (2 ASSUMED_SIZE (CONSTANT (INTEGER 4) 0 '1') (
CONSTANT (INTEGER 4) 0 '6') (CONSTANT (INTEGER 4) 0 '1') ()) () '' () ())
29 'rsw' '' 32 ((VARIABLE UNKNOWN UNKNOWN UNKNOWN NONE NONE DIMENSION
DUMMY) (REAL 8) 0 0 () (2 ASSUMED_SIZE (CONSTANT (INTEGER 4) 0 '1') (
CONSTANT (INTEGER 4) 0 '3') (CONSTANT (INTEGER 4) 0 '1') ()) () '' () ())
28 'xnorm' '' 32 ((VARIABLE UNKNOWN UNKNOWN UNKNOWN NONE NONE DUMMY) (
REAL 8) 0 0 () () () '' () ())
27 'timrel' '' 32 ((VARIABLE UNKNOWN UNKNOWN UNKNOWN NONE NONE DIMENSION
DUMMY) (REAL 8) 0 0 () (1 ASSUMED_SIZE (CONSTANT (INTEGER 4) 0 '1') ())
() '' () ())
26 'npts' '' 32 ((VARIABLE UNKNOWN UNKNOWN UNKNOWN NONE NONE DUMMY) (
INTEGER 4) 0 0 () () () '' () ())
25 'xn' '' 32 ((VARIABLE UNKNOWN UNKNOWN UNKNOWN NONE NONE DUMMY) (REAL
8) 0 0 () () () '' () ())
24 'ele' '' 32 ((VARIABLE UNKNOWN UNKNOWN UNKNOWN NONE NONE DIMENSION
DUMMY) (REAL 8) 0 0 () (1 ASSUMED_SIZE (CONSTANT (INTEGER 4) 0 '1') ())
() '' () ())
23 'iorsys' '' 32 ((VARIABLE UNKNOWN UNKNOWN UNKNOWN NONE NONE DUMMY) (
INTEGER 4) 0 0 () () () '' () ())
22 'lochil' '' 32 ((VARIABLE UNKNOWN UNKNOWN UNKNOWN NONE NONE DIMENSION
DUMMY) (INTEGER 4) 0 0 () (1 ASSUMED_SIZE (CONSTANT (INTEGER 4) 0 '1') ())
() '' () ())
21 'tosc' '' 32 ((VARIABLE UNKNOWN UNKNOWN UNKNOWN NONE NONE DUMMY) (
REAL 8) 0 0 () () () '' () ())
20 't0' '' 32 ((VARIABLE UNKNOWN UNKNOWN UNKNOWN NONE NONE DUMMY) (REAL
8) 0 0 () () () '' () ())
19 'h' '' 32 ((VARIABLE UNKNOWN UNKNOWN UNKNOWN NONE NONE DUMMY) (REAL 8)
0 0 () () () '' () ())
18 'frctyp' '' 32 ((VARIABLE UNKNOWN UNKNOWN UNKNOWN NONE NONE DUMMY) (
INTEGER 4) 0 0 () () () '' () ())
12 'frac' '' 33 ((VARIABLE IN UNKNOWN UNKNOWN NONE NONE DUMMY) (REAL 8)
0 0 () () () '' () ())
11 'epoch' '' 33 ((VARIABLE IN UNKNOWN UNKNOWN NONE NONE DUMMY) (
DERIVED 8) 0 0 () () () '' () ())
10 'epoch2' '' 34 ((VARIABLE IN UNKNOWN UNKNOWN NONE NONE DUMMY) (
DERIVED 8) 0 0 () () () '' () ())
9 'epoch1' '' 34 ((VARIABLE IN UNKNOWN UNKNOWN NONE NONE DUMMY) (
DERIVED 8) 0 0 () () () '' () ())
8 't_epoch' 'm_epoch' 1 ((DERIVED UNKNOWN UNKNOWN UNKNOWN NONE NONE) (
UNKNOWN) 0 0 () () () '' ((13 'day' (INTEGER 4) () () 0 0 0 ()) (14 'frac'
(REAL 8) () () 0 0 0 ())) PUBLIC ())
7 'timwin2' '' 35 ((VARIABLE IN UNKNOWN UNKNOWN NONE NONE DUMMY) (
DERIVED 5) 0 0 () () () '' () ())
6 'timwin1' '' 35 ((VARIABLE IN UNKNOWN UNKNOWN NONE NONE DUMMY) (
DERIVED 5) 0 0 () () () '' () ())
5 't_timwin' 'm_epoch' 1 ((DERIVED UNKNOWN UNKNOWN UNKNOWN NONE NONE) (
UNKNOWN) 0 0 () () () '' ((15 't' (DERIVED 8) (1 EXPLICIT (CONSTANT (
INTEGER 4) 0 '1') (CONSTANT (INTEGER 4) 0 '2')) () 1 0 0 ())) PUBLIC ())
4 'addfrac' 'm_epoch' 1 ((PROCEDURE UNKNOWN MODULE-PROC DECL NONE NONE
FUNCTION INVOKED) (DERIVED 8) 0 0 (11 NONE 12 NONE) () () '' () ())
3 'addepoch' 'm_epoch' 1 ((PROCEDURE UNKNOWN MODULE-PROC DECL NONE NONE
FUNCTION INVOKED) (DERIVED 8) 0 0 (9 NONE 10 NONE) () () '' () ())
2 'addtimwin' 'm_epoch' 1 ((PROCEDURE UNKNOWN MODULE-PROC DECL NONE NONE
FUNCTION INVOKED) (DERIVED 5) 0 0 (6 NONE 7 NONE) () () '' () ())
)

('m_epoch' 0 16 'rhshil' 0 17 's_rhshil' 0 31)
