G95 module created on Thu Jun 25 17:50:26 2020 from ./.fpp/RRINPT.f90
If you edit this, you'll get what you deserve.
module-version 9
(() () () () () () () () () () () () () () () () () () () () ())

()

()

()

()

(2 'rrinpt' 's_rrinpt' 1 ((PROCEDURE UNKNOWN MODULE-PROC DECL NONE NONE
SUBROUTINE) (PROCEDURE 0) 0 0 (3 NONE 4 NONE 5 NONE 6 NONE 7 NONE 8 NONE)
() () '' () ())
9 's_rrinpt' 's_rrinpt' 1 ((MODULE UNKNOWN UNKNOWN UNKNOWN NONE NONE) (
UNKNOWN) 0 0 () () () '' () ())
8 'wgtcls' '' 10 ((VARIABLE UNKNOWN UNKNOWN UNKNOWN NONE NONE DIMENSION
POINTER DUMMY) (REAL 8) 0 0 () (2 DEFERRED () () () ()) () '' () ())
7 'iweight' '' 10 ((VARIABLE UNKNOWN UNKNOWN UNKNOWN NONE NONE DUMMY) (
INTEGER 4) 0 0 () () () '' () ())
6 'hunit' '' 10 ((VARIABLE UNKNOWN UNKNOWN UNKNOWN NONE NONE DUMMY) (
REAL 8) 0 0 () () () '' () ())
5 'numcls' '' 10 ((VARIABLE UNKNOWN UNKNOWN UNKNOWN NONE NONE DUMMY) (
INTEGER 4) 0 0 () () () '' () ())
4 'icarr' '' 10 ((VARIABLE UNKNOWN UNKNOWN UNKNOWN NONE NONE DUMMY) (
INTEGER 4) 0 0 () () () '' () ())
3 'edt' '' 10 ((VARIABLE UNKNOWN UNKNOWN UNKNOWN NONE NONE DUMMY) (
DERIVED 11) 0 0 () () () '' () ())
11 't_edit' 'd_edit' 10 ((DERIVED UNKNOWN UNKNOWN UNKNOWN NONE NONE) (
UNKNOWN) 0 0 () () () '' ((12 'head' (DERIVED 13) (1 DEFERRED () ()) ()
1 1 0 ()) (14 'rec' (DERIVED 15) (1 DEFERRED () ()) () 1 1 0 ()) (16
'title' (CHARACTER 1 ((CONSTANT (INTEGER 4) 0 '80'))) () () 0 0 0 ()) (
17 'filnam' (CHARACTER 1 ((CONSTANT (INTEGER 4) 0 '32'))) () () 0 0 0 ())
(18 'resmax' (REAL 8) (1 EXPLICIT (CONSTANT (INTEGER 4) 0 '1') (
CONSTANT (INTEGER 4) 0 '3')) () 1 0 0 ()) (19 'nedfil' (INTEGER 4) () ()
0 0 0 ()) (20 'nedt' (INTEGER 4) () () 0 0 0 ()) (21 'nsampl' (INTEGER 4)
() () 0 0 0 ()) (22 'minamb' (INTEGER 4) () () 0 0 0 ()) (23 'minint' (
INTEGER 4) () () 0 0 0 ()) (24 'isampl' (INTEGER 4) () () 0 0 0 ()))
PUBLIC ())
15 't_edtrec' 'd_edit' 10 ((DERIVED UNKNOWN UNKNOWN UNKNOWN NONE NONE) (
UNKNOWN) 0 0 () () () '' ((25 'lstcyc' (REAL 8) () () 0 0 0 ()) (26
'lstedt' (INTEGER 4) (1 EXPLICIT (CONSTANT (INTEGER 4) 0 '1') (CONSTANT
(INTEGER 4) 0 '7')) () 1 0 0 ())) PUBLIC ())
13 't_edthead' 'd_edit' 10 ((DERIVED UNKNOWN UNKNOWN UNKNOWN NONE NONE)
(UNKNOWN) 0 0 () () () '' ((27 'cseedt' (CHARACTER 1 ((CONSTANT (
INTEGER 4) 0 '4'))) (1 EXPLICIT (CONSTANT (INTEGER 4) 0 '1') (CONSTANT (
INTEGER 4) 0 '2')) () 1 0 0 ()) (28 'staedt' (CHARACTER 1 ((CONSTANT (
INTEGER 4) 0 '16'))) (1 EXPLICIT (CONSTANT (INTEGER 4) 0 '1') (CONSTANT
(INTEGER 4) 0 '2')) () 1 0 0 ()) (29 'timedt' (REAL 8) () () 0 0 0 ()) (
30 'idtedt' (INTEGER 4) () () 0 0 0 ()) (31 'meaedt' (INTEGER 4) () () 0
0 0 ())) PUBLIC ())
)

('rrinpt' 0 2 's_rrinpt' 0 9)
