G95 module created on Thu Jun 25 17:50:25 2020 from ./.fpp/RXOSTA.f90
If you edit this, you'll get what you deserve.
module-version 9
(() () () () () () () () () () () () () () () () () () ()
() ())

()

()

()

()

(2 'rxosta' 's_rxosta' 1 ((PROCEDURE UNKNOWN MODULE-PROC DECL NONE NONE
SUBROUTINE) (PROCEDURE 0) 0 0 (3 NONE 4 NONE 5 NONE 6 NONE 7 NONE 8 NONE
9 NONE 10 NONE 11 NONE 12 NONE 13 NONE) () () '' () ())
14 's_rxosta' 's_rxosta' 1 ((MODULE UNKNOWN UNKNOWN UNKNOWN NONE NONE) (
UNKNOWN) 0 0 () () () '' () ())
13 'ircode' '' 15 ((VARIABLE UNKNOWN UNKNOWN UNKNOWN NONE NONE DUMMY) (
INTEGER 4) 0 0 () () () '' () ())
12 'line' '' 15 ((VARIABLE UNKNOWN UNKNOWN UNKNOWN NONE NONE DUMMY) (
CHARACTER 1 (())) 0 0 () () () '' () ())
11 'stname' '' 15 ((VARIABLE UNKNOWN UNKNOWN UNKNOWN NONE NONE DUMMY) (
CHARACTER 1 ((CONSTANT (INTEGER 4) 0 '16'))) 0 0 () () () '' () ())
10 'rxonum' '' 15 ((VARIABLE UNKNOWN UNKNOWN UNKNOWN NONE NONE DUMMY) (
CHARACTER 1 (())) 0 0 () () () '' () ())
9 'rxonam' '' 15 ((VARIABLE UNKNOWN UNKNOWN UNKNOWN NONE NONE DUMMY) (
CHARACTER 1 (())) 0 0 () () () '' () ())
8 'rxfile' '' 15 ((VARIABLE UNKNOWN UNKNOWN UNKNOWN NONE NONE DUMMY) (
CHARACTER 1 ((CONSTANT (INTEGER 4) 0 '32'))) 0 0 () () () '' () ())
7 'timint' '' 15 ((VARIABLE UNKNOWN UNKNOWN UNKNOWN NONE NONE DUMMY) (
DERIVED 16) 0 0 () () () '' () ())
16 't_timint' 'm_time' 15 ((DERIVED UNKNOWN UNKNOWN UNKNOWN NONE NONE) (
UNKNOWN) 0 0 () () () '' ((17 't' (REAL 8) (1 EXPLICIT (CONSTANT (
INTEGER 4) 0 '1') (CONSTANT (INTEGER 4) 0 '2')) () 1 0 0 ())) PUBLIC ())
6 'flgstr' '' 15 ((VARIABLE UNKNOWN UNKNOWN UNKNOWN NONE NONE DUMMY) (
CHARACTER 1 (())) 0 0 () () () '' () ())
5 'stainfo' '' 15 ((VARIABLE UNKNOWN UNKNOWN UNKNOWN NONE NONE DUMMY) (
DERIVED 18) 0 0 () () () '' () ())
18 't_stacrux' 'd_stacrx' 15 ((DERIVED UNKNOWN UNKNOWN UNKNOWN NONE NONE)
(UNKNOWN) 0 0 () () () '' ((19 'nrenam' (INTEGER 4) () () 0 0 0 ()) (20
'ninfo' (INTEGER 4) () () 0 0 0 ()) (21 'nprob' (INTEGER 4) () () 0 0 0
()) (22 'ncoovel' (INTEGER 4) () () 0 0 0 ()) (23 'nrelpar' (INTEGER 4)
() () 0 0 0 ()) (24 'nstatype' (INTEGER 4) () () 0 0 0 ()) (25 'version'
(REAL 8) () () 0 0 0 ()) (26 'technique' (CHARACTER 1 ((CONSTANT (
INTEGER 4) 0 '30'))) () () 0 0 0 ()) (27 'renamsta' (DERIVED 28) (1
DEFERRED () ()) () 1 1 0 ()) (29 'stainfo' (DERIVED 30) (1 DEFERRED () ())
() 1 1 0 ()) (31 'staprob' (DERIVED 32) (1 DEFERRED () ()) () 1 1 0 ())
(33 'coovel' (DERIVED 34) (1 DEFERRED () ()) () 1 1 0 ()) (35 'starelpar'
(DERIVED 36) (1 DEFERRED () ()) () 1 1 0 ()) (37 'statype' (DERIVED 38)
(1 DEFERRED () ()) () 1 1 0 ())) PUBLIC ())
38 't_statype' 'd_stacrx' 15 ((DERIVED UNKNOWN UNKNOWN UNKNOWN NONE NONE)
(UNKNOWN) 0 0 () () () '' ((39 'stanam' (CHARACTER 1 ((CONSTANT (
INTEGER 4) 0 '16'))) () () 0 0 0 ()) (40 'flg' (CHARACTER 1 ((CONSTANT (
INTEGER 4) 0 '3'))) () () 0 0 0 ()) (41 'timint' (DERIVED 16) () () 0 0
0 ()) (42 'markertype' (CHARACTER 1 ((CONSTANT (INTEGER 4) 0 '20'))) ()
() 0 0 0 ()) (43 'remark' (CHARACTER 1 ((CONSTANT (INTEGER 4) 0 '24')))
() () 0 0 0 ())) PUBLIC ())
36 't_starelpar' 'd_stacrx' 15 ((DERIVED UNKNOWN UNKNOWN UNKNOWN NONE
NONE) (UNKNOWN) 0 0 () () () '' ((44 'stanam' (CHARACTER 1 ((CONSTANT (
INTEGER 4) 0 '16'))) (1 EXPLICIT (CONSTANT (INTEGER 4) 0 '1') (CONSTANT
(INTEGER 4) 0 '2')) () 1 0 0 ()) (45 'flg' (CHARACTER 1 ((CONSTANT (
INTEGER 4) 0 '3'))) () () 0 0 0 ()) (46 'timwin' (DERIVED 16) () () 0 0
0 ()) (47 'partyp' (CHARACTER 1 ((CONSTANT (INTEGER 4) 0 '8'))) () () 0
0 0 ()) (48 'sys' (CHARACTER 1 ((CONSTANT (INTEGER 4) 0 '3'))) (1
EXPLICIT (CONSTANT (INTEGER 4) 0 '1') (CONSTANT (INTEGER 4) 0 '2')) () 1
0 0 ()) (49 'loctie' (REAL 8) (1 EXPLICIT (CONSTANT (INTEGER 4) 0 '1') (
CONSTANT (INTEGER 4) 0 '3')) () 1 0 0 ()) (50 'constr' (REAL 8) (1
EXPLICIT (CONSTANT (INTEGER 4) 0 '1') (CONSTANT (INTEGER 4) 0 '3')) () 1
0 0 ()) (51 'correl' (REAL 8) (1 EXPLICIT (CONSTANT (INTEGER 4) 0 '1') (
CONSTANT (INTEGER 4) 0 '3')) () 1 0 0 ()) (52 'remark' (CHARACTER 1 ((
CONSTANT (INTEGER 4) 0 '24'))) () () 0 0 0 ()) (53 'applied' (LOGICAL 4)
() () 0 0 0 ())) PUBLIC ())
34 't_coovel' 'd_stacrx' 15 ((DERIVED UNKNOWN UNKNOWN UNKNOWN NONE NONE)
(UNKNOWN) 0 0 () () () '' ((54 'stanam' (CHARACTER 1 ((CONSTANT (
INTEGER 4) 0 '16'))) (1 EXPLICIT (CONSTANT (INTEGER 4) 0 '1') (CONSTANT
(INTEGER 4) 0 '2')) () 1 0 0 ()) (55 'constr' (REAL 8) (1 EXPLICIT (
CONSTANT (INTEGER 4) 0 '1') (CONSTANT (INTEGER 4) 0 '6')) () 1 0 0 ()))
PUBLIC ())
32 't_staprob' 'd_stacrx' 15 ((DERIVED UNKNOWN UNKNOWN UNKNOWN NONE NONE)
(UNKNOWN) 0 0 () () () '' ((56 'stanam' (CHARACTER 1 ((CONSTANT (
INTEGER 4) 0 '16'))) () () 0 0 0 ()) (57 'flg' (CHARACTER 1 ((CONSTANT (
INTEGER 4) 0 '3'))) () () 0 0 0 ()) (58 'timint' (DERIVED 16) () () 0 0
0 ()) (59 'remark' (CHARACTER 1 ((CONSTANT (INTEGER 4) 0 '60'))) () () 0
0 0 ())) PUBLIC ())
30 't_stainfo' 'd_stacrx' 15 ((DERIVED UNKNOWN UNKNOWN UNKNOWN NONE NONE)
(UNKNOWN) 0 0 () () () '' ((60 'stanam' (CHARACTER 1 ((CONSTANT (
INTEGER 4) 0 '16'))) () () 0 0 0 ()) (61 'flg' (CHARACTER 1 ((CONSTANT (
INTEGER 4) 0 '3'))) () () 0 0 0 ()) (62 'timint' (DERIVED 16) () () 0 0
0 ()) (63 'recnam' (CHARACTER 1 ((CONSTANT (INTEGER 4) 0 '20'))) () () 0
0 0 ()) (64 'antnam' (CHARACTER 1 ((CONSTANT (INTEGER 4) 0 '20'))) () ()
0 0 0 ()) (65 'recser' (CHARACTER 1 ((CONSTANT (INTEGER 4) 0 '20'))) ()
() 0 0 0 ()) (66 'antser' (CHARACTER 1 ((CONSTANT (INTEGER 4) 0 '20')))
() () 0 0 0 ()) (67 'recnum' (INTEGER 4) () () 0 0 0 ()) (68 'antnum' (
INTEGER 4) () () 0 0 0 ()) (69 'antecc' (REAL 8) (1 EXPLICIT (CONSTANT (
INTEGER 4) 0 '1') (CONSTANT (INTEGER 4) 0 '3')) () 1 0 0 ()) (70 'descri'
(CHARACTER 1 ((CONSTANT (INTEGER 4) 0 '22'))) () () 0 0 0 ()) (71 'remark'
(CHARACTER 1 ((CONSTANT (INTEGER 4) 0 '24'))) () () 0 0 0 ()) (72 'cdpsod'
(CHARACTER 1 ((CONSTANT (INTEGER 4) 0 '8'))) () () 0 0 0 ())) PUBLIC ())
28 't_renamsta' 'd_stacrx' 15 ((DERIVED UNKNOWN UNKNOWN UNKNOWN NONE
NONE) (UNKNOWN) 0 0 () () () '' ((73 'stanam' (CHARACTER 1 ((CONSTANT (
INTEGER 4) 0 '16'))) () () 0 0 0 ()) (74 'flg' (CHARACTER 1 ((CONSTANT (
INTEGER 4) 0 '3'))) () () 0 0 0 ()) (75 'timint' (DERIVED 16) () () 0 0
0 ()) (76 'oldnam' (CHARACTER 1 ((CONSTANT (INTEGER 4) 0 '16'))) () () 0
0 0 ()) (77 'remark' (CHARACTER 1 ((CONSTANT (INTEGER 4) 0 '24'))) () ()
0 0 0 ())) PUBLIC ())
4 'erropt' '' 15 ((VARIABLE UNKNOWN UNKNOWN UNKNOWN NONE NONE DUMMY) (
DERIVED 78) 0 0 () () () '' () ())
78 't_rxobv3_err' 'p_rxobv3' 15 ((DERIVED UNKNOWN UNKNOWN UNKNOWN NONE
NONE) (UNKNOWN) 0 0 () () () '' ((79 'wrtobs' (LOGICAL 4) () () 0 0 0 ())
(80 'stperr' (LOGICAL 4) () () 0 0 0 ()) (81 'tstanam' (INTEGER 4) () ()
0 0 0 ()) (82 'abbstn' (LOGICAL 4) () () 0 0 0 ()) (83 'tanttyp' (
INTEGER 4) () () 0 0 0 ()) (84 'trnchr' (INTEGER 4) () () 0 0 0 ()) (85
'radome' (INTEGER 4) () () 0 0 0 ()) (86 'corrad' (INTEGER 4) () () 0 0
0 ()) (87 'tantnum' (INTEGER 4) () () 0 0 0 ()) (88 'tantpos' (INTEGER 4)
() () 0 0 0 ()) (89 'tmrktyp' (INTEGER 4) () () 0 0 0 ()) (90 'versta' (
INTEGER 4) () () 0 0 0 ()) (91 'verfil' (LOGICAL 4) () () 0 0 0 ()) (92
'verant' (INTEGER 4) () () 0 0 0 ()) (93 'verfrq' (INTEGER 4) () () 0 0
0 ()) (94 'epoflag' (INTEGER 4) () () 0 0 0 ())) PUBLIC ())
3 'rnxsta' '' 15 ((VARIABLE UNKNOWN UNKNOWN UNKNOWN NONE NONE DUMMY) (
INTEGER 4) 0 0 () () () '' () ())
)

('rxosta' 0 2 's_rxosta' 0 14)
