G95 module created on Thu Jun 25 17:50:32 2020 from ./.fpp/RXGLST.f90
If you edit this, you'll get what you deserve.
module-version 9
(() () () () () () () () () () () () () () () () () () () () ())

()

()

()

()

(2 'rxglst' 's_rxglst' 1 ((PROCEDURE UNKNOWN MODULE-PROC DECL NONE NONE
SUBROUTINE) (PROCEDURE 0) 0 0 (3 NONE 4 NONE 5 NONE 6 NONE 7 NONE) () ()
'' () ())
8 's_rxglst' 's_rxglst' 1 ((MODULE UNKNOWN UNKNOWN UNKNOWN NONE NONE) (
UNKNOWN) 0 0 () () () '' () ())
7 'opt' '' 9 ((VARIABLE UNKNOWN UNKNOWN UNKNOWN NONE NONE DUMMY) (
DERIVED 10) 0 0 () () () '' () ())
10 't_rnxgra_opt' 'p_rnxgra' 9 ((DERIVED UNKNOWN UNKNOWN UNKNOWN NONE
NONE) (UNKNOWN) 0 0 () () () '' ((11 'iopt' (INTEGER 4) () () 0 0 0 ())
(12 'iobtol' (INTEGER 4) () () 0 0 0 ()) (13 'istops' (INTEGER 4) () ()
0 0 0 ()) (14 'minsig' (INTEGER 4) () () 0 0 0 ()) (15 'cycgra' (
INTEGER 4) () () 0 0 0 ()) (16 'getlst' (INTEGER 4) () () 0 0 0 ()) (17
'lstfil' (CHARACTER 1 ((CONSTANT (INTEGER 4) 0 '32'))) () () 0 0 0 ()) (
18 'delfil' (CHARACTER 1 ((CONSTANT (INTEGER 4) 0 '32'))) () () 0 0 0 ())
(19 'obssys' (INTEGER 4) () () 0 0 0 ()) (20 'minobs' (INTEGER 4) () ()
0 0 0 ()) (21 'maxsta' (INTEGER 4) () () 0 0 0 ()) (22 'maxbad' (
INTEGER 4) () () 0 0 0 ()) (23 'badobs' (INTEGER 4) () () 0 0 0 ()) (24
'adjday' (LOGICAL 4) () () 0 0 0 ())) PUBLIC ())
6 'lstchr' '' 9 ((VARIABLE UNKNOWN UNKNOWN UNKNOWN NONE NONE DUMMY) (
INTEGER 4) 0 0 () () () '' () ())
5 'intgra' '' 9 ((VARIABLE UNKNOWN UNKNOWN UNKNOWN NONE NONE DIMENSION
DUMMY) (INTEGER 4) 0 0 () (3 EXPLICIT (CONSTANT (INTEGER 4) 0 '1') (
CONSTANT (INTEGER 4) 0 '300') (CONSTANT (INTEGER 4) 0 '1') (CONSTANT (
INTEGER 4) 0 '350') (CONSTANT (INTEGER 4) 0 '1') (CONSTANT (INTEGER 4) 0
'72')) () '' () ())
4 'filnam' '' 9 ((VARIABLE UNKNOWN UNKNOWN UNKNOWN NONE NONE DIMENSION
DUMMY) (CHARACTER 1 ((CONSTANT (INTEGER 4) 0 '32'))) 0 0 () (1 EXPLICIT
(CONSTANT (INTEGER 4) 0 '1') (CONSTANT (INTEGER 4) 0 '300')) () '' () ())
3 'nfil' '' 9 ((VARIABLE UNKNOWN UNKNOWN UNKNOWN NONE NONE DUMMY) (
INTEGER 4) 0 0 () () () '' () ())
)

('rxglst' 0 2 's_rxglst' 0 8)
