G95 module created on Thu Jun 25 17:50:42 2020 from ./.fpp/RXOFRQ.f90
If you edit this, you'll get what you deserve.
module-version 9
(() () () () () () () () () () () () () () () () () () () () ())

()

()

()

()

(2 'rxofrq' 's_rxofrq' 1 ((PROCEDURE UNKNOWN MODULE-PROC DECL NONE NONE
SUBROUTINE) (PROCEDURE 0) 0 0 (3 NONE 4 NONE 5 NONE 6 NONE 7 NONE 8 NONE
9 NONE 10 NONE) () () '' () ())
11 's_rxofrq' 's_rxofrq' 1 ((MODULE UNKNOWN UNKNOWN UNKNOWN NONE NONE) (
UNKNOWN) 0 0 () () () '' () ())
10 'ircode' '' 12 ((VARIABLE UNKNOWN UNKNOWN UNKNOWN NONE NONE DUMMY) (
INTEGER 4) 0 0 () () () '' () ())
9 'epoch' '' 12 ((VARIABLE UNKNOWN UNKNOWN UNKNOWN NONE NONE DUMMY) (
REAL 8) 0 0 () () () '' () ())
8 'rnxfrq' '' 12 ((VARIABLE UNKNOWN UNKNOWN UNKNOWN NONE NONE DUMMY) (
REAL 8) 0 0 () () () '' () ())
7 'name' '' 12 ((VARIABLE UNKNOWN UNKNOWN UNKNOWN NONE NONE DUMMY) (
CHARACTER 1 ((CONSTANT (INTEGER 4) 0 '2'))) 0 0 () () () '' () ())
6 'satsta' '' 12 ((VARIABLE UNKNOWN UNKNOWN UNKNOWN NONE NONE DUMMY) (
CHARACTER 1 ((CONSTANT (INTEGER 4) 0 '16'))) 0 0 () () () '' () ())
5 'meatyp' '' 12 ((VARIABLE UNKNOWN UNKNOWN UNKNOWN NONE NONE DUMMY) (
INTEGER 4) 0 0 () () () '' () ())
4 'rnxfile' '' 12 ((VARIABLE UNKNOWN UNKNOWN UNKNOWN NONE NONE DUMMY) (
CHARACTER 1 ((CONSTANT (INTEGER 4) 0 '32'))) 0 0 () () () '' () ())
3 'erropt' '' 12 ((VARIABLE UNKNOWN UNKNOWN UNKNOWN NONE NONE DUMMY) (
DERIVED 13) 0 0 () () () '' () ())
13 't_rxobv3_err' 'p_rxobv3' 12 ((DERIVED UNKNOWN UNKNOWN UNKNOWN NONE
NONE) (UNKNOWN) 0 0 () () () '' ((14 'wrtobs' (LOGICAL 4) () () 0 0 0 ())
(15 'stperr' (LOGICAL 4) () () 0 0 0 ()) (16 'tstanam' (INTEGER 4) () ()
0 0 0 ()) (17 'abbstn' (LOGICAL 4) () () 0 0 0 ()) (18 'tanttyp' (
INTEGER 4) () () 0 0 0 ()) (19 'trnchr' (INTEGER 4) () () 0 0 0 ()) (20
'radome' (INTEGER 4) () () 0 0 0 ()) (21 'corrad' (INTEGER 4) () () 0 0
0 ()) (22 'tantnum' (INTEGER 4) () () 0 0 0 ()) (23 'tantpos' (INTEGER 4)
() () 0 0 0 ()) (24 'tmrktyp' (INTEGER 4) () () 0 0 0 ()) (25 'versta' (
INTEGER 4) () () 0 0 0 ()) (26 'verfil' (LOGICAL 4) () () 0 0 0 ()) (27
'verant' (INTEGER 4) () () 0 0 0 ()) (28 'verfrq' (INTEGER 4) () () 0 0
0 ()) (29 'epoflag' (INTEGER 4) () () 0 0 0 ())) PUBLIC ())
)

('rxofrq' 0 2 's_rxofrq' 0 11)
