G95 module created on Thu Jun 25 17:50:26 2020 from ./.fpp/RXOTYP.f90
If you edit this, you'll get what you deserve.
module-version 9
(() () () () () () () () () () () () () () () () () () () () ())

()

()

()

()

(2 'rxotyp' 's_rxotyp' 1 ((PROCEDURE UNKNOWN MODULE-PROC DECL NONE NONE
SUBROUTINE) (PROCEDURE 0) 0 0 (3 NONE 4 NONE 5 NONE 6 NONE 7 NONE 8 NONE
9 NONE 10 NONE 11 NONE) () () '' () ())
12 's_rxotyp' 's_rxotyp' 1 ((MODULE UNKNOWN UNKNOWN UNKNOWN NONE NONE) (
UNKNOWN) 0 0 () () () '' () ())
11 'ircode' '' 13 ((VARIABLE UNKNOWN UNKNOWN UNKNOWN NONE NONE DUMMY) (
INTEGER 4) 0 0 () () () '' () ())
10 'mrktex' '' 13 ((VARIABLE UNKNOWN UNKNOWN UNKNOWN NONE NONE DUMMY) (
INTEGER 4) 0 0 () () () '' () ())
9 'line' '' 13 ((VARIABLE UNKNOWN UNKNOWN UNKNOWN NONE NONE DUMMY) (
CHARACTER 1 (())) 0 0 () () () '' () ())
8 'stanum' '' 13 ((VARIABLE UNKNOWN UNKNOWN UNKNOWN NONE NONE DUMMY) (
CHARACTER 1 (())) 0 0 () () () '' () ())
7 'stname' '' 13 ((VARIABLE UNKNOWN UNKNOWN UNKNOWN NONE NONE DUMMY) (
CHARACTER 1 (())) 0 0 () () () '' () ())
6 'rxfile' '' 13 ((VARIABLE UNKNOWN UNKNOWN UNKNOWN NONE NONE DUMMY) (
CHARACTER 1 ((CONSTANT (INTEGER 4) 0 '32'))) 0 0 () () () '' () ())
5 'timint' '' 13 ((VARIABLE UNKNOWN UNKNOWN UNKNOWN NONE NONE DUMMY) (
DERIVED 14) 0 0 () () () '' () ())
14 't_timint' 'm_time' 13 ((DERIVED UNKNOWN UNKNOWN UNKNOWN NONE NONE) (
UNKNOWN) 0 0 () () () '' ((15 't' (REAL 8) (1 EXPLICIT (CONSTANT (
INTEGER 4) 0 '1') (CONSTANT (INTEGER 4) 0 '2')) () 1 0 0 ())) PUBLIC ())
4 'flgstr' '' 13 ((VARIABLE UNKNOWN UNKNOWN UNKNOWN NONE NONE DUMMY) (
CHARACTER 1 (())) 0 0 () () () '' () ())
3 'erropt' '' 13 ((VARIABLE UNKNOWN UNKNOWN UNKNOWN NONE NONE DUMMY) (
DERIVED 16) 0 0 () () () '' () ())
16 't_rxobv3_err' 'p_rxobv3' 13 ((DERIVED UNKNOWN UNKNOWN UNKNOWN NONE
NONE) (UNKNOWN) 0 0 () () () '' ((17 'wrtobs' (LOGICAL 4) () () 0 0 0 ())
(18 'stperr' (LOGICAL 4) () () 0 0 0 ()) (19 'tstanam' (INTEGER 4) () ()
0 0 0 ()) (20 'abbstn' (LOGICAL 4) () () 0 0 0 ()) (21 'tanttyp' (
INTEGER 4) () () 0 0 0 ()) (22 'trnchr' (INTEGER 4) () () 0 0 0 ()) (23
'radome' (INTEGER 4) () () 0 0 0 ()) (24 'corrad' (INTEGER 4) () () 0 0
0 ()) (25 'tantnum' (INTEGER 4) () () 0 0 0 ()) (26 'tantpos' (INTEGER 4)
() () 0 0 0 ()) (27 'tmrktyp' (INTEGER 4) () () 0 0 0 ()) (28 'versta' (
INTEGER 4) () () 0 0 0 ()) (29 'verfil' (LOGICAL 4) () () 0 0 0 ()) (30
'verant' (INTEGER 4) () () 0 0 0 ()) (31 'verfrq' (INTEGER 4) () () 0 0
0 ()) (32 'epoflag' (INTEGER 4) () () 0 0 0 ())) PUBLIC ())
)

('rxotyp' 0 2 's_rxotyp' 0 12)
