G95 module created on Thu Jun 25 17:50:27 2020 from ./.fpp/RXOB3I.f90
If you edit this, you'll get what you deserve.
module-version 9
(() () () () () () () () () () () () () () () () () () () () ())

()

()

()

()

(2 'rxob3i' 's_rxob3i' 1 ((PROCEDURE UNKNOWN MODULE-PROC DECL NONE NONE
SUBROUTINE) (PROCEDURE 0) 0 0 (3 NONE 4 NONE 5 NONE 6 NONE 7 NONE 8 NONE
9 NONE 10 NONE 11 NONE 12 NONE 13 NONE 14 NONE 15 NONE 16 NONE 17 NONE
18 NONE 19 NONE 20 NONE 21 NONE) () () '' () ())
22 's_rxob3i' 's_rxob3i' 1 ((MODULE UNKNOWN UNKNOWN UNKNOWN NONE NONE) (
UNKNOWN) 0 0 () () () '' () ())
21 'itype' '' 23 ((VARIABLE UNKNOWN UNKNOWN UNKNOWN NONE NONE DUMMY) (
INTEGER 4) 0 0 () () () '' () ())
20 'gobsdef' '' 23 ((VARIABLE UNKNOWN UNKNOWN UNKNOWN NONE NONE DUMMY) (
DERIVED 24) 0 0 () () () '' () ())
24 't_gobsdef' 'd_rinex3' 23 ((DERIVED UNKNOWN UNKNOWN UNKNOWN NONE NONE)
(UNKNOWN) 0 0 () () () '' ((25 'norec' (INTEGER 4) () () 0 0 0 ()) (26
'sat' (DERIVED 27) (1 DEFERRED () ()) () 1 1 0 ()) (28 'nfreqc' (
INTEGER 4) () () 0 0 0 ()) (29 'nfreqp' (INTEGER 4) () () 0 0 0 ()))
PUBLIC ())
27 't_satsig' 'd_rinex3' 23 ((DERIVED UNKNOWN UNKNOWN UNKNOWN NONE NONE)
(UNKNOWN) 0 0 () () () '' ((30 'satname' (CHARACTER 1 ((CONSTANT (
INTEGER 4) 0 '3'))) () () 0 0 0 ()) (31 'sysnum' (INTEGER 4) () () 0 0 0
()) (32 'syschar' (CHARACTER 1 ((CONSTANT (INTEGER 4) 0 '1'))) () () 0 0
0 ()) (33 'satnum' (INTEGER 4) () () 0 0 0 ()) (34 'obstyp' (CHARACTER 1
((CONSTANT (INTEGER 4) 0 '3'))) (1 EXPLICIT (CONSTANT (INTEGER 4) 0 '1')
(CONSTANT (INTEGER 4) 0 '8')) () 1 0 0 ()) (35 'obstyp2' (CHARACTER 1 (
(CONSTANT (INTEGER 4) 0 '2'))) (1 EXPLICIT (CONSTANT (INTEGER 4) 0 '1')
(CONSTANT (INTEGER 4) 0 '8')) () 1 0 0 ()) (36 'obsindr212' (INTEGER 4)
(1 EXPLICIT (CONSTANT (INTEGER 4) 0 '1') (CONSTANT (INTEGER 4) 0 '8')) ()
1 0 0 ()) (37 'factor' (INTEGER 4) (1 EXPLICIT (CONSTANT (INTEGER 4) 0 '1')
(CONSTANT (INTEGER 4) 0 '8')) () 1 0 0 ()) (38 'nfreqc' (INTEGER 4) () ()
0 0 0 ()) (39 'nfreqp' (INTEGER 4) () () 0 0 0 ()) (40 'eposatind' (
INTEGER 4) () () 0 0 0 ())) PUBLIC ())
19 'usegeos' '' 23 ((VARIABLE UNKNOWN UNKNOWN UNKNOWN NONE NONE DUMMY) (
INTEGER 4) 0 0 () () () '' () ())
18 'erropt' '' 23 ((VARIABLE UNKNOWN UNKNOWN UNKNOWN NONE NONE DUMMY) (
DERIVED 41) 0 0 () () () '' () ())
41 't_rxobv3_err' 'p_rxobv3' 23 ((DERIVED UNKNOWN UNKNOWN UNKNOWN NONE
NONE) (UNKNOWN) 0 0 () () () '' ((42 'wrtobs' (LOGICAL 4) () () 0 0 0 ())
(43 'stperr' (LOGICAL 4) () () 0 0 0 ()) (44 'tstanam' (INTEGER 4) () ()
0 0 0 ()) (45 'abbstn' (LOGICAL 4) () () 0 0 0 ()) (46 'tanttyp' (
INTEGER 4) () () 0 0 0 ()) (47 'trnchr' (INTEGER 4) () () 0 0 0 ()) (48
'radome' (INTEGER 4) () () 0 0 0 ()) (49 'corrad' (INTEGER 4) () () 0 0
0 ()) (50 'tantnum' (INTEGER 4) () () 0 0 0 ()) (51 'tantpos' (INTEGER 4)
() () 0 0 0 ()) (52 'tmrktyp' (INTEGER 4) () () 0 0 0 ()) (53 'versta' (
INTEGER 4) () () 0 0 0 ()) (54 'verfil' (LOGICAL 4) () () 0 0 0 ()) (55
'verant' (INTEGER 4) () () 0 0 0 ()) (56 'verfrq' (INTEGER 4) () () 0 0
0 ()) (57 'epoflag' (INTEGER 4) () () 0 0 0 ())) PUBLIC ())
17 'rnxinfo' '' 23 ((VARIABLE UNKNOWN UNKNOWN UNKNOWN NONE NONE DUMMY) (
DERIVED 58) 0 0 () () () '' () ())
58 't_stacrux' 'd_stacrx' 23 ((DERIVED UNKNOWN UNKNOWN UNKNOWN NONE NONE)
(UNKNOWN) 0 0 () () () '' ((59 'nrenam' (INTEGER 4) () () 0 0 0 ()) (60
'ninfo' (INTEGER 4) () () 0 0 0 ()) (61 'nprob' (INTEGER 4) () () 0 0 0
()) (62 'ncoovel' (INTEGER 4) () () 0 0 0 ()) (63 'nrelpar' (INTEGER 4)
() () 0 0 0 ()) (64 'nstatype' (INTEGER 4) () () 0 0 0 ()) (65 'version'
(REAL 8) () () 0 0 0 ()) (66 'technique' (CHARACTER 1 ((CONSTANT (
INTEGER 4) 0 '30'))) () () 0 0 0 ()) (67 'renamsta' (DERIVED 68) (1
DEFERRED () ()) () 1 1 0 ()) (69 'stainfo' (DERIVED 70) (1 DEFERRED () ())
() 1 1 0 ()) (71 'staprob' (DERIVED 72) (1 DEFERRED () ()) () 1 1 0 ())
(73 'coovel' (DERIVED 74) (1 DEFERRED () ()) () 1 1 0 ()) (75 'starelpar'
(DERIVED 76) (1 DEFERRED () ()) () 1 1 0 ()) (77 'statype' (DERIVED 78)
(1 DEFERRED () ()) () 1 1 0 ())) PUBLIC ())
78 't_statype' 'd_stacrx' 23 ((DERIVED UNKNOWN UNKNOWN UNKNOWN NONE NONE)
(UNKNOWN) 0 0 () () () '' ((79 'stanam' (CHARACTER 1 ((CONSTANT (
INTEGER 4) 0 '16'))) () () 0 0 0 ()) (80 'flg' (CHARACTER 1 ((CONSTANT (
INTEGER 4) 0 '3'))) () () 0 0 0 ()) (81 'timint' (DERIVED 82) () () 0 0
0 ()) (83 'markertype' (CHARACTER 1 ((CONSTANT (INTEGER 4) 0 '20'))) ()
() 0 0 0 ()) (84 'remark' (CHARACTER 1 ((CONSTANT (INTEGER 4) 0 '24')))
() () 0 0 0 ())) PUBLIC ())
82 't_timint' 'm_time' 23 ((DERIVED UNKNOWN UNKNOWN UNKNOWN NONE NONE) (
UNKNOWN) 0 0 () () () '' ((85 't' (REAL 8) (1 EXPLICIT (CONSTANT (
INTEGER 4) 0 '1') (CONSTANT (INTEGER 4) 0 '2')) () 1 0 0 ())) PUBLIC ())
76 't_starelpar' 'd_stacrx' 23 ((DERIVED UNKNOWN UNKNOWN UNKNOWN NONE
NONE) (UNKNOWN) 0 0 () () () '' ((86 'stanam' (CHARACTER 1 ((CONSTANT (
INTEGER 4) 0 '16'))) (1 EXPLICIT (CONSTANT (INTEGER 4) 0 '1') (CONSTANT
(INTEGER 4) 0 '2')) () 1 0 0 ()) (87 'flg' (CHARACTER 1 ((CONSTANT (
INTEGER 4) 0 '3'))) () () 0 0 0 ()) (88 'timwin' (DERIVED 82) () () 0 0
0 ()) (89 'partyp' (CHARACTER 1 ((CONSTANT (INTEGER 4) 0 '8'))) () () 0
0 0 ()) (90 'sys' (CHARACTER 1 ((CONSTANT (INTEGER 4) 0 '3'))) (1
EXPLICIT (CONSTANT (INTEGER 4) 0 '1') (CONSTANT (INTEGER 4) 0 '2')) () 1
0 0 ()) (91 'loctie' (REAL 8) (1 EXPLICIT (CONSTANT (INTEGER 4) 0 '1') (
CONSTANT (INTEGER 4) 0 '3')) () 1 0 0 ()) (92 'constr' (REAL 8) (1
EXPLICIT (CONSTANT (INTEGER 4) 0 '1') (CONSTANT (INTEGER 4) 0 '3')) () 1
0 0 ()) (93 'correl' (REAL 8) (1 EXPLICIT (CONSTANT (INTEGER 4) 0 '1') (
CONSTANT (INTEGER 4) 0 '3')) () 1 0 0 ()) (94 'remark' (CHARACTER 1 ((
CONSTANT (INTEGER 4) 0 '24'))) () () 0 0 0 ()) (95 'applied' (LOGICAL 4)
() () 0 0 0 ())) PUBLIC ())
74 't_coovel' 'd_stacrx' 23 ((DERIVED UNKNOWN UNKNOWN UNKNOWN NONE NONE)
(UNKNOWN) 0 0 () () () '' ((96 'stanam' (CHARACTER 1 ((CONSTANT (
INTEGER 4) 0 '16'))) (1 EXPLICIT (CONSTANT (INTEGER 4) 0 '1') (CONSTANT
(INTEGER 4) 0 '2')) () 1 0 0 ()) (97 'constr' (REAL 8) (1 EXPLICIT (
CONSTANT (INTEGER 4) 0 '1') (CONSTANT (INTEGER 4) 0 '6')) () 1 0 0 ()))
PUBLIC ())
72 't_staprob' 'd_stacrx' 23 ((DERIVED UNKNOWN UNKNOWN UNKNOWN NONE NONE)
(UNKNOWN) 0 0 () () () '' ((98 'stanam' (CHARACTER 1 ((CONSTANT (
INTEGER 4) 0 '16'))) () () 0 0 0 ()) (99 'flg' (CHARACTER 1 ((CONSTANT (
INTEGER 4) 0 '3'))) () () 0 0 0 ()) (100 'timint' (DERIVED 82) () () 0 0
0 ()) (101 'remark' (CHARACTER 1 ((CONSTANT (INTEGER 4) 0 '60'))) () ()
0 0 0 ())) PUBLIC ())
70 't_stainfo' 'd_stacrx' 23 ((DERIVED UNKNOWN UNKNOWN UNKNOWN NONE NONE)
(UNKNOWN) 0 0 () () () '' ((102 'stanam' (CHARACTER 1 ((CONSTANT (
INTEGER 4) 0 '16'))) () () 0 0 0 ()) (103 'flg' (CHARACTER 1 ((CONSTANT
(INTEGER 4) 0 '3'))) () () 0 0 0 ()) (104 'timint' (DERIVED 82) () () 0
0 0 ()) (105 'recnam' (CHARACTER 1 ((CONSTANT (INTEGER 4) 0 '20'))) () ()
0 0 0 ()) (106 'antnam' (CHARACTER 1 ((CONSTANT (INTEGER 4) 0 '20'))) ()
() 0 0 0 ()) (107 'recser' (CHARACTER 1 ((CONSTANT (INTEGER 4) 0 '20')))
() () 0 0 0 ()) (108 'antser' (CHARACTER 1 ((CONSTANT (INTEGER 4) 0 '20')))
() () 0 0 0 ()) (109 'recnum' (INTEGER 4) () () 0 0 0 ()) (110 'antnum'
(INTEGER 4) () () 0 0 0 ()) (111 'antecc' (REAL 8) (1 EXPLICIT (
CONSTANT (INTEGER 4) 0 '1') (CONSTANT (INTEGER 4) 0 '3')) () 1 0 0 ()) (
112 'descri' (CHARACTER 1 ((CONSTANT (INTEGER 4) 0 '22'))) () () 0 0 0 ())
(113 'remark' (CHARACTER 1 ((CONSTANT (INTEGER 4) 0 '24'))) () () 0 0 0
()) (114 'cdpsod' (CHARACTER 1 ((CONSTANT (INTEGER 4) 0 '8'))) () () 0 0
0 ())) PUBLIC ())
68 't_renamsta' 'd_stacrx' 23 ((DERIVED UNKNOWN UNKNOWN UNKNOWN NONE
NONE) (UNKNOWN) 0 0 () () () '' ((115 'stanam' (CHARACTER 1 ((CONSTANT (
INTEGER 4) 0 '16'))) () () 0 0 0 ()) (116 'flg' (CHARACTER 1 ((CONSTANT
(INTEGER 4) 0 '3'))) () () 0 0 0 ()) (117 'timint' (DERIVED 82) () () 0
0 0 ()) (118 'oldnam' (CHARACTER 1 ((CONSTANT (INTEGER 4) 0 '16'))) () ()
0 0 0 ()) (119 'remark' (CHARACTER 1 ((CONSTANT (INTEGER 4) 0 '24'))) ()
() 0 0 0 ())) PUBLIC ())
16 'flgstr' '' 23 ((VARIABLE UNKNOWN UNKNOWN UNKNOWN NONE NONE DIMENSION
DUMMY) (CHARACTER 1 (())) 0 0 () (1 EXPLICIT (CONSTANT (INTEGER 4) 0 '1')
(CONSTANT (INTEGER 4) 0 '5')) () '' () ())
15 'stainfo' '' 23 ((VARIABLE UNKNOWN UNKNOWN UNKNOWN NONE NONE DUMMY) (
DERIVED 58) 0 0 () () () '' () ())
14 'nol2c' '' 23 ((VARIABLE UNKNOWN UNKNOWN UNKNOWN NONE NONE DUMMY) (
INTEGER 4) 0 0 () () () '' () ())
13 'icsflg' '' 23 ((VARIABLE UNKNOWN UNKNOWN UNKNOWN NONE NONE DUMMY) (
INTEGER 4) 0 0 () () () '' () ())
12 'iacpt0' '' 23 ((VARIABLE UNKNOWN UNKNOWN UNKNOWN NONE NONE DUMMY) (
INTEGER 4) 0 0 () () () '' () ())
11 'minsig' '' 23 ((VARIABLE UNKNOWN UNKNOWN UNKNOWN NONE NONE DUMMY) (
INTEGER 4) 0 0 () () () '' () ())
10 'isoffs' '' 23 ((VARIABLE UNKNOWN UNKNOWN UNKNOWN NONE NONE DUMMY) (
INTEGER 4) 0 0 () () () '' () ())
9 'isintv' '' 23 ((VARIABLE UNKNOWN UNKNOWN UNKNOWN NONE NONE DUMMY) (
INTEGER 4) 0 0 () () () '' () ())
8 'session' '' 23 ((VARIABLE UNKNOWN UNKNOWN UNKNOWN NONE NONE DUMMY) (
CHARACTER 1 (())) 0 0 () () () '' () ())
7 'iabupd' '' 23 ((VARIABLE UNKNOWN UNKNOWN UNKNOWN NONE NONE DUMMY) (
INTEGER 4) 0 0 () () () '' () ())
6 'rnxsta' '' 23 ((VARIABLE UNKNOWN UNKNOWN UNKNOWN NONE NONE DUMMY) (
INTEGER 4) 0 0 () () () '' () ())
5 'isasys' '' 23 ((VARIABLE UNKNOWN UNKNOWN UNKNOWN NONE NONE DUMMY) (
INTEGER 4) 0 0 () () () '' () ())
4 'title' '' 23 ((VARIABLE UNKNOWN UNKNOWN UNKNOWN NONE NONE DUMMY) (
CHARACTER 1 (())) 0 0 () () () '' () ())
3 'campgn' '' 23 ((VARIABLE UNKNOWN UNKNOWN UNKNOWN NONE NONE DUMMY) (
CHARACTER 1 (())) 0 0 () () () '' () ())
)

('rxob3i' 0 2 's_rxob3i' 0 22)
