G95 module created on Thu Jun 25 17:50:08 2020 from ./.fpp/SATMIN.f90
If you edit this, you'll get what you deserve.
module-version 9
(() () () () () () () () () () () () () () () () () () () () ())

()

()

()

()

(2 's_satmin' 's_satmin' 1 ((MODULE UNKNOWN UNKNOWN UNKNOWN NONE NONE) (
UNKNOWN) 0 0 () () () '' () ())
3 'satmin' 's_satmin' 1 ((PROCEDURE UNKNOWN MODULE-PROC DECL NONE NONE
SUBROUTINE) (PROCEDURE 0) 0 0 (4 NONE) () () '' () ())
4 'opt' '' 5 ((VARIABLE UNKNOWN UNKNOWN UNKNOWN NONE NONE DUMMY) (
DERIVED 6) 0 0 () () () '' () ())
6 't_satmrk_opt' 'p_satmrk' 5 ((DERIVED UNKNOWN UNKNOWN UNKNOWN NONE
NONE) (UNKNOWN) 0 0 () () () '' ((7 'filnam' (CHARACTER 1 ((CONSTANT (
INTEGER 4) 0 '32'))) (2 DEFERRED () () () ()) () 1 1 0 ()) (8 'filsyc' (
CHARACTER 1 ((CONSTANT (INTEGER 4) 0 '32'))) (2 DEFERRED () () () ()) ()
1 1 0 ()) (9 'edtfil' (CHARACTER 1 ((CONSTANT (INTEGER 4) 0 '32'))) () ()
0 0 0 ()) (10 'syc' (INTEGER 4) () () 0 0 0 ()) (11 'resamb' (INTEGER 4)
() () 0 0 0 ()) (12 'ambsys' (INTEGER 4) () () 0 0 0 ()) (13 'nfil' (
INTEGER 4) () () 0 0 0 ()) (14 'yfil' (INTEGER 4) () () 0 0 0 ()) (15
'mrktyp' (INTEGER 4) () () 0 0 0 ()) (16 'mrkfrq' (INTEGER 4) () () 0 0
0 ()) (17 'mrkepo' (INTEGER 4) (1 EXPLICIT (CONSTANT (INTEGER 4) 0 '1')
(CONSTANT (INTEGER 4) 0 '2')) () 1 0 0 ()) (18 'mrksat' (INTEGER 4) (1
DEFERRED () ()) () 1 1 0 ()) (19 'mrktim' (REAL 8) (1 EXPLICIT (
CONSTANT (INTEGER 4) 0 '1') (CONSTANT (INTEGER 4) 0 '2')) () 1 0 0 ()) (
20 'minamb' (INTEGER 4) () () 0 0 0 ()) (21 'isampl' (INTEGER 4) () () 0
0 0 ())) PUBLIC ())
)

('s_satmin' 0 2 'satmin' 0 3)
