G95 module created on Thu Jun 25 17:49:44 2020 from ./.fpp/SELEDT.f90
If you edit this, you'll get what you deserve.
module-version 9
(() () () () () () () () () () () () () () () () () () () () ())

()

()

()

()

(2 's_seledt' 's_seledt' 1 ((MODULE UNKNOWN UNKNOWN UNKNOWN NONE NONE) (
UNKNOWN) 0 0 () () () '' () ())
3 'seledt' 's_seledt' 1 ((PROCEDURE UNKNOWN MODULE-PROC DECL NONE NONE
SUBROUTINE) (PROCEDURE 0) 0 0 (4 NONE 5 NONE 6 NONE 7 NONE 8 NONE 9 NONE
10 NONE) () () '' () ())
10 'fildid' '' 11 ((VARIABLE UNKNOWN UNKNOWN UNKNOWN NONE NONE DIMENSION
POINTER DUMMY) (INTEGER 4) 0 0 () (2 DEFERRED () () () ()) () '' () ())
9 'iedit' '' 11 ((VARIABLE UNKNOWN UNKNOWN UNKNOWN NONE NONE DUMMY) (
INTEGER 4) 0 0 () () () '' () ())
8 'edtlst' '' 11 ((VARIABLE UNKNOWN UNKNOWN UNKNOWN NONE NONE DIMENSION
POINTER DUMMY) (DERIVED 12) 0 0 () (1 DEFERRED () ()) () '' () ())
12 't_edtrec' 'd_edit' 11 ((DERIVED UNKNOWN UNKNOWN UNKNOWN NONE NONE) (
UNKNOWN) 0 0 () () () '' ((13 'lstcyc' (REAL 8) () () 0 0 0 ()) (14
'lstedt' (INTEGER 4) (1 EXPLICIT (CONSTANT (INTEGER 4) 0 '1') (CONSTANT
(INTEGER 4) 0 '7')) () 1 0 0 ())) PUBLIC ())
7 'nedt' '' 11 ((VARIABLE UNKNOWN UNKNOWN UNKNOWN NONE NONE DUMMY) (
INTEGER 4) 0 0 () () () '' () ())
6 'obshead' '' 11 ((VARIABLE UNKNOWN UNKNOWN UNKNOWN NONE NONE DUMMY) (
DERIVED 15) 0 0 () () () '' () ())
15 't_obshead' 'd_gpsobs' 11 ((DERIVED UNKNOWN UNKNOWN UNKNOWN NONE NONE)
(UNKNOWN) 0 0 () () () '' ((16 'campgn' (CHARACTER 1 ((CONSTANT (
INTEGER 4) 0 '16'))) () () 0 0 0 ()) (17 'title' (CHARACTER 1 ((
CONSTANT (INTEGER 4) 0 '53'))) () () 0 0 0 ()) (18 'irmark' (INTEGER 4)
() () 0 0 0 ()) (19 'ifrmat' (INTEGER 4) () () 0 0 0 ()) (20 'csess' (
CHARACTER 1 ((CONSTANT (INTEGER 4) 0 '4'))) (1 EXPLICIT (CONSTANT (
INTEGER 4) 0 '1') (CONSTANT (INTEGER 4) 0 '2')) () 1 0 0 ()) (21 'crdate'
(CHARACTER 1 ((CONSTANT (INTEGER 4) 0 '9'))) (1 EXPLICIT (CONSTANT (
INTEGER 4) 0 '1') (CONSTANT (INTEGER 4) 0 '2')) () 1 0 0 ()) (22 'crtime'
(CHARACTER 1 ((CONSTANT (INTEGER 4) 0 '5'))) (1 EXPLICIT (CONSTANT (
INTEGER 4) 0 '1') (CONSTANT (INTEGER 4) 0 '2')) () 1 0 0 ()) (23 'timref'
(REAL 8) () () 0 0 0 ()) (24 'ideltt' (INTEGER 4) () () 0 0 0 ()) (25
'meatyp' (INTEGER 4) () () 0 0 0 ()) (26 'ndiff' (INTEGER 4) () () 0 0 0
()) (27 'nfreq' (INTEGER 4) () () 0 0 0 ()) (28 'nepoch' (INTEGER 4) ()
() 0 0 0 ()) (29 'numamb' (INTEGER 4) () () 0 0 0 ()) (30 'nsatel' (
INTEGER 4) () () 0 0 0 ()) (31 'nepflg' (INTEGER 4) () () 0 0 0 ()) (32
'sta' (DERIVED 33) (1 EXPLICIT (CONSTANT (INTEGER 4) 0 '1') (CONSTANT (
INTEGER 4) 0 '2')) () 1 0 0 ()) (34 'sat' (DERIVED 35) (1 DEFERRED () ())
() 1 1 0 ()) (36 'ambigu' (DERIVED 37) (1 DEFERRED () ()) () 1 1 0 ()))
PUBLIC ())
37 't_ambigu' 'd_ambigu' 11 ((DERIVED UNKNOWN UNKNOWN UNKNOWN NONE NONE)
(UNKNOWN) 0 0 () () () '' ((38 'ambigu' (REAL 8) (1 EXPLICIT (CONSTANT (
INTEGER 4) 0 '1') (CONSTANT (INTEGER 4) 0 '3')) () 1 0 0 ()) (39 'ambsat'
(INTEGER 4) () () 0 0 0 ()) (40 'ambiep' (INTEGER 4) () () 0 0 0 ()) (
41 'ambwlf' (INTEGER 4) (1 EXPLICIT (CONSTANT (INTEGER 4) 0 '1') (
CONSTANT (INTEGER 4) 0 '2')) () 1 0 0 ()) (42 'ambcls' (INTEGER 4) (1
EXPLICIT (CONSTANT (INTEGER 4) 0 '1') (CONSTANT (INTEGER 4) 0 '3')) () 1
0 0 ()) (43 'solved' (LOGICAL 4) () () 0 0 0 ())) PUBLIC ())
35 't_sat' 'd_gpsobs' 11 ((DERIVED UNKNOWN UNKNOWN UNKNOWN NONE NONE) (
UNKNOWN) 0 0 () () () '' ((44 'numsat' (INTEGER 4) () () 0 0 0 ()) (45
'numobs' (INTEGER 4) (1 EXPLICIT (CONSTANT (INTEGER 4) 0 '1') (CONSTANT
(INTEGER 4) 0 '2')) () 1 0 0 ()) (46 'nummrk' (INTEGER 4) (1 EXPLICIT (
CONSTANT (INTEGER 4) 0 '1') (CONSTANT (INTEGER 4) 0 '2')) () 1 0 0 ()) (
47 'obstyp' (CHARACTER 1 ((CONSTANT (INTEGER 4) 0 '3'))) (1 EXPLICIT (
CONSTANT (INTEGER 4) 0 '1') (CONSTANT (INTEGER 4) 0 '8')) () 1 0 0 ()))
PUBLIC ())
33 't_sta' 'd_gpsobs' 11 ((DERIVED UNKNOWN UNKNOWN UNKNOWN NONE NONE) (
UNKNOWN) 0 0 () () () '' ((48 'stanam' (CHARACTER 1 ((CONSTANT (INTEGER
4) 0 '16'))) () () 0 0 0 ()) (49 'oprnam' (CHARACTER 1 ((CONSTANT (
INTEGER 4) 0 '20'))) () () 0 0 0 ()) (50 'rectyp' (CHARACTER 1 ((
CONSTANT (INTEGER 4) 0 '20'))) () () 0 0 0 ()) (51 'irunit' (INTEGER 4)
() () 0 0 0 ()) (52 'anttyp' (CHARACTER 1 ((CONSTANT (INTEGER 4) 0 '20')))
() () 0 0 0 ()) (53 'ianten' (INTEGER 4) () () 0 0 0 ()) (54 'posecc' (
REAL 8) (1 EXPLICIT (CONSTANT (INTEGER 4) 0 '1') (CONSTANT (INTEGER 4) 0
'3')) () 1 0 0 ()) (55 'iclock' (INTEGER 4) () () 0 0 0 ())) PUBLIC ())
5 'opt' '' 11 ((VARIABLE UNKNOWN UNKNOWN UNKNOWN NONE NONE DUMMY) (
DERIVED 56) 0 0 () () () '' () ())
56 't_satmrk_opt' 'p_satmrk' 11 ((DERIVED UNKNOWN UNKNOWN UNKNOWN NONE
NONE) (UNKNOWN) 0 0 () () () '' ((57 'filnam' (CHARACTER 1 ((CONSTANT (
INTEGER 4) 0 '32'))) (2 DEFERRED () () () ()) () 1 1 0 ()) (58 'filsyc'
(CHARACTER 1 ((CONSTANT (INTEGER 4) 0 '32'))) (2 DEFERRED () () () ()) ()
1 1 0 ()) (59 'edtfil' (CHARACTER 1 ((CONSTANT (INTEGER 4) 0 '32'))) ()
() 0 0 0 ()) (60 'syc' (INTEGER 4) () () 0 0 0 ()) (61 'resamb' (
INTEGER 4) () () 0 0 0 ()) (62 'ambsys' (INTEGER 4) () () 0 0 0 ()) (63
'nfil' (INTEGER 4) () () 0 0 0 ()) (64 'yfil' (INTEGER 4) () () 0 0 0 ())
(65 'mrktyp' (INTEGER 4) () () 0 0 0 ()) (66 'mrkfrq' (INTEGER 4) () ()
0 0 0 ()) (67 'mrkepo' (INTEGER 4) (1 EXPLICIT (CONSTANT (INTEGER 4) 0 '1')
(CONSTANT (INTEGER 4) 0 '2')) () 1 0 0 ()) (68 'mrksat' (INTEGER 4) (1
DEFERRED () ()) () 1 1 0 ()) (69 'mrktim' (REAL 8) (1 EXPLICIT (
CONSTANT (INTEGER 4) 0 '1') (CONSTANT (INTEGER 4) 0 '2')) () 1 0 0 ()) (
70 'minamb' (INTEGER 4) () () 0 0 0 ()) (71 'isampl' (INTEGER 4) () () 0
0 0 ())) PUBLIC ())
4 'ifil' '' 11 ((VARIABLE UNKNOWN UNKNOWN UNKNOWN NONE NONE DUMMY) (
INTEGER 4) 0 0 () () () '' () ())
)

('s_seledt' 0 2 'seledt' 0 3)
