G95 module created on Thu Jun 25 17:49:53 2020 from ./.fpp/SELOPT.f90
If you edit this, you'll get what you deserve.
module-version 9
(() () () () () () () () () () () () () () () () () () () () ())

()

()

()

()

(2 's_selopt' 's_selopt' 1 ((MODULE UNKNOWN UNKNOWN UNKNOWN NONE NONE) (
UNKNOWN) 0 0 () () () '' () ())
3 'selopt' 's_selopt' 1 ((PROCEDURE UNKNOWN MODULE-PROC DECL NONE NONE
SUBROUTINE) (PROCEDURE 0) 0 0 (4 NONE 5 NONE 6 NONE) () () '' () ())
6 'timint' '' 7 ((VARIABLE UNKNOWN UNKNOWN UNKNOWN NONE NONE DIMENSION
DUMMY) (REAL 8) 0 0 () (1 EXPLICIT (CONSTANT (INTEGER 4) 0 '1') (
CONSTANT (INTEGER 4) 0 '2')) () '' () ())
5 'stalist' '' 7 ((VARIABLE UNKNOWN UNKNOWN UNKNOWN NONE NONE DUMMY) (
DERIVED 8) 0 0 () () () '' () ())
8 't_stalist' 'd_stalst' 7 ((DERIVED UNKNOWN UNKNOWN UNKNOWN NONE NONE)
(UNKNOWN) 0 0 () () () '' ((9 'title' (CHARACTER 1 ((CONSTANT (INTEGER 4)
0 '80'))) () () 0 0 0 ()) (10 'nsta' (INTEGER 4) () () 0 0 0 ()) (11
'stanam' (CHARACTER 1 ((CONSTANT (INTEGER 4) 0 '16'))) (1 DEFERRED () ())
() 1 1 0 ()) (12 'sigma' (REAL 8) (2 DEFERRED () () () ()) () 1 1 0 ()))
PUBLIC ())
4 'file' '' 7 ((VARIABLE UNKNOWN UNKNOWN UNKNOWN NONE NONE DUMMY) (
DERIVED 13) 0 0 () () () '' () ())
13 't_stacrux' 'd_stacrx' 7 ((DERIVED UNKNOWN UNKNOWN UNKNOWN NONE NONE)
(UNKNOWN) 0 0 () () () '' ((14 'nrenam' (INTEGER 4) () () 0 0 0 ()) (15
'ninfo' (INTEGER 4) () () 0 0 0 ()) (16 'nprob' (INTEGER 4) () () 0 0 0
()) (17 'ncoovel' (INTEGER 4) () () 0 0 0 ()) (18 'nrelpar' (INTEGER 4)
() () 0 0 0 ()) (19 'nstatype' (INTEGER 4) () () 0 0 0 ()) (20 'version'
(REAL 8) () () 0 0 0 ()) (21 'technique' (CHARACTER 1 ((CONSTANT (
INTEGER 4) 0 '30'))) () () 0 0 0 ()) (22 'renamsta' (DERIVED 23) (1
DEFERRED () ()) () 1 1 0 ()) (24 'stainfo' (DERIVED 25) (1 DEFERRED () ())
() 1 1 0 ()) (26 'staprob' (DERIVED 27) (1 DEFERRED () ()) () 1 1 0 ())
(28 'coovel' (DERIVED 29) (1 DEFERRED () ()) () 1 1 0 ()) (30 'starelpar'
(DERIVED 31) (1 DEFERRED () ()) () 1 1 0 ()) (32 'statype' (DERIVED 33)
(1 DEFERRED () ()) () 1 1 0 ())) PUBLIC ())
33 't_statype' 'd_stacrx' 7 ((DERIVED UNKNOWN UNKNOWN UNKNOWN NONE NONE)
(UNKNOWN) 0 0 () () () '' ((34 'stanam' (CHARACTER 1 ((CONSTANT (
INTEGER 4) 0 '16'))) () () 0 0 0 ()) (35 'flg' (CHARACTER 1 ((CONSTANT (
INTEGER 4) 0 '3'))) () () 0 0 0 ()) (36 'timint' (DERIVED 37) () () 0 0
0 ()) (38 'markertype' (CHARACTER 1 ((CONSTANT (INTEGER 4) 0 '20'))) ()
() 0 0 0 ()) (39 'remark' (CHARACTER 1 ((CONSTANT (INTEGER 4) 0 '24')))
() () 0 0 0 ())) PUBLIC ())
37 't_timint' 'm_time' 7 ((DERIVED UNKNOWN UNKNOWN UNKNOWN NONE NONE) (
UNKNOWN) 0 0 () () () '' ((40 't' (REAL 8) (1 EXPLICIT (CONSTANT (
INTEGER 4) 0 '1') (CONSTANT (INTEGER 4) 0 '2')) () 1 0 0 ())) PUBLIC ())
31 't_starelpar' 'd_stacrx' 7 ((DERIVED UNKNOWN UNKNOWN UNKNOWN NONE
NONE) (UNKNOWN) 0 0 () () () '' ((41 'stanam' (CHARACTER 1 ((CONSTANT (
INTEGER 4) 0 '16'))) (1 EXPLICIT (CONSTANT (INTEGER 4) 0 '1') (CONSTANT
(INTEGER 4) 0 '2')) () 1 0 0 ()) (42 'flg' (CHARACTER 1 ((CONSTANT (
INTEGER 4) 0 '3'))) () () 0 0 0 ()) (43 'timwin' (DERIVED 37) () () 0 0
0 ()) (44 'partyp' (CHARACTER 1 ((CONSTANT (INTEGER 4) 0 '8'))) () () 0
0 0 ()) (45 'sys' (CHARACTER 1 ((CONSTANT (INTEGER 4) 0 '3'))) (1
EXPLICIT (CONSTANT (INTEGER 4) 0 '1') (CONSTANT (INTEGER 4) 0 '2')) () 1
0 0 ()) (46 'loctie' (REAL 8) (1 EXPLICIT (CONSTANT (INTEGER 4) 0 '1') (
CONSTANT (INTEGER 4) 0 '3')) () 1 0 0 ()) (47 'constr' (REAL 8) (1
EXPLICIT (CONSTANT (INTEGER 4) 0 '1') (CONSTANT (INTEGER 4) 0 '3')) () 1
0 0 ()) (48 'correl' (REAL 8) (1 EXPLICIT (CONSTANT (INTEGER 4) 0 '1') (
CONSTANT (INTEGER 4) 0 '3')) () 1 0 0 ()) (49 'remark' (CHARACTER 1 ((
CONSTANT (INTEGER 4) 0 '24'))) () () 0 0 0 ()) (50 'applied' (LOGICAL 4)
() () 0 0 0 ())) PUBLIC ())
29 't_coovel' 'd_stacrx' 7 ((DERIVED UNKNOWN UNKNOWN UNKNOWN NONE NONE)
(UNKNOWN) 0 0 () () () '' ((51 'stanam' (CHARACTER 1 ((CONSTANT (
INTEGER 4) 0 '16'))) (1 EXPLICIT (CONSTANT (INTEGER 4) 0 '1') (CONSTANT
(INTEGER 4) 0 '2')) () 1 0 0 ()) (52 'constr' (REAL 8) (1 EXPLICIT (
CONSTANT (INTEGER 4) 0 '1') (CONSTANT (INTEGER 4) 0 '6')) () 1 0 0 ()))
PUBLIC ())
27 't_staprob' 'd_stacrx' 7 ((DERIVED UNKNOWN UNKNOWN UNKNOWN NONE NONE)
(UNKNOWN) 0 0 () () () '' ((53 'stanam' (CHARACTER 1 ((CONSTANT (
INTEGER 4) 0 '16'))) () () 0 0 0 ()) (54 'flg' (CHARACTER 1 ((CONSTANT (
INTEGER 4) 0 '3'))) () () 0 0 0 ()) (55 'timint' (DERIVED 37) () () 0 0
0 ()) (56 'remark' (CHARACTER 1 ((CONSTANT (INTEGER 4) 0 '60'))) () () 0
0 0 ())) PUBLIC ())
25 't_stainfo' 'd_stacrx' 7 ((DERIVED UNKNOWN UNKNOWN UNKNOWN NONE NONE)
(UNKNOWN) 0 0 () () () '' ((57 'stanam' (CHARACTER 1 ((CONSTANT (
INTEGER 4) 0 '16'))) () () 0 0 0 ()) (58 'flg' (CHARACTER 1 ((CONSTANT (
INTEGER 4) 0 '3'))) () () 0 0 0 ()) (59 'timint' (DERIVED 37) () () 0 0
0 ()) (60 'recnam' (CHARACTER 1 ((CONSTANT (INTEGER 4) 0 '20'))) () () 0
0 0 ()) (61 'antnam' (CHARACTER 1 ((CONSTANT (INTEGER 4) 0 '20'))) () ()
0 0 0 ()) (62 'recser' (CHARACTER 1 ((CONSTANT (INTEGER 4) 0 '20'))) ()
() 0 0 0 ()) (63 'antser' (CHARACTER 1 ((CONSTANT (INTEGER 4) 0 '20')))
() () 0 0 0 ()) (64 'recnum' (INTEGER 4) () () 0 0 0 ()) (65 'antnum' (
INTEGER 4) () () 0 0 0 ()) (66 'antecc' (REAL 8) (1 EXPLICIT (CONSTANT (
INTEGER 4) 0 '1') (CONSTANT (INTEGER 4) 0 '3')) () 1 0 0 ()) (67 'descri'
(CHARACTER 1 ((CONSTANT (INTEGER 4) 0 '22'))) () () 0 0 0 ()) (68 'remark'
(CHARACTER 1 ((CONSTANT (INTEGER 4) 0 '24'))) () () 0 0 0 ()) (69 'cdpsod'
(CHARACTER 1 ((CONSTANT (INTEGER 4) 0 '8'))) () () 0 0 0 ())) PUBLIC ())
23 't_renamsta' 'd_stacrx' 7 ((DERIVED UNKNOWN UNKNOWN UNKNOWN NONE NONE)
(UNKNOWN) 0 0 () () () '' ((70 'stanam' (CHARACTER 1 ((CONSTANT (
INTEGER 4) 0 '16'))) () () 0 0 0 ()) (71 'flg' (CHARACTER 1 ((CONSTANT (
INTEGER 4) 0 '3'))) () () 0 0 0 ()) (72 'timint' (DERIVED 37) () () 0 0
0 ()) (73 'oldnam' (CHARACTER 1 ((CONSTANT (INTEGER 4) 0 '16'))) () () 0
0 0 ()) (74 'remark' (CHARACTER 1 ((CONSTANT (INTEGER 4) 0 '24'))) () ()
0 0 0 ())) PUBLIC ())
)

('s_selopt' 0 2 'selopt' 0 3)
