G95 module created on Thu Jun 25 17:50:34 2020 from ./.fpp/SMINPF.f90
If you edit this, you'll get what you deserve.
module-version 9
(() () () () () () () () () () () () () () () () () () () () ())

()

()

()

()

(2 's_sminpf' 's_sminpf' 1 ((MODULE UNKNOWN UNKNOWN UNKNOWN NONE NONE) (
UNKNOWN) 0 0 () () () '' () ())
3 'sminpf' 's_sminpf' 1 ((PROCEDURE UNKNOWN MODULE-PROC DECL NONE NONE
SUBROUTINE) (PROCEDURE 0) 0 0 (4 NONE) () () '' () ())
4 'opt' '' 5 ((VARIABLE UNKNOWN UNKNOWN UNKNOWN NONE NONE DUMMY) (
DERIVED 6) 0 0 () () () '' () ())
6 't_gpssim_opt' 'p_gpssim' 5 ((DERIVED UNKNOWN UNKNOWN UNKNOWN NONE
NONE) (UNKNOWN) 0 0 () () () '' ((7 'campgn' (CHARACTER 1 ((CONSTANT (
INTEGER 4) 0 '16'))) () () 0 0 0 ()) (8 'title' (CHARACTER 1 ((CONSTANT
(INTEGER 4) 0 '53'))) () () 0 0 0 ()) (9 'ionref' (CHARACTER 1 ((
CONSTANT (INTEGER 4) 0 '16'))) () () 0 0 0 ()) (10 'csess' (CHARACTER 1
((CONSTANT (INTEGER 4) 0 '4'))) (1 EXPLICIT (CONSTANT (INTEGER 4) 0 '1')
(CONSTANT (INTEGER 4) 0 '2')) () 1 0 0 ()) (11 'fstnam' (CHARACTER 1 ((
CONSTANT (INTEGER 4) 0 '16'))) (1 DEFERRED () ()) () 1 1 0 ()) (12
'stanam' (CHARACTER 1 ((CONSTANT (INTEGER 4) 0 '16'))) (1 DEFERRED () ())
() 1 1 0 ()) (13 'oprnam' (CHARACTER 1 ((CONSTANT (INTEGER 4) 0 '20')))
(1 DEFERRED () ()) () 1 1 0 ()) (14 'filcod' (CHARACTER 1 ((CONSTANT (
INTEGER 4) 0 '32'))) (2 DEFERRED () () () ()) () 1 1 0 ()) (15 'filpha'
(CHARACTER 1 ((CONSTANT (INTEGER 4) 0 '32'))) (2 DEFERRED () () () ()) ()
1 1 0 ()) (16 'rectyp' (CHARACTER 1 ((CONSTANT (INTEGER 4) 0 '20'))) (1
DEFERRED () ()) () 1 1 0 ()) (17 'anttyp' (CHARACTER 1 ((CONSTANT (
INTEGER 4) 0 '20'))) (1 DEFERRED () ()) () 1 1 0 ()) (18 'rms' (REAL 8)
(2 EXPLICIT (CONSTANT (INTEGER 4) 0 '1') (CONSTANT (INTEGER 4) 0 '2') (
CONSTANT (INTEGER 4) 0 '1') (CONSTANT (INTEGER 4) 0 '2')) () 1 0 0 ()) (
19 'leorms' (REAL 8) (2 EXPLICIT (CONSTANT (INTEGER 4) 0 '1') (CONSTANT
(INTEGER 4) 0 '2') (CONSTANT (INTEGER 4) 0 '1') (CONSTANT (INTEGER 4) 0
'2')) () 1 0 0 ()) (20 'obswin' (DERIVED 21) () () 0 0 0 ()) (22 'secipl'
(REAL 8) () () 0 0 0 ()) (23 'recuni' (INTEGER 4) (1 DEFERRED () ()) ()
1 1 0 ()) (24 'antuni' (INTEGER 4) (1 DEFERRED () ()) () 1 1 0 ()) (25
'iono' (INTEGER 4) (1 EXPLICIT (CONSTANT (INTEGER 4) 0 '1') (CONSTANT (
INTEGER 4) 0 '4')) () 1 0 0 ()) (26 'nsta' (INTEGER 4) () () 0 0 0 ()) (
27 'codsel' (INTEGER 4) () () 0 0 0 ()) (28 'phasel' (INTEGER 4) () () 0
0 0 ()) (29 'inter' (INTEGER 4) () () 0 0 0 ()) (30 'ielev' (INTEGER 4)
() () 0 0 0 ()) (31 'iextra' (INTEGER 4) () () 0 0 0 ()) (32 'itropo' (
INTEGER 4) () () 0 0 0 ()) (33 'ix' (INTEGER 4) () () 0 0 0 ()) (34
'icoelv' (INTEGER 4) () () 0 0 0 ()) (35 'leoelv' (INTEGER 4) () () 0 0
0 ()) (36 'nslips' (INTEGER 4) () () 0 0 0 ()) (37 'isize' (INTEGER 4) ()
() 0 0 0 ()) (38 'jl12eq' (INTEGER 4) () () 0 0 0 ()) (39 'mxosvn' (
INTEGER 4) () () 0 0 0 ()) (40 'irel2' (INTEGER 4) () () 0 0 0 ()))
PUBLIC ())
21 't_timint' 'm_time' 5 ((DERIVED UNKNOWN UNKNOWN UNKNOWN NONE NONE) (
UNKNOWN) 0 0 () () () '' ((41 't' (REAL 8) (1 EXPLICIT (CONSTANT (
INTEGER 4) 0 '1') (CONSTANT (INTEGER 4) 0 '2')) () 1 0 0 ())) PUBLIC ())
)

('s_sminpf' 0 2 'sminpf' 0 3)
