G95 module created on Thu Jun 25 17:48:44 2020 from ./.fpp/SNDIFF.f
If you edit this, you'll get what you deserve.
module-version 9
(() () () () () () () () () () () () () () () () () () () () ())

()

()

()

()

(2 's_sndiff' 's_sndiff' 1 ((MODULE UNKNOWN UNKNOWN UNKNOWN NONE NONE) (
UNKNOWN) 0 0 () () () '' () ())
3 'sndiff' 's_sndiff' 1 ((PROCEDURE UNKNOWN MODULE-PROC DECL NONE NONE
SUBROUTINE) (PROCEDURE 0) 0 0 (4 NONE 5 NONE 6 NONE 7 NONE 8 NONE 9 NONE
10 NONE 11 NONE 12 NONE 13 NONE 14 NONE 15 NONE 16 NONE 17 NONE 18 NONE
19 NONE 20 NONE 21 NONE 22 NONE 23 NONE 24 NONE 25 NONE 26 NONE 27 NONE
28 NONE 29 NONE 30 NONE 31 NONE 32 NONE 33 NONE 34 NONE 35 NONE 36 NONE
37 NONE 38 NONE 39 NONE 40 NONE 41 NONE 42 NONE 43 NONE 44 NONE 45 NONE
46 NONE 47 NONE 48 NONE 49 NONE 50 NONE 51 NONE 52 NONE 53 NONE 54 NONE
55 NONE 56 NONE 57 NONE 58 NONE 59 NONE 60 NONE 61 NONE 62 NONE 63 NONE
64 NONE 65 NONE 66 NONE 67 NONE 68 NONE 69 NONE 70 NONE 71 NONE 72 NONE
73 NONE 74 NONE 75 NONE 76 NONE 77 NONE 78 NONE 79 NONE 80 NONE 81 NONE
82 NONE 83 NONE 84 NONE 85 NONE 86 NONE 87 NONE 88 NONE 89 NONE 90 NONE
91 NONE 92 NONE 93 NONE 94 NONE 95 NONE 96 NONE 97 NONE 98 NONE 99 NONE
100 NONE) () () '' () ())
100 'zenmax' '' 101 ((VARIABLE UNKNOWN UNKNOWN UNKNOWN NONE NONE DUMMY)
(REAL 8) 0 0 () () () '' () ())
99 'dtsim' '' 101 ((VARIABLE UNKNOWN UNKNOWN UNKNOWN NONE NONE DUMMY) (
REAL 8) 0 0 () () () '' () ())
98 'timisb' '' 101 ((VARIABLE UNKNOWN UNKNOWN UNKNOWN NONE NONE
DIMENSION DUMMY) (REAL 8) 0 0 () (2 ASSUMED_SIZE (CONSTANT (INTEGER 4) 0
'1') (CONSTANT (INTEGER 4) 0 '3') (CONSTANT (INTEGER 4) 0 '1') ()) () ''
() ())
97 'opload' '' 101 ((VARIABLE UNKNOWN UNKNOWN UNKNOWN NONE NONE
DIMENSION DUMMY) (DERIVED 102) 0 0 () (1 ASSUMED_SHAPE () ()) () '' () ())
102 't_optload' 'p_gpsest' 101 ((DERIVED UNKNOWN UNKNOWN UNKNOWN NONE
NONE) (UNKNOWN) 0 0 () () () '' ((103 'keyw' (CHARACTER 1 ((CONSTANT (
INTEGER 4) 0 '12'))) () () 0 0 0 ()) (104 'nsta' (INTEGER 4) () () 0 0 0
()) (105 'stalst' (CHARACTER 1 ((CONSTANT (INTEGER 4) 0 '16'))) (1
DEFERRED () ()) () 1 1 0 ()) (106 'staclu' (INTEGER 4) (1 DEFERRED () ())
() 1 1 0 ()) (107 'npar' (INTEGER 4) () () 0 0 0 ()) (108 'sigma' (REAL
8) (1 EXPLICIT (CONSTANT (INTEGER 4) 0 '1') (CONSTANT (INTEGER 4) 0 '3'))
() 1 0 0 ())) PUBLIC ())
96 'nrgb' '' 101 ((VARIABLE UNKNOWN UNKNOWN UNKNOWN NONE NONE DUMMY) (
INTEGER 4) 0 0 () () () '' () ())
95 'azisok' '' 101 ((VARIABLE UNKNOWN UNKNOWN UNKNOWN NONE NONE
DIMENSION DUMMY) (REAL 8) 0 0 () (1 EXPLICIT (CONSTANT (INTEGER 4) 0 '1')
(CONSTANT (INTEGER 4) 0 '2')) () '' () ())
94 'azimu2' '' 101 ((VARIABLE UNKNOWN UNKNOWN UNKNOWN NONE NONE
DIMENSION DUMMY) (REAL 8) 0 0 () (1 EXPLICIT (CONSTANT (INTEGER 4) 0 '1')
(CONSTANT (INTEGER 4) 0 '2')) () '' () ())
93 'zenit2' '' 101 ((VARIABLE UNKNOWN UNKNOWN UNKNOWN NONE NONE
DIMENSION DUMMY) (REAL 8) 0 0 () (1 EXPLICIT (CONSTANT (INTEGER 4) 0 '1')
(CONSTANT (INTEGER 4) 0 '2')) () '' () ())
92 'iphsep' '' 101 ((VARIABLE UNKNOWN UNKNOWN UNKNOWN NONE NONE DUMMY) (
INTEGER 4) 0 0 () () () '' () ())
91 'rapzenmax' '' 101 ((VARIABLE UNKNOWN UNKNOWN UNKNOWN NONE NONE DUMMY)
(REAL 8) 0 0 () () () '' () ())
90 'nadmax' '' 101 ((VARIABLE UNKNOWN UNKNOWN UNKNOWN NONE NONE DUMMY) (
REAL 8) 0 0 () () () '' () ())
89 'nadir' '' 101 ((VARIABLE UNKNOWN UNKNOWN UNKNOWN NONE NONE DIMENSION
DUMMY) (REAL 8) 0 0 () (1 EXPLICIT (CONSTANT (INTEGER 4) 0 '1') (
CONSTANT (INTEGER 4) 0 '2')) () '' () ())
88 'satspv' '' 101 ((VARIABLE UNKNOWN UNKNOWN UNKNOWN NONE NONE
DIMENSION DUMMY) (INTEGER 4) 0 0 () (2 ASSUMED_SIZE (CONSTANT (INTEGER 4)
0 '1') (VARIABLE (INTEGER 4) 0 109 ()) (CONSTANT (INTEGER 4) 0 '1') ())
() '' () ())
109 'mxcsgr' '' 101 ((VARIABLE UNKNOWN UNKNOWN UNKNOWN NONE NONE
IN_COMMON) (INTEGER 4) 0 110 () () () '' () ())
110 'mxnsgr' '' 101 ((VARIABLE UNKNOWN UNKNOWN UNKNOWN NONE NONE
IN_COMMON) (CHARACTER 1 ((CONSTANT (INTEGER 4) 0 '6'))) 0 0 () () () ''
() ())
87 'nsaspv' '' 101 ((VARIABLE UNKNOWN UNKNOWN UNKNOWN NONE NONE
DIMENSION DUMMY) (INTEGER 4) 0 0 () (1 ASSUMED_SIZE (CONSTANT (INTEGER 4)
0 '1') ()) () '' () ())
86 'timstc2' '' 101 ((VARIABLE UNKNOWN UNKNOWN UNKNOWN NONE NONE
DIMENSION DUMMY) (REAL 8) 0 0 () (4 ASSUMED_SIZE (CONSTANT (INTEGER 4) 0
'1') (CONSTANT (INTEGER 4) 0 '3') (CONSTANT (INTEGER 4) 0 '1') (
VARIABLE (INTEGER 4) 0 111 ()) (CONSTANT (INTEGER 4) 0 '1') (VARIABLE (
INTEGER 4) 0 112 ()) (CONSTANT (INTEGER 4) 0 '1') ()) () '' () ())
112 'mxcsat' '' 101 ((VARIABLE UNKNOWN UNKNOWN UNKNOWN NONE NONE
IN_COMMON) (INTEGER 4) 0 113 () () () '' () ())
113 'mxnsat' '' 101 ((VARIABLE UNKNOWN UNKNOWN UNKNOWN NONE NONE
IN_COMMON) (CHARACTER 1 ((CONSTANT (INTEGER 4) 0 '6'))) 0 0 () () () ''
() ())
111 'mxcstc' '' 101 ((VARIABLE UNKNOWN UNKNOWN UNKNOWN NONE NONE
IN_COMMON) (INTEGER 4) 0 114 () () () '' () ())
114 'mxnstc' '' 101 ((VARIABLE UNKNOWN UNKNOWN UNKNOWN NONE NONE
IN_COMMON) (CHARACTER 1 ((CONSTANT (INTEGER 4) 0 '6'))) 0 0 () () () ''
() ())
85 'stname' '' 101 ((VARIABLE UNKNOWN UNKNOWN UNKNOWN NONE NONE
DIMENSION DUMMY) (CHARACTER 1 ((CONSTANT (INTEGER 4) 0 '16'))) 0 0 () (
1 ASSUMED_SIZE (CONSTANT (INTEGER 4) 0 '1') ()) () '' () ())
84 'tbound2' '' 101 ((VARIABLE UNKNOWN UNKNOWN UNKNOWN NONE NONE
DIMENSION DUMMY) (REAL 8) 0 0 () (1 EXPLICIT (CONSTANT (INTEGER 4) 0 '1')
(CONSTANT (INTEGER 4) 0 '2')) () '' () ())
83 'iarc2' '' 101 ((VARIABLE UNKNOWN UNKNOWN UNKNOWN NONE NONE DUMMY) (
INTEGER 4) 0 0 () () () '' () ())
82 'ndiff' '' 101 ((VARIABLE UNKNOWN UNKNOWN UNKNOWN NONE NONE DUMMY) (
INTEGER 4) 0 0 () () () '' () ())
81 'clkrec' '' 101 ((VARIABLE UNKNOWN UNKNOWN UNKNOWN NONE NONE DUMMY) (
DERIVED 115) 0 0 () () () '' () ())
115 't_clkrec' 'd_clkrnx' 101 ((DERIVED UNKNOWN UNKNOWN UNKNOWN NONE
NONE) (UNKNOWN) 0 0 () () () '' ((116 'iepo' (INTEGER 4) () () 0 0 0 ())
(117 'nepo' (INTEGER 4) () () 0 0 0 ()) (118 'epoch' (REAL 8) (1
DEFERRED () ()) () 1 1 0 ()) (119 'clock' (REAL 8) (2 DEFERRED () () ()
()) () 1 1 0 ()) (120 'sigma' (REAL 8) (2 DEFERRED () () () ()) () 1 1 0
()) (121 'clkflg' (CHARACTER 1 ((CONSTANT (INTEGER 4) 0 '1'))) (2
DEFERRED () () () ()) () 1 1 0 ())) PUBLIC ())
80 'clkhed' '' 101 ((VARIABLE UNKNOWN UNKNOWN UNKNOWN NONE NONE DUMMY) (
DERIVED 122) 0 0 () () () '' () ())
122 't_clkhead' 'd_clkrnx' 101 ((DERIVED UNKNOWN UNKNOWN UNKNOWN NONE
NONE) (UNKNOWN) 0 0 () () () '' ((123 'rnxvers' (REAL 8) () () 0 0 0 ())
(124 'ncomment' (INTEGER 4) () () 0 0 0 ()) (125 'comment' (CHARACTER 1
((CONSTANT (INTEGER 4) 0 '60'))) (1 DEFERRED () ()) () 1 1 0 ()) (126
'prognam' (CHARACTER 1 ((CONSTANT (INTEGER 4) 0 '20'))) () () 0 0 0 ())
(127 'runby' (CHARACTER 1 ((CONSTANT (INTEGER 4) 0 '20'))) () () 0 0 0 ())
(128 'crdate' (CHARACTER 1 ((CONSTANT (INTEGER 4) 0 '20'))) () () 0 0 0
()) (129 'leapsec' (INTEGER 4) () () 0 0 0 ()) (130 'numtyp' (INTEGER 4)
() () 0 0 0 ()) (131 'dattyp' (CHARACTER 1 ((CONSTANT (INTEGER 4) 0 '2')))
(1 DEFERRED () ()) () 1 1 0 ()) (132 'clk0name' (CHARACTER 1 ((CONSTANT
(INTEGER 4) 0 '16'))) () () 0 0 0 ()) (133 'calname' (CHARACTER 1 ((
CONSTANT (INTEGER 4) 0 '60'))) () () 0 0 0 ()) (134 'ac' (CHARACTER 1 (
(CONSTANT (INTEGER 4) 0 '3'))) () () 0 0 0 ()) (135 'acname' (CHARACTER
1 ((CONSTANT (INTEGER 4) 0 '55'))) () () 0 0 0 ()) (136 'timsys' (
CHARACTER 1 ((CONSTANT (INTEGER 4) 0 '3'))) () () 0 0 0 ()) (137 'pgmnam'
(CHARACTER 1 ((CONSTANT (INTEGER 4) 0 '17'))) () () 0 0 0 ()) (138
'dcbstr' (CHARACTER 1 ((CONSTANT (INTEGER 4) 0 '40'))) () () 0 0 0 ()) (
139 'pcvstr' (CHARACTER 1 ((CONSTANT (INTEGER 4) 0 '40'))) () () 0 0 0 ())
(140 'tfirst' (REAL 8) () () 0 0 0 ()) (141 'numref' (INTEGER 4) () () 0
0 0 ()) (142 'ref' (DERIVED 143) (1 DEFERRED () ()) () 1 1 0 ()) (144
'trfname' (CHARACTER 1 ((CONSTANT (INTEGER 4) 0 '50'))) () () 0 0 0 ())
(145 'nsta' (INTEGER 4) () () 0 0 0 ()) (146 'nsat' (INTEGER 4) () () 0
0 0 ()) (147 'clkname' (CHARACTER 1 ((CONSTANT (INTEGER 4) 0 '16'))) (1
DEFERRED () ()) () 1 1 0 ()) (148 'stacoord' (REAL 8) (2 DEFERRED () ()
() ()) () 1 1 0 ())) PUBLIC ())
143 't_ref' 'd_clkrnx' 101 ((DERIVED UNKNOWN UNKNOWN UNKNOWN NONE NONE)
(UNKNOWN) 0 0 () () () '' ((149 'nref' (INTEGER 4) () () 0 0 0 ()) (150
'clk' (DERIVED 151) (1 DEFERRED () ()) () 1 1 0 ()) (152 'refwin' (
DERIVED 153) () () 0 0 0 ())) PUBLIC ())
153 't_timint' 'm_time' 101 ((DERIVED UNKNOWN UNKNOWN UNKNOWN NONE NONE)
(UNKNOWN) 0 0 () () () '' ((154 't' (REAL 8) (1 EXPLICIT (CONSTANT (
INTEGER 4) 0 '1') (CONSTANT (INTEGER 4) 0 '2')) () 1 0 0 ())) PUBLIC ())
151 't_refclk' 'd_clkrnx' 101 ((DERIVED UNKNOWN UNKNOWN UNKNOWN NONE
NONE) (UNKNOWN) 0 0 () () () '' ((155 'name' (CHARACTER 1 ((CONSTANT (
INTEGER 4) 0 '16'))) () () 0 0 0 ()) (156 'sigma' (REAL 8) () () 0 0 0 ())
(157 'idx' (INTEGER 4) () () 0 0 0 ()) (158 'idx0' (INTEGER 4) () () 0 0
0 ())) PUBLIC ())
79 'ipamb' '' 101 ((VARIABLE UNKNOWN UNKNOWN UNKNOWN NONE NONE DUMMY) (
INTEGER 4) 0 0 () () () '' () ())
78 'prnrao' '' 101 ((VARIABLE UNKNOWN UNKNOWN UNKNOWN NONE NONE
DIMENSION DUMMY) (INTEGER 4) 0 0 () (1 ASSUMED_SIZE (CONSTANT (INTEGER 4)
0 '1') ()) () '' () ())
77 'numrao' '' 101 ((VARIABLE UNKNOWN UNKNOWN UNKNOWN NONE NONE
DIMENSION DUMMY) (INTEGER 4) 0 0 () (2 ASSUMED_SIZE (CONSTANT (INTEGER 4)
0 '1') (CONSTANT (INTEGER 4) 0 '2') (CONSTANT (INTEGER 4) 0 '1') ()) () ''
() ())
76 'antrao' '' 101 ((VARIABLE UNKNOWN UNKNOWN UNKNOWN NONE NONE
DIMENSION DUMMY) (CHARACTER 1 ((CONSTANT (INTEGER 4) 0 '20'))) 0 0 () (
2 ASSUMED_SIZE (CONSTANT (INTEGER 4) 0 '1') (CONSTANT (INTEGER 4) 0 '2')
(CONSTANT (INTEGER 4) 0 '1') ()) () '' () ())
75 'scagim' '' 101 ((VARIABLE UNKNOWN UNKNOWN UNKNOWN NONE NONE
DIMENSION DUMMY) (REAL 8) 0 0 () (1 ASSUMED_SIZE (CONSTANT (INTEGER 4) 0
'1') ()) () '' () ())
74 'epogim' '' 101 ((VARIABLE UNKNOWN UNKNOWN UNKNOWN NONE NONE
DIMENSION DUMMY) (REAL 8) 0 0 () (2 ASSUMED_SIZE (CONSTANT (INTEGER 4) 0
'1') (CONSTANT (INTEGER 4) 0 '2') (CONSTANT (INTEGER 4) 0 '1') ()) () ''
() ())
73 'polgim' '' 101 ((VARIABLE UNKNOWN UNKNOWN UNKNOWN NONE NONE
DIMENSION DUMMY) (REAL 8) 0 0 () (2 ASSUMED_SIZE (CONSTANT (INTEGER 4) 0
'1') (CONSTANT (INTEGER 4) 0 '3') (CONSTANT (INTEGER 4) 0 '1') ()) () ''
() ())
72 'optgim' '' 101 ((VARIABLE UNKNOWN UNKNOWN UNKNOWN NONE NONE
DIMENSION DUMMY) (INTEGER 4) 0 0 () (1 ASSUMED_SIZE (CONSTANT (INTEGER 4)
0 '1') ()) () '' () ())
71 'optdip' '' 101 ((VARIABLE UNKNOWN UNKNOWN UNKNOWN NONE NONE
DIMENSION DUMMY) (INTEGER 4) 0 0 () (1 ASSUMED_SIZE (CONSTANT (INTEGER 4)
0 '1') ()) () '' () ())
70 'prncal' '' 101 ((VARIABLE UNKNOWN UNKNOWN UNKNOWN NONE NONE
DIMENSION DUMMY) (INTEGER 4) 0 0 () (1 ASSUMED_SIZE (CONSTANT (INTEGER 4)
0 '1') ()) () '' () ())
69 'numcal' '' 101 ((VARIABLE UNKNOWN UNKNOWN UNKNOWN NONE NONE
DIMENSION DUMMY) (INTEGER 4) 0 0 () (2 ASSUMED_SIZE (CONSTANT (INTEGER 4)
0 '1') (CONSTANT (INTEGER 4) 0 '2') (CONSTANT (INTEGER 4) 0 '1') ()) () ''
() ())
68 'antcal' '' 101 ((VARIABLE UNKNOWN UNKNOWN UNKNOWN NONE NONE
DIMENSION DUMMY) (CHARACTER 1 ((CONSTANT (INTEGER 4) 0 '20'))) 0 0 () (
2 ASSUMED_SIZE (CONSTANT (INTEGER 4) 0 '1') (CONSTANT (INTEGER 4) 0 '2')
(CONSTANT (INTEGER 4) 0 '1') ()) () '' () ())
67 'csess' '' 101 ((VARIABLE UNKNOWN UNKNOWN UNKNOWN NONE NONE DIMENSION
DUMMY) (CHARACTER 1 ((CONSTANT (INTEGER 4) 0 '4'))) 0 0 () (1 EXPLICIT (
CONSTANT (INTEGER 4) 0 '1') (CONSTANT (INTEGER 4) 0 '2')) () '' () ())
66 'ianten' '' 101 ((VARIABLE UNKNOWN UNKNOWN UNKNOWN NONE NONE
DIMENSION DUMMY) (INTEGER 4) 0 0 () (1 EXPLICIT (CONSTANT (INTEGER 4) 0
'1') (CONSTANT (INTEGER 4) 0 '2')) () '' () ())
65 'anttyp' '' 101 ((VARIABLE UNKNOWN UNKNOWN UNKNOWN NONE NONE
DIMENSION DUMMY) (CHARACTER 1 ((CONSTANT (INTEGER 4) 0 '20'))) 0 0 () (
1 EXPLICIT (CONSTANT (INTEGER 4) 0 '1') (CONSTANT (INTEGER 4) 0 '2')) ()
'' () ())
64 'rectyp' '' 101 ((VARIABLE UNKNOWN UNKNOWN UNKNOWN NONE NONE
DIMENSION DUMMY) (CHARACTER 1 ((CONSTANT (INTEGER 4) 0 '20'))) 0 0 () (
1 EXPLICIT (CONSTANT (INTEGER 4) 0 '1') (CONSTANT (INTEGER 4) 0 '2')) ()
'' () ())
63 'satalb' '' 101 ((VARIABLE UNKNOWN UNKNOWN UNKNOWN NONE NONE
DIMENSION DUMMY) (INTEGER 4) 0 0 () (2 ASSUMED_SIZE (CONSTANT (INTEGER 4)
0 '1') (VARIABLE (INTEGER 4) 0 112 ()) (CONSTANT (INTEGER 4) 0 '1') ())
() '' () ())
62 'nsaalb' '' 101 ((VARIABLE UNKNOWN UNKNOWN UNKNOWN NONE NONE
DIMENSION DUMMY) (INTEGER 4) 0 0 () (1 ASSUMED_SIZE (CONSTANT (INTEGER 4)
0 '1') ()) () '' () ())
61 'scacen' '' 101 ((VARIABLE UNKNOWN UNKNOWN UNKNOWN NONE NONE DUMMY) (
REAL 8) 0 0 () () () '' () ())
60 'scaalb' '' 101 ((VARIABLE UNKNOWN UNKNOWN UNKNOWN NONE NONE DUMMY) (
REAL 8) 0 0 () () () '' () ())
59 'timoff' '' 101 ((VARIABLE UNKNOWN UNKNOWN UNKNOWN NONE NONE
DIMENSION DUMMY) (REAL 8) 0 0 () (2 ASSUMED_SIZE (CONSTANT (INTEGER 4) 0
'1') (CONSTANT (INTEGER 4) 0 '2') (CONSTANT (INTEGER 4) 0 '1') ()) () ''
() ())
58 'satoff' '' 101 ((VARIABLE UNKNOWN UNKNOWN UNKNOWN NONE NONE
DIMENSION DUMMY) (INTEGER 4) 0 0 () (2 ASSUMED_SIZE (CONSTANT (INTEGER 4)
0 '1') (VARIABLE (INTEGER 4) 0 109 ()) (CONSTANT (INTEGER 4) 0 '1') ())
() '' () ())
57 'nsaoff' '' 101 ((VARIABLE UNKNOWN UNKNOWN UNKNOWN NONE NONE
DIMENSION DUMMY) (INTEGER 4) 0 0 () (1 ASSUMED_SIZE (CONSTANT (INTEGER 4)
0 '1') ()) () '' () ())
56 'scapot' '' 101 ((VARIABLE UNKNOWN UNKNOWN UNKNOWN NONE NONE DUMMY) (
REAL 8) 0 0 () () () '' () ())
55 'scahil' '' 101 ((VARIABLE UNKNOWN UNKNOWN UNKNOWN NONE NONE DUMMY) (
REAL 8) 0 0 () () () '' () ())
54 'scastc' '' 101 ((VARIABLE UNKNOWN UNKNOWN UNKNOWN NONE NONE
DIMENSION DUMMY) (REAL 8) 0 0 () (1 ASSUMED_SIZE (CONSTANT (INTEGER 4) 0
'1') ()) () '' () ())
53 'timstc' '' 101 ((VARIABLE UNKNOWN UNKNOWN UNKNOWN NONE NONE
DIMENSION DUMMY) (REAL 8) 0 0 () (4 ASSUMED_SIZE (CONSTANT (INTEGER 4) 0
'1') (CONSTANT (INTEGER 4) 0 '3') (CONSTANT (INTEGER 4) 0 '1') (
VARIABLE (INTEGER 4) 0 111 ()) (CONSTANT (INTEGER 4) 0 '1') (VARIABLE (
INTEGER 4) 0 112 ()) (CONSTANT (INTEGER 4) 0 '1') ()) () '' () ())
52 'tosc' '' 101 ((VARIABLE UNKNOWN UNKNOWN UNKNOWN NONE NONE DUMMY) (
REAL 8) 0 0 () () () '' () ())
51 'iorsys' '' 101 ((VARIABLE UNKNOWN UNKNOWN UNKNOWN NONE NONE DUMMY) (
INTEGER 4) 0 0 () () () '' () ())
50 'ells12' '' 101 ((VARIABLE UNKNOWN UNKNOWN UNKNOWN NONE NONE
DIMENSION DUMMY) (REAL 8) 0 0 () (2 EXPLICIT (CONSTANT (INTEGER 4) 0 '1')
(CONSTANT (INTEGER 4) 0 '3') (CONSTANT (INTEGER 4) 0 '1') (CONSTANT (
INTEGER 4) 0 '2')) () '' () ())
49 'itrgrd' '' 101 ((VARIABLE UNKNOWN UNKNOWN UNKNOWN NONE NONE
DIMENSION DUMMY) (INTEGER 4) 0 0 () (1 ASSUMED_SIZE (CONSTANT (INTEGER 4)
0 '1') ()) () '' () ())
48 'itrmap' '' 101 ((VARIABLE UNKNOWN UNKNOWN UNKNOWN NONE NONE DUMMY) (
INTEGER 4) 0 0 () () () '' () ())
47 'trplms' '' 101 ((VARIABLE UNKNOWN UNKNOWN UNKNOWN NONE NONE
DIMENSION DUMMY) (REAL 8) 0 0 () (2 ASSUMED_SIZE (CONSTANT (INTEGER 4) 0
'1') (CONSTANT (INTEGER 4) 0 '2') (CONSTANT (INTEGER 4) 0 '1') ()) () ''
() ())
46 'trplim' '' 101 ((VARIABLE UNKNOWN UNKNOWN UNKNOWN NONE NONE
DIMENSION DUMMY) (REAL 8) 0 0 () (2 ASSUMED_SIZE (CONSTANT (INTEGER 4) 0
'1') (CONSTANT (INTEGER 4) 0 '2') (CONSTANT (INTEGER 4) 0 '1') ()) () ''
() ())
45 'melwub' '' 101 ((VARIABLE UNKNOWN UNKNOWN UNKNOWN NONE NONE DUMMY) (
INTEGER 4) 0 0 () () () '' () ())
44 'meatyp' '' 101 ((VARIABLE UNKNOWN UNKNOWN UNKNOWN NONE NONE DUMMY) (
INTEGER 4) 0 0 () () () '' () ())
43 'ambsat' '' 101 ((VARIABLE UNKNOWN UNKNOWN UNKNOWN NONE NONE
DIMENSION DUMMY) (INTEGER 4) 0 0 () (1 EXPLICIT (CONSTANT (INTEGER 4) 0
'1') (VARIABLE (INTEGER 4) 0 159 ())) () '' () ())
159 'mxcamb' '' 101 ((VARIABLE UNKNOWN UNKNOWN UNKNOWN NONE NONE
IN_COMMON) (INTEGER 4) 0 160 () () () '' () ())
160 'mxnamb' '' 101 ((VARIABLE UNKNOWN UNKNOWN UNKNOWN NONE NONE
IN_COMMON) (CHARACTER 1 ((CONSTANT (INTEGER 4) 0 '6'))) 0 0 () () () ''
() ())
42 'ambcls' '' 101 ((VARIABLE UNKNOWN UNKNOWN UNKNOWN NONE NONE
DIMENSION DUMMY) (INTEGER 4) 0 0 () (2 EXPLICIT (CONSTANT (INTEGER 4) 0
'1') (VARIABLE (INTEGER 4) 0 159 ()) (CONSTANT (INTEGER 4) 0 '1') (
CONSTANT (INTEGER 4) 0 '3')) () '' () ())
41 'ambiep' '' 101 ((VARIABLE UNKNOWN UNKNOWN UNKNOWN NONE NONE
DIMENSION DUMMY) (INTEGER 4) 0 0 () (1 EXPLICIT (CONSTANT (INTEGER 4) 0
'1') (VARIABLE (INTEGER 4) 0 159 ())) () '' () ())
40 'numamb' '' 101 ((VARIABLE UNKNOWN UNKNOWN UNKNOWN NONE NONE DUMMY) (
INTEGER 4) 0 0 () () () '' () ())
39 'nfreq' '' 101 ((VARIABLE UNKNOWN UNKNOWN UNKNOWN NONE NONE DUMMY) (
INTEGER 4) 0 0 () () () '' () ())
38 'icarr' '' 101 ((VARIABLE UNKNOWN UNKNOWN UNKNOWN NONE NONE DUMMY) (
INTEGER 4) 0 0 () () () '' () ())
37 'nfrfil' '' 101 ((VARIABLE UNKNOWN UNKNOWN UNKNOWN NONE NONE DUMMY) (
INTEGER 4) 0 0 () () () '' () ())
36 'ambwlf' '' 101 ((VARIABLE UNKNOWN UNKNOWN UNKNOWN NONE NONE
DIMENSION DUMMY) (INTEGER 4) 0 0 () (2 EXPLICIT (CONSTANT (INTEGER 4) 0
'1') (VARIABLE (INTEGER 4) 0 159 ()) (CONSTANT (INTEGER 4) 0 '1') (
CONSTANT (INTEGER 4) 0 '2')) () '' () ())
35 'azimut' '' 101 ((VARIABLE UNKNOWN UNKNOWN UNKNOWN NONE NONE
DIMENSION DUMMY) (REAL 8) 0 0 () (1 EXPLICIT (CONSTANT (INTEGER 4) 0 '1')
(CONSTANT (INTEGER 4) 0 '2')) () '' () ())
34 'zenith' '' 101 ((VARIABLE UNKNOWN UNKNOWN UNKNOWN NONE NONE
DIMENSION DUMMY) (REAL 8) 0 0 () (1 EXPLICIT (CONSTANT (INTEGER 4) 0 '1')
(CONSTANT (INTEGER 4) 0 '2')) () '' () ())
33 'nobspa' '' 101 ((VARIABLE UNKNOWN UNKNOWN UNKNOWN NONE NONE
DIMENSION DUMMY) (INTEGER 4) 0 0 () (2 ASSUMED_SHAPE () () () ()) () ''
() ())
32 'ahelp' '' 101 ((VARIABLE UNKNOWN UNKNOWN UNKNOWN NONE NONE DIMENSION
DUMMY) (REAL 8) 0 0 () (1 ASSUMED_SIZE (CONSTANT (INTEGER 4) 0 '1') ())
() '' () ())
31 'inda' '' 101 ((VARIABLE UNKNOWN UNKNOWN UNKNOWN NONE NONE DIMENSION
DUMMY) (INTEGER 4) 0 0 () (1 ASSUMED_SIZE (CONSTANT (INTEGER 4) 0 '1') ())
() '' () ())
30 'a' '' 101 ((VARIABLE UNKNOWN UNKNOWN UNKNOWN NONE NONE DIMENSION
DUMMY) (REAL 8) 0 0 () (1 ASSUMED_SIZE (CONSTANT (INTEGER 4) 0 '1') ())
() '' () ())
29 'partyp' '' 101 ((VARIABLE UNKNOWN UNKNOWN UNKNOWN NONE NONE
DIMENSION DUMMY) (DERIVED 161) 0 0 () (1 ASSUMED_SHAPE () ()) () '' () ())
161 't_partyp' 'p_gpsest' 101 ((DERIVED UNKNOWN UNKNOWN UNKNOWN NONE
NONE) (UNKNOWN) 0 0 () () () '' ((162 'type' (CHARACTER 1 ((CONSTANT (
INTEGER 4) 0 '2'))) () () 0 0 0 ()) (163 'omega' (REAL 8) () () 0 0 0 ()))
PUBLIC ())
28 'locq' '' 101 ((VARIABLE UNKNOWN UNKNOWN UNKNOWN NONE NONE DIMENSION
DUMMY) (INTEGER 4) 0 0 () (2 ASSUMED_SIZE (CONSTANT (INTEGER 4) 0 '1') (
VARIABLE (INTEGER 4) 0 164 ()) (CONSTANT (INTEGER 4) 0 '1') ()) () '' ()
())
164 'mxclcq' '' 101 ((VARIABLE UNKNOWN UNKNOWN UNKNOWN NONE NONE
IN_COMMON) (INTEGER 4) 0 165 () () () '' () ())
165 'mxnlcq' '' 101 ((VARIABLE UNKNOWN UNKNOWN UNKNOWN NONE NONE
IN_COMMON) (CHARACTER 1 ((CONSTANT (INTEGER 4) 0 '6'))) 0 0 () () () ''
() ())
27 'ifile' '' 101 ((VARIABLE UNKNOWN UNKNOWN UNKNOWN NONE NONE DUMMY) (
INTEGER 4) 0 0 () () () '' () ())
26 'ele' '' 101 ((VARIABLE UNKNOWN UNKNOWN UNKNOWN NONE NONE DIMENSION
DUMMY) (REAL 8) 0 0 () (1 EXPLICIT (CONSTANT (INTEGER 4) 0 '1') (
CONSTANT (INTEGER 4) 0 '7')) () '' () ())
25 'tsec' '' 101 ((VARIABLE UNKNOWN UNKNOWN UNKNOWN NONE NONE DUMMY) (
REAL 8) 0 0 () () () '' () ())
24 'tbound' '' 101 ((VARIABLE UNKNOWN UNKNOWN UNKNOWN NONE NONE
DIMENSION DUMMY) (REAL 8) 0 0 () (1 EXPLICIT (CONSTANT (INTEGER 4) 0 '1')
(CONSTANT (INTEGER 4) 0 '2')) () '' () ())
23 'iarc' '' 101 ((VARIABLE UNKNOWN UNKNOWN UNKNOWN NONE NONE DUMMY) (
INTEGER 4) 0 0 () () () '' () ())
22 'iepo' '' 101 ((VARIABLE UNKNOWN UNKNOWN UNKNOWN NONE NONE DUMMY) (
INTEGER 4) 0 0 () () () '' () ())
21 'tobs' '' 101 ((VARIABLE UNKNOWN UNKNOWN UNKNOWN NONE NONE DUMMY) (
REAL 8) 0 0 () () () '' () ())
20 'clft' '' 101 ((VARIABLE UNKNOWN UNKNOWN UNKNOWN NONE NONE DIMENSION
DUMMY) (REAL 8) 0 0 () (2 ASSUMED_SIZE (CONSTANT (INTEGER 4) 0 '1') (
CONSTANT (INTEGER 4) 0 '2') (CONSTANT (INTEGER 4) 0 '1') ()) () '' () ())
19 'tpol' '' 101 ((VARIABLE UNKNOWN UNKNOWN UNKNOWN NONE NONE DIMENSION
DUMMY) (REAL 8) 0 0 () (2 ASSUMED_SIZE (CONSTANT (INTEGER 4) 0 '1') (
CONSTANT (INTEGER 4) 0 '2') (CONSTANT (INTEGER 4) 0 '1') ()) () '' () ())
18 'ypol' '' 101 ((VARIABLE UNKNOWN UNKNOWN UNKNOWN NONE NONE DUMMY) (
REAL 8) 0 0 () () () '' () ())
17 'xpol' '' 101 ((VARIABLE UNKNOWN UNKNOWN UNKNOWN NONE NONE DUMMY) (
REAL 8) 0 0 () () () '' () ())
16 'sz' '' 101 ((VARIABLE UNKNOWN UNKNOWN UNKNOWN NONE NONE DUMMY) (
REAL 8) 0 0 () () () '' () ())
15 'xtopo' '' 101 ((VARIABLE UNKNOWN UNKNOWN UNKNOWN NONE NONE DIMENSION
DUMMY) (REAL 8) 0 0 () (2 EXPLICIT (CONSTANT (INTEGER 4) 0 '1') (
CONSTANT (INTEGER 4) 0 '3') (CONSTANT (INTEGER 4) 0 '1') (CONSTANT (
INTEGER 4) 0 '2')) () '' () ())
14 'wgsepo' '' 101 ((VARIABLE UNKNOWN UNKNOWN UNKNOWN NONE NONE
DIMENSION DUMMY) (REAL 8) 0 0 () (2 EXPLICIT (CONSTANT (INTEGER 4) 0 '1')
(CONSTANT (INTEGER 4) 0 '9') (CONSTANT (INTEGER 4) 0 '1') (CONSTANT (
INTEGER 4) 0 '2')) () '' () ())
13 'xstat' '' 101 ((VARIABLE UNKNOWN UNKNOWN UNKNOWN NONE NONE DIMENSION
DUMMY) (REAL 8) 0 0 () (2 ASSUMED_SIZE (CONSTANT (INTEGER 4) 0 '1') (
CONSTANT (INTEGER 4) 0 '3') (CONSTANT (INTEGER 4) 0 '1') ()) () '' () ())
12 'xvsat' '' 101 ((VARIABLE UNKNOWN UNKNOWN UNKNOWN NONE NONE DIMENSION
DUMMY) (REAL 8) 0 0 () (1 ASSUMED_SIZE (CONSTANT (INTEGER 4) 0 '1') ())
() '' () ())
11 'svn' '' 101 ((VARIABLE UNKNOWN UNKNOWN UNKNOWN NONE NONE DUMMY) (
INTEGER 4) 0 0 () () () '' () ())
10 'icentr' '' 101 ((VARIABLE UNKNOWN UNKNOWN UNKNOWN NONE NONE
DIMENSION DUMMY) (INTEGER 4) 0 0 () (1 ASSUMED_SIZE (CONSTANT (INTEGER 4)
0 '1') ()) () '' () ())
9 'is12' '' 101 ((VARIABLE UNKNOWN UNKNOWN UNKNOWN NONE NONE DIMENSION
DUMMY) (INTEGER 4) 0 0 () (1 EXPLICIT (CONSTANT (INTEGER 4) 0 '1') (
CONSTANT (INTEGER 4) 0 '2')) () '' () ())
8 'isng' '' 101 ((VARIABLE UNKNOWN UNKNOWN UNKNOWN NONE NONE DUMMY) (
INTEGER 4) 0 0 () () () '' () ())
7 'maxeqn' '' 101 ((VARIABLE UNKNOWN UNKNOWN UNKNOWN NONE NONE DUMMY) (
INTEGER 4) 0 0 () () () '' () ())
6 'maxsng' '' 101 ((VARIABLE UNKNOWN UNKNOWN UNKNOWN NONE NONE DUMMY) (
INTEGER 4) 0 0 () () () '' () ())
5 'nparn' '' 101 ((VARIABLE UNKNOWN UNKNOWN UNKNOWN NONE NONE DUMMY) (
INTEGER 4) 0 0 () () () '' () ())
4 'npar' '' 101 ((VARIABLE UNKNOWN UNKNOWN UNKNOWN NONE NONE DUMMY) (
INTEGER 4) 0 0 () () () '' () ())
)

('s_sndiff' 0 2 'sndiff' 0 3)
