G95 module created on Thu Jun 25 17:50:49 2020 from ./.fpp/SORTUP.f90
If you edit this, you'll get what you deserve.
module-version 9
(() () () () () () () () () () () () () () () () () () () () ())

()

()

()

()

(2 's_sortup' 's_sortup' 1 ((MODULE UNKNOWN UNKNOWN UNKNOWN NONE NONE) (
UNKNOWN) 0 0 () () () '' () ())
3 'sortup' 's_sortup' 1 ((PROCEDURE UNKNOWN MODULE-PROC DECL NONE NONE
SUBROUTINE) (PROCEDURE 0) 0 0 (4 NONE) () () '' () ())
4 'file' '' 5 ((VARIABLE UNKNOWN UNKNOWN UNKNOWN NONE NONE DUMMY) (
DERIVED 6) 0 0 () () () '' () ())
6 't_stacrux' 'd_stacrx' 5 ((DERIVED UNKNOWN UNKNOWN UNKNOWN NONE NONE)
(UNKNOWN) 0 0 () () () '' ((7 'nrenam' (INTEGER 4) () () 0 0 0 ()) (8
'ninfo' (INTEGER 4) () () 0 0 0 ()) (9 'nprob' (INTEGER 4) () () 0 0 0 ())
(10 'ncoovel' (INTEGER 4) () () 0 0 0 ()) (11 'nrelpar' (INTEGER 4) () ()
0 0 0 ()) (12 'nstatype' (INTEGER 4) () () 0 0 0 ()) (13 'version' (
REAL 8) () () 0 0 0 ()) (14 'technique' (CHARACTER 1 ((CONSTANT (
INTEGER 4) 0 '30'))) () () 0 0 0 ()) (15 'renamsta' (DERIVED 16) (1
DEFERRED () ()) () 1 1 0 ()) (17 'stainfo' (DERIVED 18) (1 DEFERRED () ())
() 1 1 0 ()) (19 'staprob' (DERIVED 20) (1 DEFERRED () ()) () 1 1 0 ())
(21 'coovel' (DERIVED 22) (1 DEFERRED () ()) () 1 1 0 ()) (23 'starelpar'
(DERIVED 24) (1 DEFERRED () ()) () 1 1 0 ()) (25 'statype' (DERIVED 26)
(1 DEFERRED () ()) () 1 1 0 ())) PUBLIC ())
26 't_statype' 'd_stacrx' 5 ((DERIVED UNKNOWN UNKNOWN UNKNOWN NONE NONE)
(UNKNOWN) 0 0 () () () '' ((27 'stanam' (CHARACTER 1 ((CONSTANT (
INTEGER 4) 0 '16'))) () () 0 0 0 ()) (28 'flg' (CHARACTER 1 ((CONSTANT (
INTEGER 4) 0 '3'))) () () 0 0 0 ()) (29 'timint' (DERIVED 30) () () 0 0
0 ()) (31 'markertype' (CHARACTER 1 ((CONSTANT (INTEGER 4) 0 '20'))) ()
() 0 0 0 ()) (32 'remark' (CHARACTER 1 ((CONSTANT (INTEGER 4) 0 '24')))
() () 0 0 0 ())) PUBLIC ())
30 't_timint' 'm_time' 5 ((DERIVED UNKNOWN UNKNOWN UNKNOWN NONE NONE) (
UNKNOWN) 0 0 () () () '' ((33 't' (REAL 8) (1 EXPLICIT (CONSTANT (
INTEGER 4) 0 '1') (CONSTANT (INTEGER 4) 0 '2')) () 1 0 0 ())) PUBLIC ())
24 't_starelpar' 'd_stacrx' 5 ((DERIVED UNKNOWN UNKNOWN UNKNOWN NONE
NONE) (UNKNOWN) 0 0 () () () '' ((34 'stanam' (CHARACTER 1 ((CONSTANT (
INTEGER 4) 0 '16'))) (1 EXPLICIT (CONSTANT (INTEGER 4) 0 '1') (CONSTANT
(INTEGER 4) 0 '2')) () 1 0 0 ()) (35 'flg' (CHARACTER 1 ((CONSTANT (
INTEGER 4) 0 '3'))) () () 0 0 0 ()) (36 'timwin' (DERIVED 30) () () 0 0
0 ()) (37 'partyp' (CHARACTER 1 ((CONSTANT (INTEGER 4) 0 '8'))) () () 0
0 0 ()) (38 'sys' (CHARACTER 1 ((CONSTANT (INTEGER 4) 0 '3'))) (1
EXPLICIT (CONSTANT (INTEGER 4) 0 '1') (CONSTANT (INTEGER 4) 0 '2')) () 1
0 0 ()) (39 'loctie' (REAL 8) (1 EXPLICIT (CONSTANT (INTEGER 4) 0 '1') (
CONSTANT (INTEGER 4) 0 '3')) () 1 0 0 ()) (40 'constr' (REAL 8) (1
EXPLICIT (CONSTANT (INTEGER 4) 0 '1') (CONSTANT (INTEGER 4) 0 '3')) () 1
0 0 ()) (41 'correl' (REAL 8) (1 EXPLICIT (CONSTANT (INTEGER 4) 0 '1') (
CONSTANT (INTEGER 4) 0 '3')) () 1 0 0 ()) (42 'remark' (CHARACTER 1 ((
CONSTANT (INTEGER 4) 0 '24'))) () () 0 0 0 ()) (43 'applied' (LOGICAL 4)
() () 0 0 0 ())) PUBLIC ())
22 't_coovel' 'd_stacrx' 5 ((DERIVED UNKNOWN UNKNOWN UNKNOWN NONE NONE)
(UNKNOWN) 0 0 () () () '' ((44 'stanam' (CHARACTER 1 ((CONSTANT (
INTEGER 4) 0 '16'))) (1 EXPLICIT (CONSTANT (INTEGER 4) 0 '1') (CONSTANT
(INTEGER 4) 0 '2')) () 1 0 0 ()) (45 'constr' (REAL 8) (1 EXPLICIT (
CONSTANT (INTEGER 4) 0 '1') (CONSTANT (INTEGER 4) 0 '6')) () 1 0 0 ()))
PUBLIC ())
20 't_staprob' 'd_stacrx' 5 ((DERIVED UNKNOWN UNKNOWN UNKNOWN NONE NONE)
(UNKNOWN) 0 0 () () () '' ((46 'stanam' (CHARACTER 1 ((CONSTANT (
INTEGER 4) 0 '16'))) () () 0 0 0 ()) (47 'flg' (CHARACTER 1 ((CONSTANT (
INTEGER 4) 0 '3'))) () () 0 0 0 ()) (48 'timint' (DERIVED 30) () () 0 0
0 ()) (49 'remark' (CHARACTER 1 ((CONSTANT (INTEGER 4) 0 '60'))) () () 0
0 0 ())) PUBLIC ())
18 't_stainfo' 'd_stacrx' 5 ((DERIVED UNKNOWN UNKNOWN UNKNOWN NONE NONE)
(UNKNOWN) 0 0 () () () '' ((50 'stanam' (CHARACTER 1 ((CONSTANT (
INTEGER 4) 0 '16'))) () () 0 0 0 ()) (51 'flg' (CHARACTER 1 ((CONSTANT (
INTEGER 4) 0 '3'))) () () 0 0 0 ()) (52 'timint' (DERIVED 30) () () 0 0
0 ()) (53 'recnam' (CHARACTER 1 ((CONSTANT (INTEGER 4) 0 '20'))) () () 0
0 0 ()) (54 'antnam' (CHARACTER 1 ((CONSTANT (INTEGER 4) 0 '20'))) () ()
0 0 0 ()) (55 'recser' (CHARACTER 1 ((CONSTANT (INTEGER 4) 0 '20'))) ()
() 0 0 0 ()) (56 'antser' (CHARACTER 1 ((CONSTANT (INTEGER 4) 0 '20')))
() () 0 0 0 ()) (57 'recnum' (INTEGER 4) () () 0 0 0 ()) (58 'antnum' (
INTEGER 4) () () 0 0 0 ()) (59 'antecc' (REAL 8) (1 EXPLICIT (CONSTANT (
INTEGER 4) 0 '1') (CONSTANT (INTEGER 4) 0 '3')) () 1 0 0 ()) (60 'descri'
(CHARACTER 1 ((CONSTANT (INTEGER 4) 0 '22'))) () () 0 0 0 ()) (61 'remark'
(CHARACTER 1 ((CONSTANT (INTEGER 4) 0 '24'))) () () 0 0 0 ()) (62 'cdpsod'
(CHARACTER 1 ((CONSTANT (INTEGER 4) 0 '8'))) () () 0 0 0 ())) PUBLIC ())
16 't_renamsta' 'd_stacrx' 5 ((DERIVED UNKNOWN UNKNOWN UNKNOWN NONE NONE)
(UNKNOWN) 0 0 () () () '' ((63 'stanam' (CHARACTER 1 ((CONSTANT (
INTEGER 4) 0 '16'))) () () 0 0 0 ()) (64 'flg' (CHARACTER 1 ((CONSTANT (
INTEGER 4) 0 '3'))) () () 0 0 0 ()) (65 'timint' (DERIVED 30) () () 0 0
0 ()) (66 'oldnam' (CHARACTER 1 ((CONSTANT (INTEGER 4) 0 '16'))) () () 0
0 0 ()) (67 'remark' (CHARACTER 1 ((CONSTANT (INTEGER 4) 0 '24'))) () ()
0 0 0 ())) PUBLIC ())
)

('s_sortup' 0 2 'sortup' 0 3)
