G95 module created on Thu Jun 25 17:48:43 2020 from ./.fpp/STDORBIT.f90
If you edit this, you'll get what you deserve.
module-version 9
(() () () () () () () () () () () () () () () () () () () () ())

()

(('getsatpos' 2 3) ('readstdorbit' 4 5) ('writestdorbit' 6 7))

()

()

(8 'getdxvdp' 's_stdorbit' 1 ((PROCEDURE UNKNOWN MODULE-PROC DECL NONE
NONE SUBROUTINE INVOKED) (PROCEDURE 0) 0 0 (9 NONE 10 NONE 11 NONE 12
NONE) () () '' () ())
13 'getdxvdp2' 's_stdorbit' 1 ((PROCEDURE UNKNOWN MODULE-PROC DECL NONE
NONE SUBROUTINE) (PROCEDURE 0) 0 0 (14 NONE 15 NONE 16 NONE 17 NONE 18
NONE 19 NONE 20 NONE) () () '' () ())
21 'getsatpos' '(global)' 1 ((PROCEDURE UNKNOWN UNKNOWN UNKNOWN NONE
NONE) (UNKNOWN) 0 0 () () () '' () ())
22 'initsatpos' 's_stdorbit' 1 ((PROCEDURE UNKNOWN MODULE-PROC DECL NONE
NONE SUBROUTINE INVOKED) (PROCEDURE 0) 0 0 (23 NONE 24 NONE 25 NONE) ()
() '' () ())
26 'readstdorbit' '(global)' 1 ((PROCEDURE UNKNOWN UNKNOWN UNKNOWN NONE
NONE) (UNKNOWN) 0 0 () () () '' () ())
27 'stdorbit' 's_stdorbit' 1 ((PROCEDURE UNKNOWN MODULE-PROC DECL NONE
NONE POINTER FUNCTION) (DERIVED 28) 0 0 () () () '' () ())
29 'writestdorbit' '(global)' 1 ((PROCEDURE UNKNOWN UNKNOWN UNKNOWN NONE
NONE) (UNKNOWN) 0 0 () () () '' () ())
28 't_stdorb' 's_stdorbit_t' 1 ((DERIVED UNKNOWN UNKNOWN UNKNOWN NONE
NONE) (UNKNOWN) 0 0 () () () '' ((30 'version' (INTEGER 4) () () 0 0 0 (
CONSTANT (INTEGER 4) 0 '2')) (31 'title' (CHARACTER 1 ((CONSTANT (
INTEGER 4) 0 '255'))) () () 0 0 0 (CONSTANT (CHARACTER 1 ((CONSTANT (
INTEGER 4) 0 '255'))) 0 255
'                                                                                                                                                                                                                                                               '))
(32 'useoldgetorb' (LOGICAL 4) () () 0 0 0 (CONSTANT (LOGICAL 4) 0 0)) (
33 'moddesc' (DERIVED 34) (1 DEFERRED () ()) () 1 1 0 (NULL (DERIVED 34)
1)) (35 'orbarc' (DERIVED 36) (1 DEFERRED () ()) () 1 1 0 (NULL (
DERIVED 36) 1)) (37 'par' (DERIVED 38) (1 DEFERRED () ()) () 1 1 0 (
NULL (DERIVED 38) 1)) (39 'estpar' (DERIVED 40) (1 DEFERRED () ()) () 1
1 0 (NULL (DERIVED 40) 1)) (41 'eststc' (DERIVED 42) (1 DEFERRED () ())
() 1 1 0 (NULL (DERIVED 42) 1)) (43 'orbarcpart' (DERIVED 36) (1
DEFERRED () ()) () 1 1 0 (NULL (DERIVED 36) 1))) PUBLIC ())
42 't_stoch' 's_stdorbit_t' 1 ((DERIVED UNKNOWN UNKNOWN UNKNOWN NONE
NONE) (UNKNOWN) 0 0 () () () '' ((44 'typ' (CHARACTER 1 ((CONSTANT (
INTEGER 4) 0 '1'))) () () 0 0 0 ()) (45 'comp' (CHARACTER 1 ((CONSTANT (
INTEGER 4) 0 '1'))) () () 0 0 0 ()) (46 'left' (REAL 8) () () 0 0 0 (
CONSTANT (REAL 8) 0 '0' 0 0)) (47 'right' (REAL 8) () () 0 0 0 (
CONSTANT (REAL 8) 0 '0' 0 0)) (48 'value' (REAL 8) () () 0 0 0 (
CONSTANT (REAL 8) 0 '0' 0 0)) (49 'deds' (REAL 8) (1 EXPLICIT (CONSTANT
(INTEGER 4) 0 '1') (CONSTANT (INTEGER 4) 0 '6')) () 1 0 0 (CONSTANT (
REAL 8) 0 '0' 0 0)) (50 'de' (REAL 8) (1 EXPLICIT (CONSTANT (INTEGER 4)
0 '1') (CONSTANT (INTEGER 4) 0 '6')) () 1 0 0 (CONSTANT (REAL 8) 0 '0' 0
0))) PUBLIC ())
40 't_estpar' 's_stdorbit_t' 1 ((DERIVED UNKNOWN UNKNOWN UNKNOWN NONE
NONE) (UNKNOWN) 0 0 () () () '' ((51 'locq' (INTEGER 4) (1 EXPLICIT (
CONSTANT (INTEGER 4) 0 '1') (CONSTANT (INTEGER 4) 0 '7')) () 1 0 0 (
CONSTANT (INTEGER 4) 0 '0')) (52 'name' (CHARACTER 1 ((CONSTANT (
INTEGER 4) 0 '16'))) () () 0 0 0 (CONSTANT (CHARACTER 1 ((CONSTANT (
INTEGER 4) 0 '16'))) 0 16 '                ')) (53 'time' (DERIVED 54) ()
() 0 0 0 ()) (55 'x0' (REAL 8) () () 0 0 0 (CONSTANT (REAL 8) 0 '0' 0 0))
(56 'dx' (REAL 8) () () 0 0 0 (CONSTANT (REAL 8) 0 '0' 0 0)) (57 'scale'
(REAL 8) () () 0 0 0 (CONSTANT (REAL 8) 0 '4503599627370496' 0 1023)))
PUBLIC ())
54 't_time' 'm_time' 1 ((DERIVED UNKNOWN UNKNOWN UNKNOWN NONE NONE
SEQUENCE) (UNKNOWN) 0 0 () () () '' ((58 'mean' (REAL 8) () () 0 0 0 ())
(59 'half' (REAL 8) () () 0 0 0 ())) PUBLIC ())
38 't_par' 'd_par' 1 ((DERIVED UNKNOWN UNKNOWN UNKNOWN NONE NONE) (
UNKNOWN) 0 0 () () () '' ((60 'locq' (INTEGER 4) (1 EXPLICIT (CONSTANT (
INTEGER 4) 0 '1') (CONSTANT (INTEGER 4) 0 '7')) () 1 0 0 ()) (61 'name'
(CHARACTER 1 ((CONSTANT (INTEGER 4) 0 '20'))) () () 0 0 0 ()) (62 'time'
(DERIVED 54) () () 0 0 0 ()) (63 'x0' (REAL 8) () () 0 0 0 ()) (64 'scale'
(REAL 8) () () 0 0 0 ()) (65 'techn' (CHARACTER 1 ((CONSTANT (INTEGER 4)
0 '1'))) (1 EXPLICIT (CONSTANT (INTEGER 4) 0 '1') (CONSTANT (INTEGER 4)
0 '2')) () 1 0 0 ()) (66 'obstim' (DERIVED 67) () () 0 0 0 ()) (68 'type'
(CHARACTER 1 ((CONSTANT (INTEGER 4) 0 '2'))) () () 0 0 0 ()) (69 'omega'
(REAL 8) () () 0 0 0 ())) PUBLIC ())
67 't_timint' 'm_time' 1 ((DERIVED UNKNOWN UNKNOWN UNKNOWN NONE NONE) (
UNKNOWN) 0 0 () () () '' ((70 't' (REAL 8) (1 EXPLICIT (CONSTANT (
INTEGER 4) 0 '1') (CONSTANT (INTEGER 4) 0 '2')) () 1 0 0 ())) PUBLIC ())
36 't_orbarc' 's_stdorbit_t' 1 ((DERIVED UNKNOWN UNKNOWN UNKNOWN NONE
NONE) (UNKNOWN) 0 0 () () () '' ((71 'sys' (CHARACTER 1 ((CONSTANT (
INTEGER 4) 0 '1'))) () () 0 0 0 (CONSTANT (CHARACTER 1 ((CONSTANT (
INTEGER 4) 0 '1'))) 0 1 'G')) (72 'svn' (INTEGER 4) () () 0 0 0 (
CONSTANT (INTEGER 4) 0 '0')) (73 'man' (INTEGER 4) () () 0 0 0 (
CONSTANT (INTEGER 4) 0 '0')) (74 'twin' (DERIVED 75) () () 0 0 0 ()) (
76 'moddesc' (DERIVED 34) (1 DEFERRED () ()) () 1 1 0 (NULL (DERIVED 34)
1)) (77 'orbint' (DERIVED 78) (1 DEFERRED () ()) () 1 1 0 (NULL (
DERIVED 78) 1)) (79 'stoch' (DERIVED 42) (1 DEFERRED () ()) () 1 1 0 (
NULL (DERIVED 42) 1))) PUBLIC ())
78 't_orbint' 's_stdorbit_t' 1 ((DERIVED UNKNOWN UNKNOWN UNKNOWN NONE
NONE) (UNKNOWN) 0 0 () () () '' ((80 'left' (REAL 8) () () 0 0 0 (
CONSTANT (REAL 8) 0 '0' 0 0)) (81 'right' (REAL 8) () () 0 0 0 (
CONSTANT (REAL 8) 0 '0' 0 0)) (82 'shadow' (LOGICAL 4) () () 0 0 0 ()) (
83 'hh' (REAL 8) () () 0 0 0 ()) (84 't0' (REAL 8) () () 0 0 0 ()) (85
'qq' (INTEGER 4) () () 0 0 0 ()) (86 'rcoe' (REAL 8) (2 DEFERRED () () ()
()) () 1 1 0 (NULL (REAL 8) 2)) (87 'drdecoe' (REAL 8) (3 DEFERRED () ()
() () () ()) () 1 1 0 (NULL (REAL 8) 3)) (88 'drdscoe' (REAL 8) (3
DEFERRED () () () () () ()) () 1 1 0 (NULL (REAL 8) 3))) PUBLIC ())
75 't_timwin' 'm_epoch' 1 ((DERIVED UNKNOWN UNKNOWN UNKNOWN NONE NONE) (
UNKNOWN) 0 0 () () () '' ((89 't' (DERIVED 90) (1 EXPLICIT (CONSTANT (
INTEGER 4) 0 '1') (CONSTANT (INTEGER 4) 0 '2')) () 1 0 0 ())) PUBLIC ())
90 't_epoch' 'm_epoch' 1 ((DERIVED UNKNOWN UNKNOWN UNKNOWN NONE NONE) (
UNKNOWN) 0 0 () () () '' ((91 'day' (INTEGER 4) () () 0 0 0 ()) (92 'frac'
(REAL 8) () () 0 0 0 ())) PUBLIC ())
34 't_key' 'm_bern' 1 ((DERIVED UNKNOWN UNKNOWN UNKNOWN NONE NONE) (
UNKNOWN) 0 0 () () () '' ((93 'name' (CHARACTER 1 ((CONSTANT (INTEGER 4)
0 '32'))) () () 0 0 0 ()) (94 'value' (CHARACTER 1 ((CONSTANT (INTEGER 4)
0 '255'))) (1 DEFERRED () ()) () 1 1 0 ())) PUBLIC ())
25 'ndynpar' '' 95 ((VARIABLE IN UNKNOWN UNKNOWN NONE NONE DUMMY) (
INTEGER 4) 0 0 () () () '' () ())
24 'maxder' '' 95 ((VARIABLE IN UNKNOWN UNKNOWN NONE NONE DUMMY) (
INTEGER 4) 0 0 () () () '' () ())
23 'satpos' '' 95 ((VARIABLE INOUT UNKNOWN UNKNOWN NONE NONE DUMMY) (
DERIVED 96) 0 0 () () () '' () ())
96 't_satpos' 's_stdorbit_t' 95 ((DERIVED UNKNOWN UNKNOWN UNKNOWN NONE
NONE) (UNKNOWN) 0 0 () () () '' ((97 'sys' (CHARACTER 1 ((CONSTANT (
INTEGER 4) 0 '1'))) () () 0 0 0 (CONSTANT (CHARACTER 1 ((CONSTANT (
INTEGER 4) 0 '1'))) 0 1 'G')) (98 'svn' (INTEGER 4) () () 0 0 0 (
CONSTANT (INTEGER 4) 0 '0')) (99 'epoch' (DERIVED 100) () () 0 0 0 ()) (
101 'xv' (REAL 8) (2 DEFERRED () () () ()) () 1 1 0 (NULL (REAL 8) 2)) (
102 'dxvdele' (REAL 8) (3 DEFERRED () () () () () ()) () 1 1 0 (NULL (
REAL 8) 3)) (103 'dxvdp' (REAL 8) (2 DEFERRED () () () ()) () 1 1 0 (
NULL (REAL 8) 2))) PUBLIC ())
100 't_epoch' 'm_epoch' 95 ((DERIVED UNKNOWN UNKNOWN UNKNOWN NONE NONE)
(UNKNOWN) 0 0 () () () '' ((104 'day' (INTEGER 4) () () 0 0 0 ()) (105
'frac' (REAL 8) () () 0 0 0 ())) PUBLIC ())
20 'drdp' '' 106 ((VARIABLE OUT UNKNOWN UNKNOWN NONE NONE DIMENSION
DUMMY) (REAL 8) 0 0 () (1 ASSUMED_SHAPE () ()) () '' () ())
19 'xnorm' '' 106 ((VARIABLE IN UNKNOWN UNKNOWN NONE NONE DUMMY) (REAL 8)
0 0 () () () '' () ())
18 'tmjd' '' 106 ((VARIABLE IN UNKNOWN UNKNOWN NONE NONE DUMMY) (REAL 8)
0 0 () () () '' () ())
17 'tbound' '' 106 ((VARIABLE IN UNKNOWN UNKNOWN NONE NONE DIMENSION
DUMMY) (REAL 8) 0 0 () (1 EXPLICIT (CONSTANT (INTEGER 4) 0 '1') (
CONSTANT (INTEGER 4) 0 '2')) () '' () ())
16 'svn' '' 106 ((VARIABLE IN UNKNOWN UNKNOWN NONE NONE DUMMY) (INTEGER
4) 0 0 () () () '' () ())
15 'locq' '' 106 ((VARIABLE IN UNKNOWN UNKNOWN NONE NONE DIMENSION DUMMY)
(INTEGER 4) 0 0 () (2 ASSUMED_SHAPE () () () ()) () '' () ())
14 'ipar' '' 106 ((VARIABLE IN UNKNOWN UNKNOWN NONE NONE DUMMY) (
INTEGER 4) 0 0 () () () '' () ())
12 'stdorb' '' 107 ((VARIABLE UNKNOWN UNKNOWN UNKNOWN NONE NONE
DIMENSION DUMMY) (DERIVED 108) 0 0 () (1 ASSUMED_SHAPE () ()) () '' () ())
108 't_stdorb' 's_stdorbit_t' 107 ((DERIVED UNKNOWN UNKNOWN UNKNOWN NONE
NONE) (UNKNOWN) 0 0 () () () '' ((109 'version' (INTEGER 4) () () 0 0 0
(CONSTANT (INTEGER 4) 0 '2')) (110 'title' (CHARACTER 1 ((CONSTANT (
INTEGER 4) 0 '255'))) () () 0 0 0 (CONSTANT (CHARACTER 1 ((CONSTANT (
INTEGER 4) 0 '255'))) 0 255
'                                                                                                                                                                                                                                                               '))
(111 'useoldgetorb' (LOGICAL 4) () () 0 0 0 (CONSTANT (LOGICAL 4) 0 0))
(112 'moddesc' (DERIVED 113) (1 DEFERRED () ()) () 1 1 0 (NULL (DERIVED
113) 1)) (114 'orbarc' (DERIVED 115) (1 DEFERRED () ()) () 1 1 0 (NULL (
DERIVED 115) 1)) (116 'par' (DERIVED 117) (1 DEFERRED () ()) () 1 1 0 (
NULL (DERIVED 117) 1)) (118 'estpar' (DERIVED 119) (1 DEFERRED () ()) ()
1 1 0 (NULL (DERIVED 119) 1)) (120 'eststc' (DERIVED 121) (1 DEFERRED ()
()) () 1 1 0 (NULL (DERIVED 121) 1)) (122 'orbarcpart' (DERIVED 115) (1
DEFERRED () ()) () 1 1 0 (NULL (DERIVED 115) 1))) PUBLIC ())
121 't_stoch' 's_stdorbit_t' 107 ((DERIVED UNKNOWN UNKNOWN UNKNOWN NONE
NONE) (UNKNOWN) 0 0 () () () '' ((123 'typ' (CHARACTER 1 ((CONSTANT (
INTEGER 4) 0 '1'))) () () 0 0 0 ()) (124 'comp' (CHARACTER 1 ((CONSTANT
(INTEGER 4) 0 '1'))) () () 0 0 0 ()) (125 'left' (REAL 8) () () 0 0 0 (
CONSTANT (REAL 8) 0 '0' 0 0)) (126 'right' (REAL 8) () () 0 0 0 (
CONSTANT (REAL 8) 0 '0' 0 0)) (127 'value' (REAL 8) () () 0 0 0 (
CONSTANT (REAL 8) 0 '0' 0 0)) (128 'deds' (REAL 8) (1 EXPLICIT (
CONSTANT (INTEGER 4) 0 '1') (CONSTANT (INTEGER 4) 0 '6')) () 1 0 0 (
CONSTANT (REAL 8) 0 '0' 0 0)) (129 'de' (REAL 8) (1 EXPLICIT (CONSTANT (
INTEGER 4) 0 '1') (CONSTANT (INTEGER 4) 0 '6')) () 1 0 0 (CONSTANT (
REAL 8) 0 '0' 0 0))) PUBLIC ())
119 't_estpar' 's_stdorbit_t' 107 ((DERIVED UNKNOWN UNKNOWN UNKNOWN NONE
NONE) (UNKNOWN) 0 0 () () () '' ((130 'locq' (INTEGER 4) (1 EXPLICIT (
CONSTANT (INTEGER 4) 0 '1') (CONSTANT (INTEGER 4) 0 '7')) () 1 0 0 (
CONSTANT (INTEGER 4) 0 '0')) (131 'name' (CHARACTER 1 ((CONSTANT (
INTEGER 4) 0 '16'))) () () 0 0 0 (CONSTANT (CHARACTER 1 ((CONSTANT (
INTEGER 4) 0 '16'))) 0 16 '                ')) (132 'time' (DERIVED 133)
() () 0 0 0 ()) (134 'x0' (REAL 8) () () 0 0 0 (CONSTANT (REAL 8) 0 '0'
0 0)) (135 'dx' (REAL 8) () () 0 0 0 (CONSTANT (REAL 8) 0 '0' 0 0)) (
136 'scale' (REAL 8) () () 0 0 0 (CONSTANT (REAL 8) 0 '4503599627370496'
0 1023))) PUBLIC ())
133 't_time' 'm_time' 107 ((DERIVED UNKNOWN UNKNOWN UNKNOWN NONE NONE
SEQUENCE) (UNKNOWN) 0 0 () () () '' ((137 'mean' (REAL 8) () () 0 0 0 ())
(138 'half' (REAL 8) () () 0 0 0 ())) PUBLIC ())
117 't_par' 'd_par' 107 ((DERIVED UNKNOWN UNKNOWN UNKNOWN NONE NONE) (
UNKNOWN) 0 0 () () () '' ((139 'locq' (INTEGER 4) (1 EXPLICIT (CONSTANT
(INTEGER 4) 0 '1') (CONSTANT (INTEGER 4) 0 '7')) () 1 0 0 ()) (140 'name'
(CHARACTER 1 ((CONSTANT (INTEGER 4) 0 '20'))) () () 0 0 0 ()) (141 'time'
(DERIVED 133) () () 0 0 0 ()) (142 'x0' (REAL 8) () () 0 0 0 ()) (143
'scale' (REAL 8) () () 0 0 0 ()) (144 'techn' (CHARACTER 1 ((CONSTANT (
INTEGER 4) 0 '1'))) (1 EXPLICIT (CONSTANT (INTEGER 4) 0 '1') (CONSTANT (
INTEGER 4) 0 '2')) () 1 0 0 ()) (145 'obstim' (DERIVED 146) () () 0 0 0
()) (147 'type' (CHARACTER 1 ((CONSTANT (INTEGER 4) 0 '2'))) () () 0 0 0
()) (148 'omega' (REAL 8) () () 0 0 0 ())) PUBLIC ())
146 't_timint' 'm_time' 107 ((DERIVED UNKNOWN UNKNOWN UNKNOWN NONE NONE)
(UNKNOWN) 0 0 () () () '' ((149 't' (REAL 8) (1 EXPLICIT (CONSTANT (
INTEGER 4) 0 '1') (CONSTANT (INTEGER 4) 0 '2')) () 1 0 0 ())) PUBLIC ())
115 't_orbarc' 's_stdorbit_t' 107 ((DERIVED UNKNOWN UNKNOWN UNKNOWN NONE
NONE) (UNKNOWN) 0 0 () () () '' ((150 'sys' (CHARACTER 1 ((CONSTANT (
INTEGER 4) 0 '1'))) () () 0 0 0 (CONSTANT (CHARACTER 1 ((CONSTANT (
INTEGER 4) 0 '1'))) 0 1 'G')) (151 'svn' (INTEGER 4) () () 0 0 0 (
CONSTANT (INTEGER 4) 0 '0')) (152 'man' (INTEGER 4) () () 0 0 0 (
CONSTANT (INTEGER 4) 0 '0')) (153 'twin' (DERIVED 154) () () 0 0 0 ()) (
155 'moddesc' (DERIVED 113) (1 DEFERRED () ()) () 1 1 0 (NULL (DERIVED
113) 1)) (156 'orbint' (DERIVED 157) (1 DEFERRED () ()) () 1 1 0 (NULL (
DERIVED 157) 1)) (158 'stoch' (DERIVED 121) (1 DEFERRED () ()) () 1 1 0
(NULL (DERIVED 121) 1))) PUBLIC ())
157 't_orbint' 's_stdorbit_t' 107 ((DERIVED UNKNOWN UNKNOWN UNKNOWN NONE
NONE) (UNKNOWN) 0 0 () () () '' ((159 'left' (REAL 8) () () 0 0 0 (
CONSTANT (REAL 8) 0 '0' 0 0)) (160 'right' (REAL 8) () () 0 0 0 (
CONSTANT (REAL 8) 0 '0' 0 0)) (161 'shadow' (LOGICAL 4) () () 0 0 0 ())
(162 'hh' (REAL 8) () () 0 0 0 ()) (163 't0' (REAL 8) () () 0 0 0 ()) (
164 'qq' (INTEGER 4) () () 0 0 0 ()) (165 'rcoe' (REAL 8) (2 DEFERRED ()
() () ()) () 1 1 0 (NULL (REAL 8) 2)) (166 'drdecoe' (REAL 8) (3
DEFERRED () () () () () ()) () 1 1 0 (NULL (REAL 8) 3)) (167 'drdscoe' (
REAL 8) (3 DEFERRED () () () () () ()) () 1 1 0 (NULL (REAL 8) 3)))
PUBLIC ())
154 't_timwin' 'm_epoch' 107 ((DERIVED UNKNOWN UNKNOWN UNKNOWN NONE NONE)
(UNKNOWN) 0 0 () () () '' ((168 't' (DERIVED 169) (1 EXPLICIT (CONSTANT
(INTEGER 4) 0 '1') (CONSTANT (INTEGER 4) 0 '2')) () 1 0 0 ())) PUBLIC ())
169 't_epoch' 'm_epoch' 107 ((DERIVED UNKNOWN UNKNOWN UNKNOWN NONE NONE)
(UNKNOWN) 0 0 () () () '' ((170 'day' (INTEGER 4) () () 0 0 0 ()) (171
'frac' (REAL 8) () () 0 0 0 ())) PUBLIC ())
113 't_key' 'm_bern' 107 ((DERIVED UNKNOWN UNKNOWN UNKNOWN NONE NONE) (
UNKNOWN) 0 0 () () () '' ((172 'name' (CHARACTER 1 ((CONSTANT (INTEGER 4)
0 '32'))) () () 0 0 0 ()) (173 'value' (CHARACTER 1 ((CONSTANT (INTEGER
4) 0 '255'))) (1 DEFERRED () ()) () 1 1 0 ())) PUBLIC ())
11 'satpos' '' 107 ((VARIABLE UNKNOWN UNKNOWN UNKNOWN NONE NONE
DIMENSION DUMMY) (DERIVED 174) 0 0 () (1 ASSUMED_SHAPE () ()) () '' () ())
174 't_satpos' 's_stdorbit_t' 107 ((DERIVED UNKNOWN UNKNOWN UNKNOWN NONE
NONE) (UNKNOWN) 0 0 () () () '' ((175 'sys' (CHARACTER 1 ((CONSTANT (
INTEGER 4) 0 '1'))) () () 0 0 0 (CONSTANT (CHARACTER 1 ((CONSTANT (
INTEGER 4) 0 '1'))) 0 1 'G')) (176 'svn' (INTEGER 4) () () 0 0 0 (
CONSTANT (INTEGER 4) 0 '0')) (177 'epoch' (DERIVED 169) () () 0 0 0 ())
(178 'xv' (REAL 8) (2 DEFERRED () () () ()) () 1 1 0 (NULL (REAL 8) 2))
(179 'dxvdele' (REAL 8) (3 DEFERRED () () () () () ()) () 1 1 0 (NULL (
REAL 8) 3)) (180 'dxvdp' (REAL 8) (2 DEFERRED () () () ()) () 1 1 0 (
NULL (REAL 8) 2))) PUBLIC ())
10 'par' '' 107 ((VARIABLE UNKNOWN UNKNOWN UNKNOWN NONE NONE DIMENSION
POINTER DUMMY) (DERIVED 117) 0 0 () (1 DEFERRED () ()) () '' () ())
9 'act_sat' '' 107 ((VARIABLE UNKNOWN UNKNOWN UNKNOWN NONE NONE DUMMY) (
INTEGER 4) 0 0 () () () '' () ())
7 'writestdorbit1' 's_stdorbit' 1 ((PROCEDURE UNKNOWN MODULE-PROC DECL
NONE NONE SUBROUTINE INVOKED) (PROCEDURE 0) 0 0 (181 NONE) () () '' () ())
181 'orbfilename' '' 182 ((VARIABLE IN UNKNOWN UNKNOWN NONE NONE DUMMY)
(CHARACTER 1 (())) 0 0 () () () '' () ())
6 'writestdorbit2' 's_stdorbit' 1 ((PROCEDURE UNKNOWN MODULE-PROC DECL
NONE NONE SUBROUTINE INVOKED) (PROCEDURE 0) 0 0 (183 NONE 184 NONE) () ()
'' () ())
184 'stdorb' '' 185 ((VARIABLE INOUT UNKNOWN UNKNOWN NONE NONE DUMMY) (
DERIVED 186) 0 0 () () () '' () ())
186 't_stdorb' 's_stdorbit_t' 185 ((DERIVED UNKNOWN UNKNOWN UNKNOWN NONE
NONE) (UNKNOWN) 0 0 () () () '' ((187 'version' (INTEGER 4) () () 0 0 0
(CONSTANT (INTEGER 4) 0 '2')) (188 'title' (CHARACTER 1 ((CONSTANT (
INTEGER 4) 0 '255'))) () () 0 0 0 (CONSTANT (CHARACTER 1 ((CONSTANT (
INTEGER 4) 0 '255'))) 0 255
'                                                                                                                                                                                                                                                               '))
(189 'useoldgetorb' (LOGICAL 4) () () 0 0 0 (CONSTANT (LOGICAL 4) 0 0))
(190 'moddesc' (DERIVED 191) (1 DEFERRED () ()) () 1 1 0 (NULL (DERIVED
191) 1)) (192 'orbarc' (DERIVED 193) (1 DEFERRED () ()) () 1 1 0 (NULL (
DERIVED 193) 1)) (194 'par' (DERIVED 195) (1 DEFERRED () ()) () 1 1 0 (
NULL (DERIVED 195) 1)) (196 'estpar' (DERIVED 197) (1 DEFERRED () ()) ()
1 1 0 (NULL (DERIVED 197) 1)) (198 'eststc' (DERIVED 199) (1 DEFERRED ()
()) () 1 1 0 (NULL (DERIVED 199) 1)) (200 'orbarcpart' (DERIVED 193) (1
DEFERRED () ()) () 1 1 0 (NULL (DERIVED 193) 1))) PUBLIC ())
199 't_stoch' 's_stdorbit_t' 185 ((DERIVED UNKNOWN UNKNOWN UNKNOWN NONE
NONE) (UNKNOWN) 0 0 () () () '' ((201 'typ' (CHARACTER 1 ((CONSTANT (
INTEGER 4) 0 '1'))) () () 0 0 0 ()) (202 'comp' (CHARACTER 1 ((CONSTANT
(INTEGER 4) 0 '1'))) () () 0 0 0 ()) (203 'left' (REAL 8) () () 0 0 0 (
CONSTANT (REAL 8) 0 '0' 0 0)) (204 'right' (REAL 8) () () 0 0 0 (
CONSTANT (REAL 8) 0 '0' 0 0)) (205 'value' (REAL 8) () () 0 0 0 (
CONSTANT (REAL 8) 0 '0' 0 0)) (206 'deds' (REAL 8) (1 EXPLICIT (
CONSTANT (INTEGER 4) 0 '1') (CONSTANT (INTEGER 4) 0 '6')) () 1 0 0 (
CONSTANT (REAL 8) 0 '0' 0 0)) (207 'de' (REAL 8) (1 EXPLICIT (CONSTANT (
INTEGER 4) 0 '1') (CONSTANT (INTEGER 4) 0 '6')) () 1 0 0 (CONSTANT (
REAL 8) 0 '0' 0 0))) PUBLIC ())
197 't_estpar' 's_stdorbit_t' 185 ((DERIVED UNKNOWN UNKNOWN UNKNOWN NONE
NONE) (UNKNOWN) 0 0 () () () '' ((208 'locq' (INTEGER 4) (1 EXPLICIT (
CONSTANT (INTEGER 4) 0 '1') (CONSTANT (INTEGER 4) 0 '7')) () 1 0 0 (
CONSTANT (INTEGER 4) 0 '0')) (209 'name' (CHARACTER 1 ((CONSTANT (
INTEGER 4) 0 '16'))) () () 0 0 0 (CONSTANT (CHARACTER 1 ((CONSTANT (
INTEGER 4) 0 '16'))) 0 16 '                ')) (210 'time' (DERIVED 211)
() () 0 0 0 ()) (212 'x0' (REAL 8) () () 0 0 0 (CONSTANT (REAL 8) 0 '0'
0 0)) (213 'dx' (REAL 8) () () 0 0 0 (CONSTANT (REAL 8) 0 '0' 0 0)) (
214 'scale' (REAL 8) () () 0 0 0 (CONSTANT (REAL 8) 0 '4503599627370496'
0 1023))) PUBLIC ())
211 't_time' 'm_time' 185 ((DERIVED UNKNOWN UNKNOWN UNKNOWN NONE NONE
SEQUENCE) (UNKNOWN) 0 0 () () () '' ((215 'mean' (REAL 8) () () 0 0 0 ())
(216 'half' (REAL 8) () () 0 0 0 ())) PUBLIC ())
195 't_par' 'd_par' 185 ((DERIVED UNKNOWN UNKNOWN UNKNOWN NONE NONE) (
UNKNOWN) 0 0 () () () '' ((217 'locq' (INTEGER 4) (1 EXPLICIT (CONSTANT
(INTEGER 4) 0 '1') (CONSTANT (INTEGER 4) 0 '7')) () 1 0 0 ()) (218 'name'
(CHARACTER 1 ((CONSTANT (INTEGER 4) 0 '20'))) () () 0 0 0 ()) (219 'time'
(DERIVED 211) () () 0 0 0 ()) (220 'x0' (REAL 8) () () 0 0 0 ()) (221
'scale' (REAL 8) () () 0 0 0 ()) (222 'techn' (CHARACTER 1 ((CONSTANT (
INTEGER 4) 0 '1'))) (1 EXPLICIT (CONSTANT (INTEGER 4) 0 '1') (CONSTANT (
INTEGER 4) 0 '2')) () 1 0 0 ()) (223 'obstim' (DERIVED 224) () () 0 0 0
()) (225 'type' (CHARACTER 1 ((CONSTANT (INTEGER 4) 0 '2'))) () () 0 0 0
()) (226 'omega' (REAL 8) () () 0 0 0 ())) PUBLIC ())
224 't_timint' 'm_time' 185 ((DERIVED UNKNOWN UNKNOWN UNKNOWN NONE NONE)
(UNKNOWN) 0 0 () () () '' ((227 't' (REAL 8) (1 EXPLICIT (CONSTANT (
INTEGER 4) 0 '1') (CONSTANT (INTEGER 4) 0 '2')) () 1 0 0 ())) PUBLIC ())
193 't_orbarc' 's_stdorbit_t' 185 ((DERIVED UNKNOWN UNKNOWN UNKNOWN NONE
NONE) (UNKNOWN) 0 0 () () () '' ((228 'sys' (CHARACTER 1 ((CONSTANT (
INTEGER 4) 0 '1'))) () () 0 0 0 (CONSTANT (CHARACTER 1 ((CONSTANT (
INTEGER 4) 0 '1'))) 0 1 'G')) (229 'svn' (INTEGER 4) () () 0 0 0 (
CONSTANT (INTEGER 4) 0 '0')) (230 'man' (INTEGER 4) () () 0 0 0 (
CONSTANT (INTEGER 4) 0 '0')) (231 'twin' (DERIVED 232) () () 0 0 0 ()) (
233 'moddesc' (DERIVED 191) (1 DEFERRED () ()) () 1 1 0 (NULL (DERIVED
191) 1)) (234 'orbint' (DERIVED 235) (1 DEFERRED () ()) () 1 1 0 (NULL (
DERIVED 235) 1)) (236 'stoch' (DERIVED 199) (1 DEFERRED () ()) () 1 1 0
(NULL (DERIVED 199) 1))) PUBLIC ())
235 't_orbint' 's_stdorbit_t' 185 ((DERIVED UNKNOWN UNKNOWN UNKNOWN NONE
NONE) (UNKNOWN) 0 0 () () () '' ((237 'left' (REAL 8) () () 0 0 0 (
CONSTANT (REAL 8) 0 '0' 0 0)) (238 'right' (REAL 8) () () 0 0 0 (
CONSTANT (REAL 8) 0 '0' 0 0)) (239 'shadow' (LOGICAL 4) () () 0 0 0 ())
(240 'hh' (REAL 8) () () 0 0 0 ()) (241 't0' (REAL 8) () () 0 0 0 ()) (
242 'qq' (INTEGER 4) () () 0 0 0 ()) (243 'rcoe' (REAL 8) (2 DEFERRED ()
() () ()) () 1 1 0 (NULL (REAL 8) 2)) (244 'drdecoe' (REAL 8) (3
DEFERRED () () () () () ()) () 1 1 0 (NULL (REAL 8) 3)) (245 'drdscoe' (
REAL 8) (3 DEFERRED () () () () () ()) () 1 1 0 (NULL (REAL 8) 3)))
PUBLIC ())
232 't_timwin' 'm_epoch' 185 ((DERIVED UNKNOWN UNKNOWN UNKNOWN NONE NONE)
(UNKNOWN) 0 0 () () () '' ((246 't' (DERIVED 247) (1 EXPLICIT (CONSTANT
(INTEGER 4) 0 '1') (CONSTANT (INTEGER 4) 0 '2')) () 1 0 0 ())) PUBLIC ())
247 't_epoch' 'm_epoch' 185 ((DERIVED UNKNOWN UNKNOWN UNKNOWN NONE NONE)
(UNKNOWN) 0 0 () () () '' ((248 'day' (INTEGER 4) () () 0 0 0 ()) (249
'frac' (REAL 8) () () 0 0 0 ())) PUBLIC ())
191 't_key' 'm_bern' 185 ((DERIVED UNKNOWN UNKNOWN UNKNOWN NONE NONE) (
UNKNOWN) 0 0 () () () '' ((250 'name' (CHARACTER 1 ((CONSTANT (INTEGER 4)
0 '32'))) () () 0 0 0 ()) (251 'value' (CHARACTER 1 ((CONSTANT (INTEGER
4) 0 '255'))) (1 DEFERRED () ()) () 1 1 0 ())) PUBLIC ())
183 'orbfilename' '' 185 ((VARIABLE IN UNKNOWN UNKNOWN NONE NONE DUMMY)
(CHARACTER 1 (())) 0 0 () () () '' () ())
5 'readstdorbit1' 's_stdorbit' 1 ((PROCEDURE UNKNOWN MODULE-PROC DECL
NONE NONE SUBROUTINE INVOKED) (PROCEDURE 0) 0 0 (252 NONE) () () '' () ())
252 'orbfilename' '' 253 ((VARIABLE IN UNKNOWN UNKNOWN NONE NONE DUMMY)
(CHARACTER 1 (())) 0 0 () () () '' () ())
4 'readstdorbit2' 's_stdorbit' 1 ((PROCEDURE UNKNOWN MODULE-PROC DECL
NONE NONE SUBROUTINE INVOKED) (PROCEDURE 0) 0 0 (254 NONE 255 NONE) () ()
'' () ())
255 'stdorb' '' 256 ((VARIABLE INOUT UNKNOWN UNKNOWN NONE NONE DUMMY) (
DERIVED 257) 0 0 () () () '' () ())
257 't_stdorb' 's_stdorbit_t' 256 ((DERIVED UNKNOWN UNKNOWN UNKNOWN NONE
NONE) (UNKNOWN) 0 0 () () () '' ((258 'version' (INTEGER 4) () () 0 0 0
(CONSTANT (INTEGER 4) 0 '2')) (259 'title' (CHARACTER 1 ((CONSTANT (
INTEGER 4) 0 '255'))) () () 0 0 0 (CONSTANT (CHARACTER 1 ((CONSTANT (
INTEGER 4) 0 '255'))) 0 255
'                                                                                                                                                                                                                                                               '))
(260 'useoldgetorb' (LOGICAL 4) () () 0 0 0 (CONSTANT (LOGICAL 4) 0 0))
(261 'moddesc' (DERIVED 262) (1 DEFERRED () ()) () 1 1 0 (NULL (DERIVED
262) 1)) (263 'orbarc' (DERIVED 264) (1 DEFERRED () ()) () 1 1 0 (NULL (
DERIVED 264) 1)) (265 'par' (DERIVED 266) (1 DEFERRED () ()) () 1 1 0 (
NULL (DERIVED 266) 1)) (267 'estpar' (DERIVED 268) (1 DEFERRED () ()) ()
1 1 0 (NULL (DERIVED 268) 1)) (269 'eststc' (DERIVED 270) (1 DEFERRED ()
()) () 1 1 0 (NULL (DERIVED 270) 1)) (271 'orbarcpart' (DERIVED 264) (1
DEFERRED () ()) () 1 1 0 (NULL (DERIVED 264) 1))) PUBLIC ())
270 't_stoch' 's_stdorbit_t' 256 ((DERIVED UNKNOWN UNKNOWN UNKNOWN NONE
NONE) (UNKNOWN) 0 0 () () () '' ((272 'typ' (CHARACTER 1 ((CONSTANT (
INTEGER 4) 0 '1'))) () () 0 0 0 ()) (273 'comp' (CHARACTER 1 ((CONSTANT
(INTEGER 4) 0 '1'))) () () 0 0 0 ()) (274 'left' (REAL 8) () () 0 0 0 (
CONSTANT (REAL 8) 0 '0' 0 0)) (275 'right' (REAL 8) () () 0 0 0 (
CONSTANT (REAL 8) 0 '0' 0 0)) (276 'value' (REAL 8) () () 0 0 0 (
CONSTANT (REAL 8) 0 '0' 0 0)) (277 'deds' (REAL 8) (1 EXPLICIT (
CONSTANT (INTEGER 4) 0 '1') (CONSTANT (INTEGER 4) 0 '6')) () 1 0 0 (
CONSTANT (REAL 8) 0 '0' 0 0)) (278 'de' (REAL 8) (1 EXPLICIT (CONSTANT (
INTEGER 4) 0 '1') (CONSTANT (INTEGER 4) 0 '6')) () 1 0 0 (CONSTANT (
REAL 8) 0 '0' 0 0))) PUBLIC ())
268 't_estpar' 's_stdorbit_t' 256 ((DERIVED UNKNOWN UNKNOWN UNKNOWN NONE
NONE) (UNKNOWN) 0 0 () () () '' ((279 'locq' (INTEGER 4) (1 EXPLICIT (
CONSTANT (INTEGER 4) 0 '1') (CONSTANT (INTEGER 4) 0 '7')) () 1 0 0 (
CONSTANT (INTEGER 4) 0 '0')) (280 'name' (CHARACTER 1 ((CONSTANT (
INTEGER 4) 0 '16'))) () () 0 0 0 (CONSTANT (CHARACTER 1 ((CONSTANT (
INTEGER 4) 0 '16'))) 0 16 '                ')) (281 'time' (DERIVED 282)
() () 0 0 0 ()) (283 'x0' (REAL 8) () () 0 0 0 (CONSTANT (REAL 8) 0 '0'
0 0)) (284 'dx' (REAL 8) () () 0 0 0 (CONSTANT (REAL 8) 0 '0' 0 0)) (
285 'scale' (REAL 8) () () 0 0 0 (CONSTANT (REAL 8) 0 '4503599627370496'
0 1023))) PUBLIC ())
282 't_time' 'm_time' 256 ((DERIVED UNKNOWN UNKNOWN UNKNOWN NONE NONE
SEQUENCE) (UNKNOWN) 0 0 () () () '' ((286 'mean' (REAL 8) () () 0 0 0 ())
(287 'half' (REAL 8) () () 0 0 0 ())) PUBLIC ())
266 't_par' 'd_par' 256 ((DERIVED UNKNOWN UNKNOWN UNKNOWN NONE NONE) (
UNKNOWN) 0 0 () () () '' ((288 'locq' (INTEGER 4) (1 EXPLICIT (CONSTANT
(INTEGER 4) 0 '1') (CONSTANT (INTEGER 4) 0 '7')) () 1 0 0 ()) (289 'name'
(CHARACTER 1 ((CONSTANT (INTEGER 4) 0 '20'))) () () 0 0 0 ()) (290 'time'
(DERIVED 282) () () 0 0 0 ()) (291 'x0' (REAL 8) () () 0 0 0 ()) (292
'scale' (REAL 8) () () 0 0 0 ()) (293 'techn' (CHARACTER 1 ((CONSTANT (
INTEGER 4) 0 '1'))) (1 EXPLICIT (CONSTANT (INTEGER 4) 0 '1') (CONSTANT (
INTEGER 4) 0 '2')) () 1 0 0 ()) (294 'obstim' (DERIVED 295) () () 0 0 0
()) (296 'type' (CHARACTER 1 ((CONSTANT (INTEGER 4) 0 '2'))) () () 0 0 0
()) (297 'omega' (REAL 8) () () 0 0 0 ())) PUBLIC ())
295 't_timint' 'm_time' 256 ((DERIVED UNKNOWN UNKNOWN UNKNOWN NONE NONE)
(UNKNOWN) 0 0 () () () '' ((298 't' (REAL 8) (1 EXPLICIT (CONSTANT (
INTEGER 4) 0 '1') (CONSTANT (INTEGER 4) 0 '2')) () 1 0 0 ())) PUBLIC ())
264 't_orbarc' 's_stdorbit_t' 256 ((DERIVED UNKNOWN UNKNOWN UNKNOWN NONE
NONE) (UNKNOWN) 0 0 () () () '' ((299 'sys' (CHARACTER 1 ((CONSTANT (
INTEGER 4) 0 '1'))) () () 0 0 0 (CONSTANT (CHARACTER 1 ((CONSTANT (
INTEGER 4) 0 '1'))) 0 1 'G')) (300 'svn' (INTEGER 4) () () 0 0 0 (
CONSTANT (INTEGER 4) 0 '0')) (301 'man' (INTEGER 4) () () 0 0 0 (
CONSTANT (INTEGER 4) 0 '0')) (302 'twin' (DERIVED 303) () () 0 0 0 ()) (
304 'moddesc' (DERIVED 262) (1 DEFERRED () ()) () 1 1 0 (NULL (DERIVED
262) 1)) (305 'orbint' (DERIVED 306) (1 DEFERRED () ()) () 1 1 0 (NULL (
DERIVED 306) 1)) (307 'stoch' (DERIVED 270) (1 DEFERRED () ()) () 1 1 0
(NULL (DERIVED 270) 1))) PUBLIC ())
306 't_orbint' 's_stdorbit_t' 256 ((DERIVED UNKNOWN UNKNOWN UNKNOWN NONE
NONE) (UNKNOWN) 0 0 () () () '' ((308 'left' (REAL 8) () () 0 0 0 (
CONSTANT (REAL 8) 0 '0' 0 0)) (309 'right' (REAL 8) () () 0 0 0 (
CONSTANT (REAL 8) 0 '0' 0 0)) (310 'shadow' (LOGICAL 4) () () 0 0 0 ())
(311 'hh' (REAL 8) () () 0 0 0 ()) (312 't0' (REAL 8) () () 0 0 0 ()) (
313 'qq' (INTEGER 4) () () 0 0 0 ()) (314 'rcoe' (REAL 8) (2 DEFERRED ()
() () ()) () 1 1 0 (NULL (REAL 8) 2)) (315 'drdecoe' (REAL 8) (3
DEFERRED () () () () () ()) () 1 1 0 (NULL (REAL 8) 3)) (316 'drdscoe' (
REAL 8) (3 DEFERRED () () () () () ()) () 1 1 0 (NULL (REAL 8) 3)))
PUBLIC ())
303 't_timwin' 'm_epoch' 256 ((DERIVED UNKNOWN UNKNOWN UNKNOWN NONE NONE)
(UNKNOWN) 0 0 () () () '' ((317 't' (DERIVED 318) (1 EXPLICIT (CONSTANT
(INTEGER 4) 0 '1') (CONSTANT (INTEGER 4) 0 '2')) () 1 0 0 ())) PUBLIC ())
318 't_epoch' 'm_epoch' 256 ((DERIVED UNKNOWN UNKNOWN UNKNOWN NONE NONE)
(UNKNOWN) 0 0 () () () '' ((319 'day' (INTEGER 4) () () 0 0 0 ()) (320
'frac' (REAL 8) () () 0 0 0 ())) PUBLIC ())
262 't_key' 'm_bern' 256 ((DERIVED UNKNOWN UNKNOWN UNKNOWN NONE NONE) (
UNKNOWN) 0 0 () () () '' ((321 'name' (CHARACTER 1 ((CONSTANT (INTEGER 4)
0 '32'))) () () 0 0 0 ()) (322 'value' (CHARACTER 1 ((CONSTANT (INTEGER
4) 0 '255'))) (1 DEFERRED () ()) () 1 1 0 ())) PUBLIC ())
254 'orbfilename' '' 256 ((VARIABLE IN UNKNOWN UNKNOWN NONE NONE DUMMY)
(CHARACTER 1 (())) 0 0 () () () '' () ())
3 'getsatpos1' 's_stdorbit' 1 ((PROCEDURE UNKNOWN MODULE-PROC DECL NONE
NONE SUBROUTINE INVOKED) (PROCEDURE 0) 0 0 (323 NONE 324 NONE) () () ''
() ())
324 'orbfilename' '' 325 ((VARIABLE UNKNOWN UNKNOWN UNKNOWN NONE NONE
OPTIONAL DUMMY) (CHARACTER 1 (())) 0 0 () () () '' () ())
323 'satpos' '' 325 ((VARIABLE INOUT UNKNOWN UNKNOWN NONE NONE DUMMY) (
DERIVED 326) 0 0 () () () '' () ())
326 't_satpos' 's_stdorbit_t' 325 ((DERIVED UNKNOWN UNKNOWN UNKNOWN NONE
NONE) (UNKNOWN) 0 0 () () () '' ((327 'sys' (CHARACTER 1 ((CONSTANT (
INTEGER 4) 0 '1'))) () () 0 0 0 (CONSTANT (CHARACTER 1 ((CONSTANT (
INTEGER 4) 0 '1'))) 0 1 'G')) (328 'svn' (INTEGER 4) () () 0 0 0 (
CONSTANT (INTEGER 4) 0 '0')) (329 'epoch' (DERIVED 330) () () 0 0 0 ())
(331 'xv' (REAL 8) (2 DEFERRED () () () ()) () 1 1 0 (NULL (REAL 8) 2))
(332 'dxvdele' (REAL 8) (3 DEFERRED () () () () () ()) () 1 1 0 (NULL (
REAL 8) 3)) (333 'dxvdp' (REAL 8) (2 DEFERRED () () () ()) () 1 1 0 (
NULL (REAL 8) 2))) PUBLIC ())
330 't_epoch' 'm_epoch' 325 ((DERIVED UNKNOWN UNKNOWN UNKNOWN NONE NONE)
(UNKNOWN) 0 0 () () () '' ((334 'day' (INTEGER 4) () () 0 0 0 ()) (335
'frac' (REAL 8) () () 0 0 0 ())) PUBLIC ())
2 'getsatpos2' 's_stdorbit' 1 ((PROCEDURE UNKNOWN MODULE-PROC DECL NONE
NONE SUBROUTINE INVOKED) (PROCEDURE 0) 0 0 (336 NONE 337 NONE 338 NONE
339 NONE) () () '' () ())
339 'skipstoch' '' 340 ((VARIABLE IN UNKNOWN UNKNOWN NONE NONE OPTIONAL
DUMMY) (LOGICAL 4) 0 0 () () () '' () ())
338 'irc' '' 340 ((VARIABLE OUT UNKNOWN UNKNOWN NONE NONE OPTIONAL DUMMY)
(INTEGER 4) 0 0 () () () '' () ())
337 'satpos' '' 340 ((VARIABLE INOUT UNKNOWN UNKNOWN NONE NONE DUMMY) (
DERIVED 341) 0 0 () () () '' () ())
341 't_satpos' 's_stdorbit_t' 340 ((DERIVED UNKNOWN UNKNOWN UNKNOWN NONE
NONE) (UNKNOWN) 0 0 () () () '' ((342 'sys' (CHARACTER 1 ((CONSTANT (
INTEGER 4) 0 '1'))) () () 0 0 0 (CONSTANT (CHARACTER 1 ((CONSTANT (
INTEGER 4) 0 '1'))) 0 1 'G')) (343 'svn' (INTEGER 4) () () 0 0 0 (
CONSTANT (INTEGER 4) 0 '0')) (344 'epoch' (DERIVED 345) () () 0 0 0 ())
(346 'xv' (REAL 8) (2 DEFERRED () () () ()) () 1 1 0 (NULL (REAL 8) 2))
(347 'dxvdele' (REAL 8) (3 DEFERRED () () () () () ()) () 1 1 0 (NULL (
REAL 8) 3)) (348 'dxvdp' (REAL 8) (2 DEFERRED () () () ()) () 1 1 0 (
NULL (REAL 8) 2))) PUBLIC ())
345 't_epoch' 'm_epoch' 340 ((DERIVED UNKNOWN UNKNOWN UNKNOWN NONE NONE)
(UNKNOWN) 0 0 () () () '' ((349 'day' (INTEGER 4) () () 0 0 0 ()) (350
'frac' (REAL 8) () () 0 0 0 ())) PUBLIC ())
336 'stdorb' '' 340 ((VARIABLE IN UNKNOWN UNKNOWN NONE NONE DUMMY) (
DERIVED 351) 0 0 () () () '' () ())
351 't_stdorb' 's_stdorbit_t' 340 ((DERIVED UNKNOWN UNKNOWN UNKNOWN NONE
NONE) (UNKNOWN) 0 0 () () () '' ((352 'version' (INTEGER 4) () () 0 0 0
(CONSTANT (INTEGER 4) 0 '2')) (353 'title' (CHARACTER 1 ((CONSTANT (
INTEGER 4) 0 '255'))) () () 0 0 0 (CONSTANT (CHARACTER 1 ((CONSTANT (
INTEGER 4) 0 '255'))) 0 255
'                                                                                                                                                                                                                                                               '))
(354 'useoldgetorb' (LOGICAL 4) () () 0 0 0 (CONSTANT (LOGICAL 4) 0 0))
(355 'moddesc' (DERIVED 356) (1 DEFERRED () ()) () 1 1 0 (NULL (DERIVED
356) 1)) (357 'orbarc' (DERIVED 358) (1 DEFERRED () ()) () 1 1 0 (NULL (
DERIVED 358) 1)) (359 'par' (DERIVED 360) (1 DEFERRED () ()) () 1 1 0 (
NULL (DERIVED 360) 1)) (361 'estpar' (DERIVED 362) (1 DEFERRED () ()) ()
1 1 0 (NULL (DERIVED 362) 1)) (363 'eststc' (DERIVED 364) (1 DEFERRED ()
()) () 1 1 0 (NULL (DERIVED 364) 1)) (365 'orbarcpart' (DERIVED 358) (1
DEFERRED () ()) () 1 1 0 (NULL (DERIVED 358) 1))) PUBLIC ())
364 't_stoch' 's_stdorbit_t' 340 ((DERIVED UNKNOWN UNKNOWN UNKNOWN NONE
NONE) (UNKNOWN) 0 0 () () () '' ((366 'typ' (CHARACTER 1 ((CONSTANT (
INTEGER 4) 0 '1'))) () () 0 0 0 ()) (367 'comp' (CHARACTER 1 ((CONSTANT
(INTEGER 4) 0 '1'))) () () 0 0 0 ()) (368 'left' (REAL 8) () () 0 0 0 (
CONSTANT (REAL 8) 0 '0' 0 0)) (369 'right' (REAL 8) () () 0 0 0 (
CONSTANT (REAL 8) 0 '0' 0 0)) (370 'value' (REAL 8) () () 0 0 0 (
CONSTANT (REAL 8) 0 '0' 0 0)) (371 'deds' (REAL 8) (1 EXPLICIT (
CONSTANT (INTEGER 4) 0 '1') (CONSTANT (INTEGER 4) 0 '6')) () 1 0 0 (
CONSTANT (REAL 8) 0 '0' 0 0)) (372 'de' (REAL 8) (1 EXPLICIT (CONSTANT (
INTEGER 4) 0 '1') (CONSTANT (INTEGER 4) 0 '6')) () 1 0 0 (CONSTANT (
REAL 8) 0 '0' 0 0))) PUBLIC ())
362 't_estpar' 's_stdorbit_t' 340 ((DERIVED UNKNOWN UNKNOWN UNKNOWN NONE
NONE) (UNKNOWN) 0 0 () () () '' ((373 'locq' (INTEGER 4) (1 EXPLICIT (
CONSTANT (INTEGER 4) 0 '1') (CONSTANT (INTEGER 4) 0 '7')) () 1 0 0 (
CONSTANT (INTEGER 4) 0 '0')) (374 'name' (CHARACTER 1 ((CONSTANT (
INTEGER 4) 0 '16'))) () () 0 0 0 (CONSTANT (CHARACTER 1 ((CONSTANT (
INTEGER 4) 0 '16'))) 0 16 '                ')) (375 'time' (DERIVED 376)
() () 0 0 0 ()) (377 'x0' (REAL 8) () () 0 0 0 (CONSTANT (REAL 8) 0 '0'
0 0)) (378 'dx' (REAL 8) () () 0 0 0 (CONSTANT (REAL 8) 0 '0' 0 0)) (
379 'scale' (REAL 8) () () 0 0 0 (CONSTANT (REAL 8) 0 '4503599627370496'
0 1023))) PUBLIC ())
376 't_time' 'm_time' 340 ((DERIVED UNKNOWN UNKNOWN UNKNOWN NONE NONE
SEQUENCE) (UNKNOWN) 0 0 () () () '' ((380 'mean' (REAL 8) () () 0 0 0 ())
(381 'half' (REAL 8) () () 0 0 0 ())) PUBLIC ())
360 't_par' 'd_par' 340 ((DERIVED UNKNOWN UNKNOWN UNKNOWN NONE NONE) (
UNKNOWN) 0 0 () () () '' ((382 'locq' (INTEGER 4) (1 EXPLICIT (CONSTANT
(INTEGER 4) 0 '1') (CONSTANT (INTEGER 4) 0 '7')) () 1 0 0 ()) (383 'name'
(CHARACTER 1 ((CONSTANT (INTEGER 4) 0 '20'))) () () 0 0 0 ()) (384 'time'
(DERIVED 376) () () 0 0 0 ()) (385 'x0' (REAL 8) () () 0 0 0 ()) (386
'scale' (REAL 8) () () 0 0 0 ()) (387 'techn' (CHARACTER 1 ((CONSTANT (
INTEGER 4) 0 '1'))) (1 EXPLICIT (CONSTANT (INTEGER 4) 0 '1') (CONSTANT (
INTEGER 4) 0 '2')) () 1 0 0 ()) (388 'obstim' (DERIVED 389) () () 0 0 0
()) (390 'type' (CHARACTER 1 ((CONSTANT (INTEGER 4) 0 '2'))) () () 0 0 0
()) (391 'omega' (REAL 8) () () 0 0 0 ())) PUBLIC ())
389 't_timint' 'm_time' 340 ((DERIVED UNKNOWN UNKNOWN UNKNOWN NONE NONE)
(UNKNOWN) 0 0 () () () '' ((392 't' (REAL 8) (1 EXPLICIT (CONSTANT (
INTEGER 4) 0 '1') (CONSTANT (INTEGER 4) 0 '2')) () 1 0 0 ())) PUBLIC ())
358 't_orbarc' 's_stdorbit_t' 340 ((DERIVED UNKNOWN UNKNOWN UNKNOWN NONE
NONE) (UNKNOWN) 0 0 () () () '' ((393 'sys' (CHARACTER 1 ((CONSTANT (
INTEGER 4) 0 '1'))) () () 0 0 0 (CONSTANT (CHARACTER 1 ((CONSTANT (
INTEGER 4) 0 '1'))) 0 1 'G')) (394 'svn' (INTEGER 4) () () 0 0 0 (
CONSTANT (INTEGER 4) 0 '0')) (395 'man' (INTEGER 4) () () 0 0 0 (
CONSTANT (INTEGER 4) 0 '0')) (396 'twin' (DERIVED 397) () () 0 0 0 ()) (
398 'moddesc' (DERIVED 356) (1 DEFERRED () ()) () 1 1 0 (NULL (DERIVED
356) 1)) (399 'orbint' (DERIVED 400) (1 DEFERRED () ()) () 1 1 0 (NULL (
DERIVED 400) 1)) (401 'stoch' (DERIVED 364) (1 DEFERRED () ()) () 1 1 0
(NULL (DERIVED 364) 1))) PUBLIC ())
400 't_orbint' 's_stdorbit_t' 340 ((DERIVED UNKNOWN UNKNOWN UNKNOWN NONE
NONE) (UNKNOWN) 0 0 () () () '' ((402 'left' (REAL 8) () () 0 0 0 (
CONSTANT (REAL 8) 0 '0' 0 0)) (403 'right' (REAL 8) () () 0 0 0 (
CONSTANT (REAL 8) 0 '0' 0 0)) (404 'shadow' (LOGICAL 4) () () 0 0 0 ())
(405 'hh' (REAL 8) () () 0 0 0 ()) (406 't0' (REAL 8) () () 0 0 0 ()) (
407 'qq' (INTEGER 4) () () 0 0 0 ()) (408 'rcoe' (REAL 8) (2 DEFERRED ()
() () ()) () 1 1 0 (NULL (REAL 8) 2)) (409 'drdecoe' (REAL 8) (3
DEFERRED () () () () () ()) () 1 1 0 (NULL (REAL 8) 3)) (410 'drdscoe' (
REAL 8) (3 DEFERRED () () () () () ()) () 1 1 0 (NULL (REAL 8) 3)))
PUBLIC ())
397 't_timwin' 'm_epoch' 340 ((DERIVED UNKNOWN UNKNOWN UNKNOWN NONE NONE)
(UNKNOWN) 0 0 () () () '' ((411 't' (DERIVED 345) (1 EXPLICIT (CONSTANT
(INTEGER 4) 0 '1') (CONSTANT (INTEGER 4) 0 '2')) () 1 0 0 ())) PUBLIC ())
356 't_key' 'm_bern' 340 ((DERIVED UNKNOWN UNKNOWN UNKNOWN NONE NONE) (
UNKNOWN) 0 0 () () () '' ((412 'name' (CHARACTER 1 ((CONSTANT (INTEGER 4)
0 '32'))) () () 0 0 0 ()) (413 'value' (CHARACTER 1 ((CONSTANT (INTEGER
4) 0 '255'))) (1 DEFERRED () ()) () 1 1 0 ())) PUBLIC ())
)

('getdxvdp' 0 8 'getdxvdp2' 0 13 'getsatpos' 0 21 'initsatpos' 0 22
'readstdorbit' 0 26 'stdorbit' 0 27 'writestdorbit' 0 29)
