G95 module created on Thu Jun 25 17:49:39 2020 from ./.fpp/STCOGN.f90
If you edit this, you'll get what you deserve.
module-version 9
(() () () () () () () () () () () () () () () () () () () () ())

()

()

()

()

(2 'i4b' 'm_bern' 1 ((PARAMETER UNKNOWN UNKNOWN UNKNOWN NONE NONE) (
INTEGER 4) 0 0 () (CONSTANT (INTEGER 4) 0 '4') () () '' () ())
3 'm_atpa' 's_stcogn' 1 ((VARIABLE UNKNOWN UNKNOWN UNKNOWN NONE NONE
ALLOCATABLE DIMENSION) (REAL 8) 0 0 () (3 DEFERRED () () () () () ()) ()
'' () ())
4 'm_atpa_tot' 's_stcogn' 1 ((VARIABLE UNKNOWN UNKNOWN UNKNOWN NONE NONE
ALLOCATABLE DIMENSION) (REAL 8) 0 0 () (2 DEFERRED () () () ()) () '' ()
())
5 'm_atpb' 's_stcogn' 1 ((VARIABLE UNKNOWN UNKNOWN UNKNOWN NONE NONE
ALLOCATABLE DIMENSION) (REAL 8) 0 0 () (3 DEFERRED () () () () () ()) ()
'' () ())
6 'm_atpb_tot' 's_stcogn' 1 ((VARIABLE UNKNOWN UNKNOWN UNKNOWN NONE NONE
ALLOCATABLE DIMENSION) (REAL 8) 0 0 () (2 DEFERRED () () () ()) () '' ()
())
7 'm_bern' 'm_bern' 1 ((MODULE UNKNOWN UNKNOWN UNKNOWN NONE NONE) (
UNKNOWN) 0 0 () () () '' () ())
8 'm_beta' 's_stcogn' 1 ((VARIABLE UNKNOWN UNKNOWN UNKNOWN NONE NONE
ALLOCATABLE DIMENSION) (REAL 8) 0 0 () (4 DEFERRED () () () () () () ()
()) () '' () ())
9 'm_curpar' 's_stcogn' 1 ((VARIABLE UNKNOWN UNKNOWN UNKNOWN NONE NONE
ALLOCATABLE DIMENSION) (REAL 8) 0 0 () (2 DEFERRED () () () ()) () '' ()
())
10 'm_dele' 's_stcogn' 1 ((VARIABLE UNKNOWN UNKNOWN UNKNOWN NONE NONE
ALLOCATABLE DIMENSION) (REAL 8) 0 0 () (3 DEFERRED () () () () () ()) ()
'' () ())
11 'm_indsat' 's_stcogn' 1 ((VARIABLE UNKNOWN UNKNOWN UNKNOWN NONE NONE
ALLOCATABLE DIMENSION) (INTEGER 4) 0 0 () (1 DEFERRED () ()) () '' () ())
12 'm_indtim' 's_stcogn' 1 ((VARIABLE UNKNOWN UNKNOWN UNKNOWN NONE NONE
ALLOCATABLE DIMENSION) (INTEGER 4) 0 0 () (1 DEFERRED () ()) () '' () ())
13 'm_inipar' 's_stcogn' 1 ((VARIABLE UNKNOWN UNKNOWN UNKNOWN NONE NONE
ALLOCATABLE DIMENSION) (REAL 8) 0 0 () (2 DEFERRED () () () ()) () '' ()
())
14 'm_maxdim' 'm_maxdim' 1 ((MODULE UNKNOWN UNKNOWN UNKNOWN NONE NONE) (
UNKNOWN) 0 0 () () () '' () ())
15 'm_nobs' 's_stcogn' 1 ((VARIABLE UNKNOWN UNKNOWN UNKNOWN NONE NONE
ALLOCATABLE DIMENSION) (INTEGER 4) 0 0 () (2 DEFERRED () () () ()) () ''
() ())
16 'm_nobs_tot' 's_stcogn' 1 ((VARIABLE UNKNOWN UNKNOWN UNKNOWN NONE
NONE ALLOCATABLE DIMENSION) (INTEGER 4) 0 0 () (1 DEFERRED () ()) () ''
() ())
17 'm_npar' 's_stcogn' 1 ((VARIABLE UNKNOWN UNKNOWN UNKNOWN NONE NONE) (
INTEGER 4) 0 0 () () () '' () ())
18 'm_npar_tot' 's_stcogn' 1 ((VARIABLE UNKNOWN UNKNOWN UNKNOWN NONE
NONE ALLOCATABLE DIMENSION) (INTEGER 4) 0 0 () (1 DEFERRED () ()) () ''
() ())
19 'm_nsat' 's_stcogn' 1 ((VARIABLE UNKNOWN UNKNOWN UNKNOWN NONE NONE) (
INTEGER 4) 0 0 () () () '' () ())
20 'm_nstcepo' 's_stcogn' 1 ((VARIABLE UNKNOWN UNKNOWN UNKNOWN NONE NONE
ALLOCATABLE DIMENSION) (INTEGER 4) 0 0 () (1 DEFERRED () ()) () '' () ())
21 'm_nstcmax' 's_stcogn' 1 ((VARIABLE UNKNOWN UNKNOWN UNKNOWN NONE NONE)
(INTEGER 4) 0 0 () () () '' () ())
22 'm_pulse' 's_stcogn' 1 ((VARIABLE UNKNOWN UNKNOWN UNKNOWN NONE NONE
ALLOCATABLE DIMENSION) (REAL 8) 0 0 () (3 DEFERRED () () () () () ()) ()
'' () ())
23 'm_pulse_rms' 's_stcogn' 1 ((VARIABLE UNKNOWN UNKNOWN UNKNOWN NONE
NONE ALLOCATABLE DIMENSION) (REAL 8) 0 0 () (3 DEFERRED () () () () () ())
() '' () ())
24 'm_rms' 's_stcogn' 1 ((VARIABLE UNKNOWN UNKNOWN UNKNOWN NONE NONE
ALLOCATABLE DIMENSION) (REAL 8) 0 0 () (2 DEFERRED () () () ()) () '' ()
())
25 'm_rms_tot' 's_stcogn' 1 ((VARIABLE UNKNOWN UNKNOWN UNKNOWN NONE NONE
ALLOCATABLE DIMENSION) (REAL 8) 0 0 () (1 DEFERRED () ()) () '' () ())
26 'm_rmspar' 's_stcogn' 1 ((VARIABLE UNKNOWN UNKNOWN UNKNOWN NONE NONE
ALLOCATABLE DIMENSION) (REAL 8) 0 0 () (2 DEFERRED () () () ()) () '' ()
())
27 'm_rpress' 's_stcogn' 1 ((VARIABLE UNKNOWN UNKNOWN UNKNOWN NONE NONE
ALLOCATABLE DIMENSION) (REAL 8) 0 0 () (2 DEFERRED () () () ()) () '' ()
())
28 'm_rpress_ini' 's_stcogn' 1 ((VARIABLE UNKNOWN UNKNOWN UNKNOWN NONE
NONE ALLOCATABLE DIMENSION) (REAL 8) 0 0 () (2 DEFERRED () () () ()) () ''
() ())
29 'm_rpress_rms' 's_stcogn' 1 ((VARIABLE UNKNOWN UNKNOWN UNKNOWN NONE
NONE ALLOCATABLE DIMENSION) (REAL 8) 0 0 () (2 DEFERRED () () () ()) () ''
() ())
30 'm_satnumbers' 's_stcogn' 1 ((VARIABLE UNKNOWN UNKNOWN UNKNOWN NONE
NONE ALLOCATABLE DIMENSION) (INTEGER 4) 0 0 () (1 DEFERRED () ()) () ''
() ())
31 'm_sol_apr' 's_stcogn' 1 ((VARIABLE UNKNOWN UNKNOWN UNKNOWN NONE NONE
ALLOCATABLE DIMENSION) (REAL 8) 0 0 () (2 DEFERRED () () () ()) () '' ()
())
32 'm_sol_tot' 's_stcogn' 1 ((VARIABLE UNKNOWN UNKNOWN UNKNOWN NONE NONE
ALLOCATABLE DIMENSION) (REAL 8) 0 0 () (2 DEFERRED () () () ()) () '' ()
())
33 'm_stcepo' 's_stcogn' 1 ((VARIABLE UNKNOWN UNKNOWN UNKNOWN NONE NONE
ALLOCATABLE DIMENSION) (REAL 8) 0 0 () (2 DEFERRED () () () ()) () '' ()
())
34 'm_stcinter' 's_stcogn' 1 ((VARIABLE UNKNOWN UNKNOWN UNKNOWN NONE
NONE ALLOCATABLE DIMENSION) (REAL 8) 0 0 () (2 DEFERRED () () () ()) () ''
() ())
35 'm_stcnumbers' 's_stcogn' 1 ((VARIABLE UNKNOWN UNKNOWN UNKNOWN NONE
NONE ALLOCATABLE DIMENSION) (INTEGER 4) 0 0 () (1 DEFERRED () ()) () ''
() ())
36 'm_stoch' 's_stcogn' 1 ((VARIABLE UNKNOWN UNKNOWN UNKNOWN NONE NONE)
(INTEGER 4) 0 0 () () () '' () ())
37 'maxsat' 'm_maxdim' 1 ((PARAMETER UNKNOWN UNKNOWN UNKNOWN NONE NONE)
(INTEGER 4) 0 0 () (CONSTANT (INTEGER 4) 0 '130') () () '' () ())
38 'r8b' 'm_bern' 1 ((PARAMETER UNKNOWN UNKNOWN UNKNOWN NONE NONE) (
INTEGER 4) 0 0 () (CONSTANT (INTEGER 4) 0 '8') () () '' () ())
39 's_stcogn' 's_stcogn' 1 ((MODULE UNKNOWN UNKNOWN UNKNOWN NONE NONE) (
UNKNOWN) 0 0 () () () '' () ())
40 'stcogn_applypos' 's_stcogn' 1 ((PROCEDURE UNKNOWN MODULE-PROC DECL
NONE NONE SUBROUTINE) (PROCEDURE 0) 0 0 (41 NONE 42 NONE 43 NONE 44 NONE)
() () '' () ())
45 'stcogn_applyvel' 's_stcogn' 1 ((PROCEDURE UNKNOWN MODULE-PROC DECL
NONE NONE SUBROUTINE) (PROCEDURE 0) 0 0 (46 NONE 47 NONE 48 NONE) () () ''
() ())
49 'stcogn_beta' 's_stcogn' 1 ((PROCEDURE UNKNOWN MODULE-PROC DECL NONE
NONE SUBROUTINE) (PROCEDURE 0) 0 0 (50 NONE 51 NONE 52 NONE 53 NONE 54
NONE 55 NONE 56 NONE 57 NONE 58 NONE 59 NONE) () () '' () ())
60 'stcogn_inipar' 's_stcogn' 1 ((PROCEDURE UNKNOWN MODULE-PROC DECL
NONE NONE SUBROUTINE) (PROCEDURE 0) 0 0 (61 NONE 62 NONE 63 NONE 64 NONE
65 NONE 66 NONE) () () '' () ())
67 'stcogn_init' 's_stcogn' 1 ((PROCEDURE UNKNOWN MODULE-PROC DECL NONE
NONE SUBROUTINE) (PROCEDURE 0) 0 0 (68 NONE 69 NONE 70 NONE 71 NONE 72
NONE 73 NONE 74 NONE 75 NONE 76 NONE 77 NONE 78 NONE) () () '' () ())
79 'stcogn_solve' 's_stcogn' 1 ((PROCEDURE UNKNOWN MODULE-PROC DECL NONE
NONE SUBROUTINE) (PROCEDURE 0) 0 0 (80 NONE 81 NONE 82 NONE 83 NONE) ()
() '' () ())
84 'stcogn_update' 's_stcogn' 1 ((PROCEDURE UNKNOWN MODULE-PROC DECL
NONE NONE SUBROUTINE) (PROCEDURE 0) 0 0 (85 NONE 86 NONE 87 NONE 88 NONE
89 NONE) () () '' () ())
90 't_stcopt' 's_stcogn' 1 ((DERIVED UNKNOWN UNKNOWN UNKNOWN NONE NONE)
(UNKNOWN) 0 0 () () () '' ((91 'usestc' (INTEGER 4) () () 0 0 0 ()) (92
'prnstc' (INTEGER 4) (1 EXPLICIT (CONSTANT (INTEGER 4) 0 '1') (CONSTANT
(INTEGER 4) 0 '130')) () 1 0 0 ()) (93 'interv' (REAL 8) () () 0 0 0 ())
(94 'algstc' (LOGICAL 4) () () 0 0 0 ())) PUBLIC ())
89 'dbnor' '' 95 ((VARIABLE IN UNKNOWN UNKNOWN NONE NONE DIMENSION DUMMY)
(REAL 8) 0 0 () (1 ASSUMED_SHAPE () ()) () '' () ())
88 'danor' '' 95 ((VARIABLE IN UNKNOWN UNKNOWN NONE NONE DIMENSION DUMMY)
(REAL 8) 0 0 () (1 ASSUMED_SHAPE () ()) () '' () ())
87 'drms' '' 95 ((VARIABLE IN UNKNOWN UNKNOWN NONE NONE DUMMY) (REAL 8)
0 0 () () () '' () ())
86 'tobs' '' 95 ((VARIABLE IN UNKNOWN UNKNOWN NONE NONE DUMMY) (REAL 8)
0 0 () () () '' () ())
85 'isat_ext' '' 95 ((VARIABLE IN UNKNOWN UNKNOWN NONE NONE DUMMY) (
INTEGER 4) 0 0 () () () '' () ())
83 'rpress' '' 96 ((VARIABLE IN UNKNOWN UNKNOWN NONE NONE DIMENSION
DUMMY) (REAL 8) 0 0 () (2 ASSUMED_SHAPE () () () ()) () '' () ())
82 'elesat' '' 96 ((VARIABLE IN UNKNOWN UNKNOWN NONE NONE DIMENSION
DUMMY) (REAL 8) 0 0 () (2 ASSUMED_SHAPE () () () ()) () '' () ())
81 'locq' '' 96 ((VARIABLE IN UNKNOWN UNKNOWN NONE NONE DIMENSION DUMMY)
(INTEGER 4) 0 0 () (2 ASSUMED_SHAPE () () () ()) () '' () ())
80 'iter' '' 96 ((VARIABLE IN UNKNOWN UNKNOWN NONE NONE DUMMY) (INTEGER
4) 0 0 () () () '' () ())
78 'nsampl' '' 97 ((VARIABLE IN UNKNOWN UNKNOWN NONE NONE DUMMY) (REAL 8)
0 0 () () () '' () ())
77 'timman' '' 97 ((VARIABLE IN UNKNOWN UNKNOWN NONE NONE DIMENSION
DUMMY) (REAL 8) 0 0 () (1 ASSUMED_SHAPE () ()) () '' () ())
76 'satman' '' 97 ((VARIABLE IN UNKNOWN UNKNOWN NONE NONE DIMENSION
DUMMY) (INTEGER 4) 0 0 () (1 ASSUMED_SHAPE () ()) () '' () ())
75 'nman' '' 97 ((VARIABLE IN UNKNOWN UNKNOWN NONE NONE DUMMY) (INTEGER
4) 0 0 () () () '' () ())
74 'npar' '' 97 ((VARIABLE IN UNKNOWN UNKNOWN NONE NONE DUMMY) (INTEGER
4) 0 0 () () () '' () ())
73 'tb12' '' 97 ((VARIABLE IN UNKNOWN UNKNOWN NONE NONE DIMENSION DUMMY)
(REAL 8) 0 0 () (1 ASSUMED_SHAPE () ()) () '' () ())
72 'nint' '' 97 ((VARIABLE IN UNKNOWN UNKNOWN NONE NONE DUMMY) (INTEGER
4) 0 0 () () () '' () ())
71 't0arc' '' 97 ((VARIABLE IN UNKNOWN UNKNOWN NONE NONE DUMMY) (REAL 8)
0 0 () () () '' () ())
70 'navnum' '' 97 ((VARIABLE IN UNKNOWN UNKNOWN NONE NONE DIMENSION
DUMMY) (INTEGER 4) 0 0 () (1 ASSUMED_SHAPE () ()) () '' () ())
69 'nsat' '' 97 ((VARIABLE IN UNKNOWN UNKNOWN NONE NONE DUMMY) (INTEGER
4) 0 0 () () () '' () ())
68 'stcopt' '' 97 ((VARIABLE IN UNKNOWN UNKNOWN NONE NONE DUMMY) (
DERIVED 90) 0 0 () () () '' () ())
66 'rpress' '' 98 ((VARIABLE INOUT UNKNOWN UNKNOWN NONE NONE DIMENSION
DUMMY) (REAL 8) 0 0 () (1 ASSUMED_SHAPE () ()) () '' () ())
65 'elesat' '' 98 ((VARIABLE IN UNKNOWN UNKNOWN NONE NONE DIMENSION
DUMMY) (REAL 8) 0 0 () (1 ASSUMED_SHAPE () ()) () '' () ())
64 'locq' '' 98 ((VARIABLE IN UNKNOWN UNKNOWN NONE NONE DIMENSION DUMMY)
(INTEGER 4) 0 0 () (2 ASSUMED_SHAPE () () () ()) () '' () ())
63 'isat' '' 98 ((VARIABLE IN UNKNOWN UNKNOWN NONE NONE DUMMY) (INTEGER
4) 0 0 () () () '' () ())
62 'maxvar' '' 98 ((VARIABLE IN UNKNOWN UNKNOWN NONE NONE DUMMY) (
INTEGER 4) 0 0 () () () '' () ())
61 'iter' '' 98 ((VARIABLE IN UNKNOWN UNKNOWN NONE NONE DUMMY) (INTEGER
4) 0 0 () () () '' () ())
59 'zcoe' '' 99 ((VARIABLE UNKNOWN UNKNOWN UNKNOWN NONE NONE DIMENSION
DUMMY) (REAL 8) 0 0 () (2 ASSUMED_SHAPE () () () ()) () '' () ())
58 'ycoe' '' 99 ((VARIABLE UNKNOWN UNKNOWN UNKNOWN NONE NONE DIMENSION
DUMMY) (REAL 8) 0 0 () (3 ASSUMED_SIZE (CONSTANT (INTEGER 4) 0 '1') (
CONSTANT (INTEGER 4) 0 '3') (CONSTANT (INTEGER 4) 0 '1') (VARIABLE (
INTEGER 4) 0 50 ()) (CONSTANT (INTEGER 4) 0 '1') ()) () '' () ())
57 'fac' '' 99 ((VARIABLE IN UNKNOWN UNKNOWN NONE NONE DIMENSION DUMMY)
(REAL 8) 0 0 () (1 ASSUMED_SHAPE () ()) () '' () ())
56 'nvar' '' 99 ((VARIABLE IN UNKNOWN UNKNOWN NONE NONE DUMMY) (INTEGER
4) 0 0 () () () '' () ())
55 'h' '' 99 ((VARIABLE IN UNKNOWN UNKNOWN NONE NONE DUMMY) (REAL 8) 0 0
() () () '' () ())
54 'q' '' 99 ((VARIABLE IN UNKNOWN UNKNOWN NONE NONE DUMMY) (INTEGER 4)
0 0 () () () '' () ())
53 'tb' '' 99 ((VARIABLE IN UNKNOWN UNKNOWN NONE NONE DUMMY) (REAL 8) 0
0 () () () '' () ())
52 'ta' '' 99 ((VARIABLE IN UNKNOWN UNKNOWN NONE NONE DUMMY) (REAL 8) 0
0 () () () '' () ())
51 'svn' '' 99 ((VARIABLE IN UNKNOWN UNKNOWN NONE NONE DUMMY) (INTEGER 4)
0 0 () () () '' () ())
50 'maxq1' '' 99 ((VARIABLE IN UNKNOWN UNKNOWN NONE NONE DUMMY) (
INTEGER 4) 0 0 () () () '' () ())
48 'xvsat' '' 100 ((VARIABLE INOUT UNKNOWN UNKNOWN NONE NONE DIMENSION
DUMMY) (REAL 8) 0 0 () (3 ASSUMED_SHAPE () () () () () ()) () '' () ())
47 'tobs' '' 100 ((VARIABLE IN UNKNOWN UNKNOWN NONE NONE DUMMY) (REAL 8)
0 0 () () () '' () ())
46 'isat' '' 100 ((VARIABLE IN UNKNOWN UNKNOWN NONE NONE DUMMY) (
INTEGER 4) 0 0 () () () '' () ())
44 'drv' '' 101 ((VARIABLE UNKNOWN UNKNOWN UNKNOWN NONE NONE DIMENSION
DUMMY) (REAL 8) 0 0 () (1 ASSUMED_SHAPE () ()) () '' () ())
43 'drdele' '' 101 ((VARIABLE IN UNKNOWN UNKNOWN NONE NONE DIMENSION
DUMMY) (REAL 8) 0 0 () (2 ASSUMED_SHAPE () () () ()) () '' () ())
42 'tobs' '' 101 ((VARIABLE IN UNKNOWN UNKNOWN NONE NONE DUMMY) (REAL 8)
0 0 () () () '' () ())
41 'isat' '' 101 ((VARIABLE IN UNKNOWN UNKNOWN NONE NONE DUMMY) (
INTEGER 4) 0 0 () () () '' () ())
)

('i4b' 0 2 'm_atpa' 0 3 'm_atpa_tot' 0 4 'm_atpb' 0 5 'm_atpb_tot' 0 6
'm_bern' 0 7 'm_beta' 0 8 'm_curpar' 0 9 'm_dele' 0 10 'm_indsat' 0 11
'm_indtim' 0 12 'm_inipar' 0 13 'm_maxdim' 0 14 'm_nobs' 0 15 'm_nobs_tot'
0 16 'm_npar' 0 17 'm_npar_tot' 0 18 'm_nsat' 0 19 'm_nstcepo' 0 20
'm_nstcmax' 0 21 'm_pulse' 0 22 'm_pulse_rms' 0 23 'm_rms' 0 24
'm_rms_tot' 0 25 'm_rmspar' 0 26 'm_rpress' 0 27 'm_rpress_ini' 0 28
'm_rpress_rms' 0 29 'm_satnumbers' 0 30 'm_sol_apr' 0 31 'm_sol_tot' 0
32 'm_stcepo' 0 33 'm_stcinter' 0 34 'm_stcnumbers' 0 35 'm_stoch' 0 36
'maxsat' 0 37 'r8b' 0 38 's_stcogn' 0 39 'stcogn_applypos' 0 40
'stcogn_applyvel' 0 45 'stcogn_beta' 0 49 'stcogn_inipar' 0 60
'stcogn_init' 0 67 'stcogn_solve' 0 79 'stcogn_update' 0 84 't_stcopt' 0
90)
