G95 module created on Thu Jun 25 17:48:43 2020 from ./.fpp/STDORB2NEW.f90
If you edit this, you'll get what you deserve.
module-version 9
(() () () () () () () () () () () () () () () () () () () () ())

()

()

()

()

(2 'stdorb2new' 's_stdorb2new' 1 ((VARIABLE UNKNOWN UNKNOWN UNKNOWN NONE
NONE DIMENSION) (DERIVED 3) 0 0 () (1 EXPLICIT (CONSTANT (INTEGER 4) 0 '1')
(CONSTANT (INTEGER 4) 0 '1')) () '' () ())
4 'stdorb2newinit' 's_stdorb2new' 1 ((PROCEDURE UNKNOWN MODULE-PROC DECL
NONE NONE SUBROUTINE) (PROCEDURE 0) 0 0 () () () '' () ())
3 't_stdorb' 's_stdorbit_t' 1 ((DERIVED UNKNOWN UNKNOWN UNKNOWN NONE
NONE) (UNKNOWN) 0 0 () () () '' ((5 'version' (INTEGER 4) () () 0 0 0 (
CONSTANT (INTEGER 4) 0 '2')) (6 'title' (CHARACTER 1 ((CONSTANT (
INTEGER 4) 0 '255'))) () () 0 0 0 (CONSTANT (CHARACTER 1 ((CONSTANT (
INTEGER 4) 0 '255'))) 0 255
'                                                                                                                                                                                                                                                               '))
(7 'useoldgetorb' (LOGICAL 4) () () 0 0 0 (CONSTANT (LOGICAL 4) 0 0)) (
8 'moddesc' (DERIVED 9) (1 DEFERRED () ()) () 1 1 0 (NULL (DERIVED 9) 1))
(10 'orbarc' (DERIVED 11) (1 DEFERRED () ()) () 1 1 0 (NULL (DERIVED 11)
1)) (12 'par' (DERIVED 13) (1 DEFERRED () ()) () 1 1 0 (NULL (DERIVED 13)
1)) (14 'estpar' (DERIVED 15) (1 DEFERRED () ()) () 1 1 0 (NULL (
DERIVED 15) 1)) (16 'eststc' (DERIVED 17) (1 DEFERRED () ()) () 1 1 0 (
NULL (DERIVED 17) 1)) (18 'orbarcpart' (DERIVED 11) (1 DEFERRED () ()) ()
1 1 0 (NULL (DERIVED 11) 1))) PUBLIC ())
17 't_stoch' 's_stdorbit_t' 1 ((DERIVED UNKNOWN UNKNOWN UNKNOWN NONE
NONE) (UNKNOWN) 0 0 () () () '' ((19 'typ' (CHARACTER 1 ((CONSTANT (
INTEGER 4) 0 '1'))) () () 0 0 0 ()) (20 'comp' (CHARACTER 1 ((CONSTANT (
INTEGER 4) 0 '1'))) () () 0 0 0 ()) (21 'left' (REAL 8) () () 0 0 0 (
CONSTANT (REAL 8) 0 '0' 0 0)) (22 'right' (REAL 8) () () 0 0 0 (
CONSTANT (REAL 8) 0 '0' 0 0)) (23 'value' (REAL 8) () () 0 0 0 (
CONSTANT (REAL 8) 0 '0' 0 0)) (24 'deds' (REAL 8) (1 EXPLICIT (CONSTANT
(INTEGER 4) 0 '1') (CONSTANT (INTEGER 4) 0 '6')) () 1 0 0 (CONSTANT (
REAL 8) 0 '0' 0 0)) (25 'de' (REAL 8) (1 EXPLICIT (CONSTANT (INTEGER 4)
0 '1') (CONSTANT (INTEGER 4) 0 '6')) () 1 0 0 (CONSTANT (REAL 8) 0 '0' 0
0))) PUBLIC ())
15 't_estpar' 's_stdorbit_t' 1 ((DERIVED UNKNOWN UNKNOWN UNKNOWN NONE
NONE) (UNKNOWN) 0 0 () () () '' ((26 'locq' (INTEGER 4) (1 EXPLICIT (
CONSTANT (INTEGER 4) 0 '1') (CONSTANT (INTEGER 4) 0 '7')) () 1 0 0 (
CONSTANT (INTEGER 4) 0 '0')) (27 'name' (CHARACTER 1 ((CONSTANT (
INTEGER 4) 0 '16'))) () () 0 0 0 (CONSTANT (CHARACTER 1 ((CONSTANT (
INTEGER 4) 0 '16'))) 0 16 '                ')) (28 'time' (DERIVED 29) ()
() 0 0 0 ()) (30 'x0' (REAL 8) () () 0 0 0 (CONSTANT (REAL 8) 0 '0' 0 0))
(31 'dx' (REAL 8) () () 0 0 0 (CONSTANT (REAL 8) 0 '0' 0 0)) (32 'scale'
(REAL 8) () () 0 0 0 (CONSTANT (REAL 8) 0 '4503599627370496' 0 1023)))
PUBLIC ())
29 't_time' 'm_time' 1 ((DERIVED UNKNOWN UNKNOWN UNKNOWN NONE NONE
SEQUENCE) (UNKNOWN) 0 0 () () () '' ((33 'mean' (REAL 8) () () 0 0 0 ())
(34 'half' (REAL 8) () () 0 0 0 ())) PUBLIC ())
13 't_par' 'd_par' 1 ((DERIVED UNKNOWN UNKNOWN UNKNOWN NONE NONE) (
UNKNOWN) 0 0 () () () '' ((35 'locq' (INTEGER 4) (1 EXPLICIT (CONSTANT (
INTEGER 4) 0 '1') (CONSTANT (INTEGER 4) 0 '7')) () 1 0 0 ()) (36 'name'
(CHARACTER 1 ((CONSTANT (INTEGER 4) 0 '20'))) () () 0 0 0 ()) (37 'time'
(DERIVED 29) () () 0 0 0 ()) (38 'x0' (REAL 8) () () 0 0 0 ()) (39 'scale'
(REAL 8) () () 0 0 0 ()) (40 'techn' (CHARACTER 1 ((CONSTANT (INTEGER 4)
0 '1'))) (1 EXPLICIT (CONSTANT (INTEGER 4) 0 '1') (CONSTANT (INTEGER 4)
0 '2')) () 1 0 0 ()) (41 'obstim' (DERIVED 42) () () 0 0 0 ()) (43 'type'
(CHARACTER 1 ((CONSTANT (INTEGER 4) 0 '2'))) () () 0 0 0 ()) (44 'omega'
(REAL 8) () () 0 0 0 ())) PUBLIC ())
42 't_timint' 'm_time' 1 ((DERIVED UNKNOWN UNKNOWN UNKNOWN NONE NONE) (
UNKNOWN) 0 0 () () () '' ((45 't' (REAL 8) (1 EXPLICIT (CONSTANT (
INTEGER 4) 0 '1') (CONSTANT (INTEGER 4) 0 '2')) () 1 0 0 ())) PUBLIC ())
11 't_orbarc' 's_stdorbit_t' 1 ((DERIVED UNKNOWN UNKNOWN UNKNOWN NONE
NONE) (UNKNOWN) 0 0 () () () '' ((46 'sys' (CHARACTER 1 ((CONSTANT (
INTEGER 4) 0 '1'))) () () 0 0 0 (CONSTANT (CHARACTER 1 ((CONSTANT (
INTEGER 4) 0 '1'))) 0 1 'G')) (47 'svn' (INTEGER 4) () () 0 0 0 (
CONSTANT (INTEGER 4) 0 '0')) (48 'man' (INTEGER 4) () () 0 0 0 (
CONSTANT (INTEGER 4) 0 '0')) (49 'twin' (DERIVED 50) () () 0 0 0 ()) (
51 'moddesc' (DERIVED 9) (1 DEFERRED () ()) () 1 1 0 (NULL (DERIVED 9) 1))
(52 'orbint' (DERIVED 53) (1 DEFERRED () ()) () 1 1 0 (NULL (DERIVED 53)
1)) (54 'stoch' (DERIVED 17) (1 DEFERRED () ()) () 1 1 0 (NULL (DERIVED
17) 1))) PUBLIC ())
53 't_orbint' 's_stdorbit_t' 1 ((DERIVED UNKNOWN UNKNOWN UNKNOWN NONE
NONE) (UNKNOWN) 0 0 () () () '' ((55 'left' (REAL 8) () () 0 0 0 (
CONSTANT (REAL 8) 0 '0' 0 0)) (56 'right' (REAL 8) () () 0 0 0 (
CONSTANT (REAL 8) 0 '0' 0 0)) (57 'shadow' (LOGICAL 4) () () 0 0 0 ()) (
58 'hh' (REAL 8) () () 0 0 0 ()) (59 't0' (REAL 8) () () 0 0 0 ()) (60
'qq' (INTEGER 4) () () 0 0 0 ()) (61 'rcoe' (REAL 8) (2 DEFERRED () () ()
()) () 1 1 0 (NULL (REAL 8) 2)) (62 'drdecoe' (REAL 8) (3 DEFERRED () ()
() () () ()) () 1 1 0 (NULL (REAL 8) 3)) (63 'drdscoe' (REAL 8) (3
DEFERRED () () () () () ()) () 1 1 0 (NULL (REAL 8) 3))) PUBLIC ())
50 't_timwin' 'm_epoch' 1 ((DERIVED UNKNOWN UNKNOWN UNKNOWN NONE NONE) (
UNKNOWN) 0 0 () () () '' ((64 't' (DERIVED 65) (1 EXPLICIT (CONSTANT (
INTEGER 4) 0 '1') (CONSTANT (INTEGER 4) 0 '2')) () 1 0 0 ())) PUBLIC ())
65 't_epoch' 'm_epoch' 1 ((DERIVED UNKNOWN UNKNOWN UNKNOWN NONE NONE) (
UNKNOWN) 0 0 () () () '' ((66 'day' (INTEGER 4) () () 0 0 0 ()) (67 'frac'
(REAL 8) () () 0 0 0 ())) PUBLIC ())
9 't_key' 'm_bern' 1 ((DERIVED UNKNOWN UNKNOWN UNKNOWN NONE NONE) (
UNKNOWN) 0 0 () () () '' ((68 'name' (CHARACTER 1 ((CONSTANT (INTEGER 4)
0 '32'))) () () 0 0 0 ()) (69 'value' (CHARACTER 1 ((CONSTANT (INTEGER 4)
0 '255'))) (1 DEFERRED () ()) () 1 1 0 ())) PUBLIC ())
)

('stdorb2new' 0 2 'stdorb2newinit' 0 4)
