G95 module created on Thu Jun 25 17:49:26 2020 from ./.fpp/STANEQ.f90
If you edit this, you'll get what you deserve.
module-version 9
(() () () () () () () () () () () () () () () () () () () () ())

()

()

()

()

(2 's_staneq' 's_staneq' 1 ((MODULE UNKNOWN UNKNOWN UNKNOWN NONE NONE) (
UNKNOWN) 0 0 () () () '' () ())
3 'staneq' 's_staneq' 1 ((PROCEDURE UNKNOWN MODULE-PROC DECL NONE NONE
SUBROUTINE) (PROCEDURE 0) 0 0 (4 NONE 5 NONE 6 NONE 7 NONE 8 NONE 9 NONE
10 NONE 11 NONE 12 NONE 13 NONE 14 NONE 15 NONE 16 NONE 17 NONE 18 NONE
19 NONE 20 NONE 21 NONE 22 NONE) () () '' () ())
22 'pargsp' '' 23 ((VARIABLE UNKNOWN UNKNOWN UNKNOWN NONE NONE DUMMY) (
DERIVED 24) 0 0 () () () '' () ())
24 't_pargsp' 'p_addneq' 23 ((DERIVED UNKNOWN UNKNOWN UNKNOWN NONE NONE)
(UNKNOWN) 0 0 () () () '' ((25 'ntra' (INTEGER 4) () () 0 0 0 ()) (26
'nsystra' (INTEGER 4) () () 0 0 0 ()) (27 'systra' (INTEGER 4) (1
EXPLICIT (CONSTANT (INTEGER 4) 0 '1') (CONSTANT (INTEGER 4) 0 '6')) () 1
0 0 ()) (28 'ntrp' (INTEGER 4) () () 0 0 0 ()) (29 'nsystrp' (INTEGER 4)
() () 0 0 0 ()) (30 'systrp' (INTEGER 4) (1 EXPLICIT (CONSTANT (INTEGER
4) 0 '1') (CONSTANT (INTEGER 4) 0 '6')) () 1 0 0 ())) PUBLIC ())
21 'parrgb' '' 23 ((VARIABLE UNKNOWN UNKNOWN UNKNOWN NONE NONE DUMMY) (
DERIVED 31) 0 0 () () () '' () ())
31 't_parrgb' 'p_addneq' 23 ((DERIVED UNKNOWN UNKNOWN UNKNOWN NONE NONE)
(UNKNOWN) 0 0 () () () '' ((32 'nrgb' (INTEGER 4) () () 0 0 0 ()))
PUBLIC ())
20 'pargrd' '' 23 ((VARIABLE UNKNOWN UNKNOWN UNKNOWN NONE NONE DIMENSION
DUMMY) (DERIVED 33) 0 0 () (1 ASSUMED_SHAPE () ()) () '' () ())
33 't_optload' 'p_addneq' 23 ((DERIVED UNKNOWN UNKNOWN UNKNOWN NONE NONE)
(UNKNOWN) 0 0 () () () '' ((34 'keyw' (CHARACTER 1 ((CONSTANT (INTEGER 4)
0 '12'))) () () 0 0 0 ()) (35 'nsta' (INTEGER 4) () () 0 0 0 ()) (36
'stalst' (CHARACTER 1 ((CONSTANT (INTEGER 4) 0 '16'))) (1 DEFERRED () ())
() 1 1 0 ()) (37 'staclu' (INTEGER 4) (1 DEFERRED () ()) () 1 1 0 ()) (
38 'npar' (INTEGER 4) () () 0 0 0 ()) (39 'x0' (INTEGER 4) () () 0 0 0 ()))
PUBLIC ())
19 'pardcb' '' 23 ((VARIABLE UNKNOWN UNKNOWN UNKNOWN NONE NONE DIMENSION
DUMMY) (INTEGER 4) 0 0 () (2 ASSUMED_SHAPE () () () ()) () '' () ())
18 'parrco' '' 23 ((VARIABLE UNKNOWN UNKNOWN UNKNOWN NONE NONE DUMMY) (
DERIVED 40) 0 0 () () () '' () ())
40 't_parrco' 'p_addneq' 23 ((DERIVED UNKNOWN UNKNOWN UNKNOWN NONE NONE)
(UNKNOWN) 0 0 () () () '' ((41 'issta' (INTEGER 4) () () 0 0 0 ()) (42
'isfrq' (INTEGER 4) () () 0 0 0 ()) (43 'issat' (INTEGER 4) () () 0 0 0
())) PUBLIC ())
17 'parrap' '' 23 ((VARIABLE UNKNOWN UNKNOWN UNKNOWN NONE NONE DUMMY) (
DERIVED 44) 0 0 () () () '' () ())
44 't_parrap' 'p_addneq' 23 ((DERIVED UNKNOWN UNKNOWN UNKNOWN NONE NONE)
(UNKNOWN) 0 0 () () () '' ((45 'nrapgrd' (INTEGER 4) () () 0 0 0 ()) (
46 'nrapshm' (INTEGER 4) () () 0 0 0 ())) PUBLIC ())
16 'parrao' '' 23 ((VARIABLE UNKNOWN UNKNOWN UNKNOWN NONE NONE DUMMY) (
DERIVED 47) 0 0 () () () '' () ())
47 't_parrao' 'p_addneq' 23 ((DERIVED UNKNOWN UNKNOWN UNKNOWN NONE NONE)
(UNKNOWN) 0 0 () () () '' ((48 'nrao' (INTEGER 4) () () 0 0 0 ()) (49
'rao' (INTEGER 4) (1 EXPLICIT (CONSTANT (INTEGER 4) 0 '1') (CONSTANT (
INTEGER 4) 0 '3')) () 1 0 0 ())) PUBLIC ())
15 'parsap' '' 23 ((VARIABLE UNKNOWN UNKNOWN UNKNOWN NONE NONE DIMENSION
POINTER DUMMY) (DERIVED 50) 0 0 () (1 DEFERRED () ()) () '' () ())
50 't_parsap' 'p_addneq' 23 ((DERIVED UNKNOWN UNKNOWN UNKNOWN NONE NONE)
(UNKNOWN) 0 0 () () () '' ((51 'nanspv' (INTEGER 4) () () 0 0 0 ()) (52
'nsaspv' (INTEGER 4) (1 DEFERRED () ()) () 1 1 0 ()) (53 'satspv' (
INTEGER 4) (2 DEFERRED () () () ()) () 1 1 0 ()) (54 'gnrspv' (INTEGER 4)
(1 EXPLICIT (CONSTANT (INTEGER 4) 0 '1') (CONSTANT (INTEGER 4) 0 '260'))
() 1 0 0 ()) (55 'nptspv' (INTEGER 4) (2 EXPLICIT (CONSTANT (INTEGER 4)
0 '1') (CONSTANT (INTEGER 4) 0 '2') (CONSTANT (INTEGER 4) 0 '1') (
CONSTANT (INTEGER 4) 0 '260')) () 1 0 0 ()) (56 'timspv' (REAL 8) (2
EXPLICIT (CONSTANT (INTEGER 4) 0 '1') (CONSTANT (INTEGER 4) 0 '2') (
CONSTANT (INTEGER 4) 0 '1') (CONSTANT (INTEGER 4) 0 '260')) () 1 0 0 ()))
PUBLIC ())
14 'parerp' '' 23 ((VARIABLE UNKNOWN UNKNOWN UNKNOWN NONE NONE DUMMY) (
DERIVED 57) 0 0 () () () '' () ())
57 't_parerp' 'p_addneq' 23 ((DERIVED UNKNOWN UNKNOWN UNKNOWN NONE NONE)
(UNKNOWN) 0 0 () () () '' ((58 'nerp' (INTEGER 4) () () 0 0 0 ()) (59
'erp' (INTEGER 4) (1 EXPLICIT (CONSTANT (INTEGER 4) 0 '1') (CONSTANT (
INTEGER 4) 0 '5')) () 1 0 0 ())) PUBLIC ())
13 'paratm' '' 23 ((VARIABLE UNKNOWN UNKNOWN UNKNOWN NONE NONE DUMMY) (
DERIVED 60) 0 0 () () () '' () ())
60 't_paratm' 'p_addneq' 23 ((DERIVED UNKNOWN UNKNOWN UNKNOWN NONE NONE)
(UNKNOWN) 0 0 () () () '' ((61 'ntro' (INTEGER 4) () () 0 0 0 ()) (62
'nmodel' (INTEGER 4) () () 0 0 0 ()) (63 'trpmod' (DERIVED 64) (1
DEFERRED () ()) () 1 1 0 ()) (65 'nion' (INTEGER 4) () () 0 0 0 ()) (66
'nhoi' (INTEGER 4) () () 0 0 0 ())) PUBLIC ())
64 't_partrp' 'p_addneq' 23 ((DERIVED UNKNOWN UNKNOWN UNKNOWN NONE NONE)
(UNKNOWN) 0 0 () () () '' ((67 'fromto' (INTEGER 4) (1 EXPLICIT (
CONSTANT (INTEGER 4) 0 '1') (CONSTANT (INTEGER 4) 0 '2')) () 1 0 0 ()) (
68 'itropo' (INTEGER 4) () () 0 0 0 ()) (69 'iextra' (INTEGER 4) () () 0
0 0 ()) (70 'itrmap' (INTEGER 4) () () 0 0 0 ()) (71 'itrgrd' (INTEGER 4)
() () 0 0 0 ())) PUBLIC ())
12 'parsao' '' 23 ((VARIABLE UNKNOWN UNKNOWN UNKNOWN NONE NONE DIMENSION
POINTER DUMMY) (DERIVED 72) 0 0 () (1 DEFERRED () ()) () '' () ())
72 't_parsao' 'p_addneq' 23 ((DERIVED UNKNOWN UNKNOWN UNKNOWN NONE NONE)
(UNKNOWN) 0 0 () () () '' ((73 'nanoff' (INTEGER 4) () () 0 0 0 ()) (74
'nsaoff' (INTEGER 4) (1 DEFERRED () ()) () 1 1 0 ()) (75 'satoff' (
INTEGER 4) (2 DEFERRED () () () ()) () 1 1 0 ()) (76 'santoff' (INTEGER
4) (2 EXPLICIT (CONSTANT (INTEGER 4) 0 '1') (CONSTANT (INTEGER 4) 0 '260')
(CONSTANT (INTEGER 4) 0 '1') (CONSTANT (INTEGER 4) 0 '3')) () 1 0 0 ())
(77 'nrqoff' (INTEGER 4) () () 0 0 0 ()) (78 'grpoff' (INTEGER 4) (1
EXPLICIT (CONSTANT (INTEGER 4) 0 '1') (CONSTANT (INTEGER 4) 0 '260')) ()
1 0 0 ()) (79 'gnroff' (INTEGER 4) (1 EXPLICIT (CONSTANT (INTEGER 4) 0 '1')
(CONSTANT (INTEGER 4) 0 '260')) () 1 0 0 ()) (80 'ncoreq' (INTEGER 4) (
1 EXPLICIT (CONSTANT (INTEGER 4) 0 '1') (CONSTANT (INTEGER 4) 0 '260'))
() 1 0 0 ()) (81 'timoff' (REAL 8) (2 EXPLICIT (CONSTANT (INTEGER 4) 0 '1')
(CONSTANT (INTEGER 4) 0 '2') (CONSTANT (INTEGER 4) 0 '1') (CONSTANT (
INTEGER 4) 0 '260')) () 1 0 0 ())) PUBLIC ())
11 'pargcc' '' 23 ((VARIABLE UNKNOWN UNKNOWN UNKNOWN NONE NONE DUMMY) (
DERIVED 82) 0 0 () () () '' () ())
82 't_pargcc' 'p_addneq' 23 ((DERIVED UNKNOWN UNKNOWN UNKNOWN NONE NONE)
(UNKNOWN) 0 0 () () () '' ((83 'ngcc' (INTEGER 4) () () 0 0 0 ()) (84
'gcc' (INTEGER 4) (1 EXPLICIT (CONSTANT (INTEGER 4) 0 '1') (CONSTANT (
INTEGER 4) 0 '3')) () 1 0 0 ())) PUBLIC ())
10 'parorb' '' 23 ((VARIABLE UNKNOWN UNKNOWN UNKNOWN NONE NONE DUMMY) (
DERIVED 85) 0 0 () () () '' () ())
85 't_parorb' 'p_addneq' 23 ((DERIVED UNKNOWN UNKNOWN UNKNOWN NONE NONE)
(UNKNOWN) 0 0 () () () '' ((86 'norb' (INTEGER 4) () () 0 0 0 ()) (87
'seqorb' (INTEGER 4) (1 EXPLICIT (CONSTANT (INTEGER 4) 0 '1') (CONSTANT
(INTEGER 4) 0 '15')) () 1 0 0 ()) (88 'epoorb' (REAL 8) (1 DEFERRED () ())
() 1 1 0 ())) PUBLIC ())
9 'limits' '' 23 ((VARIABLE UNKNOWN UNKNOWN UNKNOWN NONE NONE DIMENSION
DUMMY) (DERIVED 89) 0 0 () (1 ASSUMED_SHAPE () ()) () '' () ())
89 't_timint' 'm_time' 23 ((DERIVED UNKNOWN UNKNOWN UNKNOWN NONE NONE) (
UNKNOWN) 0 0 () () () '' ((90 't' (REAL 8) (1 EXPLICIT (CONSTANT (
INTEGER 4) 0 '1') (CONSTANT (INTEGER 4) 0 '2')) () 1 0 0 ())) PUBLIC ())
8 'clklist' '' 23 ((VARIABLE UNKNOWN UNKNOWN UNKNOWN NONE NONE DIMENSION
POINTER DUMMY) (CHARACTER 1 (())) 0 0 () (2 DEFERRED () () () ()) () ''
() ())
7 'namlist' '' 23 ((VARIABLE UNKNOWN UNKNOWN UNKNOWN NONE NONE DIMENSION
DUMMY) (DERIVED 91) 0 0 () (1 ASSUMED_SHAPE () ()) () '' () ())
91 't_namlst' 'p_addneq' 23 ((DERIVED UNKNOWN UNKNOWN UNKNOWN NONE NONE)
(UNKNOWN) 0 0 () () () '' ((92 'nsta' (INTEGER 4) () () 0 0 0 ()) (93
'nam2' (CHARACTER 1 ((CONSTANT (INTEGER 4) 0 '20'))) (1 DEFERRED () ())
() 1 1 0 ()) (94 'nam' (CHARACTER 1 ((CONSTANT (INTEGER 4) 0 '16'))) (1
DEFERRED () ()) () 1 1 0 ()) (95 'num' (INTEGER 4) (1 DEFERRED () ()) ()
1 1 0 ())) PUBLIC ())
6 'orbfil' '' 23 ((VARIABLE UNKNOWN UNKNOWN UNKNOWN NONE NONE DIMENSION
DUMMY) (CHARACTER 1 (())) 0 0 () (2 ASSUMED_SHAPE () () () ()) () '' ()
())
5 'neqfilename' '' 23 ((VARIABLE UNKNOWN UNKNOWN UNKNOWN NONE NONE
DIMENSION DUMMY) (CHARACTER 1 (())) 0 0 () (1 ASSUMED_SHAPE () ()) () ''
() ())
4 'iprt' '' 23 ((VARIABLE UNKNOWN UNKNOWN UNKNOWN NONE NONE DUMMY) (
INTEGER 4) 0 0 () () () '' () ())
)

('s_staneq' 0 2 'staneq' 0 3)
