G95 module created on Thu Jun 25 17:48:19 2020 from ./.fpp/TRUEARTH.f90
If you edit this, you'll get what you deserve.
module-version 9
(() () () () () () () () () () () () () () () () () () () () ())

()

()

()

()

(2 's_truearth' 's_truearth' 1 ((MODULE UNKNOWN UNKNOWN UNKNOWN NONE
NONE) (UNKNOWN) 0 0 () () () '' () ())
3 'truearth' 's_truearth' 1 ((PROCEDURE UNKNOWN MODULE-PROC DECL NONE
NONE SUBROUTINE) (PROCEDURE 0) 0 0 (4 NONE 5 NONE 6 NONE 7 NONE 8 NONE 9
NONE 10 NONE) () () '' () ())
10 'ypol' '' 11 ((VARIABLE UNKNOWN UNKNOWN UNKNOWN NONE NONE DUMMY) (
REAL 8) 0 0 () () () '' () ())
9 'xpol' '' 11 ((VARIABLE UNKNOWN UNKNOWN UNKNOWN NONE NONE DUMMY) (
REAL 8) 0 0 () () () '' () ())
8 'sz' '' 11 ((VARIABLE UNKNOWN UNKNOWN UNKNOWN NONE NONE DUMMY) (REAL 8)
0 0 () () () '' () ())
7 'ider' '' 11 ((VARIABLE UNKNOWN UNKNOWN UNKNOWN NONE NONE DUMMY) (
INTEGER 4) 0 0 () () () '' () ())
6 'idir' '' 11 ((VARIABLE UNKNOWN UNKNOWN UNKNOWN NONE NONE DUMMY) (
INTEGER 4) 0 0 () () () '' () ())
5 'xleoout' '' 11 ((VARIABLE UNKNOWN UNKNOWN UNKNOWN NONE NONE DIMENSION
DUMMY) (REAL 8) 0 0 () (1 ASSUMED_SIZE (CONSTANT (INTEGER 4) 0 '1') ())
() '' () ())
4 'xleo' '' 11 ((VARIABLE UNKNOWN UNKNOWN UNKNOWN NONE NONE DIMENSION
DUMMY) (REAL 8) 0 0 () (1 ASSUMED_SIZE (CONSTANT (INTEGER 4) 0 '1') ())
() '' () ())
)

('s_truearth' 0 2 'truearth' 0 3)
