G95 module created on Thu Jun 25 17:50:12 2020 from ./.fpp/WRITECC.f90
If you edit this, you'll get what you deserve.
module-version 9
(() () () () () () () () () () () () () () () () () () () () ())

()

()

()

()

(2 's_writecc' 's_writecc' 1 ((MODULE UNKNOWN UNKNOWN UNKNOWN NONE NONE)
(UNKNOWN) 0 0 () () () '' () ())
3 'writecc' 's_writecc' 1 ((PROCEDURE UNKNOWN MODULE-PROC DECL NONE NONE
SUBROUTINE) (PROCEDURE 0) 0 0 (4 NONE 5 NONE) () () '' () ())
5 'eccent' '' 6 ((VARIABLE UNKNOWN UNKNOWN UNKNOWN NONE NONE DUMMY) (
DERIVED 7) 0 0 () () () '' () ())
7 't_eccent' 'd_eccent' 6 ((DERIVED UNKNOWN UNKNOWN UNKNOWN NONE NONE) (
UNKNOWN) 0 0 () () () '' ((8 'title' (CHARACTER 1 ((CONSTANT (INTEGER 4)
0 '80'))) () () 0 0 0 ()) (9 'ecctyp' (INTEGER 4) () () 0 0 0 ()) (10
'datum' (DERIVED 11) () () 0 0 0 ()) (12 'necc' (INTEGER 4) () () 0 0 0
()) (13 'ecc' (DERIVED 14) (1 DEFERRED () ()) () 1 1 0 ())) PUBLIC ())
14 't_ecc' 'd_eccent' 6 ((DERIVED UNKNOWN UNKNOWN UNKNOWN NONE NONE) (
UNKNOWN) 0 0 () () () '' ((15 'stanum' (INTEGER 4) () () 0 0 0 ()) (16
'stanam' (CHARACTER 1 ((CONSTANT (INTEGER 4) 0 '16'))) () () 0 0 0 ()) (
17 'cennam' (CHARACTER 1 ((CONSTANT (INTEGER 4) 0 '16'))) () () 0 0 0 ())
(18 'xeccen' (REAL 8) (1 EXPLICIT (CONSTANT (INTEGER 4) 0 '1') (
CONSTANT (INTEGER 4) 0 '3')) () 1 0 0 ())) PUBLIC ())
11 't_datum' 'd_datum' 6 ((DERIVED UNKNOWN UNKNOWN UNKNOWN NONE NONE) (
UNKNOWN) 0 0 () () () '' ((19 'name' (CHARACTER 1 ((CONSTANT (INTEGER 4)
0 '16'))) () () 0 0 0 ()) (20 'aell' (REAL 8) () () 0 0 0 ()) (21 'bell'
(REAL 8) () () 0 0 0 ()) (22 'dxell' (REAL 8) (1 EXPLICIT (CONSTANT (
INTEGER 4) 0 '1') (CONSTANT (INTEGER 4) 0 '3')) () 1 0 0 ()) (23 'drell'
(REAL 8) (1 EXPLICIT (CONSTANT (INTEGER 4) 0 '1') (CONSTANT (INTEGER 4)
0 '3')) () 1 0 0 ()) (24 'scell' (REAL 8) () () 0 0 0 ()) (25 'type' (
CHARACTER 1 ((CONSTANT (INTEGER 4) 0 '16'))) () () 0 0 0 ())) PUBLIC ())
4 'eccfil' '' 6 ((VARIABLE UNKNOWN UNKNOWN UNKNOWN NONE NONE DUMMY) (
CHARACTER 1 (())) 0 0 () () () '' () ())
)

('s_writecc' 0 2 'writecc' 0 3)
