G95 module created on Thu Jun 25 17:50:15 2020 from ./.fpp/WRITABB.f90
If you edit this, you'll get what you deserve.
module-version 9
(() () () () () () () () () () () () () () () () () () () () ())

()

()

()

()

(2 's_writabb' 's_writabb' 1 ((MODULE UNKNOWN UNKNOWN UNKNOWN NONE NONE)
(UNKNOWN) 0 0 () () () '' () ())
3 'writabb' 's_writabb' 1 ((PROCEDURE UNKNOWN MODULE-PROC DECL NONE NONE
SUBROUTINE) (PROCEDURE 0) 0 0 (4 NONE 5 NONE) () () '' () ())
5 'abbrev' '' 6 ((VARIABLE UNKNOWN UNKNOWN UNKNOWN NONE NONE DUMMY) (
DERIVED 7) 0 0 () () () '' () ())
7 't_abbrev' 'd_abbrev' 6 ((DERIVED UNKNOWN UNKNOWN UNKNOWN NONE NONE) (
UNKNOWN) 0 0 () () () '' ((8 'title' (CHARACTER 1 ((CONSTANT (INTEGER 4)
0 '255'))) () () 0 0 0 ()) (9 'nabb' (INTEGER 4) () () 0 0 0 ()) (10 'abb'
(DERIVED 11) (1 DEFERRED () ()) () 1 1 0 ())) PUBLIC ())
11 't_abbsta' 'd_abbrev' 6 ((DERIVED UNKNOWN UNKNOWN UNKNOWN NONE NONE)
(UNKNOWN) 0 0 () () () '' ((12 'stanam' (CHARACTER 1 ((CONSTANT (
INTEGER 4) 0 '16'))) () () 0 0 0 ()) (13 'staab4' (CHARACTER 1 ((
CONSTANT (INTEGER 4) 0 '4'))) () () 0 0 0 ()) (14 'staab2' (CHARACTER 1
((CONSTANT (INTEGER 4) 0 '2'))) () () 0 0 0 ()) (15 'remark' (CHARACTER
1 ((CONSTANT (INTEGER 4) 0 '39'))) () () 0 0 0 ())) PUBLIC ())
4 'abbfil' '' 6 ((VARIABLE UNKNOWN UNKNOWN UNKNOWN NONE NONE DUMMY) (
CHARACTER 1 (())) 0 0 () () () '' () ())
)

('s_writabb' 0 2 'writabb' 0 3)
