G95 module created on Thu Jun 25 17:50:45 2020 from ./.fpp/WTBIASSNX.f90
If you edit this, you'll get what you deserve.
module-version 9
(() () () () () () () () () () () () () () () () () () () () ())

()

()

()

()

(2 's_wtbiassnx' 's_wtbiassnx' 1 ((MODULE UNKNOWN UNKNOWN UNKNOWN NONE
NONE) (UNKNOWN) 0 0 () () () '' () ())
3 'wtbiassnx' 's_wtbiassnx' 1 ((PROCEDURE UNKNOWN MODULE-PROC DECL NONE
NONE SUBROUTINE) (PROCEDURE 0) 0 0 (4 NONE 5 NONE) () () '' () ())
5 'nsmpnq' '' 6 ((VARIABLE UNKNOWN UNKNOWN UNKNOWN NONE NONE DUMMY) (
INTEGER 4) 0 0 () () () '' () ())
4 'dcbfil' '' 6 ((VARIABLE UNKNOWN UNKNOWN UNKNOWN NONE NONE DUMMY) (
DERIVED 7) 0 0 () () () '' () ())
7 't_dcbfil' 'd_dcbfil' 6 ((DERIVED UNKNOWN UNKNOWN UNKNOWN NONE NONE) (
UNKNOWN) 0 0 () () () '' ((8 'fmt' (REAL 8) () () 0 0 0 ()) (9 'title' (
CHARACTER 1 ((CONSTANT (INTEGER 4) 0 '80'))) () () 0 0 0 ()) (10 'nval'
(INTEGER 4) () () 0 0 0 ()) (11 'dcblst' (DERIVED 12) (1 DEFERRED () ())
() 1 1 0 ())) PUBLIC ())
12 't_dcbval' 'd_dcbfil' 6 ((DERIVED UNKNOWN UNKNOWN UNKNOWN NONE NONE)
(UNKNOWN) 0 0 () () () '' ((13 'svn' (INTEGER 4) () () 0 0 0 ()) (14
'stanam' (CHARACTER 1 ((CONSTANT (INTEGER 4) 0 '20'))) () () 0 0 0 ()) (
15 'sys' (CHARACTER 1 ((CONSTANT (INTEGER 4) 0 '1'))) () () 0 0 0 ()) (
16 'typ' (INTEGER 4) () () 0 0 0 ()) (17 'dcbval' (REAL 8) () () 0 0 0 ())
(18 'dcbrms' (REAL 8) () () 0 0 0 ()) (19 'flg' (CHARACTER 1 ((CONSTANT
(INTEGER 4) 0 '4'))) () () 0 0 0 ()) (20 'tim' (DERIVED 21) () () 0 0 0
()) (22 'rem' (CHARACTER 1 ((CONSTANT (INTEGER 4) 0 '20'))) () () 0 0 0
()) (23 'obstyp' (CHARACTER 1 ((CONSTANT (INTEGER 4) 0 '3'))) (1
EXPLICIT (CONSTANT (INTEGER 4) 0 '1') (CONSTANT (INTEGER 4) 0 '2')) () 1
0 0 ())) PUBLIC ())
21 't_timint' 'm_time' 6 ((DERIVED UNKNOWN UNKNOWN UNKNOWN NONE NONE) (
UNKNOWN) 0 0 () () () '' ((24 't' (REAL 8) (1 EXPLICIT (CONSTANT (
INTEGER 4) 0 '1') (CONSTANT (INTEGER 4) 0 '2')) () 1 0 0 ())) PUBLIC ())
)

('s_wtbiassnx' 0 2 'wtbiassnx' 0 3)
