
PCFFILRS     1  "/scratch3/GPC_2021/bernese_gpc21/GPSUSER52/PCF/RNX2SNX.PCF"
  ## widget = comment

MSG_PCFFILRS 1  "Filename"

LIST_OF_SCRIPTS    42
  "101" "POLUPDH" "R2S_GEN" "" "ANY" "1" "" "" "" "" "" "" "" "" "" ""
  "111" "ORBMRGH" "R2S_GEN" "" "ANY" "1" "101" "" "" "" "" "" "" "" "" ""
  "112" "PRETAB" "R2S_GEN" "" "ANY" "1" "101" "111" "" "" "" "" "" "" "" ""
  "113" "ORBGENH" "R2S_GEN" "" "ANY" "1" "112" "" "" "" "" "" "" "" "" ""
  "199" "DUMMY" "NO_OPT" "" "ANY" "1" "113" "" "" "" "" "" "" "" "" ""
  "201" "RNXGRA" "R2S_GEN" "" "ANY" "1" "199" "" "" "" "" "" "" "" "" ""
  "211" "RNXSMTAP" "R2S_GEN" "" "ANY" "1" "201" "" "" "" "" "" "" "" "" ""
  "212" "RNXSMT_H" "R2S_GEN" "" "ANY" "1" "211" "" "" "" "" "" "" "" "" ""
  "221" "RXOBV3AP" "R2S_GEN" "" "ANY" "1" "212" "" "" "" "" "" "" "" "" ""
  "222" "RXOBV3_H" "R2S_GEN" "" "ANY" "1" "221" "" "" "" "" "" "" "" "" ""
  "231" "CODSPPAP" "R2S_GEN" "" "ANY" "1" "199" "222" "" "" "" "" "" "" "" ""
  "232" "CODSPP_P" "R2S_GEN" "" "ANY" "1" "231" "" "" "" "" "" "" "" "" ""
  "233" "CODXTR" "R2S_GEN" "" "ANY" "1" "232" "" "" "" "" "" "" "" "" ""
  "299" "DUMMY" "NO_OPT" "" "ANY" "1" "233" "" "" "" "" "" "" "" "" ""
  "301" "INIT_BSL" "R2S_GEN" "" "ANY" "1" "299" "" "" "" "" "" "" "" "" ""
  "302" "SNGDIF" "R2S_GEN" "" "ANY" "1" "301" "" "" "" "" "" "" "" "" ""
  "303" "SNGDIF" "R2S_GE2" "" "ANY" "1" "302" "" "" "" "" "" "" "" "" ""
  "311" "MAUPRPAP" "R2S_GEN" "" "ANY" "1" "302" "" "" "" "" "" "" "" "" ""
  "312" "MAUPRP_P" "R2S_GEN" "" "ANY" "1" "311" "" "" "" "" "" "" "" "" ""
  "313" "MPRXTR" "R2S_GEN" "" "ANY" "1" "312" "" "" "" "" "" "" "" "" ""
  "321" "GPSEDTAP" "R2S_EDT" "" "ANY" "1" "313" "" "" "" "" "" "" "" "" ""
  "322" "GPSEDT_P" "R2S_EDT" "" "ANY" "1" "321" "" "" "" "" "" "" "" "" ""
  "323" "GPSXTR" "R2S_EDT" "" "ANY" "1" "322" "" "" "" "" "" "" "" "" ""
  "331" "RES_SUM" "R2S_GEN" "" "ANY" "1" "322" "" "" "" "" "" "" "" "" ""
  "341" "ADDNEQ2" "R2S_GEN" "" "ANY" "1" "331" "" "" "" "" "" "" "" "" ""
  "342" "GPSXTR" "R2S_GEN" "" "ANY" "1" "341" "" "" "" "" "" "" "" "" ""
  "399" "DUMMY" "NO_OPT" "" "ANY" "1" "303" "323" "342" "" "" "" "" "" "" ""
  "401" "SATMRK" "R2S_GEN" "" "ANY" "1" "399" "" "" "" "" "" "" "" "" ""
  "411" "GNSAMBAP" "R2S_AMB" "" "ANY" "1" "401" "" "" "" "" "" "" "" "" ""
  "412" "GNSAMB_P" "R2S_AMB" "" "ANY" "1" "411" "" "" "" "" "" "" "" "" ""
  "421" "GNSL53AP" "R2S_L53" "" "ANY" "1" "412" "" "" "" "" "" "" "" "" ""
  "422" "GNSL53_P" "R2S_L53" "" "ANY" "1" "421" "" "" "" "" "" "" "" "" ""
  "431" "GNSQIFAP" "R2S_QIF" "" "ANY" "1" "422" "" "" "" "" "" "" "" "" ""
  "432" "GNSQIF_P" "R2S_QIF" "" "ANY" "1" "431" "" "" "" "" "" "" "" "" ""
  "441" "GNSL12AP" "R2S_L12" "" "ANY" "1" "432" "" "" "" "" "" "" "" "" ""
  "442" "GNSL12_P" "R2S_L12" "" "ANY" "1" "441" "" "" "" "" "" "" "" "" ""
  "443" "AMBXTR" "R2S_AMB" "" "ANY" "1" "442" "" "" "" "" "" "" "" "" ""
  "499" "DUMMY" "NO_OPT" "" "ANY" "1" "443" "" "" "" "" "" "" "" "" ""
  "501" "GPSCLUAP" "R2S_FIN" "" "ANY" "1" "499" "" "" "" "" "" "" "" "" ""
  "502" "GPSCLU_P" "R2S_FIN" "" "ANY" "1" "501" "" "" "" "" "" "" "" "" ""
  "511" "ADDNEQ2" "R2S_FIN" "" "ANY" "1" "502" "" "" "" "" "" "" "" "" ""
  "999" "DUMMY" "NO_OPT" "" "ANY" "1" "511" "" "" "" "" "" "" "" "" ""
  ## widget = uniline; check_type.1 = integer; check_min.1 = 0
  ## check_max.1 = 999; check_strlen.2 = 8; check_strlen.3 = 8
  ## check_strlen.4 = 8; check_strlen.5 = 8; check_strlen.6 = 1
  ## check_type.7 = integer; check_min.7 = 0; check_max.7 = 999
  ## check_type.8 = integer; check_min.8 = 0; check_max.8 = 999
  ## check_type.9 = integer; check_min.9 = 0; check_max.9 = 999
  ## check_type.10 = integer; check_min.10 = 0; check_max.10 = 999
  ## check_type.11 = integer; check_min.11 = 0; check_max.11 = 999
  ## check_type.12 = integer; check_min.12 = 0; check_max.12 = 999
  ## check_type.13 = integer; check_min.13 = 0; check_max.13 = 999
  ## check_type.14 = integer; check_min.14 = 0; check_max.14 = 999
  ## check_type.15 = integer; check_min.15 = 0; check_max.15 = 999
  ## check_type.16 = integer; check_min.16 = 0; check_max.16 = 999
  ## numlines = 15

MSG_LIST_OF_SCRIPTS 1  "List of BPE scripts"

SPECIALS    42
  "101" "POLUPDH" "R2S_GEN" "" "" "" "" "" "" "" "" "" "" ""
  "111" "ORBMRGH" "R2S_GEN" "" "" "" "" "" "" "" "" "" "" ""
  "112" "PRETAB" "R2S_GEN" "" "" "" "" "" "" "" "" "" "" ""
  "113" "ORBGENH" "R2S_GEN" "" "" "" "" "" "" "" "" "" "" ""
  "199" "DUMMY" "NO_OPT" "" "" "" "" "" "" "" "" "" "" ""
  "201" "RNXGRA" "R2S_GEN" "" "" "" "" "" "" "" "" "" "" ""
  "211" "RNXSMTAP" "R2S_GEN" "" "" "" "" "" "" "" "" "" "" ""
  "212" "RNXSMT_H" "R2S_GEN" "PARALLEL" "$211" "211" "" "" "" "" "" "" "" ""
  "221" "RXOBV3AP" "R2S_GEN" "" "" "" "" "" "" "" "" "" "" ""
  "222" "RXOBV3_H" "R2S_GEN" "PARALLEL" "$221" "221" "" "" "" "" "" "" "" ""
  "231" "CODSPPAP" "R2S_GEN" "" "" "" "" "" "" "" "" "" "" ""
  "232" "CODSPP_P" "R2S_GEN" "PARALLEL" "$231" "231" "" "" "" "" "" "" "" ""
  "233" "CODXTR" "R2S_GEN" "" "" "" "" "" "" "" "" "" "" ""
  "299" "DUMMY" "NO_OPT" "" "" "" "" "" "" "" "" "" "" ""
  "301" "INIT_BSL" "R2S_GEN" "" "" "" "" "" "" "" "" "" "" ""
  "302" "SNGDIF" "R2S_GEN" "" "" "" "" "" "" "" "" "" "" ""
  "303" "SNGDIF" "R2S_GE2" "" "" "" "" "" "" "" "" "" "" ""
  "311" "MAUPRPAP" "R2S_GEN" "" "" "" "" "" "" "" "" "" "" ""
  "312" "MAUPRP_P" "R2S_GEN" "PARALLEL" "$311" "311" "" "" "" "" "" "" "" ""
  "313" "MPRXTR" "R2S_GEN" "" "" "" "" "" "" "" "" "" "" ""
  "321" "GPSEDTAP" "R2S_EDT" "" "" "" "" "" "" "" "" "" "" ""
  "322" "GPSEDT_P" "R2S_EDT" "PARALLEL" "$321" "321" "" "" "" "" "" "" "" ""
  "323" "GPSXTR" "R2S_EDT" "" "" "" "" "" "" "" "" "" "" ""
  "331" "RES_SUM" "R2S_GEN" "NEXTJOB" "" "" "301" "" "" "" "" "" "" ""
  "341" "ADDNEQ2" "R2S_GEN" "" "" "" "" "" "" "" "" "" "" ""
  "342" "GPSXTR" "R2S_GEN" "" "" "" "" "" "" "" "" "" "" ""
  "399" "DUMMY" "NO_OPT" "" "" "" "" "" "" "" "" "" "" ""
  "401" "SATMRK" "R2S_GEN" "" "" "" "" "" "" "" "" "" "" ""
  "411" "GNSAMBAP" "R2S_AMB" "" "" "" "" "" "" "" "" "" "" ""
  "412" "GNSAMB_P" "R2S_AMB" "PARALLEL" "$411" "411" "" "" "" "" "" "" "" ""
  "421" "GNSL53AP" "R2S_L53" "" "" "" "" "" "" "" "" "" "" ""
  "422" "GNSL53_P" "R2S_L53" "PARALLEL" "$421" "421" "" "" "" "" "" "" "" ""
  "431" "GNSQIFAP" "R2S_QIF" "" "" "" "" "" "" "" "" "" "" ""
  "432" "GNSQIF_P" "R2S_QIF" "PARALLEL" "$431" "431" "" "" "" "" "" "" "" ""
  "441" "GNSL12AP" "R2S_L12" "" "" "" "" "" "" "" "" "" "" ""
  "442" "GNSL12_P" "R2S_L12" "PARALLEL" "$441" "441" "" "" "" "" "" "" "" ""
  "443" "AMBXTR" "R2S_AMB" "" "" "" "" "" "" "" "" "" "" ""
  "499" "DUMMY" "NO_OPT" "" "" "" "" "" "" "" "" "" "" ""
  "501" "GPSCLUAP" "R2S_FIN" "" "" "" "" "" "" "" "" "" "" ""
  "502" "GPSCLU_P" "R2S_FIN" "PARALLEL" "$501" "501" "" "" "" "" "" "" "" ""
  "511" "ADDNEQ2" "R2S_FIN" "" "" "" "" "" "" "" "" "" "" ""
  "999" "DUMMY" "NO_OPT" "" "" "" "" "" "" "" "" "" "" ""
  ## widget = uniline; menuaux = MENUAUX; action = PCF_SPECIALS
  ## updateifsave = true; menuauxkeys = LIST_OF_SCRIPTS SPECIALS
  ## check_strlen.5 = 8; check_type.6 = integer; check_min.6 = 0
  ## check_max.6 = 999; check_type.7 = integer; check_min.7 = 0
  ## check_max.7 = 999; check_type.8 = integer; check_min.8 = 0
  ## check_max.8 = 999; check_type.9 = integer; check_min.9 = 0
  ## check_max.9 = 999; check_type.10 = integer; check_min.10 = 0
  ## check_max.10 = 999; check_type.11 = integer; check_min.11 = 0
  ## check_max.11 = 999; check_type.12 = integer; check_min.12 = 0
  ## check_max.12 = 999; check_type.13 = integer; check_min.13 = 0
  ## check_max.13 = 999; check_type.14 = integer; check_min.14 = 0
  ## check_max.14 = 999; editable.1 = false; editable.2 = false
  ## editable.3 = false; editable = false; numlines = 15
  ## keepvariables = true

MSG_SPECIALS 1  "Special actions for BPE scripts"

PARAMETERS    42
  "101" "POLUPDH" "R2S_GEN" "" "" "" "" "" "" "" "" ""
  "111" "ORBMRGH" "R2S_GEN" "" "" "" "" "" "" "" "" ""
  "112" "PRETAB" "R2S_GEN" "" "" "" "" "" "" "" "" ""
  "113" "ORBGENH" "R2S_GEN" "" "" "" "" "" "" "" "" ""
  "199" "DUMMY" "NO_OPT" "" "" "" "" "" "" "" "" ""
  "201" "RNXGRA" "R2S_GEN" "" "" "" "" "" "" "" "" ""
  "211" "RNXSMTAP" "R2S_GEN" "#$211#" "" "" "" "" "" "" "" ""
  "212" "RNXSMT_H" "R2S_GEN" "#PARALLEL#" "#$211#" "##" "##" "##" "##" "##" "##" "##"
  "221" "RXOBV3AP" "R2S_GEN" "#$221#" "" "" "" "" "" "" "" ""
  "222" "RXOBV3_H" "R2S_GEN" "#PARALLEL#" "#$221#" "##" "##" "##" "##" "##" "##" "##"
  "231" "CODSPPAP" "R2S_GEN" "#$231#" "" "" "" "" "" "" "" ""
  "232" "CODSPP_P" "R2S_GEN" "#PARALLEL#" "#$231#" "##" "##" "##" "##" "##" "##" "##"
  "233" "CODXTR" "R2S_GEN" "" "" "" "" "" "" "" "" ""
  "299" "DUMMY" "NO_OPT" "" "" "" "" "" "" "" "" ""
  "301" "INIT_BSL" "R2S_GEN" "" "" "" "" "" "" "" "" ""
  "302" "SNGDIF" "R2S_GEN" "" "" "" "" "" "" "" "" ""
  "303" "SNGDIF" "R2S_GE2" "" "" "" "" "" "" "" "" ""
  "311" "MAUPRPAP" "R2S_GEN" "#$311#" "" "" "" "" "" "" "" ""
  "312" "MAUPRP_P" "R2S_GEN" "#PARALLEL#" "#$311#" "##" "##" "##" "##" "##" "##" "##"
  "313" "MPRXTR" "R2S_GEN" "" "" "" "" "" "" "" "" ""
  "321" "GPSEDTAP" "R2S_EDT" "#$321#" "V_C" "" "" "" "" "" "" ""
  "322" "GPSEDT_P" "R2S_EDT" "#PARALLEL#" "#$321#" "##" "##" "##" "##" "##" "##" "##"
  "323" "GPSXTR" "R2S_EDT" "" "" "" "" "" "" "" "" ""
  "331" "RES_SUM" "R2S_GEN" "#NEXTJOB#" "#301#" "" "" "" "" "" "" ""
  "341" "ADDNEQ2" "R2S_GEN" "" "" "" "" "" "" "" "" ""
  "342" "GPSXTR" "R2S_GEN" "" "" "" "" "" "" "" "" ""
  "399" "DUMMY" "NO_OPT" "" "" "" "" "" "" "" "" ""
  "401" "SATMRK" "R2S_GEN" "" "" "" "" "" "" "" "" ""
  "411" "GNSAMBAP" "R2S_AMB" "#$411#" "" "" "" "" "" "" "" ""
  "412" "GNSAMB_P" "R2S_AMB" "#PARALLEL#" "#$411#" "##" "##" "##" "##" "##" "##" "##"
  "421" "GNSL53AP" "R2S_L53" "#$421#" "" "" "" "" "" "" "" ""
  "422" "GNSL53_P" "R2S_L53" "#PARALLEL#" "#$421#" "##" "##" "##" "##" "##" "##" "##"
  "431" "GNSQIFAP" "R2S_QIF" "#$431#" "" "" "" "" "" "" "" ""
  "432" "GNSQIF_P" "R2S_QIF" "#PARALLEL#" "#$431#" "##" "##" "##" "##" "##" "##" "##"
  "441" "GNSL12AP" "R2S_L12" "#$441#" "" "" "" "" "" "" "" ""
  "442" "GNSL12_P" "R2S_L12" "#PARALLEL#" "#$441#" "##" "##" "##" "##" "##" "##" "##"
  "443" "AMBXTR" "R2S_AMB" "" "" "" "" "" "" "" "" ""
  "499" "DUMMY" "NO_OPT" "" "" "" "" "" "" "" "" ""
  "501" "GPSCLUAP" "R2S_FIN" "#$501#" "" "" "" "" "" "" "" ""
  "502" "GPSCLU_P" "R2S_FIN" "#PARALLEL#" "#$501#" "##" "##" "##" "##" "##" "##" "##"
  "511" "ADDNEQ2" "R2S_FIN" "" "" "" "" "" "" "" "" ""
  "999" "DUMMY" "NO_OPT" "" "" "" "" "" "" "" "" ""
  ## widget = uniline; menuaux = MENUAUX; action = PCF_PARAMS
  ## updateifsave = true; menuauxkeys = LIST_OF_SCRIPTS SPECIALS PARAMETERS
  ## check_strlen.4 = 8; check_strlen.5 = 8; check_strlen.6 = 8
  ## check_strlen.7 = 8; check_strlen.8 = 8; check_strlen.9 = 8
  ## check_strlen.10 = 8; check_strlen.11 = 8; check_strlen.12 = 8
  ## editable.1 = false; editable.2 = false; editable.3 = false
  ## numlines = 15; keepvariables = true

MSG_PARAMETERS 1  "Parameters for BPE scripts"

PCF_VARIABLES    35
  "V_A" "APR" "A priori information"
  "V_B" "COD" "Orbit/ERP, DCB, CLK information"
  "V_C" "P1_" "Preliminary (ambiguity-float) results"
  "V_E" "F1_" "Final (ambiguity-fixed) results"
  "V_F" "R1_" "Size-reduced NEQ information"
  "V_RNXDIR" "RINEX" "Directory with the RINEX files"
  "V_OBSSEL" "" "Station selection file (blank: all)"
  "V_REFDIR" "REF52" "Directory with basic Bernese files"
  "V_REFINF" "IGB08" "Master/reference CRD/VEL filename"
  "V_CRDINF" "GPC_2021" "Merged CRD/VEL filename"
  "V_CRXINF" "" "Accepted station inform. inconsistencies"
  "V_BLQINF" "GPC_2021" "BLQ FILE NAME, CMC CORRECTIONS"
  "V_ATLINF" "GPC_2021" "ATL FILE NAME, CMC CORRECTIONS"
  "V_HOIFIL" "" "Ionosphere model for higher order iono"
  "V_RESULT" "RNX2SNX" "Directory name for the RNX2SNX results"
  "V_SATSYS" "GPS/GLO" "Select the GNSS (GPS, GPS/GLO)"
  "V_SAMPL" "180" "Sampling of the solutions"
  "V_GNSSAR" "ALL" "GNSS to be used for ambiguity resolution"
  "V_BL_AMB" "6000" "Maximum baseline length for MW/L3 AR"
  "V_BL_QIF" "2000" "Maximum baseline length for QIF AR"
  "V_BL_L53" "200" "Maximum baseline length for L5/L3 AR"
  "V_BL_L12" "20" "Maximum baseline length for L1&L2 AR"
  "V_HOURLY" "8" "Number of hourly sessions proc. together"
  "V_MYATX" "" "ANTEX file for update (name incl. ext)"
  "V_PCV" "I08" "Absolute/relative PCV model"
  "V_SATINF" "SATELLIT" "Satellite information file"
  "V_PCVINF" "PCV" "PCV information file"
  "V_SATCRX" "SAT_$Y+0" "Satellite problem file"
  "V_CLU" "7" "Maximum number of files per cluster"
  "V_CLUEDT" "5" "Same as V_CLU but for GPSEDT"
  "V_CLUFIN" "N" "N: to skip clustering in GPSCLU"
  "V_MINUS" "-6" "Session range begin (for COMPAR)"
  "V_PLUS" "+0" "Session range end"
  "V_SAV" "Y" "Save results?"
  "V_DEL" "Y" "Delete results?"
  ## widget = uniline; check_strlen.1 = 8; check_strlen.2 = 32
  ## check_strlen.3 = 40; numlines = 20; keepvariables = true

MSG_PCF_VARIABLES 1  "BPE variables"

ADDITIONAL_INFO   111
  "0" "-01" "-01" ""
  "0" "-01" "-01" " ============================================================================"
  "0" "-01" "-01" " RNX2SNX.PCF"
  "0" "-01" "-01" " ============================================================================"
  "0" "-01" "-01" ""
  "0" "-01" "-01" " Purpose:      RINEX-TO-SINEX (RNX2SNX): standard double difference"
  "0" "-01" "-01" "               processing for regional networks for static, dual-frequency"
  "0" "-01" "-01" "               stations."
  "0" "-01" "-01" ""
  "0" "-01" "-01" "               The purpose of this BPE is to compute station coordinates"
  "0" "-01" "-01" "               and troposphere parameters for all included stations in"
  "0" "-01" "-01" "               a given reference frame using the translation conditions"
  "0" "-01" "-01" "               from a minimum constraint solution. In addition normal"
  "0" "-01" "-01" "               equation files are generated."
  "0" "-01" "-01" ""
  "0" "-01" "-01" " ----------------------------------------------------------------------------"
  "0" "-01" "-01" ""
  "0" "-01" "-01" " A description of the BPE, the use of the BPE server variables, input and"
  "0" "-01" "-01" " output files as well as the important points to be checked in the processing"
  "0" "-01" "-01" " summary are provided in"
  "0" "-01" "-01" "               ${U}/PCF/RNX2SNX.README    (UNIX/Linux)"
  "0" "-01" "-01" "                %U%\PCF\RNX2SNX.README    (Windows)"
  "0" "-01" "-01" ""
  "0" "-01" "-01" " ----------------------------------------------------------------------------"
  "0" "-01" "-01" ""
  "0" "-01" "-01" " Author     :  R. Dach"
  "0" "-01" "-01" " Created    :  10-Aug-2011               Last modified: 10-Aug-2011"
  "0" "-01" "-01" ""
  "0" "-01" "-01" " Changes    :"
  "0" "-01" "-01" ""
  "0" "-01" "-01" " ============================================================================"
  "0" "-01" "-01" ""
  "0" "-01" "-01" ""
  "1" "-01" "-01" ""
  "1" "-01" "-01" " Copy required files"
  "1" "-01" "-01" " -------------------"
  "1" "-01" "-01" "001 STACPIH2 NO_OPT            ANY      1"
  "1" "-01" "-01" "002 ATX2PCV  R2S_GEN           ANY      1 001"
  "1" "-01" "-01" "003 COOVEL   R2S_GEN           ANY      1 001"
  "1" "-01" "-01" "004 COOVEL   R2S_GE2           ANY      1 001"
  "1" "-01" "-01" "005 CRDMERGE R2S_GEN           ANY      1 003 004"
  "1" "-01" "-01" "011 RNX_COP  R2S_GEN           ANY      1 001"
  "1" "-01" "-01" "021 OBSMRGAP R2S_GEN           ANY      1 011"
  "1" "-01" "-01" "022 OBSMRG_P R2S_GEN           ANY      1 021"
  "1" "-01" "-01" "031 ION_MRG  R2S_GEN           ANY      1 011"
  "1" "-01" "-01" "099 DUMMY    R2S_GEN           ANY      1 002 005 022 031"
  "1" "-01" "-01" ""
  "1" "-01" "-01" " Prepare the orbits"
  "1" "-01" "101" " ------------------"
  "1" "199" "199" ""
  "1" "199" "199" " Preprocess, convert, and synchronize observation data"
  "1" "199" "201" " -----------------------------------------------------"
  "1" "299" "299" ""
  "1" "299" "299" " Form baselines and pre-process phase data (incl. residual screening)"
  "1" "299" "301" " --------------------------------------------------------------------"
  "1" "399" "399" ""
  "1" "399" "399" " Resolve phase ambiguities"
  "1" "399" "401" " -------------------------"
  "1" "499" "499" ""
  "1" "499" "499" " Compute ambiguity-fixed network solution, create final NEQ/SNX/TRO files"
  "1" "499" "501" " ------------------------------------------------------------------------"
  "1" "511" "511" "512 GPSXTR   R2S_FIN           ANY      1 511"
  "1" "511" "511" "513 COMPARF  R2S_FIN           ANY      1 511"
  "1" "511" "511" "514 HELMCHK  R2S_FIN           ANY      1 511"
  "1" "511" "511" "521 ADDNEQ2  R2S_RED           ANY      1 511"
  "1" "511" "511" "522 GPSXTR   R2S_RED           ANY      1 521"
  "1" "511" "511" "599 DUMMY    NO_OPT            ANY      1 512 513 514 522"
  "1" "511" "511" ""
  "1" "511" "511" " Create summary file and delete files"
  "1" "511" "511" " ------------------------------------"
  "1" "511" "511" "901 R2S_SUM  R2S_GEN           ANY      1 599"
  "1" "511" "511" "902 R2S_SAV  R2S_GEN           ANY      1 901"
  "1" "511" "511" "903 R2S_DEL  R2S_GEN           ANY      1 902"
  "1" "511" "511" "991 BPE_CLN  R2S_GEN           ANY      1 903"
  "1" "511" "511" ""
  "1" "511" "511" " End of BPE"
  "1" "511" "999" " ----------"
  "1" "999" "999" ""
  "1" "999" "999" ""
  "2" "-01" "-01" " Copy required files"
  "2" "-01" "-01" " -------------------"
  "2" "-01" "-01" "011                       NEXTJOB  099"
  "2" "-01" "-01" "021                       $021"
  "2" "-01" "-01" "022                       PARALLEL $021"
  "2" "-01" "-01" ""
  "2" "-01" "-01" " Prepare the orbits"
  "2" "-01" "-01" " ------------------"
  "2" "-01" "-01" " ...."
  "2" "-01" "-01" ""
  "2" "-01" "-01" " Preprocess, convert, and synchronize observation data"
  "2" "-01" "211" " -----------------------------------------------------"
  "2" "232" "232" ""
  "2" "232" "232" " Form baselines and pre-process phase data (incl. residual screening)"
  "2" "232" "311" " --------------------------------------------------------------------"
  "2" "331" "331" ""
  "2" "331" "331" " Resolve phase ambiguities"
  "2" "331" "411" " -------------------------"
  "2" "442" "442" ""
  "2" "442" "442" " Compute ambiguity-fixed network solution, create final NEQ/SNX/TRO files"
  "2" "442" "501" " ------------------------------------------------------------------------"
  "2" "502" "502" "514                       NEXTJOB  511"
  "2" "502" "502" ""
  "2" "502" "502" " Create summary file and delete files"
  "2" "502" "502" " ------------------------------------"
  "2" "502" "502" "903                       (10)"
  "2" "502" "502" ""
  "2" "502" "502" ""
  "3" "-01" "-01" ""
  "3" "-01" "-01" " DO NOT USE V_D, V_J, V_M, V_Y VARIABLES!"
  "3" "-01" "-01" " (they are used already by the menu)"
  "3" "-01" "-01" ""
  ## widget = uniline

FILNAM     1  "/scratch3/GPC_2021/bernese_gpc21/GPSUSER52/PCF/RNX2SNX.PCF"











































# BEGIN_PANEL NO_CONDITION ###################################################################
# EDIT PROCESS CONTROL FILE (PCF) - EDITPCF 1: LIST OF BPE SCRIPTS                           #
#                                                                                            #
#  Filename > %%%%%%%%%%%%%%%%%%%%%%%%%%%%%%%%%%%%%%%%%%%%%%%%%%%%%%%%%%%%%% <               # PCFFILRS
#                                            F: Flags                                        #
#                                               S = Singleton for multi-session processing   #
#                                                                                            #
#                                                            Wait for...                     #
# > PID Script__ Opt_dir_ Campaign CPU_____  F  ___ ___ ___ ___ ___ ___ ___ ___ ___ ___<     # LIST_OF_SCRIPTS
#                                                                                            #
# END_PANEL ##################################################################################


# BEGIN_PANEL NO_CONDITION ##################################################################
# EDITPCF 2: SPECIAL ACTIONS FOR BPE SCRIPTS                                                #
#                        Special actions may be: SKIP, PARALLEL, NEXTJOB, CONT_ERR          #
#                                                                                           #
#                                   (if PARALLEL)          PIDs (if NEXTJOB)                #
# > PID Script__ Opt_dir_ Special_ File____ Master ___ ___ ___ ___ ___ ___ ___ ___<         # SPECIALS
#                                                                                           #
# END_PANEL #################################################################################


# BEGIN_PANEL NO_CONDITION #####################################################################################
# EDITPCF 3: PARAMETERS FOR BPE SCRIPTS                                                                        #
#                        (Available as $$bpe{PARAM1}..$$bpe{PARAM9} in the user scripts)                       #
#                                                                                                              #
#> PID Script__ Opt_dir_ Param1__ Param2__ Param3__ Param4__ Param5__ Param6__ Param7__ Param8__ Param9__<     # PARAMETERS
#                                                                                                              #
# END_PANEL ####################################################################################################


# BEGIN_PANEL NO_CONDITION #####################################################
# EDITPCF 4: BPE SERVER VARIABLES                                              #
#                                                                              #
# > Variable Default_value___ Description_____________________________   <     # PCF_VARIABLES
#                                                                              #
# END_PANEL ####################################################################
