G95 module created on Thu Jun 25 17:42:33 2020 from ./.fpp/D_CLKRNX.f90
If you edit this, you'll get what you deserve.
module-version 9
(() () () () () () () () () () () () () () () () () () () () ())

()

()

()

()

(2 'alcerr' 's_alcerr' 1 ((PROCEDURE UNKNOWN MODULE-PROC DECL NONE NONE
SUBROUTINE INVOKED) (PROCEDURE 0) 0 0 (3 NONE 4 NONE 5 NONE 6 NONE) () ()
'' () ())
7 'clkidx' 'd_clkrnx' 1 ((PROCEDURE UNKNOWN MODULE-PROC DECL NONE NONE
FUNCTION) (INTEGER 4) 0 0 (8 NONE 9 NONE 10 NONE) () () '' () ())
11 'copy_clkhead' 'd_clkrnx' 1 ((PROCEDURE UNKNOWN MODULE-PROC DECL NONE
NONE FUNCTION) (DERIVED 12) 0 0 (13 NONE) () () '' () ())
14 'copy_ref' 'd_clkrnx' 1 ((PROCEDURE UNKNOWN MODULE-PROC DECL NONE
NONE FUNCTION INVOKED) (DERIVED 15) 0 0 (16 NONE) () () '' () ())
17 'd_clkrnx' 'd_clkrnx' 1 ((MODULE UNKNOWN UNKNOWN UNKNOWN NONE NONE) (
UNKNOWN) 0 0 () () () '' () ())
18 'i4b' 'm_bern' 1 ((PARAMETER UNKNOWN UNKNOWN UNKNOWN NONE NONE) (
INTEGER 4) 0 0 () (CONSTANT (INTEGER 4) 0 '4') () () '' () ())
19 'init_clkhead' 'd_clkrnx' 1 ((PROCEDURE UNKNOWN MODULE-PROC DECL NONE
NONE SUBROUTINE) (PROCEDURE 0) 0 0 (20 NONE) () () '' () ())
21 'init_clkrec' 'd_clkrnx' 1 ((PROCEDURE UNKNOWN MODULE-PROC DECL NONE
NONE SUBROUTINE) (PROCEDURE 0) 0 0 (22 NONE) () () '' () ())
23 'init_ref' 'd_clkrnx' 1 ((PROCEDURE UNKNOWN MODULE-PROC DECL NONE
NONE SUBROUTINE INVOKED) (PROCEDURE 0) 0 0 (24 NONE) () () '' () ())
25 'm_bern' 'm_bern' 1 ((MODULE UNKNOWN UNKNOWN UNKNOWN NONE NONE) (
UNKNOWN) 0 0 () () () '' () ())
26 'm_time' 'm_time' 1 ((MODULE UNKNOWN UNKNOWN UNKNOWN NONE NONE) (
UNKNOWN) 0 0 () () () '' () ())
27 'r8b' 'm_bern' 1 ((PARAMETER UNKNOWN UNKNOWN UNKNOWN NONE NONE) (
INTEGER 4) 0 0 () (CONSTANT (INTEGER 4) 0 '8') () () '' () ())
28 's_alcerr' 's_alcerr' 1 ((MODULE UNKNOWN UNKNOWN UNKNOWN NONE NONE) (
UNKNOWN) 0 0 () () () '' () ())
29 's_svn2chr' 's_svn2chr' 1 ((MODULE UNKNOWN UNKNOWN UNKNOWN NONE NONE)
(UNKNOWN) 0 0 () () () '' () ())
30 'stanamelength' 'm_bern' 1 ((PARAMETER UNKNOWN UNKNOWN UNKNOWN NONE
NONE) (INTEGER 4) 0 0 () (CONSTANT (INTEGER 4) 0 '16') () () '' () ())
31 'svn2chr' 's_svn2chr' 1 ((PROCEDURE UNKNOWN MODULE-PROC DECL NONE
NONE SUBROUTINE INVOKED) (PROCEDURE 0) 0 0 (32 NONE 33 NONE 34 NONE) ()
() '' () ())
12 't_clkhead' 'd_clkrnx' 1 ((DERIVED UNKNOWN UNKNOWN UNKNOWN NONE NONE)
(UNKNOWN) 0 0 () () () '' ((35 'rnxvers' (REAL 8) () () 0 0 0 ()) (36
'ncomment' (INTEGER 4) () () 0 0 0 ()) (37 'comment' (CHARACTER 1 ((
CONSTANT (INTEGER 4) 0 '60'))) (1 DEFERRED () ()) () 1 1 0 ()) (38
'prognam' (CHARACTER 1 ((CONSTANT (INTEGER 4) 0 '20'))) () () 0 0 0 ())
(39 'runby' (CHARACTER 1 ((CONSTANT (INTEGER 4) 0 '20'))) () () 0 0 0 ())
(40 'crdate' (CHARACTER 1 ((CONSTANT (INTEGER 4) 0 '20'))) () () 0 0 0 ())
(41 'leapsec' (INTEGER 4) () () 0 0 0 ()) (42 'numtyp' (INTEGER 4) () ()
0 0 0 ()) (43 'dattyp' (CHARACTER 1 ((CONSTANT (INTEGER 4) 0 '2'))) (1
DEFERRED () ()) () 1 1 0 ()) (44 'clk0name' (CHARACTER 1 ((CONSTANT (
INTEGER 4) 0 '16'))) () () 0 0 0 ()) (45 'calname' (CHARACTER 1 ((
CONSTANT (INTEGER 4) 0 '60'))) () () 0 0 0 ()) (46 'ac' (CHARACTER 1 ((
CONSTANT (INTEGER 4) 0 '3'))) () () 0 0 0 ()) (47 'acname' (CHARACTER 1
((CONSTANT (INTEGER 4) 0 '55'))) () () 0 0 0 ()) (48 'timsys' (
CHARACTER 1 ((CONSTANT (INTEGER 4) 0 '3'))) () () 0 0 0 ()) (49 'pgmnam'
(CHARACTER 1 ((CONSTANT (INTEGER 4) 0 '17'))) () () 0 0 0 ()) (50 'dcbstr'
(CHARACTER 1 ((CONSTANT (INTEGER 4) 0 '40'))) () () 0 0 0 ()) (51 'pcvstr'
(CHARACTER 1 ((CONSTANT (INTEGER 4) 0 '40'))) () () 0 0 0 ()) (52 'tfirst'
(REAL 8) () () 0 0 0 ()) (53 'numref' (INTEGER 4) () () 0 0 0 ()) (54
'ref' (DERIVED 15) (1 DEFERRED () ()) () 1 1 0 ()) (55 'trfname' (
CHARACTER 1 ((CONSTANT (INTEGER 4) 0 '50'))) () () 0 0 0 ()) (56 'nsta'
(INTEGER 4) () () 0 0 0 ()) (57 'nsat' (INTEGER 4) () () 0 0 0 ()) (58
'clkname' (CHARACTER 1 ((CONSTANT (INTEGER 4) 0 '16'))) (1 DEFERRED () ())
() 1 1 0 ()) (59 'stacoord' (REAL 8) (2 DEFERRED () () () ()) () 1 1 0 ()))
PUBLIC ())
60 't_clkrec' 'd_clkrnx' 1 ((DERIVED UNKNOWN UNKNOWN UNKNOWN NONE NONE)
(UNKNOWN) 0 0 () () () '' ((61 'iepo' (INTEGER 4) () () 0 0 0 ()) (62
'nepo' (INTEGER 4) () () 0 0 0 ()) (63 'epoch' (REAL 8) (1 DEFERRED () ())
() 1 1 0 ()) (64 'clock' (REAL 8) (2 DEFERRED () () () ()) () 1 1 0 ())
(65 'sigma' (REAL 8) (2 DEFERRED () () () ()) () 1 1 0 ()) (66 'clkflg'
(CHARACTER 1 ((CONSTANT (INTEGER 4) 0 '1'))) (2 DEFERRED () () () ()) ()
1 1 0 ())) PUBLIC ())
15 't_ref' 'd_clkrnx' 1 ((DERIVED UNKNOWN UNKNOWN UNKNOWN NONE NONE) (
UNKNOWN) 0 0 () () () '' ((67 'nref' (INTEGER 4) () () 0 0 0 ()) (68 'clk'
(DERIVED 69) (1 DEFERRED () ()) () 1 1 0 ()) (70 'refwin' (DERIVED 71) ()
() 0 0 0 ())) PUBLIC ())
69 't_refclk' 'd_clkrnx' 1 ((DERIVED UNKNOWN UNKNOWN UNKNOWN NONE NONE)
(UNKNOWN) 0 0 () () () '' ((72 'name' (CHARACTER 1 ((CONSTANT (INTEGER 4)
0 '16'))) () () 0 0 0 ()) (73 'sigma' (REAL 8) () () 0 0 0 ()) (74 'idx'
(INTEGER 4) () () 0 0 0 ()) (75 'idx0' (INTEGER 4) () () 0 0 0 ()))
PUBLIC ())
71 't_timint' 'm_time' 1 ((DERIVED UNKNOWN UNKNOWN UNKNOWN NONE NONE) (
UNKNOWN) 0 0 () () () '' ((76 't' (REAL 8) (1 EXPLICIT (CONSTANT (
INTEGER 4) 0 '1') (CONSTANT (INTEGER 4) 0 '2')) () 1 0 0 ())) PUBLIC ())
77 'undef' 'd_clkrnx' 1 ((PARAMETER UNKNOWN UNKNOWN UNKNOWN NONE NONE) (
REAL 8) 0 0 () (CONSTANT (REAL 8) 0 '8589934591991410' 0 1042) () () ''
() ())
71 't_timint' 'm_time' 1 ((DERIVED UNKNOWN UNKNOWN UNKNOWN NONE NONE) (
UNKNOWN) 0 0 () () () '' ((76 't' (REAL 8) (1 EXPLICIT (CONSTANT (
INTEGER 4) 0 '1') (CONSTANT (INTEGER 4) 0 '2')) () 1 0 0 ())) PUBLIC ())
69 't_refclk' 'd_clkrnx' 1 ((DERIVED UNKNOWN UNKNOWN UNKNOWN NONE NONE)
(UNKNOWN) 0 0 () () () '' ((72 'name' (CHARACTER 1 ((CONSTANT (INTEGER 4)
0 '16'))) () () 0 0 0 ()) (73 'sigma' (REAL 8) () () 0 0 0 ()) (74 'idx'
(INTEGER 4) () () 0 0 0 ()) (75 'idx0' (INTEGER 4) () () 0 0 0 ()))
PUBLIC ())
34 'svnchr' '' 78 ((VARIABLE UNKNOWN UNKNOWN UNKNOWN NONE NONE DUMMY) (
CHARACTER 1 ((CONSTANT (INTEGER 4) 0 '1'))) 0 0 () () () '' () ())
33 'svnmod' '' 78 ((VARIABLE UNKNOWN UNKNOWN UNKNOWN NONE NONE DUMMY) (
INTEGER 4) 0 0 () () () '' () ())
32 'svn' '' 78 ((VARIABLE UNKNOWN UNKNOWN UNKNOWN NONE NONE DUMMY) (
INTEGER 4) 0 0 () () () '' () ())
24 'ref' '' 79 ((VARIABLE UNKNOWN UNKNOWN UNKNOWN NONE NONE DUMMY) (
DERIVED 15) 0 0 () () () '' () ())
22 'clkrec' '' 80 ((VARIABLE UNKNOWN UNKNOWN UNKNOWN NONE NONE DUMMY) (
DERIVED 60) 0 0 () () () '' () ())
20 'clkhead' '' 81 ((VARIABLE UNKNOWN UNKNOWN UNKNOWN NONE NONE DUMMY) (
DERIVED 12) 0 0 () () () '' () ())
16 'ref' '' 82 ((VARIABLE UNKNOWN UNKNOWN UNKNOWN NONE NONE DUMMY) (
DERIVED 15) 0 0 () () () '' () ())
15 't_ref' 'd_clkrnx' 1 ((DERIVED UNKNOWN UNKNOWN UNKNOWN NONE NONE) (
UNKNOWN) 0 0 () () () '' ((67 'nref' (INTEGER 4) () () 0 0 0 ()) (68 'clk'
(DERIVED 69) (1 DEFERRED () ()) () 1 1 0 ()) (70 'refwin' (DERIVED 71) ()
() 0 0 0 ())) PUBLIC ())
13 'clkhead' '' 83 ((VARIABLE UNKNOWN UNKNOWN UNKNOWN NONE NONE DUMMY) (
DERIVED 12) 0 0 () () () '' () ())
12 't_clkhead' 'd_clkrnx' 1 ((DERIVED UNKNOWN UNKNOWN UNKNOWN NONE NONE)
(UNKNOWN) 0 0 () () () '' ((35 'rnxvers' (REAL 8) () () 0 0 0 ()) (36
'ncomment' (INTEGER 4) () () 0 0 0 ()) (37 'comment' (CHARACTER 1 ((
CONSTANT (INTEGER 4) 0 '60'))) (1 DEFERRED () ()) () 1 1 0 ()) (38
'prognam' (CHARACTER 1 ((CONSTANT (INTEGER 4) 0 '20'))) () () 0 0 0 ())
(39 'runby' (CHARACTER 1 ((CONSTANT (INTEGER 4) 0 '20'))) () () 0 0 0 ())
(40 'crdate' (CHARACTER 1 ((CONSTANT (INTEGER 4) 0 '20'))) () () 0 0 0 ())
(41 'leapsec' (INTEGER 4) () () 0 0 0 ()) (42 'numtyp' (INTEGER 4) () ()
0 0 0 ()) (43 'dattyp' (CHARACTER 1 ((CONSTANT (INTEGER 4) 0 '2'))) (1
DEFERRED () ()) () 1 1 0 ()) (44 'clk0name' (CHARACTER 1 ((CONSTANT (
INTEGER 4) 0 '16'))) () () 0 0 0 ()) (45 'calname' (CHARACTER 1 ((
CONSTANT (INTEGER 4) 0 '60'))) () () 0 0 0 ()) (46 'ac' (CHARACTER 1 ((
CONSTANT (INTEGER 4) 0 '3'))) () () 0 0 0 ()) (47 'acname' (CHARACTER 1
((CONSTANT (INTEGER 4) 0 '55'))) () () 0 0 0 ()) (48 'timsys' (
CHARACTER 1 ((CONSTANT (INTEGER 4) 0 '3'))) () () 0 0 0 ()) (49 'pgmnam'
(CHARACTER 1 ((CONSTANT (INTEGER 4) 0 '17'))) () () 0 0 0 ()) (50 'dcbstr'
(CHARACTER 1 ((CONSTANT (INTEGER 4) 0 '40'))) () () 0 0 0 ()) (51 'pcvstr'
(CHARACTER 1 ((CONSTANT (INTEGER 4) 0 '40'))) () () 0 0 0 ()) (52 'tfirst'
(REAL 8) () () 0 0 0 ()) (53 'numref' (INTEGER 4) () () 0 0 0 ()) (54
'ref' (DERIVED 15) (1 DEFERRED () ()) () 1 1 0 ()) (55 'trfname' (
CHARACTER 1 ((CONSTANT (INTEGER 4) 0 '50'))) () () 0 0 0 ()) (56 'nsta'
(INTEGER 4) () () 0 0 0 ()) (57 'nsat' (INTEGER 4) () () 0 0 0 ()) (58
'clkname' (CHARACTER 1 ((CONSTANT (INTEGER 4) 0 '16'))) (1 DEFERRED () ())
() 1 1 0 ()) (59 'stacoord' (REAL 8) (2 DEFERRED () () () ()) () 1 1 0 ()))
PUBLIC ())
10 'satnum' '' 84 ((VARIABLE UNKNOWN UNKNOWN UNKNOWN NONE NONE OPTIONAL
DUMMY) (INTEGER 4) 0 0 () () () '' () ())
9 'clknam' '' 84 ((VARIABLE UNKNOWN UNKNOWN UNKNOWN NONE NONE OPTIONAL
DUMMY) (CHARACTER 1 ((CONSTANT (INTEGER 4) 0 '16'))) 0 0 () () () '' ()
())
8 'clkhead' '' 84 ((VARIABLE UNKNOWN UNKNOWN UNKNOWN NONE NONE DUMMY) (
DERIVED 12) 0 0 () () () '' () ())
6 'srname' '' 85 ((VARIABLE UNKNOWN UNKNOWN UNKNOWN NONE NONE DUMMY) (
CHARACTER 1 (())) 0 0 () () () '' () ())
5 'varsiz' '' 85 ((VARIABLE UNKNOWN UNKNOWN UNKNOWN NONE NONE DIMENSION
DUMMY) (INTEGER 4) 0 0 () (1 ASSUMED_SHAPE () ()) () '' () ())
4 'varnam' '' 85 ((VARIABLE UNKNOWN UNKNOWN UNKNOWN NONE NONE DUMMY) (
CHARACTER 1 (())) 0 0 () () () '' () ())
3 'iostat' '' 85 ((VARIABLE UNKNOWN UNKNOWN UNKNOWN NONE NONE DUMMY) (
INTEGER 4) 0 0 () () () '' () ())
)

('alcerr' 0 2 'clkidx' 0 7 'copy_clkhead' 0 11 'copy_ref' 0 14 'd_clkrnx'
0 17 'i4b' 0 18 'init_clkhead' 0 19 'init_clkrec' 0 21 'init_ref' 0 23
'm_bern' 0 25 'm_time' 0 26 'r8b' 0 27 's_alcerr' 0 28 's_svn2chr' 0 29
'stanamelength' 0 30 'svn2chr' 0 31 't_clkhead' 0 12 't_clkrec' 0 60
't_ref' 0 15 't_refclk' 0 69 't_timint' 0 71 'undef' 0 77)
