G95 module created on Thu Jun 25 17:42:32 2020 from ./.fpp/D_CONST.f90
If you edit this, you'll get what you deserve.
module-version 9
(() () () () () () () () () () () () () () () () () () () () ())

()

()

()

()

(2 'ae' 'd_const' 1 ((VARIABLE UNKNOWN UNKNOWN UNKNOWN NONE NONE) (REAL
8) 0 0 () () () '' () ())
3 'ars' 'd_const' 1 ((VARIABLE UNKNOWN UNKNOWN UNKNOWN NONE NONE) (REAL
8) 0 0 () () () '' () ())
4 'au' 'd_const' 1 ((VARIABLE UNKNOWN UNKNOWN UNKNOWN NONE NONE) (REAL 8)
0 0 () () () '' () ())
5 'c' 'd_const' 1 ((VARIABLE UNKNOWN UNKNOWN UNKNOWN NONE NONE) (REAL 8)
0 0 () () () '' () ())
6 'conre' 'd_const' 1 ((VARIABLE UNKNOWN UNKNOWN UNKNOWN NONE NONE) (
REAL 8) 0 0 () () () '' () ())
7 'const_def' 'd_const' 1 ((VARIABLE UNKNOWN UNKNOWN UNKNOWN NONE NONE)
(INTEGER 4) 0 0 () () () '' () ())
8 'd_const' 'd_const' 1 ((MODULE UNKNOWN UNKNOWN UNKNOWN NONE NONE) (
UNKNOWN) 0 0 () () () '' () ())
9 'date' 'd_const' 1 ((VARIABLE UNKNOWN UNKNOWN UNKNOWN NONE NONE) (
CHARACTER 1 ((CONSTANT (INTEGER 4) 0 '9'))) 0 0 () () () '' () ())
10 'etut' 'd_const' 1 ((VARIABLE UNKNOWN UNKNOWN UNKNOWN NONE NONE) (
REAL 8) 0 0 () () () '' () ())
11 'factec' 'd_const' 1 ((VARIABLE UNKNOWN UNKNOWN UNKNOWN NONE NONE) (
REAL 8) 0 0 () () () '' () ())
12 'filtitle' 'd_const' 1 ((VARIABLE UNKNOWN UNKNOWN UNKNOWN NONE NONE)
(CHARACTER 1 ((CONSTANT (INTEGER 4) 0 '80'))) 0 0 () () () '' () ())
13 'freq' 'd_const' 1 ((VARIABLE UNKNOWN UNKNOWN UNKNOWN NONE NONE
DIMENSION) (REAL 8) 0 0 () (1 EXPLICIT (CONSTANT (INTEGER 4) 0 '1') (
CONSTANT (INTEGER 4) 0 '3')) () '' () ())
14 'freqc' 'd_const' 1 ((VARIABLE UNKNOWN UNKNOWN UNKNOWN NONE NONE
DIMENSION) (REAL 8) 0 0 () (1 EXPLICIT (CONSTANT (INTEGER 4) 0 '1') (
CONSTANT (INTEGER 4) 0 '4')) () '' () ())
15 'freqe' 'd_const' 1 ((VARIABLE UNKNOWN UNKNOWN UNKNOWN NONE NONE
DIMENSION) (REAL 8) 0 0 () (1 EXPLICIT (CONSTANT (INTEGER 4) 0 '1') (
CONSTANT (INTEGER 4) 0 '5')) () '' () ())
16 'freqg' 'd_const' 1 ((VARIABLE UNKNOWN UNKNOWN UNKNOWN NONE NONE
DIMENSION) (REAL 8) 0 0 () (1 EXPLICIT (CONSTANT (INTEGER 4) 0 '1') (
CONSTANT (INTEGER 4) 0 '2')) () '' () ())
17 'freqj' 'd_const' 1 ((VARIABLE UNKNOWN UNKNOWN UNKNOWN NONE NONE
DIMENSION) (REAL 8) 0 0 () (1 EXPLICIT (CONSTANT (INTEGER 4) 0 '1') (
CONSTANT (INTEGER 4) 0 '4')) () '' () ())
18 'freqp' 'd_const' 1 ((VARIABLE UNKNOWN UNKNOWN UNKNOWN NONE NONE) (
REAL 8) 0 0 () () () '' () ())
19 'freqs' 'd_const' 1 ((VARIABLE UNKNOWN UNKNOWN UNKNOWN NONE NONE
DIMENSION) (REAL 8) 0 0 () (1 EXPLICIT (CONSTANT (INTEGER 4) 0 '1') (
CONSTANT (INTEGER 4) 0 '2')) () '' () ())
20 'gm' 'd_const' 1 ((VARIABLE UNKNOWN UNKNOWN UNKNOWN NONE NONE) (REAL
8) 0 0 () () () '' () ())
21 'gmm' 'd_const' 1 ((VARIABLE UNKNOWN UNKNOWN UNKNOWN NONE NONE) (
REAL 8) 0 0 () () () '' () ())
22 'gms' 'd_const' 1 ((VARIABLE UNKNOWN UNKNOWN UNKNOWN NONE NONE) (
REAL 8) 0 0 () () () '' () ())
23 'href' 'd_const' 1 ((VARIABLE UNKNOWN UNKNOWN UNKNOWN NONE NONE) (
REAL 8) 0 0 () () () '' () ())
24 'humref' 'd_const' 1 ((VARIABLE UNKNOWN UNKNOWN UNKNOWN NONE NONE) (
REAL 8) 0 0 () () () '' () ())
25 'i4b' 'm_bern' 1 ((PARAMETER UNKNOWN UNKNOWN UNKNOWN NONE NONE) (
INTEGER 4) 0 0 () (CONSTANT (INTEGER 4) 0 '4') () () '' () ())
26 'j2' 'd_const' 1 ((VARIABLE UNKNOWN UNKNOWN UNKNOWN NONE NONE) (REAL
8) 0 0 () () () '' () ())
27 'm_bern' 'm_bern' 1 ((MODULE UNKNOWN UNKNOWN UNKNOWN NONE NONE) (
UNKNOWN) 0 0 () () () '' () ())
28 'omega' 'd_const' 1 ((VARIABLE UNKNOWN UNKNOWN UNKNOWN NONE NONE) (
REAL 8) 0 0 () () () '' () ())
29 'p0' 'd_const' 1 ((VARIABLE UNKNOWN UNKNOWN UNKNOWN NONE NONE) (REAL
8) 0 0 () () () '' () ())
30 'pi' 'd_const' 1 ((VARIABLE UNKNOWN UNKNOWN UNKNOWN NONE NONE) (REAL
8) 0 0 () () () '' () ())
31 'pref' 'd_const' 1 ((VARIABLE UNKNOWN UNKNOWN UNKNOWN NONE NONE) (
REAL 8) 0 0 () () () '' () ())
32 'r8b' 'm_bern' 1 ((PARAMETER UNKNOWN UNKNOWN UNKNOWN NONE NONE) (
INTEGER 4) 0 0 () (CONSTANT (INTEGER 4) 0 '8') () () '' () ())
33 'rho' 'd_const' 1 ((VARIABLE UNKNOWN UNKNOWN UNKNOWN NONE NONE) (
REAL 8) 0 0 () () () '' () ())
34 'time' 'd_const' 1 ((VARIABLE UNKNOWN UNKNOWN UNKNOWN NONE NONE) (
CHARACTER 1 ((CONSTANT (INTEGER 4) 0 '5'))) 0 0 () () () '' () ())
35 'tref' 'd_const' 1 ((VARIABLE UNKNOWN UNKNOWN UNKNOWN NONE NONE) (
REAL 8) 0 0 () () () '' () ())
36 'wgtcod' 'd_const' 1 ((VARIABLE UNKNOWN UNKNOWN UNKNOWN NONE NONE) (
REAL 8) 0 0 () () () '' () ())
37 'wgtpha' 'd_const' 1 ((VARIABLE UNKNOWN UNKNOWN UNKNOWN NONE NONE) (
REAL 8) 0 0 () () () '' () ())
38 'wlgth' 'd_const' 1 ((VARIABLE UNKNOWN UNKNOWN UNKNOWN NONE NONE
DIMENSION) (REAL 8) 0 0 () (1 EXPLICIT (CONSTANT (INTEGER 4) 0 '1') (
CONSTANT (INTEGER 4) 0 '5')) () '' () ())
)

('ae' 0 2 'ars' 0 3 'au' 0 4 'c' 0 5 'conre' 0 6 'const_def' 0 7 'd_const'
0 8 'date' 0 9 'etut' 0 10 'factec' 0 11 'filtitle' 0 12 'freq' 0 13
'freqc' 0 14 'freqe' 0 15 'freqg' 0 16 'freqj' 0 17 'freqp' 0 18 'freqs'
0 19 'gm' 0 20 'gmm' 0 21 'gms' 0 22 'href' 0 23 'humref' 0 24 'i4b' 0
25 'j2' 0 26 'm_bern' 0 27 'omega' 0 28 'p0' 0 29 'pi' 0 30 'pref' 0 31
'r8b' 0 32 'rho' 0 33 'time' 0 34 'tref' 0 35 'wgtcod' 0 36 'wgtpha' 0
37 'wlgth' 0 38)
