G95 module created on Thu Jun 25 17:42:45 2020 from ./.fpp/D_COMJPL.f90
If you edit this, you'll get what you deserve.
module-version 9
(() () () () () () () () () () () () () () () () () () () () ())

()

()

()

()

(2 'd_comjpl' 'd_comjpl' 1 ((MODULE UNKNOWN UNKNOWN UNKNOWN NONE NONE) (
UNKNOWN) 0 0 () () () '' () ())
3 'irecsz' 'd_comjpl' 1 ((PARAMETER UNKNOWN UNKNOWN UNKNOWN NONE NONE) (
INTEGER 4) 0 0 () (CONSTANT (INTEGER 4) 0 '8144') () () '' () ())
4 'jplnam' 'd_comjpl' 1 ((PARAMETER UNKNOWN UNKNOWN UNKNOWN NONE NONE) (
CHARACTER 1 ((CONSTANT (INTEGER 4) 0 '5'))) 0 0 () (CONSTANT (CHARACTER
1 ((CONSTANT (INTEGER 4) 0 '5'))) 0 5 'DE405') () () '' () ())
5 'ksize' 'd_comjpl' 1 ((PARAMETER UNKNOWN UNKNOWN UNKNOWN NONE NONE) (
INTEGER 4) 0 0 () (CONSTANT (INTEGER 4) 0 '2036') () () '' () ())
)

('d_comjpl' 0 2 'irecsz' 0 3 'jplnam' 0 4 'ksize' 0 5)
