G95 module created on Thu Jun 25 17:44:59 2020 from ./.fpp/D_DCBFIL.f90
If you edit this, you'll get what you deserve.
module-version 9
(() () () () () () () () () () () () () () () () () () () () ())

()

()

()

()

(2 'b_dcbtyp1' 'd_dcbfil' 1 ((VARIABLE UNKNOWN UNKNOWN UNKNOWN NONE NONE
DIMENSION) (CHARACTER 1 ((CONSTANT (INTEGER 4) 0 '4'))) 0 0 () (1
EXPLICIT (CONSTANT (INTEGER 4) 0 '1') (CONSTANT (INTEGER 4) 0 '5')) () ''
() ())
3 'b_dcbtyp2' 'd_dcbfil' 1 ((VARIABLE UNKNOWN UNKNOWN UNKNOWN NONE NONE
DIMENSION) (CHARACTER 1 ((CONSTANT (INTEGER 4) 0 '3'))) 0 0 () (1
EXPLICIT (CONSTANT (INTEGER 4) 0 '1') (CONSTANT (INTEGER 4) 0 '5')) () ''
() ())
4 'd_dcbfil' 'd_dcbfil' 1 ((MODULE UNKNOWN UNKNOWN UNKNOWN NONE NONE) (
UNKNOWN) 0 0 () () () '' () ())
5 'i4b' 'm_bern' 1 ((PARAMETER UNKNOWN UNKNOWN UNKNOWN NONE NONE) (
INTEGER 4) 0 0 () (CONSTANT (INTEGER 4) 0 '4') () () '' () ())
6 'init_dcbfil' 'd_dcbfil' 1 ((PROCEDURE UNKNOWN MODULE-PROC DECL NONE
NONE SUBROUTINE) (PROCEDURE 0) 0 0 (7 NONE) () () '' () ())
8 'm_bern' 'm_bern' 1 ((MODULE UNKNOWN UNKNOWN UNKNOWN NONE NONE) (
UNKNOWN) 0 0 () () () '' () ())
9 'm_time' 'm_time' 1 ((MODULE UNKNOWN UNKNOWN UNKNOWN NONE NONE) (
UNKNOWN) 0 0 () () () '' () ())
10 'maxdcbtyp' 'd_dcbfil' 1 ((PARAMETER UNKNOWN UNKNOWN UNKNOWN NONE
NONE) (INTEGER 4) 0 0 () (CONSTANT (INTEGER 4) 0 '5') () () '' () ())
11 'modnam' 'd_dcbfil' 1 ((PARAMETER UNKNOWN UNKNOWN UNKNOWN NONE NONE)
(CHARACTER 1 ((CONSTANT (INTEGER 4) 0 '8'))) 0 0 () (CONSTANT (
CHARACTER 1 ((CONSTANT (INTEGER 4) 0 '8'))) 0 8 'D_DCBFIL') () () '' ()
())
12 'r8b' 'm_bern' 1 ((PARAMETER UNKNOWN UNKNOWN UNKNOWN NONE NONE) (
INTEGER 4) 0 0 () (CONSTANT (INTEGER 4) 0 '8') () () '' () ())
13 'stanam2length' 'm_bern' 1 ((PARAMETER UNKNOWN UNKNOWN UNKNOWN NONE
NONE) (INTEGER 4) 0 0 () (CONSTANT (INTEGER 4) 0 '20') () () '' () ())
14 't_dcbfil' 'd_dcbfil' 1 ((DERIVED UNKNOWN UNKNOWN UNKNOWN NONE NONE)
(UNKNOWN) 0 0 () () () '' ((15 'fmt' (REAL 8) () () 0 0 0 ()) (16 'title'
(CHARACTER 1 ((CONSTANT (INTEGER 4) 0 '80'))) () () 0 0 0 ()) (17 'nval'
(INTEGER 4) () () 0 0 0 ()) (18 'dcblst' (DERIVED 19) (1 DEFERRED () ())
() 1 1 0 ())) PUBLIC ())
19 't_dcbval' 'd_dcbfil' 1 ((DERIVED UNKNOWN UNKNOWN UNKNOWN NONE NONE)
(UNKNOWN) 0 0 () () () '' ((20 'svn' (INTEGER 4) () () 0 0 0 ()) (21
'stanam' (CHARACTER 1 ((CONSTANT (INTEGER 4) 0 '20'))) () () 0 0 0 ()) (
22 'sys' (CHARACTER 1 ((CONSTANT (INTEGER 4) 0 '1'))) () () 0 0 0 ()) (
23 'typ' (INTEGER 4) () () 0 0 0 ()) (24 'dcbval' (REAL 8) () () 0 0 0 ())
(25 'dcbrms' (REAL 8) () () 0 0 0 ()) (26 'flg' (CHARACTER 1 ((CONSTANT
(INTEGER 4) 0 '4'))) () () 0 0 0 ()) (27 'tim' (DERIVED 28) () () 0 0 0
()) (29 'rem' (CHARACTER 1 ((CONSTANT (INTEGER 4) 0 '20'))) () () 0 0 0
()) (30 'obstyp' (CHARACTER 1 ((CONSTANT (INTEGER 4) 0 '3'))) (1
EXPLICIT (CONSTANT (INTEGER 4) 0 '1') (CONSTANT (INTEGER 4) 0 '2')) () 1
0 0 ())) PUBLIC ())
28 't_timint' 'm_time' 1 ((DERIVED UNKNOWN UNKNOWN UNKNOWN NONE NONE) (
UNKNOWN) 0 0 () () () '' ((31 't' (REAL 8) (1 EXPLICIT (CONSTANT (
INTEGER 4) 0 '1') (CONSTANT (INTEGER 4) 0 '2')) () 1 0 0 ())) PUBLIC ())
28 't_timint' 'm_time' 1 ((DERIVED UNKNOWN UNKNOWN UNKNOWN NONE NONE) (
UNKNOWN) 0 0 () () () '' ((31 't' (REAL 8) (1 EXPLICIT (CONSTANT (
INTEGER 4) 0 '1') (CONSTANT (INTEGER 4) 0 '2')) () 1 0 0 ())) PUBLIC ())
19 't_dcbval' 'd_dcbfil' 1 ((DERIVED UNKNOWN UNKNOWN UNKNOWN NONE NONE)
(UNKNOWN) 0 0 () () () '' ((20 'svn' (INTEGER 4) () () 0 0 0 ()) (21
'stanam' (CHARACTER 1 ((CONSTANT (INTEGER 4) 0 '20'))) () () 0 0 0 ()) (
22 'sys' (CHARACTER 1 ((CONSTANT (INTEGER 4) 0 '1'))) () () 0 0 0 ()) (
23 'typ' (INTEGER 4) () () 0 0 0 ()) (24 'dcbval' (REAL 8) () () 0 0 0 ())
(25 'dcbrms' (REAL 8) () () 0 0 0 ()) (26 'flg' (CHARACTER 1 ((CONSTANT
(INTEGER 4) 0 '4'))) () () 0 0 0 ()) (27 'tim' (DERIVED 28) () () 0 0 0
()) (29 'rem' (CHARACTER 1 ((CONSTANT (INTEGER 4) 0 '20'))) () () 0 0 0
()) (30 'obstyp' (CHARACTER 1 ((CONSTANT (INTEGER 4) 0 '3'))) (1
EXPLICIT (CONSTANT (INTEGER 4) 0 '1') (CONSTANT (INTEGER 4) 0 '2')) () 1
0 0 ())) PUBLIC ())
7 'dcbfil' '' 32 ((VARIABLE UNKNOWN UNKNOWN UNKNOWN NONE NONE DUMMY) (
DERIVED 14) 0 0 () () () '' () ())
)

('b_dcbtyp1' 0 2 'b_dcbtyp2' 0 3 'd_dcbfil' 0 4 'i4b' 0 5 'init_dcbfil'
0 6 'm_bern' 0 8 'm_time' 0 9 'maxdcbtyp' 0 10 'modnam' 0 11 'r8b' 0 12
'stanam2length' 0 13 't_dcbfil' 0 14 't_dcbval' 0 19 't_timint' 0 28)
