G95 module created on Thu Jun 25 17:42:37 2020 from ./.fpp/D_GRID.f90
If you edit this, you'll get what you deserve.
module-version 9
(() () () () () () () () () () () () () () () () () () () () ())

()

()

()

()

(2 'getgrid' 'd_grid' 1 ((PROCEDURE UNKNOWN MODULE-PROC DECL NONE NONE
FUNCTION) (REAL 8) 0 0 (3 NONE 4 NONE 5 NONE 6 NONE) () () '' () ())
7 'getgridinp' 'd_grid' 1 ((PROCEDURE UNKNOWN MODULE-PROC DECL NONE NONE
FUNCTION) (CHARACTER 1 ((CONSTANT (INTEGER 4) 0 '32'))) 0 0 (8 NONE) ()
() '' () ())
9 'getgridkeyw' 'd_grid' 1 ((PROCEDURE UNKNOWN MODULE-PROC DECL NONE
NONE FUNCTION) (DERIVED 10) 0 0 (11 NONE 12 NONE) () () '' () ())
13 'grd_aload_e' 'd_grid' 1 ((VARIABLE UNKNOWN UNKNOWN UNKNOWN NONE NONE)
(DERIVED 10) 0 0 () () () '' () ())
14 'grd_aload_n' 'd_grid' 1 ((VARIABLE UNKNOWN UNKNOWN UNKNOWN NONE NONE)
(DERIVED 10) 0 0 () () () '' () ())
15 'grd_aload_u' 'd_grid' 1 ((VARIABLE UNKNOWN UNKNOWN UNKNOWN NONE NONE)
(DERIVED 10) 0 0 () () () '' () ())
16 'grd_hload_e' 'd_grid' 1 ((VARIABLE UNKNOWN UNKNOWN UNKNOWN NONE NONE)
(DERIVED 10) 0 0 () () () '' () ())
17 'grd_hload_n' 'd_grid' 1 ((VARIABLE UNKNOWN UNKNOWN UNKNOWN NONE NONE)
(DERIVED 10) 0 0 () () () '' () ())
18 'grd_hload_u' 'd_grid' 1 ((VARIABLE UNKNOWN UNKNOWN UNKNOWN NONE NONE)
(DERIVED 10) 0 0 () () () '' () ())
19 'grd_ontld_e' 'd_grid' 1 ((VARIABLE UNKNOWN UNKNOWN UNKNOWN NONE NONE)
(DERIVED 10) 0 0 () () () '' () ())
20 'grd_ontld_n' 'd_grid' 1 ((VARIABLE UNKNOWN UNKNOWN UNKNOWN NONE NONE)
(DERIVED 10) 0 0 () () () '' () ())
21 'grd_ontld_u' 'd_grid' 1 ((VARIABLE UNKNOWN UNKNOWN UNKNOWN NONE NONE)
(DERIVED 10) 0 0 () () () '' () ())
22 'grd_vmf1_ah' 'd_grid' 1 ((VARIABLE UNKNOWN UNKNOWN UNKNOWN NONE NONE)
(DERIVED 10) 0 0 () () () '' () ())
23 'grd_vmf1_aw' 'd_grid' 1 ((VARIABLE UNKNOWN UNKNOWN UNKNOWN NONE NONE)
(DERIVED 10) 0 0 () () () '' () ())
24 'grd_vmf1_zh' 'd_grid' 1 ((VARIABLE UNKNOWN UNKNOWN UNKNOWN NONE NONE)
(DERIVED 10) 0 0 () () () '' () ())
25 'grd_vmf1_zw' 'd_grid' 1 ((VARIABLE UNKNOWN UNKNOWN UNKNOWN NONE NONE)
(DERIVED 10) 0 0 () () () '' () ())
26 'grdneq' 'd_grid' 1 ((PARAMETER UNKNOWN UNKNOWN UNKNOWN NONE NONE
DIMENSION) (CHARACTER 1 ((CONSTANT (INTEGER 4) 0 '12'))) 0 0 () (ARRAY (
CHARACTER 1 ((CONSTANT (INTEGER 4) 0 '12'))) 1 (((CONSTANT (CHARACTER 1
((CONSTANT (INTEGER 4) 0 '12'))) 0 12 'VMF1        ') ()) ((CONSTANT (
CHARACTER 1 ((CONSTANT (INTEGER 4) 0 '12'))) 0 12 'ATM-NT-LOAD ') ()) (
(CONSTANT (CHARACTER 1 ((CONSTANT (INTEGER 4) 0 '12'))) 0 12
'OCN-NT-LOAD ') ()) ((CONSTANT (CHARACTER 1 ((CONSTANT (INTEGER 4) 0 '12')))
0 12 'HYDR-LOAD   ') ())) ()) (1 EXPLICIT (CONSTANT (INTEGER 4) 0 '0') (
CONSTANT (INTEGER 4) 0 '3')) () '' () ())
27 'initgridbuffer' 'd_grid' 1 ((PROCEDURE UNKNOWN MODULE-PROC DECL NONE
NONE SUBROUTINE) (PROCEDURE 0) 0 0 (28 NONE 29 NONE 30 NONE) () () '' ()
())
31 'prtgridinfo' 'd_grid' 1 ((PROCEDURE UNKNOWN MODULE-PROC DECL NONE
NONE SUBROUTINE) (PROCEDURE 0) 0 0 () () () '' () ())
10 't_gridtype' 'd_grid' 1 ((DERIVED UNKNOWN UNKNOWN UNKNOWN NONE NONE)
(UNKNOWN) 0 0 () () () '' ((32 'head' (CHARACTER 1 ((CONSTANT (INTEGER 4)
0 '12'))) () () 0 0 0 ()) (33 'indx' (INTEGER 4) () () 0 0 0 ()) (34
'comp' (CHARACTER 1 ((CONSTANT (INTEGER 4) 0 '5'))) () () 0 0 0 ()) (35
'keyw' (CHARACTER 1 ((CONSTANT (INTEGER 4) 0 '32'))) () () 0 0 0 ()))
PUBLIC ())
36 'typlen' 'd_grid' 1 ((PARAMETER UNKNOWN UNKNOWN UNKNOWN NONE NONE) (
INTEGER 4) 0 0 () (CONSTANT (INTEGER 4) 0 '12') () () '' () ())
30 'timint' '' 37 ((VARIABLE UNKNOWN UNKNOWN UNKNOWN NONE NONE OPTIONAL
DUMMY) (DERIVED 38) 0 0 () () () '' () ())
38 't_timint' 'm_time' 37 ((DERIVED UNKNOWN UNKNOWN UNKNOWN NONE NONE) (
UNKNOWN) 0 0 () () () '' ((39 't' (REAL 8) (1 EXPLICIT (CONSTANT (
INTEGER 4) 0 '1') (CONSTANT (INTEGER 4) 0 '2')) () 1 0 0 ())) PUBLIC ())
29 'xstell' '' 37 ((VARIABLE UNKNOWN UNKNOWN UNKNOWN NONE NONE DIMENSION
OPTIONAL DUMMY) (REAL 8) 0 0 () (2 ASSUMED_SHAPE () () () ()) () '' () ())
28 'buffersize' '' 37 ((VARIABLE UNKNOWN UNKNOWN UNKNOWN NONE NONE
OPTIONAL DUMMY) (INTEGER 4) 0 0 () () () '' () ())
12 'comp' '' 40 ((VARIABLE UNKNOWN UNKNOWN UNKNOWN NONE NONE DUMMY) (
INTEGER 4) 0 0 () () () '' () ())
11 'grdkeyw' '' 40 ((VARIABLE UNKNOWN UNKNOWN UNKNOWN NONE NONE DUMMY) (
CHARACTER 1 ((CONSTANT (INTEGER 4) 0 '12'))) 0 0 () () () '' () ())
10 't_gridtype' 'd_grid' 1 ((DERIVED UNKNOWN UNKNOWN UNKNOWN NONE NONE)
(UNKNOWN) 0 0 () () () '' ((32 'head' (CHARACTER 1 ((CONSTANT (INTEGER 4)
0 '12'))) () () 0 0 0 ()) (33 'indx' (INTEGER 4) () () 0 0 0 ()) (34
'comp' (CHARACTER 1 ((CONSTANT (INTEGER 4) 0 '5'))) () () 0 0 0 ()) (35
'keyw' (CHARACTER 1 ((CONSTANT (INTEGER 4) 0 '32'))) () () 0 0 0 ()))
PUBLIC ())
8 'grdkeyw' '' 41 ((VARIABLE UNKNOWN UNKNOWN UNKNOWN NONE NONE DUMMY) (
CHARACTER 1 ((CONSTANT (INTEGER 4) 0 '12'))) 0 0 () () () '' () ())
6 'maxsta' '' 42 ((VARIABLE UNKNOWN UNKNOWN UNKNOWN NONE NONE OPTIONAL
DUMMY) (INTEGER 4) 0 0 () () () '' () ())
5 'xstell' '' 42 ((VARIABLE UNKNOWN UNKNOWN UNKNOWN NONE NONE DIMENSION
DUMMY) (REAL 8) 0 0 () (1 EXPLICIT (CONSTANT (INTEGER 4) 0 '1') (
CONSTANT (INTEGER 4) 0 '3')) () '' () ())
4 'epoch' '' 42 ((VARIABLE UNKNOWN UNKNOWN UNKNOWN NONE NONE DUMMY) (
REAL 8) 0 0 () () () '' () ())
3 'grdtype' '' 42 ((VARIABLE UNKNOWN UNKNOWN UNKNOWN NONE NONE DUMMY) (
DERIVED 10) 0 0 () () () '' () ())
)

('getgrid' 0 2 'getgridinp' 0 7 'getgridkeyw' 0 9 'grd_aload_e' 0 13
'grd_aload_n' 0 14 'grd_aload_u' 0 15 'grd_hload_e' 0 16 'grd_hload_n' 0
17 'grd_hload_u' 0 18 'grd_ontld_e' 0 19 'grd_ontld_n' 0 20 'grd_ontld_u'
0 21 'grd_vmf1_ah' 0 22 'grd_vmf1_aw' 0 23 'grd_vmf1_zh' 0 24
'grd_vmf1_zw' 0 25 'grdneq' 0 26 'initgridbuffer' 0 27 'prtgridinfo' 0
31 't_gridtype' 0 10 'typlen' 0 36)
