G95 module created on Thu Jun 25 17:42:32 2020 from ./.fpp/D_INPKEY.f90
If you edit this, you'll get what you deserve.
module-version 9
(() () () () () () () () () () () () () () () () () () () () ())

()

()

()

()

(2 'd_inpkey' 'd_inpkey' 1 ((MODULE UNKNOWN UNKNOWN UNKNOWN NONE NONE) (
UNKNOWN) 0 0 () () () '' () ())
3 'i4b' 'm_bern' 1 ((PARAMETER UNKNOWN UNKNOWN UNKNOWN NONE NONE) (
INTEGER 4) 0 0 () (CONSTANT (INTEGER 4) 0 '4') () () '' () ())
4 'init_inpkey' 'd_inpkey' 1 ((PROCEDURE UNKNOWN MODULE-PROC DECL NONE
NONE SUBROUTINE) (PROCEDURE 0) 0 0 (5 NONE) () () '' () ())
6 'inpkey' 'd_inpkey' 1 ((VARIABLE UNKNOWN UNKNOWN UNKNOWN NONE NONE) (
DERIVED 7) 0 0 () () () '' () ())
8 'keyvaluelength' 'm_bern' 1 ((PARAMETER UNKNOWN UNKNOWN UNKNOWN NONE
NONE) (INTEGER 4) 0 0 () (CONSTANT (INTEGER 4) 0 '255') () () '' () ())
9 'm_bern' 'm_bern' 1 ((MODULE UNKNOWN UNKNOWN UNKNOWN NONE NONE) (
UNKNOWN) 0 0 () () () '' () ())
10 'mystatus_init' 'd_inpkey' 1 ((PARAMETER UNKNOWN UNKNOWN UNKNOWN NONE
NONE) (INTEGER 4) 0 0 () (CONSTANT (INTEGER 4) 0 '0') () () '' () ())
11 'mystatus_read' 'd_inpkey' 1 ((PARAMETER UNKNOWN UNKNOWN UNKNOWN NONE
NONE) (INTEGER 4) 0 0 () (CONSTANT (INTEGER 4) 0 '1') () () '' () ())
12 'mystatus_run' 'd_inpkey' 1 ((PARAMETER UNKNOWN UNKNOWN UNKNOWN NONE
NONE) (INTEGER 4) 0 0 () (CONSTANT (INTEGER 4) 0 '2') () () '' () ())
13 'mystatus_stop' 'd_inpkey' 1 ((PARAMETER UNKNOWN UNKNOWN UNKNOWN NONE
NONE) (INTEGER 4) 0 0 () (CONSTANT (INTEGER 4) 0 '3') () () '' () ())
7 't_inpkey' 'd_inpkey' 1 ((DERIVED UNKNOWN UNKNOWN UNKNOWN NONE NONE) (
UNKNOWN) 0 0 () () () '' ((14 'inpfilename' (CHARACTER 1 ((CONSTANT (
INTEGER 4) 0 '255'))) () () 0 0 0 ()) (15 'nkeys' (INTEGER 4) () () 0 0
0 ()) (16 'keys' (DERIVED 17) (1 DEFERRED () ()) () 1 1 0 ()) (18 'ndel'
(INTEGER 4) () () 0 0 0 ()) (19 'delfil' (CHARACTER 1 ((CONSTANT (
INTEGER 4) 0 '255'))) (1 DEFERRED () ()) () 1 1 0 ()) (20 'isopnfil' (
LOGICAL 4) () () 0 0 0 ()) (21 'status' (INTEGER 4) () () 0 0 0 ()))
PUBLIC ())
17 't_key' 'm_bern' 1 ((DERIVED UNKNOWN UNKNOWN UNKNOWN NONE NONE) (
UNKNOWN) 0 0 () () () '' ((22 'name' (CHARACTER 1 ((CONSTANT (INTEGER 4)
0 '32'))) () () 0 0 0 ()) (23 'value' (CHARACTER 1 ((CONSTANT (INTEGER 4)
0 '255'))) (1 DEFERRED () ()) () 1 1 0 ())) PUBLIC ())
17 't_key' 'm_bern' 1 ((DERIVED UNKNOWN UNKNOWN UNKNOWN NONE NONE) (
UNKNOWN) 0 0 () () () '' ((22 'name' (CHARACTER 1 ((CONSTANT (INTEGER 4)
0 '32'))) () () 0 0 0 ()) (23 'value' (CHARACTER 1 ((CONSTANT (INTEGER 4)
0 '255'))) (1 DEFERRED () ()) () 1 1 0 ())) PUBLIC ())
7 't_inpkey' 'd_inpkey' 1 ((DERIVED UNKNOWN UNKNOWN UNKNOWN NONE NONE) (
UNKNOWN) 0 0 () () () '' ((14 'inpfilename' (CHARACTER 1 ((CONSTANT (
INTEGER 4) 0 '255'))) () () 0 0 0 ()) (15 'nkeys' (INTEGER 4) () () 0 0
0 ()) (16 'keys' (DERIVED 17) (1 DEFERRED () ()) () 1 1 0 ()) (18 'ndel'
(INTEGER 4) () () 0 0 0 ()) (19 'delfil' (CHARACTER 1 ((CONSTANT (
INTEGER 4) 0 '255'))) (1 DEFERRED () ()) () 1 1 0 ()) (20 'isopnfil' (
LOGICAL 4) () () 0 0 0 ()) (21 'status' (INTEGER 4) () () 0 0 0 ()))
PUBLIC ())
5 'inpkey' '' 24 ((VARIABLE UNKNOWN UNKNOWN UNKNOWN NONE NONE DUMMY) (
DERIVED 7) 0 0 () () () '' () ())
)

('d_inpkey' 0 2 'i4b' 0 3 'init_inpkey' 0 4 'inpkey' 0 6 'keyvaluelength'
0 8 'm_bern' 0 9 'mystatus_init' 0 10 'mystatus_read' 0 11 'mystatus_run'
0 12 'mystatus_stop' 0 13 't_inpkey' 0 7 't_key' 0 17)
