G95 module created on Thu Jun 25 17:42:51 2020 from ./.fpp/D_ISBFIL.f90
If you edit this, you'll get what you deserve.
module-version 9
(() () () () () () () () () () () () () () () () () () () () ())

()

()

()

()

(2 'getisb' 'd_isbfil' 1 ((PROCEDURE UNKNOWN MODULE-PROC DECL NONE NONE
FUNCTION) (REAL 8) 0 0 (3 NONE 4 NONE 5 NONE 6 NONE 7 NONE) () () '' ()
())
8 't_isbfil' 'd_isbfil' 1 ((DERIVED UNKNOWN UNKNOWN UNKNOWN NONE NONE) (
UNKNOWN) 0 0 () () () '' ((9 'filnam' (CHARACTER 1 ((CONSTANT (INTEGER 4)
0 '32'))) () () 0 0 0 ()) (10 'title' (CHARACTER 1 ((CONSTANT (INTEGER 4)
0 '80'))) () () 0 0 0 ()) (11 'nsta' (INTEGER 4) () () 0 0 0 ()) (12
'isbsta' (DERIVED 13) (1 DEFERRED () ()) () 1 1 0 ())) PUBLIC ())
14 't_isbrec' 'd_isbfil' 1 ((DERIVED UNKNOWN UNKNOWN UNKNOWN NONE NONE)
(UNKNOWN) 0 0 () () () '' ((15 'epoch' (REAL 8) () () 0 0 0 ()) (16 'isb'
(REAL 8) () () 0 0 0 ()) (17 'rms' (REAL 8) () () 0 0 0 ()) (18 'icarr'
(INTEGER 4) () () 0 0 0 ()) (19 'meatyp' (INTEGER 4) () () 0 0 0 ()))
PUBLIC ())
13 't_isbsta' 'd_isbfil' 1 ((DERIVED UNKNOWN UNKNOWN UNKNOWN NONE NONE)
(UNKNOWN) 0 0 () () () '' ((20 'stanam' (CHARACTER 1 ((CONSTANT (
INTEGER 4) 0 '16'))) () () 0 0 0 ()) (21 'nisb' (INTEGER 4) () () 0 0 0
()) (22 'isbrec' (DERIVED 14) (1 DEFERRED () ()) () 1 1 0 ())) PUBLIC ())
23 'writeisb' 'd_isbfil' 1 ((PROCEDURE UNKNOWN MODULE-PROC DECL NONE
NONE SUBROUTINE) (PROCEDURE 0) 0 0 (24 NONE) () () '' () ())
24 'isb' '' 25 ((VARIABLE UNKNOWN UNKNOWN UNKNOWN NONE NONE DUMMY) (
DERIVED 8) 0 0 () () () '' () ())
13 't_isbsta' 'd_isbfil' 1 ((DERIVED UNKNOWN UNKNOWN UNKNOWN NONE NONE)
(UNKNOWN) 0 0 () () () '' ((20 'stanam' (CHARACTER 1 ((CONSTANT (
INTEGER 4) 0 '16'))) () () 0 0 0 ()) (21 'nisb' (INTEGER 4) () () 0 0 0
()) (22 'isbrec' (DERIVED 14) (1 DEFERRED () ()) () 1 1 0 ())) PUBLIC ())
7 'ircode' '' 26 ((VARIABLE UNKNOWN UNKNOWN UNKNOWN NONE NONE DUMMY) (
INTEGER 4) 0 0 () () () '' () ())
6 'icarr' '' 26 ((VARIABLE UNKNOWN UNKNOWN UNKNOWN NONE NONE DUMMY) (
INTEGER 4) 0 0 () () () '' () ())
5 'epoch' '' 26 ((VARIABLE UNKNOWN UNKNOWN UNKNOWN NONE NONE DUMMY) (
REAL 8) 0 0 () () () '' () ())
4 'stanam' '' 26 ((VARIABLE UNKNOWN UNKNOWN UNKNOWN NONE NONE DUMMY) (
CHARACTER 1 ((CONSTANT (INTEGER 4) 0 '16'))) 0 0 () () () '' () ())
3 'mode' '' 26 ((VARIABLE UNKNOWN UNKNOWN UNKNOWN NONE NONE DUMMY) (
INTEGER 4) 0 0 () () () '' () ())
)

('getisb' 0 2 't_isbfil' 0 8 't_isbrec' 0 14 't_isbsta' 0 13 'writeisb'
0 23)
