G95 module created on Thu Jun 25 17:45:33 2020 from ./.fpp/D_NRUTIL.f90
If you edit this, you'll get what you deserve.
module-version 9
(() () () () () () () () () () () () () () () () () () () () ())

()

(('arth' 2 3) ('assert_eq' 4 5 6 7) ('imaxloc' 8 9) ('swap' 10 11 12))

()

()

(3 'arth_d' 'd_nrutil' 1 ((PROCEDURE UNKNOWN MODULE-PROC DECL NONE NONE
DIMENSION FUNCTION INVOKED) (REAL 8) 0 0 (13 NONE 14 NONE 15 NONE) (1
EXPLICIT (CONSTANT (INTEGER 4) 0 '1') (VARIABLE (INTEGER 4) 0 15 ())) ()
'' () ())
2 'arth_i' 'd_nrutil' 1 ((PROCEDURE UNKNOWN MODULE-PROC DECL NONE NONE
DIMENSION FUNCTION INVOKED) (INTEGER 4) 0 0 (16 NONE 17 NONE 18 NONE) (
1 EXPLICIT (CONSTANT (INTEGER 4) 0 '1') (VARIABLE (INTEGER 4) 0 18 ()))
() '' () ())
7 'assert_eq2' 'd_nrutil' 1 ((PROCEDURE UNKNOWN MODULE-PROC DECL NONE
NONE FUNCTION INVOKED) (INTEGER 4) 0 0 (19 NONE 20 NONE 21 NONE) () () ''
() ())
6 'assert_eq3' 'd_nrutil' 1 ((PROCEDURE UNKNOWN MODULE-PROC DECL NONE
NONE FUNCTION INVOKED) (INTEGER 4) 0 0 (22 NONE 23 NONE 24 NONE 25 NONE)
() () '' () ())
5 'assert_eq4' 'd_nrutil' 1 ((PROCEDURE UNKNOWN MODULE-PROC DECL NONE
NONE FUNCTION INVOKED) (INTEGER 4) 0 0 (26 NONE 27 NONE 28 NONE 29 NONE
30 NONE) () () '' () ())
4 'assert_eqn' 'd_nrutil' 1 ((PROCEDURE UNKNOWN MODULE-PROC DECL NONE
NONE FUNCTION INVOKED) (INTEGER 4) 0 0 (31 NONE 32 NONE) () () '' () ())
33 'backslash' 'm_bern' 1 ((PARAMETER UNKNOWN UNKNOWN UNKNOWN NONE NONE)
(CHARACTER 1 ((CONSTANT (INTEGER 4) 0 '1'))) 0 0 () (CONSTANT (
CHARACTER 1 ((CONSTANT (INTEGER 4) 0 '1'))) 0 1 '\') () () '' () ())
34 'char' '(intrinsic)' 1 ((PROCEDURE UNKNOWN INTRINSIC UNKNOWN NONE
NONE FUNCTION) (UNKNOWN) 0 0 () () () '' () ())
35 'd_nrutil' 'd_nrutil' 1 ((MODULE UNKNOWN UNKNOWN UNKNOWN NONE NONE) (
UNKNOWN) 0 0 () () () '' () ())
36 'exitrc' 's_exitrc' 1 ((PROCEDURE UNKNOWN MODULE-PROC DECL NONE NONE
SUBROUTINE INVOKED) (PROCEDURE 0) 0 0 (37 NONE) () () '' () ())
38 'fileextlength' 'm_bern' 1 ((PARAMETER UNKNOWN UNKNOWN UNKNOWN NONE
NONE) (INTEGER 4) 0 0 () (CONSTANT (INTEGER 4) 0 '3') () () '' () ())
39 'filenamelength' 'm_bern' 1 ((PARAMETER UNKNOWN UNKNOWN UNKNOWN NONE
NONE) (INTEGER 4) 0 0 () (CONSTANT (INTEGER 4) 0 '32') () () '' () ())
40 'filenamelength80' 'm_bern' 1 ((PARAMETER UNKNOWN UNKNOWN UNKNOWN
NONE NONE) (INTEGER 4) 0 0 () (CONSTANT (INTEGER 4) 0 '80') () () '' ()
())
41 'filepathlength' 'm_bern' 1 ((PARAMETER UNKNOWN UNKNOWN UNKNOWN NONE
NONE) (INTEGER 4) 0 0 () (CONSTANT (INTEGER 4) 0 '32') () () '' () ())
42 'i4b' 'm_bern' 1 ((PARAMETER UNKNOWN UNKNOWN UNKNOWN NONE NONE) (
INTEGER 4) 0 0 () (CONSTANT (INTEGER 4) 0 '4') () () '' () ())
43 'i4ex' 'm_bern' 1 ((VARIABLE UNKNOWN UNKNOWN UNKNOWN NONE NONE) (
INTEGER 4) 0 0 () () () '' () ())
8 'imaxloc_i' 'd_nrutil' 1 ((PROCEDURE UNKNOWN MODULE-PROC DECL NONE
NONE FUNCTION INVOKED) (INTEGER 4) 0 0 (44 NONE) () () '' () ())
9 'imaxloc_r' 'd_nrutil' 1 ((PROCEDURE UNKNOWN MODULE-PROC DECL NONE
NONE FUNCTION INVOKED) (INTEGER 4) 0 0 (45 NONE) () () '' () ())
46 'init_key' 'm_bern' 1 ((PROCEDURE UNKNOWN MODULE-PROC DECL NONE NONE
SUBROUTINE) (PROCEDURE 0) 0 0 (47 NONE) () () '' () ())
48 'keynamelength' 'm_bern' 1 ((PARAMETER UNKNOWN UNKNOWN UNKNOWN NONE
NONE) (INTEGER 4) 0 0 () (CONSTANT (INTEGER 4) 0 '32') () () '' () ())
49 'keyvaluelength' 'm_bern' 1 ((PARAMETER UNKNOWN UNKNOWN UNKNOWN NONE
NONE) (INTEGER 4) 0 0 () (CONSTANT (INTEGER 4) 0 '255') () () '' () ())
50 'kind' '(intrinsic)' 1 ((PROCEDURE UNKNOWN INTRINSIC UNKNOWN NONE
NONE FUNCTION) (UNKNOWN) 0 0 () () () '' () ())
51 'lfn001' 'm_bern' 1 ((VARIABLE UNKNOWN UNKNOWN UNKNOWN NONE NONE) (
INTEGER 4) 0 0 () () () '' () ())
52 'lfn002' 'm_bern' 1 ((VARIABLE UNKNOWN UNKNOWN UNKNOWN NONE NONE) (
INTEGER 4) 0 0 () () () '' () ())
53 'lfneph' 'm_bern' 1 ((VARIABLE UNKNOWN UNKNOWN UNKNOWN NONE NONE) (
INTEGER 4) 0 0 () () () '' () ())
54 'lfnerf' 'm_bern' 1 ((VARIABLE UNKNOWN UNKNOWN UNKNOWN NONE NONE) (
INTEGER 4) 0 0 () () () '' () ())
55 'lfnerr' 'm_bern' 1 ((VARIABLE UNKNOWN UNKNOWN UNKNOWN NONE NONE) (
INTEGER 4) 0 0 () () () '' () ())
56 'lfnkbd' 'm_bern' 1 ((VARIABLE UNKNOWN UNKNOWN UNKNOWN NONE NONE) (
INTEGER 4) 0 0 () () () '' () ())
57 'lfnloc' 'm_bern' 1 ((VARIABLE UNKNOWN UNKNOWN UNKNOWN NONE NONE) (
INTEGER 4) 0 0 () () () '' () ())
58 'lfnor1' 'm_bern' 1 ((VARIABLE UNKNOWN UNKNOWN UNKNOWN NONE NONE) (
INTEGER 4) 0 0 () () () '' () ())
59 'lfnorb' 'm_bern' 1 ((VARIABLE UNKNOWN UNKNOWN UNKNOWN NONE NONE) (
INTEGER 4) 0 0 () () () '' () ())
60 'lfnplt' 'm_bern' 1 ((VARIABLE UNKNOWN UNKNOWN UNKNOWN NONE NONE) (
INTEGER 4) 0 0 () () () '' () ())
61 'lfnprf' 'm_bern' 1 ((VARIABLE UNKNOWN UNKNOWN UNKNOWN NONE NONE) (
INTEGER 4) 0 0 () () () '' () ())
62 'lfnprt' 'm_bern' 1 ((VARIABLE UNKNOWN UNKNOWN UNKNOWN NONE NONE) (
INTEGER 4) 0 0 () () () '' () ())
63 'lfnres' 'm_bern' 1 ((VARIABLE UNKNOWN UNKNOWN UNKNOWN NONE NONE) (
INTEGER 4) 0 0 () () () '' () ())
64 'lfnrp1' 'm_bern' 1 ((VARIABLE UNKNOWN UNKNOWN UNKNOWN NONE NONE) (
INTEGER 4) 0 0 () () () '' () ())
65 'lfnrpr' 'm_bern' 1 ((VARIABLE UNKNOWN UNKNOWN UNKNOWN NONE NONE) (
INTEGER 4) 0 0 () () () '' () ())
66 'linelength' 'm_bern' 1 ((PARAMETER UNKNOWN UNKNOWN UNKNOWN NONE NONE)
(INTEGER 4) 0 0 () (CONSTANT (INTEGER 4) 0 '255') () () '' () ())
67 'linelength1024' 'm_bern' 1 ((PARAMETER UNKNOWN UNKNOWN UNKNOWN NONE
NONE) (INTEGER 4) 0 0 () (CONSTANT (INTEGER 4) 0 '1024') () () '' () ())
68 'longlinelength' 'm_bern' 1 ((PARAMETER UNKNOWN UNKNOWN UNKNOWN NONE
NONE) (INTEGER 4) 0 0 () (CONSTANT (INTEGER 4) 0 '512') () () '' () ())
69 'm_bern' 'm_bern' 1 ((MODULE UNKNOWN UNKNOWN UNKNOWN NONE NONE) (
UNKNOWN) 0 0 () () () '' () ())
70 'npar2_arth' 'd_nrutil' 1 ((PARAMETER UNKNOWN UNKNOWN UNKNOWN NONE
NONE) (INTEGER 4) 0 0 () (CONSTANT (INTEGER 4) 0 '8') () () '' () ())
71 'npar2_geop' 'd_nrutil' 1 ((PARAMETER UNKNOWN UNKNOWN UNKNOWN NONE
NONE) (INTEGER 4) 0 0 () (CONSTANT (INTEGER 4) 0 '2') () () '' () ())
72 'npar_arth' 'd_nrutil' 1 ((PARAMETER UNKNOWN UNKNOWN UNKNOWN NONE
NONE) (INTEGER 4) 0 0 () (CONSTANT (INTEGER 4) 0 '16') () () '' () ())
73 'npar_cumprod' 'd_nrutil' 1 ((PARAMETER UNKNOWN UNKNOWN UNKNOWN NONE
NONE) (INTEGER 4) 0 0 () (CONSTANT (INTEGER 4) 0 '8') () () '' () ())
74 'npar_cumsum' 'd_nrutil' 1 ((PARAMETER UNKNOWN UNKNOWN UNKNOWN NONE
NONE) (INTEGER 4) 0 0 () (CONSTANT (INTEGER 4) 0 '16') () () '' () ())
75 'npar_geop' 'd_nrutil' 1 ((PARAMETER UNKNOWN UNKNOWN UNKNOWN NONE
NONE) (INTEGER 4) 0 0 () (CONSTANT (INTEGER 4) 0 '4') () () '' () ())
76 'npar_poly' 'd_nrutil' 1 ((PARAMETER UNKNOWN UNKNOWN UNKNOWN NONE
NONE) (INTEGER 4) 0 0 () (CONSTANT (INTEGER 4) 0 '8') () () '' () ())
77 'npar_polyterm' 'd_nrutil' 1 ((PARAMETER UNKNOWN UNKNOWN UNKNOWN NONE
NONE) (INTEGER 4) 0 0 () (CONSTANT (INTEGER 4) 0 '8') () () '' () ())
78 'pgmver' 'm_bern' 1 ((PARAMETER UNKNOWN UNKNOWN UNKNOWN NONE NONE) (
CHARACTER 1 ((CONSTANT (INTEGER 4) 0 '3'))) 0 0 () (CONSTANT (CHARACTER
1 ((CONSTANT (INTEGER 4) 0 '3'))) 0 3 '5.2') () () '' () ())
79 'program_dscr' 'm_bern' 1 ((VARIABLE UNKNOWN UNKNOWN UNKNOWN NONE
NONE) (CHARACTER 1 ((CONSTANT (INTEGER 4) 0 '80'))) 0 0 () () () '' () ())
80 'program_name' 'm_bern' 1 ((VARIABLE UNKNOWN UNKNOWN UNKNOWN NONE
NONE) (CHARACTER 1 ((CONSTANT (INTEGER 4) 0 '8'))) 0 0 () () () '' () ())
81 'r8b' 'm_bern' 1 ((PARAMETER UNKNOWN UNKNOWN UNKNOWN NONE NONE) (
INTEGER 4) 0 0 () (CONSTANT (INTEGER 4) 0 '8') () () '' () ())
82 'r8ex' 'm_bern' 1 ((VARIABLE UNKNOWN UNKNOWN UNKNOWN NONE NONE) (
REAL 8) 0 0 () () () '' () ())
83 's_exitrc' 's_exitrc' 1 ((MODULE UNKNOWN UNKNOWN UNKNOWN NONE NONE) (
UNKNOWN) 0 0 () () () '' () ())
84 'shortlinelength' 'm_bern' 1 ((PARAMETER UNKNOWN UNKNOWN UNKNOWN NONE
NONE) (INTEGER 4) 0 0 () (CONSTANT (INTEGER 4) 0 '80') () () '' () ())
85 'stafla2length' 'm_bern' 1 ((PARAMETER UNKNOWN UNKNOWN UNKNOWN NONE
NONE) (INTEGER 4) 0 0 () (CONSTANT (INTEGER 4) 0 '5') () () '' () ())
86 'staflaglength' 'm_bern' 1 ((PARAMETER UNKNOWN UNKNOWN UNKNOWN NONE
NONE) (INTEGER 4) 0 0 () (CONSTANT (INTEGER 4) 0 '1') () () '' () ())
87 'stanam2length' 'm_bern' 1 ((PARAMETER UNKNOWN UNKNOWN UNKNOWN NONE
NONE) (INTEGER 4) 0 0 () (CONSTANT (INTEGER 4) 0 '20') () () '' () ())
88 'stanamelength' 'm_bern' 1 ((PARAMETER UNKNOWN UNKNOWN UNKNOWN NONE
NONE) (INTEGER 4) 0 0 () (CONSTANT (INTEGER 4) 0 '16') () () '' () ())
12 'swap_i' 'd_nrutil' 1 ((PROCEDURE UNKNOWN MODULE-PROC DECL NONE NONE
SUBROUTINE INVOKED) (PROCEDURE 0) 0 0 (89 NONE 90 NONE) () () '' () ())
11 'swap_r' 'd_nrutil' 1 ((PROCEDURE UNKNOWN MODULE-PROC DECL NONE NONE
SUBROUTINE INVOKED) (PROCEDURE 0) 0 0 (91 NONE 92 NONE) () () '' () ())
10 'swap_rv' 'd_nrutil' 1 ((PROCEDURE UNKNOWN MODULE-PROC DECL NONE NONE
SUBROUTINE INVOKED) (PROCEDURE 0) 0 0 (93 NONE 94 NONE) () () '' () ())
95 't_key' 'm_bern' 1 ((DERIVED UNKNOWN UNKNOWN UNKNOWN NONE NONE) (
UNKNOWN) 0 0 () () () '' ((96 'name' (CHARACTER 1 ((CONSTANT (INTEGER 4)
0 '32'))) () () 0 0 0 ()) (97 'value' (CHARACTER 1 ((CONSTANT (INTEGER 4)
0 '255'))) (1 DEFERRED () ()) () 1 1 0 ())) PUBLIC ())
98 'timstrglength' 'm_bern' 1 ((PARAMETER UNKNOWN UNKNOWN UNKNOWN NONE
NONE) (INTEGER 4) 0 0 () (CONSTANT (INTEGER 4) 0 '19') () () '' () ())
99 'timstrglength2' 'm_bern' 1 ((PARAMETER UNKNOWN UNKNOWN UNKNOWN NONE
NONE) (INTEGER 4) 0 0 () (CONSTANT (INTEGER 4) 0 '40') () () '' () ())
94 'b' '' 100 ((VARIABLE INOUT UNKNOWN UNKNOWN NONE NONE DIMENSION DUMMY)
(REAL 8) 0 0 () (1 ASSUMED_SHAPE () ()) () '' () ())
93 'a' '' 100 ((VARIABLE INOUT UNKNOWN UNKNOWN NONE NONE DIMENSION DUMMY)
(REAL 8) 0 0 () (1 ASSUMED_SHAPE () ()) () '' () ())
92 'b' '' 101 ((VARIABLE INOUT UNKNOWN UNKNOWN NONE NONE DUMMY) (REAL 8)
0 0 () () () '' () ())
91 'a' '' 101 ((VARIABLE INOUT UNKNOWN UNKNOWN NONE NONE DUMMY) (REAL 8)
0 0 () () () '' () ())
90 'b' '' 102 ((VARIABLE INOUT UNKNOWN UNKNOWN NONE NONE DUMMY) (
INTEGER 4) 0 0 () () () '' () ())
89 'a' '' 102 ((VARIABLE INOUT UNKNOWN UNKNOWN NONE NONE DUMMY) (
INTEGER 4) 0 0 () () () '' () ())
47 'key' '' 103 ((VARIABLE UNKNOWN UNKNOWN UNKNOWN NONE NONE DUMMY) (
DERIVED 95) 0 0 () () () '' () ())
45 'arr' '' 104 ((VARIABLE IN UNKNOWN UNKNOWN NONE NONE DIMENSION DUMMY)
(REAL 8) 0 0 () (1 ASSUMED_SHAPE () ()) () '' () ())
44 'iarr' '' 105 ((VARIABLE IN UNKNOWN UNKNOWN NONE NONE DIMENSION DUMMY)
(INTEGER 4) 0 0 () (1 ASSUMED_SHAPE () ()) () '' () ())
37 'ircode' '' 106 ((VARIABLE UNKNOWN UNKNOWN UNKNOWN NONE NONE DUMMY) (
INTEGER 4) 0 0 () () () '' () ())
32 'string' '' 107 ((VARIABLE IN UNKNOWN UNKNOWN NONE NONE DUMMY) (
CHARACTER 1 (())) 0 0 () () () '' () ())
31 'nn' '' 107 ((VARIABLE IN UNKNOWN UNKNOWN NONE NONE DIMENSION DUMMY)
(INTEGER 4) 0 0 () (1 ASSUMED_SHAPE () ()) () '' () ())
30 'string' '' 108 ((VARIABLE IN UNKNOWN UNKNOWN NONE NONE DUMMY) (
CHARACTER 1 (())) 0 0 () () () '' () ())
29 'n4' '' 108 ((VARIABLE IN UNKNOWN UNKNOWN NONE NONE DUMMY) (INTEGER 4)
0 0 () () () '' () ())
28 'n3' '' 108 ((VARIABLE IN UNKNOWN UNKNOWN NONE NONE DUMMY) (INTEGER 4)
0 0 () () () '' () ())
27 'n2' '' 108 ((VARIABLE IN UNKNOWN UNKNOWN NONE NONE DUMMY) (INTEGER 4)
0 0 () () () '' () ())
26 'n1' '' 108 ((VARIABLE IN UNKNOWN UNKNOWN NONE NONE DUMMY) (INTEGER 4)
0 0 () () () '' () ())
25 'string' '' 109 ((VARIABLE IN UNKNOWN UNKNOWN NONE NONE DUMMY) (
CHARACTER 1 (())) 0 0 () () () '' () ())
24 'n3' '' 109 ((VARIABLE IN UNKNOWN UNKNOWN NONE NONE DUMMY) (INTEGER 4)
0 0 () () () '' () ())
23 'n2' '' 109 ((VARIABLE IN UNKNOWN UNKNOWN NONE NONE DUMMY) (INTEGER 4)
0 0 () () () '' () ())
22 'n1' '' 109 ((VARIABLE IN UNKNOWN UNKNOWN NONE NONE DUMMY) (INTEGER 4)
0 0 () () () '' () ())
21 'string' '' 110 ((VARIABLE IN UNKNOWN UNKNOWN NONE NONE DUMMY) (
CHARACTER 1 (())) 0 0 () () () '' () ())
20 'n2' '' 110 ((VARIABLE IN UNKNOWN UNKNOWN NONE NONE DUMMY) (INTEGER 4)
0 0 () () () '' () ())
19 'n1' '' 110 ((VARIABLE IN UNKNOWN UNKNOWN NONE NONE DUMMY) (INTEGER 4)
0 0 () () () '' () ())
18 'n' '' 111 ((VARIABLE IN UNKNOWN UNKNOWN NONE NONE DUMMY) (INTEGER 4)
0 0 () () () '' () ())
17 'increment' '' 111 ((VARIABLE IN UNKNOWN UNKNOWN NONE NONE DUMMY) (
INTEGER 4) 0 0 () () () '' () ())
16 'first' '' 111 ((VARIABLE IN UNKNOWN UNKNOWN NONE NONE DUMMY) (
INTEGER 4) 0 0 () () () '' () ())
15 'n' '' 112 ((VARIABLE IN UNKNOWN UNKNOWN NONE NONE DUMMY) (INTEGER 4)
0 0 () () () '' () ())
14 'increment' '' 112 ((VARIABLE IN UNKNOWN UNKNOWN NONE NONE DUMMY) (
REAL 8) 0 0 () () () '' () ())
13 'first' '' 112 ((VARIABLE IN UNKNOWN UNKNOWN NONE NONE DUMMY) (REAL 8)
0 0 () () () '' () ())
12 'swap_i' 'd_nrutil' 1 ((PROCEDURE UNKNOWN MODULE-PROC DECL NONE NONE
SUBROUTINE INVOKED) (PROCEDURE 0) 0 0 (89 NONE 90 NONE) () () '' () ())
11 'swap_r' 'd_nrutil' 1 ((PROCEDURE UNKNOWN MODULE-PROC DECL NONE NONE
SUBROUTINE INVOKED) (PROCEDURE 0) 0 0 (91 NONE 92 NONE) () () '' () ())
10 'swap_rv' 'd_nrutil' 1 ((PROCEDURE UNKNOWN MODULE-PROC DECL NONE NONE
SUBROUTINE INVOKED) (PROCEDURE 0) 0 0 (93 NONE 94 NONE) () () '' () ())
9 'imaxloc_r' 'd_nrutil' 1 ((PROCEDURE UNKNOWN MODULE-PROC DECL NONE
NONE FUNCTION INVOKED) (INTEGER 4) 0 0 (45 NONE) () () '' () ())
8 'imaxloc_i' 'd_nrutil' 1 ((PROCEDURE UNKNOWN MODULE-PROC DECL NONE
NONE FUNCTION INVOKED) (INTEGER 4) 0 0 (44 NONE) () () '' () ())
7 'assert_eq2' 'd_nrutil' 1 ((PROCEDURE UNKNOWN MODULE-PROC DECL NONE
NONE FUNCTION INVOKED) (INTEGER 4) 0 0 (19 NONE 20 NONE 21 NONE) () () ''
() ())
6 'assert_eq3' 'd_nrutil' 1 ((PROCEDURE UNKNOWN MODULE-PROC DECL NONE
NONE FUNCTION INVOKED) (INTEGER 4) 0 0 (22 NONE 23 NONE 24 NONE 25 NONE)
() () '' () ())
5 'assert_eq4' 'd_nrutil' 1 ((PROCEDURE UNKNOWN MODULE-PROC DECL NONE
NONE FUNCTION INVOKED) (INTEGER 4) 0 0 (26 NONE 27 NONE 28 NONE 29 NONE
30 NONE) () () '' () ())
4 'assert_eqn' 'd_nrutil' 1 ((PROCEDURE UNKNOWN MODULE-PROC DECL NONE
NONE FUNCTION INVOKED) (INTEGER 4) 0 0 (31 NONE 32 NONE) () () '' () ())
3 'arth_d' 'd_nrutil' 1 ((PROCEDURE UNKNOWN MODULE-PROC DECL NONE NONE
DIMENSION FUNCTION INVOKED) (REAL 8) 0 0 (13 NONE 14 NONE 15 NONE) (1
EXPLICIT (CONSTANT (INTEGER 4) 0 '1') (VARIABLE (INTEGER 4) 0 15 ())) ()
'' () ())
2 'arth_i' 'd_nrutil' 1 ((PROCEDURE UNKNOWN MODULE-PROC DECL NONE NONE
DIMENSION FUNCTION INVOKED) (INTEGER 4) 0 0 (16 NONE 17 NONE 18 NONE) (
1 EXPLICIT (CONSTANT (INTEGER 4) 0 '1') (VARIABLE (INTEGER 4) 0 18 ()))
() '' () ())
)

('arth_d' 0 3 'arth_i' 0 2 'assert_eq2' 0 7 'assert_eq3' 0 6 'assert_eq4'
0 5 'assert_eqn' 0 4 'backslash' 0 33 'char' 0 34 'd_nrutil' 0 35 'exitrc'
0 36 'fileextlength' 0 38 'filenamelength' 0 39 'filenamelength80' 0 40
'filepathlength' 0 41 'i4b' 0 42 'i4ex' 0 43 'imaxloc_i' 0 8 'imaxloc_r'
0 9 'init_key' 0 46 'keynamelength' 0 48 'keyvaluelength' 0 49 'kind' 0
50 'lfn001' 0 51 'lfn002' 0 52 'lfneph' 0 53 'lfnerf' 0 54 'lfnerr' 0 55
'lfnkbd' 0 56 'lfnloc' 0 57 'lfnor1' 0 58 'lfnorb' 0 59 'lfnplt' 0 60
'lfnprf' 0 61 'lfnprt' 0 62 'lfnres' 0 63 'lfnrp1' 0 64 'lfnrpr' 0 65
'linelength' 0 66 'linelength1024' 0 67 'longlinelength' 0 68 'm_bern' 0
69 'npar2_arth' 0 70 'npar2_geop' 0 71 'npar_arth' 0 72 'npar_cumprod' 0
73 'npar_cumsum' 0 74 'npar_geop' 0 75 'npar_poly' 0 76 'npar_polyterm'
0 77 'pgmver' 0 78 'program_dscr' 0 79 'program_name' 0 80 'r8b' 0 81
'r8ex' 0 82 's_exitrc' 0 83 'shortlinelength' 0 84 'stafla2length' 0 85
'staflaglength' 0 86 'stanam2length' 0 87 'stanamelength' 0 88 'swap_i'
0 12 'swap_r' 0 11 'swap_rv' 0 10 't_key' 0 95 'timstrglength' 0 98
'timstrglength2' 0 99)
