G95 module created on Thu Jun 25 17:42:38 2020 from ./.fpp/D_RINEX3.f90
If you edit this, you'll get what you deserve.
module-version 9
(() () () () () () () () () () () () () () () () () () () () ())

()

()

()

()

(2 'd_rinex3' 'd_rinex3' 1 ((MODULE UNKNOWN UNKNOWN UNKNOWN NONE NONE) (
UNKNOWN) 0 0 () () () '' () ())
3 'i4b' 'm_bern' 1 ((PARAMETER UNKNOWN UNKNOWN UNKNOWN NONE NONE) (
INTEGER 4) 0 0 () (CONSTANT (INTEGER 4) 0 '4') () () '' () ())
4 'indx' 'd_rinex3' 1 ((VARIABLE UNKNOWN UNKNOWN UNKNOWN NONE NONE
DIMENSION) (INTEGER 4) 0 0 () (2 EXPLICIT (CONSTANT (INTEGER 4) 0 '0') (
CONSTANT (INTEGER 4) 0 '5') (CONSTANT (INTEGER 4) 0 '1') (CONSTANT (
INTEGER 4) 0 '134')) () '' () ())
5 'indxs' 'd_rinex3' 1 ((VARIABLE UNKNOWN UNKNOWN UNKNOWN NONE NONE
DIMENSION) (INTEGER 4) 0 0 () (3 EXPLICIT (CONSTANT (INTEGER 4) 0 '0') (
CONSTANT (INTEGER 4) 0 '5') (CONSTANT (INTEGER 4) 0 '1') (CONSTANT (
INTEGER 4) 0 '49') (CONSTANT (INTEGER 4) 0 '1') (CONSTANT (INTEGER 4) 0
'4')) () '' () ())
6 'init_rxohead' 'd_rinex3' 1 ((PROCEDURE UNKNOWN MODULE-PROC DECL NONE
NONE SUBROUTINE) (PROCEDURE 0) 0 0 (7 NONE) () () '' () ())
8 'init_rxoobs' 'd_rinex3' 1 ((PROCEDURE UNKNOWN MODULE-PROC DECL NONE
NONE SUBROUTINE) (PROCEDURE 0) 0 0 (9 NONE) () () '' () ())
10 'm_bern' 'm_bern' 1 ((MODULE UNKNOWN UNKNOWN UNKNOWN NONE NONE) (
UNKNOWN) 0 0 () () () '' () ())
11 'm_global' 'm_global' 1 ((MODULE UNKNOWN UNKNOWN UNKNOWN NONE NONE) (
UNKNOWN) 0 0 () () () '' () ())
12 'maxsys' 'm_global' 1 ((PARAMETER UNKNOWN UNKNOWN UNKNOWN NONE NONE)
(INTEGER 4) 0 0 () (CONSTANT (INTEGER 4) 0 '6') () () '' () ())
13 'maxtyp' 'd_rinex3' 1 ((PARAMETER UNKNOWN UNKNOWN UNKNOWN NONE NONE)
(INTEGER 4) 0 0 () (CONSTANT (INTEGER 4) 0 '134') () () '' () ())
14 'obslistbasic' 'd_rinex3' 1 ((VARIABLE UNKNOWN UNKNOWN UNKNOWN NONE
NONE DIMENSION) (CHARACTER 1 ((CONSTANT (INTEGER 4) 0 '2'))) 0 0 () (1
EXPLICIT (CONSTANT (INTEGER 4) 0 '1') (CONSTANT (INTEGER 4) 0 '4')) () ''
() ())
15 'obstypesr2' 'd_rinex3' 1 ((VARIABLE UNKNOWN UNKNOWN UNKNOWN NONE
NONE DIMENSION) (CHARACTER 1 ((CONSTANT (INTEGER 4) 0 '2'))) 0 0 () (1
EXPLICIT (CONSTANT (INTEGER 4) 0 '1') (CONSTANT (INTEGER 4) 0 '134')) ()
'' () ())
16 'obstypesr3' 'd_rinex3' 1 ((VARIABLE UNKNOWN UNKNOWN UNKNOWN NONE
NONE DIMENSION) (CHARACTER 1 ((CONSTANT (INTEGER 4) 0 '3'))) 0 0 () (1
EXPLICIT (CONSTANT (INTEGER 4) 0 '1') (CONSTANT (INTEGER 4) 0 '134')) ()
'' () ())
17 'r8b' 'm_bern' 1 ((PARAMETER UNKNOWN UNKNOWN UNKNOWN NONE NONE) (
INTEGER 4) 0 0 () (CONSTANT (INTEGER 4) 0 '8') () () '' () ())
18 'rin2rin3' 'd_rinex3' 1 ((PROCEDURE UNKNOWN MODULE-PROC DECL NONE
NONE FUNCTION) (CHARACTER 1 ((CONSTANT (INTEGER 4) 0 '3'))) 0 0 (19 NONE
20 NONE) () () '' () ())
21 'rin3idx3' 'd_rinex3' 1 ((PROCEDURE UNKNOWN MODULE-PROC DECL NONE
NONE FUNCTION) (INTEGER 4) 0 0 (22 NONE) () () '' () ())
23 'rin3rin2' 'd_rinex3' 1 ((PROCEDURE UNKNOWN MODULE-PROC DECL NONE
NONE FUNCTION) (CHARACTER 1 ((CONSTANT (INTEGER 4) 0 '2'))) 0 0 (24 NONE)
() () '' () ())
25 'rnxvers' 'd_rinex3' 1 ((PARAMETER UNKNOWN UNKNOWN UNKNOWN NONE NONE)
(REAL 8) 0 0 () (CONSTANT (REAL 8) 0 '6822953371041792' 0 1024) () () ''
() ())
26 'rxohead' 'd_rinex3' 1 ((VARIABLE UNKNOWN UNKNOWN UNKNOWN NONE NONE)
(DERIVED 27) 0 0 () () () '' () ())
28 'rxoobs' 'd_rinex3' 1 ((VARIABLE UNKNOWN UNKNOWN UNKNOWN NONE NONE) (
DERIVED 29) 0 0 () () () '' () ())
30 't_dcb' 'd_rinex3' 1 ((DERIVED UNKNOWN UNKNOWN UNKNOWN NONE NONE) (
UNKNOWN) 0 0 () () () '' ((31 'prognam' (CHARACTER 1 ((CONSTANT (
INTEGER 4) 0 '17'))) () () 0 0 0 ()) (32 'source' (CHARACTER 1 ((
CONSTANT (INTEGER 4) 0 '40'))) () () 0 0 0 ())) PUBLIC ())
33 't_gobsdef' 'd_rinex3' 1 ((DERIVED UNKNOWN UNKNOWN UNKNOWN NONE NONE)
(UNKNOWN) 0 0 () () () '' ((34 'norec' (INTEGER 4) () () 0 0 0 ()) (35
'sat' (DERIVED 36) (1 DEFERRED () ()) () 1 1 0 ()) (37 'nfreqc' (
INTEGER 4) () () 0 0 0 ()) (38 'nfreqp' (INTEGER 4) () () 0 0 0 ()))
PUBLIC ())
39 't_obs' 'd_rinex3' 1 ((DERIVED UNKNOWN UNKNOWN UNKNOWN NONE NONE) (
UNKNOWN) 0 0 () () () '' ((40 'satcod' (CHARACTER 1 ((CONSTANT (INTEGER
4) 0 '1'))) () () 0 0 0 ()) (41 'prn' (INTEGER 4) () () 0 0 0 ()) (42
'obs' (REAL 8) (1 DEFERRED () ()) () 1 1 0 ()) (43 'lli' (INTEGER 4) (1
DEFERRED () ()) () 1 1 0 ()) (44 'streng' (INTEGER 4) (1 DEFERRED () ())
() 1 1 0 ())) PUBLIC ())
45 't_obstyp' 'd_rinex3' 1 ((DERIVED UNKNOWN UNKNOWN UNKNOWN NONE NONE)
(UNKNOWN) 0 0 () () () '' ((46 'obsnum' (INTEGER 4) () () 0 0 0 ()) (47
'obstyp' (CHARACTER 1 ((CONSTANT (INTEGER 4) 0 '3'))) (1 DEFERRED () ())
() 1 1 0 ()) (48 'factor' (INTEGER 4) (1 DEFERRED () ()) () 1 1 0 ()) (
49 'antpha' (REAL 8) (2 DEFERRED () () () ()) () 1 1 0 ()) (50 'numobs'
(INTEGER 4) (2 DEFERRED () () () ()) () 1 1 0 ())) PUBLIC ())
51 't_pcv' 'd_rinex3' 1 ((DERIVED UNKNOWN UNKNOWN UNKNOWN NONE NONE) (
UNKNOWN) 0 0 () () () '' ((52 'prognam' (CHARACTER 1 ((CONSTANT (
INTEGER 4) 0 '17'))) () () 0 0 0 ()) (53 'source' (CHARACTER 1 ((
CONSTANT (INTEGER 4) 0 '40'))) () () 0 0 0 ())) PUBLIC ())
54 't_rinstat' 'd_rinex3' 1 ((DERIVED UNKNOWN UNKNOWN UNKNOWN NONE NONE)
(UNKNOWN) 0 0 () () () '' ((55 'sys' (DERIVED 56) (1 EXPLICIT (CONSTANT
(INTEGER 4) 0 '0') (CONSTANT (INTEGER 4) 0 '5')) () 1 0 0 ()) (57 'numobs'
(INTEGER 4) (1 EXPLICIT (CONSTANT (INTEGER 4) 0 '1') (CONSTANT (INTEGER
4) 0 '134')) () 1 0 0 ()) (58 'obssum' (INTEGER 4) () () 0 0 0 ()) (59
'numsat' (INTEGER 4) () () 0 0 0 ())) PUBLIC ())
27 't_rxohead' 'd_rinex3' 1 ((DERIVED UNKNOWN UNKNOWN UNKNOWN NONE NONE)
(UNKNOWN) 0 0 () () () '' ((60 'rnxvers' (REAL 8) () () 0 0 0 ()) (61
'filtyp' (CHARACTER 1 ((CONSTANT (INTEGER 4) 0 '1'))) () () 0 0 0 ()) (
62 'satsys' (CHARACTER 1 ((CONSTANT (INTEGER 4) 0 '1'))) () () 0 0 0 ())
(63 'prognam' (CHARACTER 1 ((CONSTANT (INTEGER 4) 0 '20'))) () () 0 0 0
()) (64 'runby' (CHARACTER 1 ((CONSTANT (INTEGER 4) 0 '20'))) () () 0 0
0 ()) (65 'crdate' (CHARACTER 1 ((CONSTANT (INTEGER 4) 0 '20'))) () () 0
0 0 ()) (66 'mrknam' (CHARACTER 1 ((CONSTANT (INTEGER 4) 0 '60'))) () ()
0 0 0 ()) (67 'mrknum' (CHARACTER 1 ((CONSTANT (INTEGER 4) 0 '20'))) ()
() 0 0 0 ()) (68 'mrktyp' (CHARACTER 1 ((CONSTANT (INTEGER 4) 0 '20')))
() () 0 0 0 ()) (69 'observ' (CHARACTER 1 ((CONSTANT (INTEGER 4) 0 '20')))
() () 0 0 0 ()) (70 'agency' (CHARACTER 1 ((CONSTANT (INTEGER 4) 0 '40')))
() () 0 0 0 ()) (71 'recnum' (CHARACTER 1 ((CONSTANT (INTEGER 4) 0 '20')))
() () 0 0 0 ()) (72 'rectyp' (CHARACTER 1 ((CONSTANT (INTEGER 4) 0 '20')))
() () 0 0 0 ()) (73 'recvers' (CHARACTER 1 ((CONSTANT (INTEGER 4) 0 '20')))
() () 0 0 0 ()) (74 'antnum' (CHARACTER 1 ((CONSTANT (INTEGER 4) 0 '20')))
() () 0 0 0 ()) (75 'anttyp' (CHARACTER 1 ((CONSTANT (INTEGER 4) 0 '20')))
() () 0 0 0 ()) (76 'aprpos' (REAL 8) (1 EXPLICIT (CONSTANT (INTEGER 4)
0 '1') (CONSTANT (INTEGER 4) 0 '3')) () 1 0 0 ()) (77 'anthen' (REAL 8)
(1 EXPLICIT (CONSTANT (INTEGER 4) 0 '1') (CONSTANT (INTEGER 4) 0 '3')) ()
1 0 0 ()) (78 'antxyz' (REAL 8) (1 EXPLICIT (CONSTANT (INTEGER 4) 0 '1')
(CONSTANT (INTEGER 4) 0 '3')) () 1 0 0 ()) (79 'antbore' (REAL 8) (1
EXPLICIT (CONSTANT (INTEGER 4) 0 '1') (CONSTANT (INTEGER 4) 0 '3')) () 1
0 0 ()) (80 'zeroazi' (REAL 8) () () 0 0 0 ()) (81 'zeroxyz' (REAL 8) (
1 EXPLICIT (CONSTANT (INTEGER 4) 0 '1') (CONSTANT (INTEGER 4) 0 '3')) ()
1 0 0 ()) (82 'comxyz' (REAL 8) (1 EXPLICIT (CONSTANT (INTEGER 4) 0 '1')
(CONSTANT (INTEGER 4) 0 '3')) () 1 0 0 ()) (83 'otyp' (DERIVED 45) (1
EXPLICIT (CONSTANT (INTEGER 4) 0 '0') (CONSTANT (INTEGER 4) 0 '5')) () 1
0 0 ()) (84 'streng' (CHARACTER 1 ((CONSTANT (INTEGER 4) 0 '20'))) () ()
0 0 0 ()) (85 'obsint' (REAL 8) () () 0 0 0 ()) (86 'tfirst' (REAL 8) ()
() 0 0 0 ()) (87 'tlast' (REAL 8) () () 0 0 0 ()) (88 'timsys' (
CHARACTER 1 ((CONSTANT (INTEGER 4) 0 '3'))) () () 0 0 0 ()) (89 'recloff'
(INTEGER 4) () () 0 0 0 ()) (90 'dcb' (DERIVED 30) (1 DEFERRED () ()) ()
1 1 0 ()) (91 'pcv' (DERIVED 51) (1 DEFERRED () ()) () 1 1 0 ()) (92
'leapsec' (INTEGER 4) () () 0 0 0 ()) (93 'nsat' (INTEGER 4) () () 0 0 0
()) (94 'end' (INTEGER 4) () () 0 0 0 ())) PUBLIC ())
29 't_rxoobs' 'd_rinex3' 1 ((DERIVED UNKNOWN UNKNOWN UNKNOWN NONE NONE)
(UNKNOWN) 0 0 () () () '' ((95 'epoch' (REAL 8) () () 0 0 0 ()) (96 'flag'
(INTEGER 4) () () 0 0 0 ()) (97 'nusat' (INTEGER 4) () () 0 0 0 ()) (98
'recloff' (REAL 8) () () 0 0 0 ()) (99 'obsrec' (DERIVED 39) (1 DEFERRED
() ()) () 1 1 0 ())) PUBLIC ())
36 't_satsig' 'd_rinex3' 1 ((DERIVED UNKNOWN UNKNOWN UNKNOWN NONE NONE)
(UNKNOWN) 0 0 () () () '' ((100 'satname' (CHARACTER 1 ((CONSTANT (
INTEGER 4) 0 '3'))) () () 0 0 0 ()) (101 'sysnum' (INTEGER 4) () () 0 0
0 ()) (102 'syschar' (CHARACTER 1 ((CONSTANT (INTEGER 4) 0 '1'))) () ()
0 0 0 ()) (103 'satnum' (INTEGER 4) () () 0 0 0 ()) (104 'obstyp' (
CHARACTER 1 ((CONSTANT (INTEGER 4) 0 '3'))) (1 EXPLICIT (CONSTANT (
INTEGER 4) 0 '1') (CONSTANT (INTEGER 4) 0 '8')) () 1 0 0 ()) (105
'obstyp2' (CHARACTER 1 ((CONSTANT (INTEGER 4) 0 '2'))) (1 EXPLICIT (
CONSTANT (INTEGER 4) 0 '1') (CONSTANT (INTEGER 4) 0 '8')) () 1 0 0 ()) (
106 'obsindr212' (INTEGER 4) (1 EXPLICIT (CONSTANT (INTEGER 4) 0 '1') (
CONSTANT (INTEGER 4) 0 '8')) () 1 0 0 ()) (107 'factor' (INTEGER 4) (1
EXPLICIT (CONSTANT (INTEGER 4) 0 '1') (CONSTANT (INTEGER 4) 0 '8')) () 1
0 0 ()) (108 'nfreqc' (INTEGER 4) () () 0 0 0 ()) (109 'nfreqp' (
INTEGER 4) () () 0 0 0 ()) (110 'eposatind' (INTEGER 4) () () 0 0 0 ()))
PUBLIC ())
111 't_satstat' 'd_rinex3' 1 ((DERIVED UNKNOWN UNKNOWN UNKNOWN NONE NONE)
(UNKNOWN) 0 0 () () () '' ((112 'satname' (CHARACTER 1 ((CONSTANT (
INTEGER 4) 0 '3'))) () () 0 0 0 ()) (113 'satnum' (INTEGER 4) () () 0 0
0 ()) (114 'eposatind' (INTEGER 4) () () 0 0 0 ()) (115 'numobs' (
INTEGER 4) (1 EXPLICIT (CONSTANT (INTEGER 4) 0 '1') (CONSTANT (INTEGER 4)
0 '134')) () 1 0 0 ()) (116 'obssum' (INTEGER 4) () () 0 0 0 ())) PUBLIC
())
56 't_sysstat' 'd_rinex3' 1 ((DERIVED UNKNOWN UNKNOWN UNKNOWN NONE NONE)
(UNKNOWN) 0 0 () () () '' ((117 'syschar' (CHARACTER 1 ((CONSTANT (
INTEGER 4) 0 '1'))) () () 0 0 0 ()) (118 'sysnum' (INTEGER 4) () () 0 0
0 ()) (119 'indxs' (INTEGER 4) (1 EXPLICIT (CONSTANT (INTEGER 4) 0 '1')
(CONSTANT (INTEGER 4) 0 '134')) () 1 0 0 ()) (120 'numobs' (INTEGER 4) (
1 EXPLICIT (CONSTANT (INTEGER 4) 0 '1') (CONSTANT (INTEGER 4) 0 '134'))
() 1 0 0 ()) (121 'sat' (DERIVED 111) (1 EXPLICIT (CONSTANT (INTEGER 4)
0 '1') (CONSTANT (INTEGER 4) 0 '49')) () 1 0 0 ()) (122 'obssum' (
INTEGER 4) () () 0 0 0 ())) PUBLIC ())
56 't_sysstat' 'd_rinex3' 1 ((DERIVED UNKNOWN UNKNOWN UNKNOWN NONE NONE)
(UNKNOWN) 0 0 () () () '' ((117 'syschar' (CHARACTER 1 ((CONSTANT (
INTEGER 4) 0 '1'))) () () 0 0 0 ()) (118 'sysnum' (INTEGER 4) () () 0 0
0 ()) (119 'indxs' (INTEGER 4) (1 EXPLICIT (CONSTANT (INTEGER 4) 0 '1')
(CONSTANT (INTEGER 4) 0 '134')) () 1 0 0 ()) (120 'numobs' (INTEGER 4) (
1 EXPLICIT (CONSTANT (INTEGER 4) 0 '1') (CONSTANT (INTEGER 4) 0 '134'))
() 1 0 0 ()) (121 'sat' (DERIVED 111) (1 EXPLICIT (CONSTANT (INTEGER 4)
0 '1') (CONSTANT (INTEGER 4) 0 '49')) () 1 0 0 ()) (122 'obssum' (
INTEGER 4) () () 0 0 0 ())) PUBLIC ())
36 't_satsig' 'd_rinex3' 1 ((DERIVED UNKNOWN UNKNOWN UNKNOWN NONE NONE)
(UNKNOWN) 0 0 () () () '' ((100 'satname' (CHARACTER 1 ((CONSTANT (
INTEGER 4) 0 '3'))) () () 0 0 0 ()) (101 'sysnum' (INTEGER 4) () () 0 0
0 ()) (102 'syschar' (CHARACTER 1 ((CONSTANT (INTEGER 4) 0 '1'))) () ()
0 0 0 ()) (103 'satnum' (INTEGER 4) () () 0 0 0 ()) (104 'obstyp' (
CHARACTER 1 ((CONSTANT (INTEGER 4) 0 '3'))) (1 EXPLICIT (CONSTANT (
INTEGER 4) 0 '1') (CONSTANT (INTEGER 4) 0 '8')) () 1 0 0 ()) (105
'obstyp2' (CHARACTER 1 ((CONSTANT (INTEGER 4) 0 '2'))) (1 EXPLICIT (
CONSTANT (INTEGER 4) 0 '1') (CONSTANT (INTEGER 4) 0 '8')) () 1 0 0 ()) (
106 'obsindr212' (INTEGER 4) (1 EXPLICIT (CONSTANT (INTEGER 4) 0 '1') (
CONSTANT (INTEGER 4) 0 '8')) () 1 0 0 ()) (107 'factor' (INTEGER 4) (1
EXPLICIT (CONSTANT (INTEGER 4) 0 '1') (CONSTANT (INTEGER 4) 0 '8')) () 1
0 0 ()) (108 'nfreqc' (INTEGER 4) () () 0 0 0 ()) (109 'nfreqp' (
INTEGER 4) () () 0 0 0 ()) (110 'eposatind' (INTEGER 4) () () 0 0 0 ()))
PUBLIC ())
29 't_rxoobs' 'd_rinex3' 1 ((DERIVED UNKNOWN UNKNOWN UNKNOWN NONE NONE)
(UNKNOWN) 0 0 () () () '' ((95 'epoch' (REAL 8) () () 0 0 0 ()) (96 'flag'
(INTEGER 4) () () 0 0 0 ()) (97 'nusat' (INTEGER 4) () () 0 0 0 ()) (98
'recloff' (REAL 8) () () 0 0 0 ()) (99 'obsrec' (DERIVED 39) (1 DEFERRED
() ()) () 1 1 0 ())) PUBLIC ())
27 't_rxohead' 'd_rinex3' 1 ((DERIVED UNKNOWN UNKNOWN UNKNOWN NONE NONE)
(UNKNOWN) 0 0 () () () '' ((60 'rnxvers' (REAL 8) () () 0 0 0 ()) (61
'filtyp' (CHARACTER 1 ((CONSTANT (INTEGER 4) 0 '1'))) () () 0 0 0 ()) (
62 'satsys' (CHARACTER 1 ((CONSTANT (INTEGER 4) 0 '1'))) () () 0 0 0 ())
(63 'prognam' (CHARACTER 1 ((CONSTANT (INTEGER 4) 0 '20'))) () () 0 0 0
()) (64 'runby' (CHARACTER 1 ((CONSTANT (INTEGER 4) 0 '20'))) () () 0 0
0 ()) (65 'crdate' (CHARACTER 1 ((CONSTANT (INTEGER 4) 0 '20'))) () () 0
0 0 ()) (66 'mrknam' (CHARACTER 1 ((CONSTANT (INTEGER 4) 0 '60'))) () ()
0 0 0 ()) (67 'mrknum' (CHARACTER 1 ((CONSTANT (INTEGER 4) 0 '20'))) ()
() 0 0 0 ()) (68 'mrktyp' (CHARACTER 1 ((CONSTANT (INTEGER 4) 0 '20')))
() () 0 0 0 ()) (69 'observ' (CHARACTER 1 ((CONSTANT (INTEGER 4) 0 '20')))
() () 0 0 0 ()) (70 'agency' (CHARACTER 1 ((CONSTANT (INTEGER 4) 0 '40')))
() () 0 0 0 ()) (71 'recnum' (CHARACTER 1 ((CONSTANT (INTEGER 4) 0 '20')))
() () 0 0 0 ()) (72 'rectyp' (CHARACTER 1 ((CONSTANT (INTEGER 4) 0 '20')))
() () 0 0 0 ()) (73 'recvers' (CHARACTER 1 ((CONSTANT (INTEGER 4) 0 '20')))
() () 0 0 0 ()) (74 'antnum' (CHARACTER 1 ((CONSTANT (INTEGER 4) 0 '20')))
() () 0 0 0 ()) (75 'anttyp' (CHARACTER 1 ((CONSTANT (INTEGER 4) 0 '20')))
() () 0 0 0 ()) (76 'aprpos' (REAL 8) (1 EXPLICIT (CONSTANT (INTEGER 4)
0 '1') (CONSTANT (INTEGER 4) 0 '3')) () 1 0 0 ()) (77 'anthen' (REAL 8)
(1 EXPLICIT (CONSTANT (INTEGER 4) 0 '1') (CONSTANT (INTEGER 4) 0 '3')) ()
1 0 0 ()) (78 'antxyz' (REAL 8) (1 EXPLICIT (CONSTANT (INTEGER 4) 0 '1')
(CONSTANT (INTEGER 4) 0 '3')) () 1 0 0 ()) (79 'antbore' (REAL 8) (1
EXPLICIT (CONSTANT (INTEGER 4) 0 '1') (CONSTANT (INTEGER 4) 0 '3')) () 1
0 0 ()) (80 'zeroazi' (REAL 8) () () 0 0 0 ()) (81 'zeroxyz' (REAL 8) (
1 EXPLICIT (CONSTANT (INTEGER 4) 0 '1') (CONSTANT (INTEGER 4) 0 '3')) ()
1 0 0 ()) (82 'comxyz' (REAL 8) (1 EXPLICIT (CONSTANT (INTEGER 4) 0 '1')
(CONSTANT (INTEGER 4) 0 '3')) () 1 0 0 ()) (83 'otyp' (DERIVED 45) (1
EXPLICIT (CONSTANT (INTEGER 4) 0 '0') (CONSTANT (INTEGER 4) 0 '5')) () 1
0 0 ()) (84 'streng' (CHARACTER 1 ((CONSTANT (INTEGER 4) 0 '20'))) () ()
0 0 0 ()) (85 'obsint' (REAL 8) () () 0 0 0 ()) (86 'tfirst' (REAL 8) ()
() 0 0 0 ()) (87 'tlast' (REAL 8) () () 0 0 0 ()) (88 'timsys' (
CHARACTER 1 ((CONSTANT (INTEGER 4) 0 '3'))) () () 0 0 0 ()) (89 'recloff'
(INTEGER 4) () () 0 0 0 ()) (90 'dcb' (DERIVED 30) (1 DEFERRED () ()) ()
1 1 0 ()) (91 'pcv' (DERIVED 51) (1 DEFERRED () ()) () 1 1 0 ()) (92
'leapsec' (INTEGER 4) () () 0 0 0 ()) (93 'nsat' (INTEGER 4) () () 0 0 0
()) (94 'end' (INTEGER 4) () () 0 0 0 ())) PUBLIC ())
24 'obstr3' '' 123 ((VARIABLE UNKNOWN UNKNOWN UNKNOWN NONE NONE DUMMY) (
CHARACTER 1 ((CONSTANT (INTEGER 4) 0 '3'))) 0 0 () () () '' () ())
22 'obstr3' '' 124 ((VARIABLE UNKNOWN UNKNOWN UNKNOWN NONE NONE DUMMY) (
CHARACTER 1 ((CONSTANT (INTEGER 4) 0 '3'))) 0 0 () () () '' () ())
20 'system' '' 125 ((VARIABLE UNKNOWN UNKNOWN UNKNOWN NONE NONE DUMMY) (
INTEGER 4) 0 0 () () () '' () ())
19 'obstr2' '' 125 ((VARIABLE UNKNOWN UNKNOWN UNKNOWN NONE NONE DUMMY) (
CHARACTER 1 ((CONSTANT (INTEGER 4) 0 '2'))) 0 0 () () () '' () ())
9 'rxoobs' '' 126 ((VARIABLE UNKNOWN UNKNOWN UNKNOWN NONE NONE DUMMY) (
DERIVED 29) 0 0 () () () '' () ())
7 'rxohead' '' 127 ((VARIABLE UNKNOWN UNKNOWN UNKNOWN NONE NONE DUMMY) (
DERIVED 27) 0 0 () () () '' () ())
)

('d_rinex3' 0 2 'i4b' 0 3 'indx' 0 4 'indxs' 0 5 'init_rxohead' 0 6
'init_rxoobs' 0 8 'm_bern' 0 10 'm_global' 0 11 'maxsys' 0 12 'maxtyp' 0
13 'obslistbasic' 0 14 'obstypesr2' 0 15 'obstypesr3' 0 16 'r8b' 0 17
'rin2rin3' 0 18 'rin3idx3' 0 21 'rin3rin2' 0 23 'rnxvers' 0 25 'rxohead'
0 26 'rxoobs' 0 28 't_dcb' 0 30 't_gobsdef' 0 33 't_obs' 0 39 't_obstyp'
0 45 't_pcv' 0 51 't_rinstat' 0 54 't_rxohead' 0 27 't_rxoobs' 0 29
't_satsig' 0 36 't_satstat' 0 111 't_sysstat' 0 56)
