G95 module created on Thu Jun 25 17:42:33 2020 from ./.fpp/D_SATFIL.f90
If you edit this, you'll get what you deserve.
module-version 9
(() () () () () () () () () () () () () () () () () () () () ())

()

()

()

()

(2 'backslash' 'm_bern' 1 ((PARAMETER UNKNOWN UNKNOWN UNKNOWN NONE NONE)
(CHARACTER 1 ((CONSTANT (INTEGER 4) 0 '1'))) 0 0 () (CONSTANT (
CHARACTER 1 ((CONSTANT (INTEGER 4) 0 '1'))) 0 1 '\') () () '' () ())
3 'char' '(intrinsic)' 1 ((PROCEDURE UNKNOWN INTRINSIC UNKNOWN NONE NONE
FUNCTION) (UNKNOWN) 0 0 () () () '' () ())
4 'd_satfil' 'd_satfil' 1 ((MODULE UNKNOWN UNKNOWN UNKNOWN NONE NONE) (
UNKNOWN) 0 0 () () () '' () ())
5 'fileextlength' 'm_bern' 1 ((PARAMETER UNKNOWN UNKNOWN UNKNOWN NONE
NONE) (INTEGER 4) 0 0 () (CONSTANT (INTEGER 4) 0 '3') () () '' () ())
6 'filenamelength' 'm_bern' 1 ((PARAMETER UNKNOWN UNKNOWN UNKNOWN NONE
NONE) (INTEGER 4) 0 0 () (CONSTANT (INTEGER 4) 0 '32') () () '' () ())
7 'filenamelength80' 'm_bern' 1 ((PARAMETER UNKNOWN UNKNOWN UNKNOWN NONE
NONE) (INTEGER 4) 0 0 () (CONSTANT (INTEGER 4) 0 '80') () () '' () ())
8 'filepathlength' 'm_bern' 1 ((PARAMETER UNKNOWN UNKNOWN UNKNOWN NONE
NONE) (INTEGER 4) 0 0 () (CONSTANT (INTEGER 4) 0 '32') () () '' () ())
9 'i4b' 'm_bern' 1 ((PARAMETER UNKNOWN UNKNOWN UNKNOWN NONE NONE) (
INTEGER 4) 0 0 () (CONSTANT (INTEGER 4) 0 '4') () () '' () ())
10 'i4ex' 'm_bern' 1 ((VARIABLE UNKNOWN UNKNOWN UNKNOWN NONE NONE) (
INTEGER 4) 0 0 () () () '' () ())
11 'init_key' 'm_bern' 1 ((PROCEDURE UNKNOWN MODULE-PROC DECL NONE NONE
SUBROUTINE) (PROCEDURE 0) 0 0 (12 NONE) () () '' () ())
13 'init_satfil' 'd_satfil' 1 ((PROCEDURE UNKNOWN MODULE-PROC DECL NONE
NONE SUBROUTINE) (PROCEDURE 0) 0 0 (14 NONE) () () '' () ())
15 'keynamelength' 'm_bern' 1 ((PARAMETER UNKNOWN UNKNOWN UNKNOWN NONE
NONE) (INTEGER 4) 0 0 () (CONSTANT (INTEGER 4) 0 '32') () () '' () ())
16 'keyvaluelength' 'm_bern' 1 ((PARAMETER UNKNOWN UNKNOWN UNKNOWN NONE
NONE) (INTEGER 4) 0 0 () (CONSTANT (INTEGER 4) 0 '255') () () '' () ())
17 'kind' '(intrinsic)' 1 ((PROCEDURE UNKNOWN INTRINSIC UNKNOWN NONE
NONE FUNCTION) (UNKNOWN) 0 0 () () () '' () ())
18 'lfn001' 'm_bern' 1 ((VARIABLE UNKNOWN UNKNOWN UNKNOWN NONE NONE) (
INTEGER 4) 0 0 () () () '' () ())
19 'lfn002' 'm_bern' 1 ((VARIABLE UNKNOWN UNKNOWN UNKNOWN NONE NONE) (
INTEGER 4) 0 0 () () () '' () ())
20 'lfneph' 'm_bern' 1 ((VARIABLE UNKNOWN UNKNOWN UNKNOWN NONE NONE) (
INTEGER 4) 0 0 () () () '' () ())
21 'lfnerf' 'm_bern' 1 ((VARIABLE UNKNOWN UNKNOWN UNKNOWN NONE NONE) (
INTEGER 4) 0 0 () () () '' () ())
22 'lfnerr' 'm_bern' 1 ((VARIABLE UNKNOWN UNKNOWN UNKNOWN NONE NONE) (
INTEGER 4) 0 0 () () () '' () ())
23 'lfnkbd' 'm_bern' 1 ((VARIABLE UNKNOWN UNKNOWN UNKNOWN NONE NONE) (
INTEGER 4) 0 0 () () () '' () ())
24 'lfnloc' 'm_bern' 1 ((VARIABLE UNKNOWN UNKNOWN UNKNOWN NONE NONE) (
INTEGER 4) 0 0 () () () '' () ())
25 'lfnor1' 'm_bern' 1 ((VARIABLE UNKNOWN UNKNOWN UNKNOWN NONE NONE) (
INTEGER 4) 0 0 () () () '' () ())
26 'lfnorb' 'm_bern' 1 ((VARIABLE UNKNOWN UNKNOWN UNKNOWN NONE NONE) (
INTEGER 4) 0 0 () () () '' () ())
27 'lfnplt' 'm_bern' 1 ((VARIABLE UNKNOWN UNKNOWN UNKNOWN NONE NONE) (
INTEGER 4) 0 0 () () () '' () ())
28 'lfnprf' 'm_bern' 1 ((VARIABLE UNKNOWN UNKNOWN UNKNOWN NONE NONE) (
INTEGER 4) 0 0 () () () '' () ())
29 'lfnprt' 'm_bern' 1 ((VARIABLE UNKNOWN UNKNOWN UNKNOWN NONE NONE) (
INTEGER 4) 0 0 () () () '' () ())
30 'lfnres' 'm_bern' 1 ((VARIABLE UNKNOWN UNKNOWN UNKNOWN NONE NONE) (
INTEGER 4) 0 0 () () () '' () ())
31 'lfnrp1' 'm_bern' 1 ((VARIABLE UNKNOWN UNKNOWN UNKNOWN NONE NONE) (
INTEGER 4) 0 0 () () () '' () ())
32 'lfnrpr' 'm_bern' 1 ((VARIABLE UNKNOWN UNKNOWN UNKNOWN NONE NONE) (
INTEGER 4) 0 0 () () () '' () ())
33 'linelength' 'm_bern' 1 ((PARAMETER UNKNOWN UNKNOWN UNKNOWN NONE NONE)
(INTEGER 4) 0 0 () (CONSTANT (INTEGER 4) 0 '255') () () '' () ())
34 'linelength1024' 'm_bern' 1 ((PARAMETER UNKNOWN UNKNOWN UNKNOWN NONE
NONE) (INTEGER 4) 0 0 () (CONSTANT (INTEGER 4) 0 '1024') () () '' () ())
35 'longlinelength' 'm_bern' 1 ((PARAMETER UNKNOWN UNKNOWN UNKNOWN NONE
NONE) (INTEGER 4) 0 0 () (CONSTANT (INTEGER 4) 0 '512') () () '' () ())
36 'm_bern' 'm_bern' 1 ((MODULE UNKNOWN UNKNOWN UNKNOWN NONE NONE) (
UNKNOWN) 0 0 () () () '' () ())
37 'm_time' 'm_time' 1 ((MODULE UNKNOWN UNKNOWN UNKNOWN NONE NONE) (
UNKNOWN) 0 0 () () () '' () ())
38 'pgmver' 'm_bern' 1 ((PARAMETER UNKNOWN UNKNOWN UNKNOWN NONE NONE) (
CHARACTER 1 ((CONSTANT (INTEGER 4) 0 '3'))) 0 0 () (CONSTANT (CHARACTER
1 ((CONSTANT (INTEGER 4) 0 '3'))) 0 3 '5.2') () () '' () ())
39 'program_dscr' 'm_bern' 1 ((VARIABLE UNKNOWN UNKNOWN UNKNOWN NONE
NONE) (CHARACTER 1 ((CONSTANT (INTEGER 4) 0 '80'))) 0 0 () () () '' () ())
40 'program_name' 'm_bern' 1 ((VARIABLE UNKNOWN UNKNOWN UNKNOWN NONE
NONE) (CHARACTER 1 ((CONSTANT (INTEGER 4) 0 '8'))) 0 0 () () () '' () ())
41 'r8b' 'm_bern' 1 ((PARAMETER UNKNOWN UNKNOWN UNKNOWN NONE NONE) (
INTEGER 4) 0 0 () (CONSTANT (INTEGER 4) 0 '8') () () '' () ())
42 'r8ex' 'm_bern' 1 ((VARIABLE UNKNOWN UNKNOWN UNKNOWN NONE NONE) (
REAL 8) 0 0 () () () '' () ())
43 'satfilvers' 'd_satfil' 1 ((PARAMETER UNKNOWN UNKNOWN UNKNOWN NONE
NONE) (REAL 8) 0 0 () (CONSTANT (REAL 8) 0 '4503599627370496' 0 1023) ()
() '' () ())
44 'shortlinelength' 'm_bern' 1 ((PARAMETER UNKNOWN UNKNOWN UNKNOWN NONE
NONE) (INTEGER 4) 0 0 () (CONSTANT (INTEGER 4) 0 '80') () () '' () ())
45 'stafla2length' 'm_bern' 1 ((PARAMETER UNKNOWN UNKNOWN UNKNOWN NONE
NONE) (INTEGER 4) 0 0 () (CONSTANT (INTEGER 4) 0 '5') () () '' () ())
46 'staflaglength' 'm_bern' 1 ((PARAMETER UNKNOWN UNKNOWN UNKNOWN NONE
NONE) (INTEGER 4) 0 0 () (CONSTANT (INTEGER 4) 0 '1') () () '' () ())
47 'stanam2length' 'm_bern' 1 ((PARAMETER UNKNOWN UNKNOWN UNKNOWN NONE
NONE) (INTEGER 4) 0 0 () (CONSTANT (INTEGER 4) 0 '20') () () '' () ())
48 'stanamelength' 'm_bern' 1 ((PARAMETER UNKNOWN UNKNOWN UNKNOWN NONE
NONE) (INTEGER 4) 0 0 () (CONSTANT (INTEGER 4) 0 '16') () () '' () ())
49 't_key' 'm_bern' 1 ((DERIVED UNKNOWN UNKNOWN UNKNOWN NONE NONE) (
UNKNOWN) 0 0 () () () '' ((50 'name' (CHARACTER 1 ((CONSTANT (INTEGER 4)
0 '32'))) () () 0 0 0 ()) (51 'value' (CHARACTER 1 ((CONSTANT (INTEGER 4)
0 '255'))) (1 DEFERRED () ()) () 1 1 0 ())) PUBLIC ())
52 't_rprmod' 'd_satfil' 1 ((DERIVED UNKNOWN UNKNOWN UNKNOWN NONE NONE)
(UNKNOWN) 0 0 () () () '' ((53 'svn' (INTEGER 4) () () 0 0 0 ()) (54
'timint' (DERIVED 55) () () 0 0 0 ()) (56 'rpmodel' (INTEGER 4) () () 0
0 0 ()) (57 'nrprcoe' (INTEGER 4) () () 0 0 0 ()) (58 'rprcoe' (REAL 8)
(1 DEFERRED () ()) () 1 1 0 ())) PUBLIC ())
59 't_satellite' 'd_satfil' 1 ((DERIVED UNKNOWN UNKNOWN UNKNOWN NONE
NONE) (UNKNOWN) 0 0 () () () '' ((60 'svn' (INTEGER 4) () () 0 0 0 ()) (
61 'svnnr' (CHARACTER 1 ((CONSTANT (INTEGER 4) 0 '4'))) () () 0 0 0 ())
(62 'iblock' (INTEGER 4) () () 0 0 0 ()) (63 'cospar' (CHARACTER 1 ((
CONSTANT (INTEGER 4) 0 '9'))) () () 0 0 0 ()) (64 'attflag' (INTEGER 4)
() () 0 0 0 ()) (65 'timint' (DERIVED 55) () () 0 0 0 ()) (66 'mass' (
REAL 8) () () 0 0 0 ()) (67 'formf' (REAL 8) () () 0 0 0 ()) (68 'radpres'
(REAL 8) () () 0 0 0 ()) (69 'admodel' (INTEGER 4) () () 0 0 0 ()) (70
'adrag' (REAL 8) () () 0 0 0 ()) (71 'plane' (CHARACTER 1 ((CONSTANT (
INTEGER 4) 0 '3'))) () () 0 0 0 ())) PUBLIC ())
72 't_satfil' 'd_satfil' 1 ((DERIVED UNKNOWN UNKNOWN UNKNOWN NONE NONE)
(UNKNOWN) 0 0 () () () '' ((73 'fvers' (REAL 8) () () 0 0 0 ()) (74
'pcvmod' (CHARACTER 1 ((CONSTANT (INTEGER 4) 0 '10'))) () () 0 0 0 ()) (
75 'rpmodel' (CHARACTER 1 ((CONSTANT (INTEGER 4) 0 '8'))) () () 0 0 0 ())
(76 'nsatellite' (INTEGER 4) () () 0 0 0 ()) (77 'nsensor' (INTEGER 4) ()
() 0 0 0 ()) (78 'nrprmod' (INTEGER 4) () () 0 0 0 ()) (79 'satellite' (
DERIVED 59) (1 DEFERRED () ()) () 1 1 0 ()) (80 'sensor' (DERIVED 81) (
1 DEFERRED () ()) () 1 1 0 ()) (82 'rprmod' (DERIVED 52) (1 DEFERRED ()
()) () 1 1 0 ())) PUBLIC ())
81 't_sensor' 'd_satfil' 1 ((DERIVED UNKNOWN UNKNOWN UNKNOWN NONE NONE)
(UNKNOWN) 0 0 () () () '' ((83 'svn' (INTEGER 4) () () 0 0 0 ()) (84
'type' (CHARACTER 1 ((CONSTANT (INTEGER 4) 0 '4'))) () () 0 0 0 ()) (85
'sensor' (CHARACTER 1 ((CONSTANT (INTEGER 4) 0 '20'))) () () 0 0 0 ()) (
86 'numb' (INTEGER 4) () () 0 0 0 ()) (87 'timint' (DERIVED 55) () () 0
0 0 ()) (88 'antoff' (REAL 8) (1 EXPLICIT (CONSTANT (INTEGER 4) 0 '1') (
CONSTANT (INTEGER 4) 0 '3')) () 1 0 0 ()) (89 'bore' (REAL 8) (1
EXPLICIT (CONSTANT (INTEGER 4) 0 '1') (CONSTANT (INTEGER 4) 0 '3')) () 1
0 0 ()) (90 'azim' (REAL 8) (1 EXPLICIT (CONSTANT (INTEGER 4) 0 '1') (
CONSTANT (INTEGER 4) 0 '3')) () 1 0 0 ()) (91 'name' (CHARACTER 1 ((
CONSTANT (INTEGER 4) 0 '20'))) () () 0 0 0 ()) (92 'ifrq' (INTEGER 4) ()
() 0 0 0 ()) (93 'nsigli' (INTEGER 4) () () 0 0 0 ()) (94 'sigli' (
CHARACTER 1 ((CONSTANT (INTEGER 4) 0 '3'))) (1 DEFERRED () ()) () 1 1 0
())) PUBLIC ())
55 't_timint' 'm_time' 1 ((DERIVED UNKNOWN UNKNOWN UNKNOWN NONE NONE) (
UNKNOWN) 0 0 () () () '' ((95 't' (REAL 8) (1 EXPLICIT (CONSTANT (
INTEGER 4) 0 '1') (CONSTANT (INTEGER 4) 0 '2')) () 1 0 0 ())) PUBLIC ())
96 'timstrglength' 'm_bern' 1 ((PARAMETER UNKNOWN UNKNOWN UNKNOWN NONE
NONE) (INTEGER 4) 0 0 () (CONSTANT (INTEGER 4) 0 '19') () () '' () ())
97 'timstrglength2' 'm_bern' 1 ((PARAMETER UNKNOWN UNKNOWN UNKNOWN NONE
NONE) (INTEGER 4) 0 0 () (CONSTANT (INTEGER 4) 0 '40') () () '' () ())
98 'typealt' 'd_satfil' 1 ((VARIABLE UNKNOWN UNKNOWN UNKNOWN NONE NONE)
(CHARACTER 1 ((CONSTANT (INTEGER 4) 0 '4'))) 0 0 () () () '' () ())
99 'typedori' 'd_satfil' 1 ((VARIABLE UNKNOWN UNKNOWN UNKNOWN NONE NONE)
(CHARACTER 1 ((CONSTANT (INTEGER 4) 0 '4'))) 0 0 () () () '' () ())
100 'typemwtr' 'd_satfil' 1 ((VARIABLE UNKNOWN UNKNOWN UNKNOWN NONE NONE)
(CHARACTER 1 ((CONSTANT (INTEGER 4) 0 '4'))) 0 0 () () () '' () ())
101 'typeocc' 'd_satfil' 1 ((VARIABLE UNKNOWN UNKNOWN UNKNOWN NONE NONE)
(CHARACTER 1 ((CONSTANT (INTEGER 4) 0 '4'))) 0 0 () () () '' () ())
102 'typepod' 'd_satfil' 1 ((VARIABLE UNKNOWN UNKNOWN UNKNOWN NONE NONE)
(CHARACTER 1 ((CONSTANT (INTEGER 4) 0 '4'))) 0 0 () () () '' () ())
103 'typeslr' 'd_satfil' 1 ((VARIABLE UNKNOWN UNKNOWN UNKNOWN NONE NONE)
(CHARACTER 1 ((CONSTANT (INTEGER 4) 0 '4'))) 0 0 () () () '' () ())
81 't_sensor' 'd_satfil' 1 ((DERIVED UNKNOWN UNKNOWN UNKNOWN NONE NONE)
(UNKNOWN) 0 0 () () () '' ((83 'svn' (INTEGER 4) () () 0 0 0 ()) (84
'type' (CHARACTER 1 ((CONSTANT (INTEGER 4) 0 '4'))) () () 0 0 0 ()) (85
'sensor' (CHARACTER 1 ((CONSTANT (INTEGER 4) 0 '20'))) () () 0 0 0 ()) (
86 'numb' (INTEGER 4) () () 0 0 0 ()) (87 'timint' (DERIVED 55) () () 0
0 0 ()) (88 'antoff' (REAL 8) (1 EXPLICIT (CONSTANT (INTEGER 4) 0 '1') (
CONSTANT (INTEGER 4) 0 '3')) () 1 0 0 ()) (89 'bore' (REAL 8) (1
EXPLICIT (CONSTANT (INTEGER 4) 0 '1') (CONSTANT (INTEGER 4) 0 '3')) () 1
0 0 ()) (90 'azim' (REAL 8) (1 EXPLICIT (CONSTANT (INTEGER 4) 0 '1') (
CONSTANT (INTEGER 4) 0 '3')) () 1 0 0 ()) (91 'name' (CHARACTER 1 ((
CONSTANT (INTEGER 4) 0 '20'))) () () 0 0 0 ()) (92 'ifrq' (INTEGER 4) ()
() 0 0 0 ()) (93 'nsigli' (INTEGER 4) () () 0 0 0 ()) (94 'sigli' (
CHARACTER 1 ((CONSTANT (INTEGER 4) 0 '3'))) (1 DEFERRED () ()) () 1 1 0
())) PUBLIC ())
55 't_timint' 'm_time' 1 ((DERIVED UNKNOWN UNKNOWN UNKNOWN NONE NONE) (
UNKNOWN) 0 0 () () () '' ((95 't' (REAL 8) (1 EXPLICIT (CONSTANT (
INTEGER 4) 0 '1') (CONSTANT (INTEGER 4) 0 '2')) () 1 0 0 ())) PUBLIC ())
14 'satfil' '' 104 ((VARIABLE UNKNOWN UNKNOWN UNKNOWN NONE NONE DUMMY) (
DERIVED 72) 0 0 () () () '' () ())
12 'key' '' 105 ((VARIABLE UNKNOWN UNKNOWN UNKNOWN NONE NONE DUMMY) (
DERIVED 49) 0 0 () () () '' () ())
)

('backslash' 0 2 'char' 0 3 'd_satfil' 0 4 'fileextlength' 0 5
'filenamelength' 0 6 'filenamelength80' 0 7 'filepathlength' 0 8 'i4b' 0
9 'i4ex' 0 10 'init_key' 0 11 'init_satfil' 0 13 'keynamelength' 0 15
'keyvaluelength' 0 16 'kind' 0 17 'lfn001' 0 18 'lfn002' 0 19 'lfneph' 0
20 'lfnerf' 0 21 'lfnerr' 0 22 'lfnkbd' 0 23 'lfnloc' 0 24 'lfnor1' 0 25
'lfnorb' 0 26 'lfnplt' 0 27 'lfnprf' 0 28 'lfnprt' 0 29 'lfnres' 0 30
'lfnrp1' 0 31 'lfnrpr' 0 32 'linelength' 0 33 'linelength1024' 0 34
'longlinelength' 0 35 'm_bern' 0 36 'm_time' 0 37 'pgmver' 0 38
'program_dscr' 0 39 'program_name' 0 40 'r8b' 0 41 'r8ex' 0 42
'satfilvers' 0 43 'shortlinelength' 0 44 'stafla2length' 0 45
'staflaglength' 0 46 'stanam2length' 0 47 'stanamelength' 0 48 't_key' 0
49 't_rprmod' 0 52 't_satellite' 0 59 't_satfil' 0 72 't_sensor' 0 81
't_timint' 0 55 'timstrglength' 0 96 'timstrglength2' 0 97 'typealt' 0
98 'typedori' 0 99 'typemwtr' 0 100 'typeocc' 0 101 'typepod' 0 102
'typeslr' 0 103)
