G95 module created on Thu Jun 25 17:44:31 2020 from ./.fpp/D_SHADOW.f90
If you edit this, you'll get what you deserve.
module-version 9
(() () () () () () () () () () () () () () () () () () () () ())

()

()

()

()

(2 'd_shadow' 'd_shadow' 1 ((MODULE UNKNOWN UNKNOWN UNKNOWN NONE NONE) (
UNKNOWN) 0 0 () () () '' () ())
3 'i4b' 'm_bern' 1 ((PARAMETER UNKNOWN UNKNOWN UNKNOWN NONE NONE) (
INTEGER 4) 0 0 () (CONSTANT (INTEGER 4) 0 '4') () () '' () ())
4 'init_mooecl' 'd_shadow' 1 ((PROCEDURE UNKNOWN MODULE-PROC DECL NONE
NONE SUBROUTINE) (PROCEDURE 0) 0 0 (5 NONE) () () '' () ())
6 'm_bern' 'm_bern' 1 ((MODULE UNKNOWN UNKNOWN UNKNOWN NONE NONE) (
UNKNOWN) 0 0 () () () '' () ())
7 'm_maxdim' 'm_maxdim' 1 ((MODULE UNKNOWN UNKNOWN UNKNOWN NONE NONE) (
UNKNOWN) 0 0 () () () '' () ())
8 'maxmev' 'd_shadow' 1 ((PARAMETER UNKNOWN UNKNOWN UNKNOWN NONE NONE) (
INTEGER 4) 0 0 () (CONSTANT (INTEGER 4) 0 '70') () () '' () ())
9 'maxsat' 'm_maxdim' 1 ((PARAMETER UNKNOWN UNKNOWN UNKNOWN NONE NONE) (
INTEGER 4) 0 0 () (CONSTANT (INTEGER 4) 0 '130') () () '' () ())
10 'r8b' 'm_bern' 1 ((PARAMETER UNKNOWN UNKNOWN UNKNOWN NONE NONE) (
INTEGER 4) 0 0 () (CONSTANT (INTEGER 4) 0 '8') () () '' () ())
11 't_mooecl' 'd_shadow' 1 ((DERIVED UNKNOWN UNKNOWN UNKNOWN NONE NONE)
(UNKNOWN) 0 0 () () () '' ((12 'iecl' (INTEGER 4) () () 0 0 0 ()) (13
'nsat' (INTEGER 4) () () 0 0 0 ()) (14 'sat' (DERIVED 15) (1 DEFERRED ()
()) () 1 1 0 ())) PUBLIC ())
15 't_mooecl_sat' 'd_shadow' 1 ((DERIVED UNKNOWN UNKNOWN UNKNOWN NONE
NONE) (UNKNOWN) 0 0 () () () '' ((16 'svn' (INTEGER 4) () () 0 0 0 ()) (
17 'nevent' (INTEGER 4) () () 0 0 0 ()) (18 'ievent' (INTEGER 4) (1
EXPLICIT (CONSTANT (INTEGER 4) 0 '1') (CONSTANT (INTEGER 4) 0 '70')) ()
1 0 0 ()) (19 'tevent' (REAL 8) (1 EXPLICIT (CONSTANT (INTEGER 4) 0 '1')
(CONSTANT (INTEGER 4) 0 '70')) () 1 0 0 ()) (20 'eclmin' (REAL 8) (1
EXPLICIT (CONSTANT (INTEGER 4) 0 '1') (CONSTANT (INTEGER 4) 0 '70')) ()
1 0 0 ())) PUBLIC ())
15 't_mooecl_sat' 'd_shadow' 1 ((DERIVED UNKNOWN UNKNOWN UNKNOWN NONE
NONE) (UNKNOWN) 0 0 () () () '' ((16 'svn' (INTEGER 4) () () 0 0 0 ()) (
17 'nevent' (INTEGER 4) () () 0 0 0 ()) (18 'ievent' (INTEGER 4) (1
EXPLICIT (CONSTANT (INTEGER 4) 0 '1') (CONSTANT (INTEGER 4) 0 '70')) ()
1 0 0 ()) (19 'tevent' (REAL 8) (1 EXPLICIT (CONSTANT (INTEGER 4) 0 '1')
(CONSTANT (INTEGER 4) 0 '70')) () 1 0 0 ()) (20 'eclmin' (REAL 8) (1
EXPLICIT (CONSTANT (INTEGER 4) 0 '1') (CONSTANT (INTEGER 4) 0 '70')) ()
1 0 0 ())) PUBLIC ())
5 'mooecl' '' 21 ((VARIABLE UNKNOWN UNKNOWN UNKNOWN NONE NONE DUMMY) (
DERIVED 11) 0 0 () () () '' () ())
)

('d_shadow' 0 2 'i4b' 0 3 'init_mooecl' 0 4 'm_bern' 0 6 'm_maxdim' 0 7
'maxmev' 0 8 'maxsat' 0 9 'r8b' 0 10 't_mooecl' 0 11 't_mooecl_sat' 0 15)
