G95 module created on Thu Jun 25 17:45:14 2020 from ./.fpp/ANTCHK.f90
If you edit this, you'll get what you deserve.
module-version 9
(() () () () () () () () () () () () () () () () () () () () ())

()

()

()

()

(2 'antchk' 'f_antchk' 1 ((PROCEDURE UNKNOWN MODULE-PROC DECL NONE NONE
FUNCTION) (LOGICAL 4) 0 0 (3 NONE 4 NONE) () () '' () ())
5 'f_antchk' 'f_antchk' 1 ((MODULE UNKNOWN UNKNOWN UNKNOWN NONE NONE) (
UNKNOWN) 0 0 () () () '' () ())
4 'ant2' '' 6 ((VARIABLE UNKNOWN UNKNOWN UNKNOWN NONE NONE DUMMY) (
DERIVED 7) 0 0 () () () '' () ())
7 't_phasfil' 'd_phaecc' 6 ((DERIVED UNKNOWN UNKNOWN UNKNOWN NONE NONE)
(UNKNOWN) 0 0 () () () '' ((8 'name' (CHARACTER 1 ((CONSTANT (INTEGER 4)
0 '20'))) () () 0 0 0 ()) (9 'numb' (INTEGER 4) () () 0 0 0 ()) (10 'sys'
(DERIVED 11) (1 DEFERRED () ()) () 1 1 0 ()) (12 'individ' (INTEGER 4) ()
() 0 0 0 ())) PUBLIC ())
11 't_sys' 'd_phaecc' 6 ((DERIVED UNKNOWN UNKNOWN UNKNOWN NONE NONE) (
UNKNOWN) 0 0 () () () '' ((13 'freq' (DERIVED 14) (1 DEFERRED () ()) ()
1 1 0 ()) (15 'nfreq' (INTEGER 4) () () 0 0 0 ()) (16 'typ' (INTEGER 4)
() () 0 0 0 ()) (17 'resolu' (INTEGER 4) (1 EXPLICIT (CONSTANT (INTEGER
4) 0 '1') (CONSTANT (INTEGER 4) 0 '4')) () 1 0 0 ()) (18 'sinex' (
CHARACTER 1 ((CONSTANT (INTEGER 4) 0 '10'))) () () 0 0 0 ()) (19 'method'
(CHARACTER 1 ((CONSTANT (INTEGER 4) 0 '20'))) () () 0 0 0 ()) (20 'date'
(CHARACTER 1 ((CONSTANT (INTEGER 4) 0 '10'))) () () 0 0 0 ()) (21 'remark'
(CHARACTER 1 ((CONSTANT (INTEGER 4) 0 '255'))) () () 0 0 0 ())) PUBLIC ())
14 't_freq' 'd_phaecc' 6 ((DERIVED UNKNOWN UNKNOWN UNKNOWN NONE NONE) (
UNKNOWN) 0 0 () () () '' ((22 'freq' (INTEGER 4) () () 0 0 0 ()) (23 'off'
(REAL 8) (2 DEFERRED () () () ()) () 1 1 0 ()) (24 'pat' (REAL 8) (3
DEFERRED () () () () () ()) () 1 1 0 ()) (25 'fac' (REAL 8) (1 DEFERRED
() ()) () 1 1 0 ())) PUBLIC ())
3 'ant1' '' 6 ((VARIABLE UNKNOWN UNKNOWN UNKNOWN NONE NONE DUMMY) (
DERIVED 7) 0 0 () () () '' () ())
)

('antchk' 0 2 'f_antchk' 0 5)
