G95 module created on Thu Jun 25 17:42:55 2020 from ./.fpp/DGPSUT.f
If you edit this, you'll get what you deserve.
module-version 9
(() () () () () () () () () () () () () () () () () () () () ())

()

()

()

()

(2 'dgpsut' 'f_dgpsut' 1 ((PROCEDURE UNKNOWN MODULE-PROC DECL NONE NONE
FUNCTION) (REAL 8) 0 0 (3 NONE) () () '' () ())
4 'f_dgpsut' 'f_dgpsut' 1 ((MODULE UNKNOWN UNKNOWN UNKNOWN NONE NONE) (
UNKNOWN) 0 0 () () () '' () ())
3 'time' '' 5 ((VARIABLE UNKNOWN UNKNOWN UNKNOWN NONE NONE DUMMY) (REAL
8) 0 0 () () () '' () ())
)

('dgpsut' 0 2 'f_dgpsut' 0 4)
