G95 module created on Thu Jun 25 17:42:44 2020 from ./.fpp/GMST2000.f90
If you edit this, you'll get what you deserve.
module-version 9
(() () () () () () () () () () () () () () () () () () () () ())

()

()

()

()

(2 'f_gmst2000' 'f_gmst2000' 1 ((MODULE UNKNOWN UNKNOWN UNKNOWN NONE
NONE) (UNKNOWN) 0 0 () () () '' () ())
3 'gmst2000' 'f_gmst2000' 1 ((PROCEDURE UNKNOWN MODULE-PROC DECL NONE
NONE FUNCTION) (REAL 8) 0 0 (4 NONE 5 NONE) () () '' () ())
5 'tt' '' 6 ((VARIABLE UNKNOWN UNKNOWN UNKNOWN NONE NONE DUMMY) (
DERIVED 7) 0 0 () () () '' () ())
7 't_epoch' 'm_epoch' 6 ((DERIVED UNKNOWN UNKNOWN UNKNOWN NONE NONE) (
UNKNOWN) 0 0 () () () '' ((8 'day' (INTEGER 4) () () 0 0 0 ()) (9 'frac'
(REAL 8) () () 0 0 0 ())) PUBLIC ())
4 'ut1' '' 6 ((VARIABLE UNKNOWN UNKNOWN UNKNOWN NONE NONE DUMMY) (
DERIVED 7) 0 0 () () () '' () ())
)

('f_gmst2000' 0 2 'gmst2000' 0 3)
