G95 module created on Thu Jun 25 17:42:41 2020 from ./.fpp/GPSMJD.f
If you edit this, you'll get what you deserve.
module-version 9
(() () () () () () () () () () () () () () () () () () () () ())

()

()

()

()

(2 'f_gpsmjd' 'f_gpsmjd' 1 ((MODULE UNKNOWN UNKNOWN UNKNOWN NONE NONE) (
UNKNOWN) 0 0 () () () '' () ())
3 'gpsmjd' 'f_gpsmjd' 1 ((PROCEDURE UNKNOWN MODULE-PROC DECL NONE NONE
FUNCTION) (REAL 8) 0 0 (4 NONE 5 NONE) () () '' () ())
5 'nweek' '' 6 ((VARIABLE UNKNOWN UNKNOWN UNKNOWN NONE NONE DUMMY) (
INTEGER 4) 0 0 () () () '' () ())
4 'second' '' 6 ((VARIABLE UNKNOWN UNKNOWN UNKNOWN NONE NONE DUMMY) (
REAL 8) 0 0 () () () '' () ())
)

('f_gpsmjd' 0 2 'gpsmjd' 0 3)
