G95 module created on Thu Jun 25 17:43:53 2020 from ./.fpp/MATINV.f90
If you edit this, you'll get what you deserve.
module-version 9
(() () () () () () () () () () () () () () () () () () () () ())

()

()

()

()

(2 'f_matinv' 'f_matinv' 1 ((MODULE UNKNOWN UNKNOWN UNKNOWN NONE NONE) (
UNKNOWN) 0 0 () () () '' () ())
3 'matinv' 'f_matinv' 1 ((PROCEDURE UNKNOWN MODULE-PROC DECL NONE NONE
FUNCTION) (INTEGER 4) 0 0 (4 NONE 5 NONE) () () '' () ())
5 'nn' '' 6 ((VARIABLE UNKNOWN UNKNOWN UNKNOWN NONE NONE DUMMY) (
INTEGER 4) 0 0 () () () '' () ())
4 'aa' '' 6 ((VARIABLE UNKNOWN UNKNOWN UNKNOWN NONE NONE DIMENSION DUMMY)
(REAL 8) 0 0 () (2 EXPLICIT (CONSTANT (INTEGER 4) 0 '1') (VARIABLE (
INTEGER 4) 0 5 ()) (CONSTANT (INTEGER 4) 0 '1') (VARIABLE (INTEGER 4) 0
5 ())) () '' () ())
)

('f_matinv' 0 2 'matinv' 0 3)
