G95 module created on Thu Jun 25 17:42:43 2020 from ./.fpp/NOPOLFIL.f90
If you edit this, you'll get what you deserve.
module-version 9
(() () () () () () () () () () () () () () () () () () () () ())

()

()

()

()

(2 'f_nopolfil' 'f_nopolfil' 1 ((MODULE UNKNOWN UNKNOWN UNKNOWN NONE
NONE) (UNKNOWN) 0 0 () () () '' () ())
3 'nopolfil' 'f_nopolfil' 1 ((PROCEDURE UNKNOWN MODULE-PROC DECL NONE
NONE FUNCTION) (LOGICAL 4) 0 0 (4 NONE) () () '' () ())
4 'polfil' '' 5 ((VARIABLE UNKNOWN UNKNOWN UNKNOWN NONE NONE DUMMY) (
CHARACTER 1 (())) 0 0 () () () '' () ())
)

('f_nopolfil' 0 2 'nopolfil' 0 3)
