G95 module created on Thu Jun 25 17:44:30 2020 from ./.fpp/PRTRMS.f90
If you edit this, you'll get what you deserve.
module-version 9
(() () () () () () () () () () () () () () () () () () () () ())

()

()

()

()

(2 'f_prtrms' 'f_prtrms' 1 ((MODULE UNKNOWN UNKNOWN UNKNOWN NONE NONE) (
UNKNOWN) 0 0 () () () '' () ())
3 'prtrms' 'f_prtrms' 1 ((PROCEDURE UNKNOWN MODULE-PROC DECL NONE NONE
FUNCTION) (CHARACTER 1 ((CONSTANT (INTEGER 4) 0 '5'))) 0 0 (4 NONE) () ()
'' () ())
4 'rms' '' 5 ((VARIABLE UNKNOWN UNKNOWN UNKNOWN NONE NONE DUMMY) (REAL 8)
0 0 () () () '' () ())
)

('f_prtrms' 0 2 'prtrms' 0 3)
