G95 module created on Thu Jun 25 17:42:33 2020 from ./.fpp/TSTKEY.f90
If you edit this, you'll get what you deserve.
module-version 9
(() () () () () () () () () () () () () () () () () () () () ())

()

()

()

()

(2 'f_tstkey' 'f_tstkey' 1 ((MODULE UNKNOWN UNKNOWN UNKNOWN NONE NONE) (
UNKNOWN) 0 0 () () () '' () ())
3 'tstkey' 'f_tstkey' 1 ((PROCEDURE UNKNOWN MODULE-PROC DECL NONE NONE
FUNCTION) (LOGICAL 4) 0 0 (4 NONE) () () '' () ())
4 'keyword' '' 5 ((VARIABLE UNKNOWN UNKNOWN UNKNOWN NONE NONE DUMMY) (
CHARACTER 1 (())) 0 0 () () () '' () ())
)

('f_tstkey' 0 2 'tstkey' 0 3)
