G95 module created on Thu Jun 25 17:42:33 2020 from ./.fpp/M_GLOBAL.f90
If you edit this, you'll get what you deserve.
module-version 9
(() () () () () () () () () () () () () () () () () () () () ())

()

()

()

()

(2 'antcom' 'm_global' 1 ((PARAMETER UNKNOWN UNKNOWN UNKNOWN NONE NONE)
(CHARACTER 1 ((CONSTANT (INTEGER 4) 0 '6'))) 0 0 () (CONSTANT (
CHARACTER 1 ((CONSTANT (INTEGER 4) 0 '6'))) 0 6 'BEIDOU') () () '' () ())
3 'antgal' 'm_global' 1 ((PARAMETER UNKNOWN UNKNOWN UNKNOWN NONE NONE) (
CHARACTER 1 ((CONSTANT (INTEGER 4) 0 '7'))) 0 0 () (CONSTANT (CHARACTER
1 ((CONSTANT (INTEGER 4) 0 '7'))) 0 7 'GALILEO') () () '' () ())
4 'antgeo' 'm_global' 1 ((PARAMETER UNKNOWN UNKNOWN UNKNOWN NONE NONE) (
CHARACTER 1 ((CONSTANT (INTEGER 4) 0 '4'))) 0 0 () (CONSTANT (CHARACTER
1 ((CONSTANT (INTEGER 4) 0 '4'))) 0 4 'SBAS') () () '' () ())
5 'antglo' 'm_global' 1 ((PARAMETER UNKNOWN UNKNOWN UNKNOWN NONE NONE) (
CHARACTER 1 ((CONSTANT (INTEGER 4) 0 '7'))) 0 0 () (CONSTANT (CHARACTER
1 ((CONSTANT (INTEGER 4) 0 '7'))) 0 7 'GLONASS') () () '' () ())
6 'antgps' 'm_global' 1 ((PARAMETER UNKNOWN UNKNOWN UNKNOWN NONE NONE) (
CHARACTER 1 ((CONSTANT (INTEGER 4) 0 '5'))) 0 0 () (CONSTANT (CHARACTER
1 ((CONSTANT (INTEGER 4) 0 '5'))) 0 5 'BLOCK') () () '' () ())
7 'antirn' 'm_global' 1 ((PARAMETER UNKNOWN UNKNOWN UNKNOWN NONE NONE) (
CHARACTER 1 ((CONSTANT (INTEGER 4) 0 '5'))) 0 0 () (CONSTANT (CHARACTER
1 ((CONSTANT (INTEGER 4) 0 '5'))) 0 5 'IRNSS') () () '' () ())
8 'antqzs' 'm_global' 1 ((PARAMETER UNKNOWN UNKNOWN UNKNOWN NONE NONE) (
CHARACTER 1 ((CONSTANT (INTEGER 4) 0 '4'))) 0 0 () (CONSTANT (CHARACTER
1 ((CONSTANT (INTEGER 4) 0 '4'))) 0 4 'QZSS') () () '' () ())
9 'g_atxsys' 'm_global' 1 ((VARIABLE UNKNOWN UNKNOWN UNKNOWN NONE NONE
DIMENSION) (CHARACTER 1 ((CONSTANT (INTEGER 4) 0 '1'))) 0 0 () (1
EXPLICIT (CONSTANT (INTEGER 4) 0 '0') (CONSTANT (INTEGER 4) 0 '10')) () ''
() ())
10 'g_meastr' 'm_global' 1 ((PARAMETER UNKNOWN UNKNOWN UNKNOWN NONE NONE
DIMENSION) (CHARACTER 1 ((CONSTANT (INTEGER 4) 0 '5'))) 0 0 () (ARRAY (
CHARACTER 1 ((CONSTANT (INTEGER 4) 0 '5'))) 1 (((CONSTANT (CHARACTER 1 (
(CONSTANT (INTEGER 4) 0 '5'))) 0 5 'PHASE') ()) ((CONSTANT (CHARACTER 1
((CONSTANT (INTEGER 4) 0 '5'))) 0 5 'CODE ') ()) ((CONSTANT (CHARACTER 1
((CONSTANT (INTEGER 4) 0 '5'))) 0 5 'RANGE') ())) ()) (1 EXPLICIT (
CONSTANT (INTEGER 4) 0 '1') (CONSTANT (INTEGER 4) 0 '3')) () '' () ())
11 'g_meatyp' 'm_global' 1 ((VARIABLE UNKNOWN UNKNOWN UNKNOWN NONE NONE
DIMENSION) (CHARACTER 1 ((CONSTANT (INTEGER 4) 0 '1'))) 0 0 () (1
EXPLICIT (CONSTANT (INTEGER 4) 0 '1') (CONSTANT (INTEGER 4) 0 '3')) () ''
() ())
12 'g_rnxsys' 'm_global' 1 ((VARIABLE UNKNOWN UNKNOWN UNKNOWN NONE NONE
DIMENSION) (CHARACTER 1 ((CONSTANT (INTEGER 4) 0 '1'))) 0 0 () (1
EXPLICIT (CONSTANT (INTEGER 4) 0 '0') (CONSTANT (INTEGER 4) 0 '5')) () ''
() ())
13 'g_strsys' 'm_global' 1 ((VARIABLE UNKNOWN UNKNOWN UNKNOWN NONE NONE
DIMENSION) (CHARACTER 1 ((CONSTANT (INTEGER 4) 0 '7'))) 0 0 () (1
EXPLICIT (CONSTANT (INTEGER 4) 0 '0') (CONSTANT (INTEGER 4) 0 '10')) () ''
() ())
14 'g_strsys3' 'm_global' 1 ((VARIABLE UNKNOWN UNKNOWN UNKNOWN NONE NONE
DIMENSION) (CHARACTER 1 ((CONSTANT (INTEGER 4) 0 '3'))) 0 0 () (1
EXPLICIT (CONSTANT (INTEGER 4) 0 '0') (CONSTANT (INTEGER 4) 0 '10')) () ''
() ())
15 'g_svnsys' 'm_global' 1 ((VARIABLE UNKNOWN UNKNOWN UNKNOWN NONE NONE
DIMENSION) (CHARACTER 1 ((CONSTANT (INTEGER 4) 0 '1'))) 0 0 () (1
EXPLICIT (CONSTANT (INTEGER 4) 0 '0') (CONSTANT (INTEGER 4) 0 '10')) () ''
() ())
16 'g_syssvn' 'm_global' 1 ((VARIABLE UNKNOWN UNKNOWN UNKNOWN NONE NONE
DIMENSION) (CHARACTER 1 ((CONSTANT (INTEGER 4) 0 '1'))) 0 0 () (1
EXPLICIT (CONSTANT (INTEGER 4) 0 '0') (CONSTANT (INTEGER 4) 0 '10')) () ''
() ())
17 'i4b' 'm_bern' 1 ((PARAMETER UNKNOWN UNKNOWN UNKNOWN NONE NONE) (
INTEGER 4) 0 0 () (CONSTANT (INTEGER 4) 0 '4') () () '' () ())
18 'm_bern' 'm_bern' 1 ((MODULE UNKNOWN UNKNOWN UNKNOWN NONE NONE) (
UNKNOWN) 0 0 () () () '' () ())
19 'm_global' 'm_global' 1 ((MODULE UNKNOWN UNKNOWN UNKNOWN NONE NONE) (
UNKNOWN) 0 0 () () () '' () ())
20 'maxprn' 'm_global' 1 ((PARAMETER UNKNOWN UNKNOWN UNKNOWN NONE NONE)
(INTEGER 4) 0 0 () (CONSTANT (INTEGER 4) 0 '999') () () '' () ())
21 'maxsys' 'm_global' 1 ((PARAMETER UNKNOWN UNKNOWN UNKNOWN NONE NONE)
(INTEGER 4) 0 0 () (CONSTANT (INTEGER 4) 0 '6') () () '' () ())
)

('antcom' 0 2 'antgal' 0 3 'antgeo' 0 4 'antglo' 0 5 'antgps' 0 6 'antirn'
0 7 'antqzs' 0 8 'g_atxsys' 0 9 'g_meastr' 0 10 'g_meatyp' 0 11 'g_rnxsys'
0 12 'g_strsys' 0 13 'g_strsys3' 0 14 'g_svnsys' 0 15 'g_syssvn' 0 16
'i4b' 0 17 'm_bern' 0 18 'm_global' 0 19 'maxprn' 0 20 'maxsys' 0 21)
