G95 module created on Thu Jun 25 17:44:01 2020 from ./.fpp/P_CCRNXC.f90
If you edit this, you'll get what you deserve.
module-version 9
(() () () () () () () () () () () () () () () () () () () () ())

()

()

()

()

(2 'backslash' 'm_bern' 1 ((PARAMETER UNKNOWN UNKNOWN UNKNOWN NONE NONE)
(CHARACTER 1 ((CONSTANT (INTEGER 4) 0 '1'))) 0 0 () (CONSTANT (
CHARACTER 1 ((CONSTANT (INTEGER 4) 0 '1'))) 0 1 '\') () () '' () ())
3 'char' '(intrinsic)' 1 ((PROCEDURE UNKNOWN INTRINSIC UNKNOWN NONE NONE
FUNCTION) (UNKNOWN) 0 0 () () () '' () ())
4 'fileextlength' 'm_bern' 1 ((PARAMETER UNKNOWN UNKNOWN UNKNOWN NONE
NONE) (INTEGER 4) 0 0 () (CONSTANT (INTEGER 4) 0 '3') () () '' () ())
5 'filenamelength' 'm_bern' 1 ((PARAMETER UNKNOWN UNKNOWN UNKNOWN NONE
NONE) (INTEGER 4) 0 0 () (CONSTANT (INTEGER 4) 0 '32') () () '' () ())
6 'filenamelength80' 'm_bern' 1 ((PARAMETER UNKNOWN UNKNOWN UNKNOWN NONE
NONE) (INTEGER 4) 0 0 () (CONSTANT (INTEGER 4) 0 '80') () () '' () ())
7 'filepathlength' 'm_bern' 1 ((PARAMETER UNKNOWN UNKNOWN UNKNOWN NONE
NONE) (INTEGER 4) 0 0 () (CONSTANT (INTEGER 4) 0 '32') () () '' () ())
8 'i4b' 'm_bern' 1 ((PARAMETER UNKNOWN UNKNOWN UNKNOWN NONE NONE) (
INTEGER 4) 0 0 () (CONSTANT (INTEGER 4) 0 '4') () () '' () ())
9 'i4ex' 'm_bern' 1 ((VARIABLE UNKNOWN UNKNOWN UNKNOWN NONE NONE) (
INTEGER 4) 0 0 () () () '' () ())
10 'init_ccrnxc_fil' 'p_ccrnxc' 1 ((PROCEDURE UNKNOWN MODULE-PROC DECL
NONE NONE SUBROUTINE) (PROCEDURE 0) 0 0 (11 NONE) () () '' () ())
12 'init_ccrnxc_opt' 'p_ccrnxc' 1 ((PROCEDURE UNKNOWN MODULE-PROC DECL
NONE NONE SUBROUTINE) (PROCEDURE 0) 0 0 (13 NONE) () () '' () ())
14 'init_key' 'm_bern' 1 ((PROCEDURE UNKNOWN MODULE-PROC DECL NONE NONE
SUBROUTINE) (PROCEDURE 0) 0 0 (15 NONE) () () '' () ())
16 'keynamelength' 'm_bern' 1 ((PARAMETER UNKNOWN UNKNOWN UNKNOWN NONE
NONE) (INTEGER 4) 0 0 () (CONSTANT (INTEGER 4) 0 '32') () () '' () ())
17 'keyvaluelength' 'm_bern' 1 ((PARAMETER UNKNOWN UNKNOWN UNKNOWN NONE
NONE) (INTEGER 4) 0 0 () (CONSTANT (INTEGER 4) 0 '255') () () '' () ())
18 'kind' '(intrinsic)' 1 ((PROCEDURE UNKNOWN INTRINSIC UNKNOWN NONE
NONE FUNCTION) (UNKNOWN) 0 0 () () () '' () ())
19 'lfn001' 'm_bern' 1 ((VARIABLE UNKNOWN UNKNOWN UNKNOWN NONE NONE) (
INTEGER 4) 0 0 () () () '' () ())
20 'lfn002' 'm_bern' 1 ((VARIABLE UNKNOWN UNKNOWN UNKNOWN NONE NONE) (
INTEGER 4) 0 0 () () () '' () ())
21 'lfneph' 'm_bern' 1 ((VARIABLE UNKNOWN UNKNOWN UNKNOWN NONE NONE) (
INTEGER 4) 0 0 () () () '' () ())
22 'lfnerf' 'm_bern' 1 ((VARIABLE UNKNOWN UNKNOWN UNKNOWN NONE NONE) (
INTEGER 4) 0 0 () () () '' () ())
23 'lfnerr' 'm_bern' 1 ((VARIABLE UNKNOWN UNKNOWN UNKNOWN NONE NONE) (
INTEGER 4) 0 0 () () () '' () ())
24 'lfnkbd' 'm_bern' 1 ((VARIABLE UNKNOWN UNKNOWN UNKNOWN NONE NONE) (
INTEGER 4) 0 0 () () () '' () ())
25 'lfnloc' 'm_bern' 1 ((VARIABLE UNKNOWN UNKNOWN UNKNOWN NONE NONE) (
INTEGER 4) 0 0 () () () '' () ())
26 'lfnor1' 'm_bern' 1 ((VARIABLE UNKNOWN UNKNOWN UNKNOWN NONE NONE) (
INTEGER 4) 0 0 () () () '' () ())
27 'lfnorb' 'm_bern' 1 ((VARIABLE UNKNOWN UNKNOWN UNKNOWN NONE NONE) (
INTEGER 4) 0 0 () () () '' () ())
28 'lfnplt' 'm_bern' 1 ((VARIABLE UNKNOWN UNKNOWN UNKNOWN NONE NONE) (
INTEGER 4) 0 0 () () () '' () ())
29 'lfnprf' 'm_bern' 1 ((VARIABLE UNKNOWN UNKNOWN UNKNOWN NONE NONE) (
INTEGER 4) 0 0 () () () '' () ())
30 'lfnprt' 'm_bern' 1 ((VARIABLE UNKNOWN UNKNOWN UNKNOWN NONE NONE) (
INTEGER 4) 0 0 () () () '' () ())
31 'lfnres' 'm_bern' 1 ((VARIABLE UNKNOWN UNKNOWN UNKNOWN NONE NONE) (
INTEGER 4) 0 0 () () () '' () ())
32 'lfnrp1' 'm_bern' 1 ((VARIABLE UNKNOWN UNKNOWN UNKNOWN NONE NONE) (
INTEGER 4) 0 0 () () () '' () ())
33 'lfnrpr' 'm_bern' 1 ((VARIABLE UNKNOWN UNKNOWN UNKNOWN NONE NONE) (
INTEGER 4) 0 0 () () () '' () ())
34 'linelength' 'm_bern' 1 ((PARAMETER UNKNOWN UNKNOWN UNKNOWN NONE NONE)
(INTEGER 4) 0 0 () (CONSTANT (INTEGER 4) 0 '255') () () '' () ())
35 'linelength1024' 'm_bern' 1 ((PARAMETER UNKNOWN UNKNOWN UNKNOWN NONE
NONE) (INTEGER 4) 0 0 () (CONSTANT (INTEGER 4) 0 '1024') () () '' () ())
36 'longlinelength' 'm_bern' 1 ((PARAMETER UNKNOWN UNKNOWN UNKNOWN NONE
NONE) (INTEGER 4) 0 0 () (CONSTANT (INTEGER 4) 0 '512') () () '' () ())
37 'm_bern' 'm_bern' 1 ((MODULE UNKNOWN UNKNOWN UNKNOWN NONE NONE) (
UNKNOWN) 0 0 () () () '' () ())
38 'm_time' 'm_time' 1 ((MODULE UNKNOWN UNKNOWN UNKNOWN NONE NONE) (
UNKNOWN) 0 0 () () () '' () ())
39 'null' 'p_ccrnxc' 1 ((PARAMETER UNKNOWN UNKNOWN UNKNOWN NONE NONE) (
REAL 8) 0 0 () (CONSTANT (REAL 8) 0 '4951760137355264' 0 983) () () '' ()
())
40 'p_ccrnxc' 'p_ccrnxc' 1 ((MODULE UNKNOWN UNKNOWN UNKNOWN NONE NONE) (
UNKNOWN) 0 0 () () () '' () ())
41 'pgmver' 'm_bern' 1 ((PARAMETER UNKNOWN UNKNOWN UNKNOWN NONE NONE) (
CHARACTER 1 ((CONSTANT (INTEGER 4) 0 '3'))) 0 0 () (CONSTANT (CHARACTER
1 ((CONSTANT (INTEGER 4) 0 '3'))) 0 3 '5.2') () () '' () ())
42 'program_dscr' 'm_bern' 1 ((VARIABLE UNKNOWN UNKNOWN UNKNOWN NONE
NONE) (CHARACTER 1 ((CONSTANT (INTEGER 4) 0 '80'))) 0 0 () () () '' () ())
43 'program_name' 'm_bern' 1 ((VARIABLE UNKNOWN UNKNOWN UNKNOWN NONE
NONE) (CHARACTER 1 ((CONSTANT (INTEGER 4) 0 '8'))) 0 0 () () () '' () ())
44 'prtcmb' 'p_ccrnxc' 1 ((PARAMETER UNKNOWN UNKNOWN UNKNOWN NONE NONE)
(INTEGER 4) 0 0 () (CONSTANT (INTEGER 4) 0 '2') () () '' () ())
45 'prtext' 'p_ccrnxc' 1 ((PARAMETER UNKNOWN UNKNOWN UNKNOWN NONE NONE)
(INTEGER 4) 0 0 () (CONSTANT (INTEGER 4) 0 '5') () () '' () ())
46 'prtinp' 'p_ccrnxc' 1 ((PARAMETER UNKNOWN UNKNOWN UNKNOWN NONE NONE)
(INTEGER 4) 0 0 () (CONSTANT (INTEGER 4) 0 '1') () () '' () ())
47 'prtjmp' 'p_ccrnxc' 1 ((PARAMETER UNKNOWN UNKNOWN UNKNOWN NONE NONE)
(INTEGER 4) 0 0 () (CONSTANT (INTEGER 4) 0 '4') () () '' () ())
48 'prtref' 'p_ccrnxc' 1 ((PARAMETER UNKNOWN UNKNOWN UNKNOWN NONE NONE)
(INTEGER 4) 0 0 () (CONSTANT (INTEGER 4) 0 '3') () () '' () ())
49 'prtres' 'p_ccrnxc' 1 ((PARAMETER UNKNOWN UNKNOWN UNKNOWN NONE NONE)
(INTEGER 4) 0 0 () (CONSTANT (INTEGER 4) 0 '6') () () '' () ())
50 'r8b' 'm_bern' 1 ((PARAMETER UNKNOWN UNKNOWN UNKNOWN NONE NONE) (
INTEGER 4) 0 0 () (CONSTANT (INTEGER 4) 0 '8') () () '' () ())
51 'r8ex' 'm_bern' 1 ((VARIABLE UNKNOWN UNKNOWN UNKNOWN NONE NONE) (
REAL 8) 0 0 () () () '' () ())
52 'shortlinelength' 'm_bern' 1 ((PARAMETER UNKNOWN UNKNOWN UNKNOWN NONE
NONE) (INTEGER 4) 0 0 () (CONSTANT (INTEGER 4) 0 '80') () () '' () ())
53 'stafla2length' 'm_bern' 1 ((PARAMETER UNKNOWN UNKNOWN UNKNOWN NONE
NONE) (INTEGER 4) 0 0 () (CONSTANT (INTEGER 4) 0 '5') () () '' () ())
54 'staflaglength' 'm_bern' 1 ((PARAMETER UNKNOWN UNKNOWN UNKNOWN NONE
NONE) (INTEGER 4) 0 0 () (CONSTANT (INTEGER 4) 0 '1') () () '' () ())
55 'stanam2length' 'm_bern' 1 ((PARAMETER UNKNOWN UNKNOWN UNKNOWN NONE
NONE) (INTEGER 4) 0 0 () (CONSTANT (INTEGER 4) 0 '20') () () '' () ())
56 'stanamelength' 'm_bern' 1 ((PARAMETER UNKNOWN UNKNOWN UNKNOWN NONE
NONE) (INTEGER 4) 0 0 () (CONSTANT (INTEGER 4) 0 '16') () () '' () ())
57 't_ccrnxc_fil' 'p_ccrnxc' 1 ((DERIVED UNKNOWN UNKNOWN UNKNOWN NONE
NONE) (UNKNOWN) 0 0 () () () '' ((58 'clkfilnam' (CHARACTER 1 ((
CONSTANT (INTEGER 4) 0 '32'))) (1 DEFERRED () ()) () 1 1 0 ()) (59
'outfilnam' (CHARACTER 1 ((CONSTANT (INTEGER 4) 0 '32'))) () () 0 0 0 ())
(60 'satfilnam' (CHARACTER 1 ((CONSTANT (INTEGER 4) 0 '32'))) () () 0 0
0 ())) PUBLIC ())
61 't_ccrnxc_opt' 'p_ccrnxc' 1 ((DERIVED UNKNOWN UNKNOWN UNKNOWN NONE
NONE) (UNKNOWN) 0 0 () () () '' ((62 'maxdcrd' (REAL 8) () () 0 0 0 ())
(63 'reffil' (LOGICAL 4) () () 0 0 0 ()) (64 'nref' (INTEGER 4) () () 0
0 0 ()) (65 'refclk' (CHARACTER 1 ((CONSTANT (INTEGER 4) 0 '16'))) (1
DEFERRED () ()) () 1 1 0 ()) (66 'clklst' (CHARACTER 1 ((CONSTANT (
INTEGER 4) 0 '16'))) (1 DEFERRED () ()) () 1 1 0 ()) (67 'nalig' (
INTEGER 4) () () 0 0 0 ()) (68 'maxref' (REAL 8) () () 0 0 0 ()) (69
'oneref' (LOGICAL 4) () () 0 0 0 ()) (70 'onlyref' (LOGICAL 4) () () 0 0
0 ()) (71 'usesta' (LOGICAL 4) () () 0 0 0 ()) (72 'usesat' (LOGICAL 4)
() () 0 0 0 ()) (73 'delecl' (INTEGER 4) () () 0 0 0 ()) (74 'sigma0' (
REAL 8) () () 0 0 0 ()) (75 'maxresi' (REAL 8) () () 0 0 0 ()) (76 'combi'
(INTEGER 4) () () 0 0 0 ()) (77 'maxmean' (REAL 8) () () 0 0 0 ()) (78
'minclksta' (INTEGER 4) () () 0 0 0 ()) (79 'minclksat' (INTEGER 4) () ()
0 0 0 ()) (80 'outsigma' (INTEGER 4) () () 0 0 0 ()) (81 'prtdetail' (
INTEGER 4) (1 EXPLICIT (CONSTANT (INTEGER 4) 0 '1') (CONSTANT (INTEGER 4)
0 '6')) () 1 0 0 ()) (82 'timewin' (REAL 8) (1 EXPLICIT (CONSTANT (
INTEGER 4) 0 '1') (CONSTANT (INTEGER 4) 0 '2')) () 1 0 0 ()) (83 'deltat'
(INTEGER 4) () () 0 0 0 ()) (84 'iepoly' (INTEGER 4) () () 0 0 0 ()) (
85 'ietpoly' (DERIVED 86) (1 DEFERRED () ()) () 1 1 0 ()) (87 'iesico' (
INTEGER 4) () () 0 0 0 ()) (88 'ietsico' (DERIVED 86) (1 DEFERRED () ())
() 1 1 0 ()) (89 'iepsico' (REAL 8) (1 DEFERRED () ()) () 1 1 0 ()) (90
'iemrms' (REAL 8) () () 0 0 0 ()) (91 'iemobs' (INTEGER 4) () () 0 0 0 ())
(92 'dointer' (LOGICAL 4) () () 0 0 0 ()) (93 'doextra' (LOGICAL 4) () ()
0 0 0 ()) (94 'jumprms' (REAL 8) () () 0 0 0 ()) (95 'njmpsig' (INTEGER
4) () () 0 0 0 ()) (96 'njmpepo' (INTEGER 4) () () 0 0 0 ()) (97
'jmpdelsta' (LOGICAL 4) () () 0 0 0 ()) (98 'jmpdelsat' (LOGICAL 4) () ()
0 0 0 ()) (99 'njmppoly' (INTEGER 4) () () 0 0 0 ()) (100 'title' (
CHARACTER 1 ((CONSTANT (INTEGER 4) 0 '60'))) () () 0 0 0 ()) (101
'ninterval' (INTEGER 4) () () 0 0 0 ()) (102 'sumrms' (REAL 8) () () 0 0
0 ()) (103 'numdel' (INTEGER 4) () () 0 0 0 ()) (104 'maxrms' (REAL 8) ()
() 0 0 0 ()) (105 'maxdel' (INTEGER 4) () () 0 0 0 ()) (106 'maxrmsepo'
(CHARACTER 1 ((CONSTANT (INTEGER 4) 0 '19'))) (1 EXPLICIT (CONSTANT (
INTEGER 4) 0 '1') (CONSTANT (INTEGER 4) 0 '2')) () 1 0 0 ()) (107
'maxdelepo' (CHARACTER 1 ((CONSTANT (INTEGER 4) 0 '19'))) (1 EXPLICIT (
CONSTANT (INTEGER 4) 0 '1') (CONSTANT (INTEGER 4) 0 '2')) () 1 0 0 ()) (
108 'clkdata' (DERIVED 86) () () 0 0 0 ())) PUBLIC ())
109 't_clkmean' 'p_ccrnxc' 1 ((DERIVED UNKNOWN UNKNOWN UNKNOWN NONE NONE)
(UNKNOWN) 0 0 () () () '' ((110 'ifil' (INTEGER 4) () () 0 0 0 ()) (111
'iclk' (INTEGER 4) () () 0 0 0 ()) (112 'ityp' (INTEGER 4) () () 0 0 0 ())
(113 'value' (REAL 8) () () 0 0 0 ()) (114 'sigma' (REAL 8) () () 0 0 0
()) (115 'sigoff' (REAL 8) () () 0 0 0 ())) PUBLIC ())
116 't_index' 'p_ccrnxc' 1 ((DERIVED UNKNOWN UNKNOWN UNKNOWN NONE NONE)
(UNKNOWN) 0 0 () () () '' ((117 'ifil' (INTEGER 4) (1 EXPLICIT (
CONSTANT (INTEGER 4) 0 '1') (CONSTANT (INTEGER 4) 0 '2')) () 1 0 0 ()) (
118 'iepo' (INTEGER 4) () () 0 0 0 ()) (119 'clknam' (CHARACTER 1 ((
CONSTANT (INTEGER 4) 0 '16'))) () () 0 0 0 ()) (120 'clktyp' (INTEGER 4)
() () 0 0 0 ())) PUBLIC ())
121 't_jump' 'p_ccrnxc' 1 ((DERIVED UNKNOWN UNKNOWN UNKNOWN NONE NONE) (
UNKNOWN) 0 0 () () () '' ((122 'iclk' (INTEGER 4) () () 0 0 0 ()) (123
'iepo' (INTEGER 4) () () 0 0 0 ()) (124 'jepo' (INTEGER 4) () () 0 0 0 ())
(125 'meandt' (REAL 8) () () 0 0 0 ()) (126 'sdevdt' (REAL 8) () () 0 0
0 ()) (127 'jsize' (REAL 8) () () 0 0 0 ()) (128 'ssize' (REAL 8) () ()
0 0 0 ())) PUBLIC ())
129 't_key' 'm_bern' 1 ((DERIVED UNKNOWN UNKNOWN UNKNOWN NONE NONE) (
UNKNOWN) 0 0 () () () '' ((130 'name' (CHARACTER 1 ((CONSTANT (INTEGER 4)
0 '32'))) () () 0 0 0 ()) (131 'value' (CHARACTER 1 ((CONSTANT (INTEGER
4) 0 '255'))) (1 DEFERRED () ()) () 1 1 0 ())) PUBLIC ())
86 't_timint' 'm_time' 1 ((DERIVED UNKNOWN UNKNOWN UNKNOWN NONE NONE) (
UNKNOWN) 0 0 () () () '' ((132 't' (REAL 8) (1 EXPLICIT (CONSTANT (
INTEGER 4) 0 '1') (CONSTANT (INTEGER 4) 0 '2')) () 1 0 0 ())) PUBLIC ())
133 'timstrglength' 'm_bern' 1 ((PARAMETER UNKNOWN UNKNOWN UNKNOWN NONE
NONE) (INTEGER 4) 0 0 () (CONSTANT (INTEGER 4) 0 '19') () () '' () ())
134 'timstrglength2' 'm_bern' 1 ((PARAMETER UNKNOWN UNKNOWN UNKNOWN NONE
NONE) (INTEGER 4) 0 0 () (CONSTANT (INTEGER 4) 0 '40') () () '' () ())
86 't_timint' 'm_time' 1 ((DERIVED UNKNOWN UNKNOWN UNKNOWN NONE NONE) (
UNKNOWN) 0 0 () () () '' ((132 't' (REAL 8) (1 EXPLICIT (CONSTANT (
INTEGER 4) 0 '1') (CONSTANT (INTEGER 4) 0 '2')) () 1 0 0 ())) PUBLIC ())
15 'key' '' 135 ((VARIABLE UNKNOWN UNKNOWN UNKNOWN NONE NONE DUMMY) (
DERIVED 129) 0 0 () () () '' () ())
13 'ccrnxc_opt' '' 136 ((VARIABLE UNKNOWN UNKNOWN UNKNOWN NONE NONE
DUMMY) (DERIVED 61) 0 0 () () () '' () ())
11 'ccrnxc_fil' '' 137 ((VARIABLE UNKNOWN UNKNOWN UNKNOWN NONE NONE
DUMMY) (DERIVED 57) 0 0 () () () '' () ())
)

('backslash' 0 2 'char' 0 3 'fileextlength' 0 4 'filenamelength' 0 5
'filenamelength80' 0 6 'filepathlength' 0 7 'i4b' 0 8 'i4ex' 0 9
'init_ccrnxc_fil' 0 10 'init_ccrnxc_opt' 0 12 'init_key' 0 14
'keynamelength' 0 16 'keyvaluelength' 0 17 'kind' 0 18 'lfn001' 0 19
'lfn002' 0 20 'lfneph' 0 21 'lfnerf' 0 22 'lfnerr' 0 23 'lfnkbd' 0 24
'lfnloc' 0 25 'lfnor1' 0 26 'lfnorb' 0 27 'lfnplt' 0 28 'lfnprf' 0 29
'lfnprt' 0 30 'lfnres' 0 31 'lfnrp1' 0 32 'lfnrpr' 0 33 'linelength' 0
34 'linelength1024' 0 35 'longlinelength' 0 36 'm_bern' 0 37 'm_time' 0
38 'null' 0 39 'p_ccrnxc' 0 40 'pgmver' 0 41 'program_dscr' 0 42
'program_name' 0 43 'prtcmb' 0 44 'prtext' 0 45 'prtinp' 0 46 'prtjmp' 0
47 'prtref' 0 48 'prtres' 0 49 'r8b' 0 50 'r8ex' 0 51 'shortlinelength'
0 52 'stafla2length' 0 53 'staflaglength' 0 54 'stanam2length' 0 55
'stanamelength' 0 56 't_ccrnxc_fil' 0 57 't_ccrnxc_opt' 0 61 't_clkmean'
0 109 't_index' 0 116 't_jump' 0 121 't_key' 0 129 't_timint' 0 86
'timstrglength' 0 133 'timstrglength2' 0 134)
