G95 module created on Thu Jun 25 17:42:38 2020 from ./.fpp/P_GPSEST.f90
If you edit this, you'll get what you deserve.
module-version 9
(() () () () () () () () () () () () () () () () () () () () ())

()

()

()

()

(2 'init_ambtime' 'p_gpsest' 1 ((PROCEDURE UNKNOWN MODULE-PROC DECL NONE
NONE SUBROUTINE) (PROCEDURE 0) 0 0 (3 NONE) () () '' () ())
4 'maxalb' 'p_gpsest' 1 ((PARAMETER UNKNOWN UNKNOWN UNKNOWN NONE NONE) (
INTEGER 4) 0 0 () (CONSTANT (INTEGER 4) 0 '10') () () '' () ())
5 'maxamb' 'p_gpsest' 1 ((PARAMETER UNKNOWN UNKNOWN UNKNOWN NONE NONE) (
INTEGER 4) 0 0 () (CONSTANT (INTEGER 4) 0 '1000') () () '' () ())
6 'maxamp' 'p_gpsest' 1 ((PARAMETER UNKNOWN UNKNOWN UNKNOWN NONE NONE) (
INTEGER 4) 0 0 () (CONSTANT (INTEGER 4) 0 '8000') () () '' () ())
7 'maxarc' 'p_gpsest' 1 ((PARAMETER UNKNOWN UNKNOWN UNKNOWN NONE NONE) (
INTEGER 4) 0 0 () (CONSTANT (INTEGER 4) 0 '20') () () '' () ())
8 'maxcal' 'p_gpsest' 1 ((PARAMETER UNKNOWN UNKNOWN UNKNOWN NONE NONE) (
INTEGER 4) 0 0 () (CONSTANT (INTEGER 4) 0 '20') () () '' () ())
9 'maxcmp' 'p_gpsest' 1 ((PARAMETER UNKNOWN UNKNOWN UNKNOWN NONE NONE) (
INTEGER 4) 0 0 () (CONSTANT (INTEGER 4) 0 '6') () () '' () ())
10 'maxeqn' 'p_gpsest' 1 ((VARIABLE UNKNOWN UNKNOWN UNKNOWN NONE NONE) (
INTEGER 4) 0 0 () () () '' () ())
11 'maxfil' 'p_gpsest' 1 ((PARAMETER UNKNOWN UNKNOWN UNKNOWN NONE NONE)
(INTEGER 4) 0 0 () (CONSTANT (INTEGER 4) 0 '250') () () '' () ())
12 'maxfls' 'p_gpsest' 1 ((VARIABLE UNKNOWN UNKNOWN UNKNOWN NONE NONE) (
INTEGER 4) 0 0 () () () '' () ())
13 'maxfrq' 'p_gpsest' 1 ((PARAMETER UNKNOWN UNKNOWN UNKNOWN NONE NONE)
(INTEGER 4) 0 0 () (CONSTANT (INTEGER 4) 0 '2') () () '' () ())
14 'maxfrs' 'p_gpsest' 1 ((PARAMETER UNKNOWN UNKNOWN UNKNOWN NONE NONE)
(INTEGER 4) 0 0 () (CONSTANT (INTEGER 4) 0 '5') () () '' () ())
15 'maxgim' 'p_gpsest' 1 ((VARIABLE UNKNOWN UNKNOWN UNKNOWN NONE NONE) (
INTEGER 4) 0 0 () () () '' () ())
16 'maxgit' 'p_gpsest' 1 ((VARIABLE UNKNOWN UNKNOWN UNKNOWN NONE NONE) (
INTEGER 4) 0 0 () () () '' () ())
17 'maxhil' 'p_gpsest' 1 ((PARAMETER UNKNOWN UNKNOWN UNKNOWN NONE NONE)
(INTEGER 4) 0 0 () (CONSTANT (INTEGER 4) 0 '250') () () '' () ())
18 'maxlcq' 'p_gpsest' 1 ((PARAMETER UNKNOWN UNKNOWN UNKNOWN NONE NONE)
(INTEGER 4) 0 0 () (CONSTANT (INTEGER 4) 0 '7') () () '' () ())
19 'maxloc' 'p_gpsest' 1 ((PARAMETER UNKNOWN UNKNOWN UNKNOWN NONE NONE)
(INTEGER 4) 0 0 () (CONSTANT (INTEGER 4) 0 '20000') () () '' () ())
20 'maxmea' 'p_gpsest' 1 ((PARAMETER UNKNOWN UNKNOWN UNKNOWN NONE NONE)
(INTEGER 4) 0 0 () (CONSTANT (INTEGER 4) 0 '3') () () '' () ())
21 'maxoff' 'p_gpsest' 1 ((PARAMETER UNKNOWN UNKNOWN UNKNOWN NONE NONE)
(INTEGER 4) 0 0 () (CONSTANT (INTEGER 4) 0 '130') () () '' () ())
22 'maxofr' 'p_gpsest' 1 ((PARAMETER UNKNOWN UNKNOWN UNKNOWN NONE NONE)
(INTEGER 4) 0 0 () (CONSTANT (INTEGER 4) 0 '300') () () '' () ())
23 'maxpar' 'p_gpsest' 1 ((PARAMETER UNKNOWN UNKNOWN UNKNOWN NONE NONE)
(INTEGER 4) 0 0 () (CONSTANT (INTEGER 4) 0 '10000') () () '' () ())
24 'maxpol' 'p_gpsest' 1 ((PARAMETER UNKNOWN UNKNOWN UNKNOWN NONE NONE)
(INTEGER 4) 0 0 () (CONSTANT (INTEGER 4) 0 '70') () () '' () ())
25 'maxpot' 'p_gpsest' 1 ((PARAMETER UNKNOWN UNKNOWN UNKNOWN NONE NONE)
(INTEGER 4) 0 0 () (CONSTANT (INTEGER 4) 0 '20') () () '' () ())
26 'maxsas' 'p_gpsest' 1 ((VARIABLE UNKNOWN UNKNOWN UNKNOWN NONE NONE) (
INTEGER 4) 0 0 () () () '' () ())
27 'maxsat' 'p_gpsest' 1 ((VARIABLE UNKNOWN UNKNOWN UNKNOWN NONE NONE) (
INTEGER 4) 0 0 () () () '' () ())
28 'maxsng' 'p_gpsest' 1 ((PARAMETER UNKNOWN UNKNOWN UNKNOWN NONE NONE)
(INTEGER 4) 0 0 () (CONSTANT (INTEGER 4) 0 '550') () () '' () ())
29 'maxspv' 'p_gpsest' 1 ((PARAMETER UNKNOWN UNKNOWN UNKNOWN NONE NONE)
(INTEGER 4) 0 0 () (CONSTANT (INTEGER 4) 0 '130') () () '' () ())
30 'maxsta' 'p_gpsest' 1 ((PARAMETER UNKNOWN UNKNOWN UNKNOWN NONE NONE)
(INTEGER 4) 0 0 () (CONSTANT (INTEGER 4) 0 '250') () () '' () ())
31 'maxstc' 'p_gpsest' 1 ((PARAMETER UNKNOWN UNKNOWN UNKNOWN NONE NONE)
(INTEGER 4) 0 0 () (CONSTANT (INTEGER 4) 0 '241') () () '' () ())
32 'maxstp' 'p_gpsest' 1 ((PARAMETER UNKNOWN UNKNOWN UNKNOWN NONE NONE)
(INTEGER 4) 0 0 () (CONSTANT (INTEGER 4) 0 '97') () () '' () ())
33 'maxtrm' 'p_gpsest' 1 ((PARAMETER UNKNOWN UNKNOWN UNKNOWN NONE NONE)
(INTEGER 4) 0 0 () (CONSTANT (INTEGER 4) 0 '3601') () () '' () ())
34 'maxtrp' 'p_gpsest' 1 ((PARAMETER UNKNOWN UNKNOWN UNKNOWN NONE NONE)
(INTEGER 4) 0 0 () (CONSTANT (INTEGER 4) 0 '10') () () '' () ())
35 'maxtyp' 'p_gpsest' 1 ((PARAMETER UNKNOWN UNKNOWN UNKNOWN NONE NONE)
(INTEGER 4) 0 0 () (CONSTANT (INTEGER 4) 0 '30') () () '' () ())
36 'maxwgt' 'p_gpsest' 1 ((PARAMETER UNKNOWN UNKNOWN UNKNOWN NONE NONE)
(INTEGER 4) 0 0 () (CONSTANT (INTEGER 4) 0 '20') () () '' () ())
37 'red_partyp' 'p_gpsest' 1 ((PROCEDURE UNKNOWN MODULE-PROC DECL NONE
NONE SUBROUTINE) (PROCEDURE 0) 0 0 (38 NONE 39 NONE 40 NONE) () () '' ()
())
41 'size_ambtime' 'p_gpsest' 1 ((PROCEDURE UNKNOWN MODULE-PROC DECL NONE
NONE SUBROUTINE) (PROCEDURE 0) 0 0 (42 NONE 43 NONE 44 NONE 45 NONE) ()
() '' () ())
46 't_ambtime' 'p_gpsest' 1 ((DERIVED UNKNOWN UNKNOWN UNKNOWN NONE NONE)
(UNKNOWN) 0 0 () () () '' ((47 'ninter' (INTEGER 4) () () 0 0 0 ()) (48
'ambint' (DERIVED 49) (1 DEFERRED () ()) () 1 1 0 ())) PUBLIC ())
49 't_ambtimerec' 'p_gpsest' 1 ((DERIVED UNKNOWN UNKNOWN UNKNOWN NONE
NONE) (UNKNOWN) 0 0 () () () '' ((50 'int' (DERIVED 51) () () 0 0 0 ())
(52 'ref' (INTEGER 4) () () 0 0 0 ()) (53 'clu' (INTEGER 4) (1 DEFERRED
() ()) () 1 1 0 ())) PUBLIC ())
54 't_isbtime' 'p_gpsest' 1 ((DERIVED UNKNOWN UNKNOWN UNKNOWN NONE NONE)
(UNKNOWN) 0 0 () () () '' ((55 'recnam' (CHARACTER 1 ((CONSTANT (
INTEGER 4) 0 '20'))) () () 0 0 0 ()) (56 'recnum' (INTEGER 4) (1
EXPLICIT (CONSTANT (INTEGER 4) 0 '1') (CONSTANT (INTEGER 4) 0 '2')) () 1
0 0 ()) (57 'isbint' (REAL 8) () () 0 0 0 ())) PUBLIC ())
58 't_optgsp' 'p_gpsest' 1 ((DERIVED UNKNOWN UNKNOWN UNKNOWN NONE NONE)
(UNKNOWN) 0 0 () () () '' ((59 'trasys' (INTEGER 4) () () 0 0 0 ()) (60
'trasig' (REAL 8) (1 EXPLICIT (CONSTANT (INTEGER 4) 0 '1') (CONSTANT (
INTEGER 4) 0 '3')) () 1 0 0 ()) (61 'trpsys' (INTEGER 4) () () 0 0 0 ())
(62 'trpsig' (REAL 8) () () 0 0 0 ())) PUBLIC ())
63 't_optload' 'p_gpsest' 1 ((DERIVED UNKNOWN UNKNOWN UNKNOWN NONE NONE)
(UNKNOWN) 0 0 () () () '' ((64 'keyw' (CHARACTER 1 ((CONSTANT (INTEGER 4)
0 '12'))) () () 0 0 0 ()) (65 'nsta' (INTEGER 4) () () 0 0 0 ()) (66
'stalst' (CHARACTER 1 ((CONSTANT (INTEGER 4) 0 '16'))) (1 DEFERRED () ())
() 1 1 0 ()) (67 'staclu' (INTEGER 4) (1 DEFERRED () ()) () 1 1 0 ()) (
68 'npar' (INTEGER 4) () () 0 0 0 ()) (69 'sigma' (REAL 8) (1 EXPLICIT (
CONSTANT (INTEGER 4) 0 '1') (CONSTANT (INTEGER 4) 0 '3')) () 1 0 0 ()))
PUBLIC ())
70 't_partyp' 'p_gpsest' 1 ((DERIVED UNKNOWN UNKNOWN UNKNOWN NONE NONE)
(UNKNOWN) 0 0 () () () '' ((71 'type' (CHARACTER 1 ((CONSTANT (INTEGER 4)
0 '2'))) () () 0 0 0 ()) (72 'omega' (REAL 8) () () 0 0 0 ())) PUBLIC ())
51 't_timint' 'm_time' 1 ((DERIVED UNKNOWN UNKNOWN UNKNOWN NONE NONE) (
UNKNOWN) 0 0 () () () '' ((73 't' (REAL 8) (1 EXPLICIT (CONSTANT (
INTEGER 4) 0 '1') (CONSTANT (INTEGER 4) 0 '2')) () 1 0 0 ())) PUBLIC ())
49 't_ambtimerec' 'p_gpsest' 1 ((DERIVED UNKNOWN UNKNOWN UNKNOWN NONE
NONE) (UNKNOWN) 0 0 () () () '' ((50 'int' (DERIVED 51) () () 0 0 0 ())
(52 'ref' (INTEGER 4) () () 0 0 0 ()) (53 'clu' (INTEGER 4) (1 DEFERRED
() ()) () 1 1 0 ())) PUBLIC ())
45 'bsize' '' 74 ((VARIABLE UNKNOWN UNKNOWN UNKNOWN NONE NONE DUMMY) (
INTEGER 4) 0 0 () () () '' () ())
44 'asize' '' 74 ((VARIABLE UNKNOWN UNKNOWN UNKNOWN NONE NONE DUMMY) (
INTEGER 4) 0 0 () () () '' () ())
43 'nsize' '' 74 ((VARIABLE UNKNOWN UNKNOWN UNKNOWN NONE NONE DUMMY) (
INTEGER 4) 0 0 () () () '' () ())
42 'ambtime' '' 74 ((VARIABLE UNKNOWN UNKNOWN UNKNOWN NONE NONE DUMMY) (
DERIVED 46) 0 0 () () () '' () ())
40 'partyp' '' 75 ((VARIABLE UNKNOWN UNKNOWN UNKNOWN NONE NONE DIMENSION
DUMMY) (DERIVED 70) 0 0 () (1 EXPLICIT (CONSTANT (INTEGER 4) 0 '1') (
VARIABLE (INTEGER 4) 0 38 ())) () '' () ())
39 'idel' '' 75 ((VARIABLE UNKNOWN UNKNOWN UNKNOWN NONE NONE DIMENSION
DUMMY) (INTEGER 4) 0 0 () (1 EXPLICIT (CONSTANT (INTEGER 4) 0 '1') (
VARIABLE (INTEGER 4) 0 38 ())) () '' () ())
38 'npar' '' 75 ((VARIABLE UNKNOWN UNKNOWN UNKNOWN NONE NONE DUMMY) (
INTEGER 4) 0 0 () () () '' () ())
3 'ambtime' '' 76 ((VARIABLE UNKNOWN UNKNOWN UNKNOWN NONE NONE DUMMY) (
DERIVED 46) 0 0 () () () '' () ())
)

('init_ambtime' 0 2 'maxalb' 0 4 'maxamb' 0 5 'maxamp' 0 6 'maxarc' 0 7
'maxcal' 0 8 'maxcmp' 0 9 'maxeqn' 0 10 'maxfil' 0 11 'maxfls' 0 12
'maxfrq' 0 13 'maxfrs' 0 14 'maxgim' 0 15 'maxgit' 0 16 'maxhil' 0 17
'maxlcq' 0 18 'maxloc' 0 19 'maxmea' 0 20 'maxoff' 0 21 'maxofr' 0 22
'maxpar' 0 23 'maxpol' 0 24 'maxpot' 0 25 'maxsas' 0 26 'maxsat' 0 27
'maxsng' 0 28 'maxspv' 0 29 'maxsta' 0 30 'maxstc' 0 31 'maxstp' 0 32
'maxtrm' 0 33 'maxtrp' 0 34 'maxtyp' 0 35 'maxwgt' 0 36 'red_partyp' 0
37 'size_ambtime' 0 41 't_ambtime' 0 46 't_ambtimerec' 0 49 't_isbtime'
0 54 't_optgsp' 0 58 't_optload' 0 63 't_partyp' 0 70)
