G95 module created on Thu Jun 25 17:43:58 2020 from ./.fpp/P_RXOBV3.f90
If you edit this, you'll get what you deserve.
module-version 9
(() () () () () () () () () () () () () () () () () () () () ())

()

()

()

()

(2 'i4b' 'm_bern' 1 ((PARAMETER UNKNOWN UNKNOWN UNKNOWN NONE NONE) (
INTEGER 4) 0 0 () (CONSTANT (INTEGER 4) 0 '4') () () '' () ())
3 'init_rxobv3_req' 'p_rxobv3' 1 ((PROCEDURE UNKNOWN MODULE-PROC DECL
NONE NONE SUBROUTINE) (PROCEDURE 0) 0 0 (4 NONE) () () '' () ())
5 'm_bern' 'm_bern' 1 ((MODULE UNKNOWN UNKNOWN UNKNOWN NONE NONE) (
UNKNOWN) 0 0 () () () '' () ())
6 'm_global' 'm_global' 1 ((MODULE UNKNOWN UNKNOWN UNKNOWN NONE NONE) (
UNKNOWN) 0 0 () () () '' () ())
7 'maxsys' 'm_global' 1 ((PARAMETER UNKNOWN UNKNOWN UNKNOWN NONE NONE) (
INTEGER 4) 0 0 () (CONSTANT (INTEGER 4) 0 '6') () () '' () ())
8 'p_rxobv3' 'p_rxobv3' 1 ((MODULE UNKNOWN UNKNOWN UNKNOWN NONE NONE) (
UNKNOWN) 0 0 () () () '' () ())
9 't_rxobv3_err' 'p_rxobv3' 1 ((DERIVED UNKNOWN UNKNOWN UNKNOWN NONE
NONE) (UNKNOWN) 0 0 () () () '' ((10 'wrtobs' (LOGICAL 4) () () 0 0 0 ())
(11 'stperr' (LOGICAL 4) () () 0 0 0 ()) (12 'tstanam' (INTEGER 4) () ()
0 0 0 ()) (13 'abbstn' (LOGICAL 4) () () 0 0 0 ()) (14 'tanttyp' (
INTEGER 4) () () 0 0 0 ()) (15 'trnchr' (INTEGER 4) () () 0 0 0 ()) (16
'radome' (INTEGER 4) () () 0 0 0 ()) (17 'corrad' (INTEGER 4) () () 0 0
0 ()) (18 'tantnum' (INTEGER 4) () () 0 0 0 ()) (19 'tantpos' (INTEGER 4)
() () 0 0 0 ()) (20 'tmrktyp' (INTEGER 4) () () 0 0 0 ()) (21 'versta' (
INTEGER 4) () () 0 0 0 ()) (22 'verfil' (LOGICAL 4) () () 0 0 0 ()) (23
'verant' (INTEGER 4) () () 0 0 0 ()) (24 'verfrq' (INTEGER 4) () () 0 0
0 ()) (25 'epoflag' (INTEGER 4) () () 0 0 0 ())) PUBLIC ())
26 't_rxobv3_req' 'p_rxobv3' 1 ((DERIVED UNKNOWN UNKNOWN UNKNOWN NONE
NONE) (UNKNOWN) 0 0 () () () '' ((27 'ireq' (LOGICAL 4) () () 0 0 0 ())
(28 'reqepo' (INTEGER 4) () () 0 0 0 ()) (29 'reqamb' (INTEGER 4) () ()
0 0 0 ()) (30 'phonly' (INTEGER 4) () () 0 0 0 ()) (31 'cdonly' (
INTEGER 4) () () 0 0 0 ()) (32 'minnum' (INTEGER 4) (2 EXPLICIT (
CONSTANT (INTEGER 4) 0 '1') (CONSTANT (INTEGER 4) 0 '3') (CONSTANT (
INTEGER 4) 0 '0') (CONSTANT (INTEGER 4) 0 '6')) () 1 0 0 ())) PUBLIC ())
4 'req' '' 33 ((VARIABLE UNKNOWN UNKNOWN UNKNOWN NONE NONE DUMMY) (
DERIVED 26) 0 0 () () () '' () ())
)

('i4b' 0 2 'init_rxobv3_req' 0 3 'm_bern' 0 5 'm_global' 0 6 'maxsys' 0
7 'p_rxobv3' 0 8 't_rxobv3_err' 0 9 't_rxobv3_req' 0 26)
