G95 module created on Thu Jun 25 17:44:53 2020 from ./.fpp/P_STAMRG.f90
If you edit this, you'll get what you deserve.
module-version 9
(() () () () () () () () () () () () () () () () () () () () ())

()

()

()

()

(2 'd_stalst' 'd_stalst' 1 ((MODULE UNKNOWN UNKNOWN UNKNOWN NONE NONE) (
UNKNOWN) 0 0 () () () '' () ())
3 'filenamelength' 'm_bern' 1 ((PARAMETER UNKNOWN UNKNOWN UNKNOWN NONE
NONE) (INTEGER 4) 0 0 () (CONSTANT (INTEGER 4) 0 '32') () () '' () ())
4 'i4b' 'm_bern' 1 ((PARAMETER UNKNOWN UNKNOWN UNKNOWN NONE NONE) (
INTEGER 4) 0 0 () (CONSTANT (INTEGER 4) 0 '4') () () '' () ())
5 'm_bern' 'm_bern' 1 ((MODULE UNKNOWN UNKNOWN UNKNOWN NONE NONE) (
UNKNOWN) 0 0 () () () '' () ())
6 'p_stamrg' 'p_stamrg' 1 ((MODULE UNKNOWN UNKNOWN UNKNOWN NONE NONE) (
UNKNOWN) 0 0 () () () '' () ())
7 'r8b' 'm_bern' 1 ((PARAMETER UNKNOWN UNKNOWN UNKNOWN NONE NONE) (
INTEGER 4) 0 0 () (CONSTANT (INTEGER 4) 0 '8') () () '' () ())
8 't_stalist' 'd_stalst' 1 ((DERIVED UNKNOWN UNKNOWN UNKNOWN NONE NONE)
(UNKNOWN) 0 0 () () () '' ((9 'title' (CHARACTER 1 ((CONSTANT (INTEGER 4)
0 '80'))) () () 0 0 0 ()) (10 'nsta' (INTEGER 4) () () 0 0 0 ()) (11
'stanam' (CHARACTER 1 ((CONSTANT (INTEGER 4) 0 '16'))) (1 DEFERRED () ())
() 1 1 0 ()) (12 'sigma' (REAL 8) (2 DEFERRED () () () ()) () 1 1 0 ()))
PUBLIC ())
13 't_stamrg_opt' 'p_stamrg' 1 ((DERIVED UNKNOWN UNKNOWN UNKNOWN NONE
NONE) (UNKNOWN) 0 0 () () () '' ((14 'mtrfil' (CHARACTER 1 ((CONSTANT (
INTEGER 4) 0 '32'))) () () 0 0 0 ()) (15 'secfil' (CHARACTER 1 ((
CONSTANT (INTEGER 4) 0 '32'))) () () 0 0 0 ()) (16 'resfil' (CHARACTER 1
((CONSTANT (INTEGER 4) 0 '32'))) () () 0 0 0 ()) (17 'csort' (INTEGER 4)
() () 0 0 0 ()) (18 'cconsid' (INTEGER 4) () () 0 0 0 ()) (19 'ctype01'
(INTEGER 4) () () 0 0 0 ()) (20 'ctype02' (INTEGER 4) () () 0 0 0 ()) (
21 'ctype03' (INTEGER 4) () () 0 0 0 ()) (22 'ctype04' (INTEGER 4) () ()
0 0 0 ()) (23 'ctype05' (INTEGER 4) () () 0 0 0 ()) (24 'crant' (
INTEGER 4) () () 0 0 0 ()) (25 'crrec' (INTEGER 4) () () 0 0 0 ()) (26
'timwin' (REAL 8) (1 EXPLICIT (CONSTANT (INTEGER 4) 0 '1') (CONSTANT (
INTEGER 4) 0 '2')) () 1 0 0 ()) (27 'stalist' (DERIVED 8) () () 0 0 0 ()))
PUBLIC ())
)

('d_stalst' 0 2 'filenamelength' 0 3 'i4b' 0 4 'm_bern' 0 5 'p_stamrg' 0
6 'r8b' 0 7 't_stalist' 0 8 't_stamrg_opt' 0 13)
