G95 module created on Thu Jun 25 17:45:11 2020 from ./.fpp/ADDRDOPT.f90
If you edit this, you'll get what you deserve.
module-version 9
(() () () () () () () () () () () () () () () () () () () () ())

()

()

()

()

(2 'addrdopt' 's_addrdopt' 1 ((PROCEDURE UNKNOWN MODULE-PROC DECL NONE
NONE SUBROUTINE) (PROCEDURE 0) 0 0 () () () '' () ())
3 's_addrdopt' 's_addrdopt' 1 ((MODULE UNKNOWN UNKNOWN UNKNOWN NONE NONE)
(UNKNOWN) 0 0 () () () '' () ())
)

('addrdopt' 0 2 's_addrdopt' 0 3)
