G95 module created on Thu Jun 25 17:45:10 2020 from ./.fpp/AOPTNET.f90
If you edit this, you'll get what you deserve.
module-version 9
(() () () () () () () () () () () () () () () () () () () () ())

()

()

()

()

(2 'aoptnet' 's_aoptnet' 1 ((PROCEDURE UNKNOWN MODULE-PROC DECL NONE
NONE SUBROUTINE) (PROCEDURE 0) 0 0 (3 NONE 4 NONE) () () '' () ())
5 's_aoptnet' 's_aoptnet' 1 ((MODULE UNKNOWN UNKNOWN UNKNOWN NONE NONE)
(UNKNOWN) 0 0 () () () '' () ())
4 'namlist' '' 6 ((VARIABLE UNKNOWN UNKNOWN UNKNOWN NONE NONE DUMMY) (
DERIVED 7) 0 0 () () () '' () ())
7 't_namlst' 'p_addneq' 6 ((DERIVED UNKNOWN UNKNOWN UNKNOWN NONE NONE) (
UNKNOWN) 0 0 () () () '' ((8 'nsta' (INTEGER 4) () () 0 0 0 ()) (9 'nam2'
(CHARACTER 1 ((CONSTANT (INTEGER 4) 0 '20'))) (1 DEFERRED () ()) () 1 1
0 ()) (10 'nam' (CHARACTER 1 ((CONSTANT (INTEGER 4) 0 '16'))) (1
DEFERRED () ()) () 1 1 0 ()) (11 'num' (INTEGER 4) (1 DEFERRED () ()) ()
1 1 0 ())) PUBLIC ())
3 'opt' '' 6 ((VARIABLE UNKNOWN UNKNOWN UNKNOWN NONE NONE DUMMY) (
DERIVED 12) 0 0 () () () '' () ())
12 't_opt' 'p_addneq' 6 ((DERIVED UNKNOWN UNKNOWN UNKNOWN NONE NONE) (
UNKNOWN) 0 0 () () () '' ((13 'title' (CHARACTER 1 ((CONSTANT (INTEGER 4)
0 '80'))) () () 0 0 0 ()) (14 'const' (CHARACTER 1 ((CONSTANT (INTEGER 4)
0 '32'))) () () 0 0 0 ()) (15 'datumfil' (CHARACTER 1 ((CONSTANT (
INTEGER 4) 0 '32'))) () () 0 0 0 ()) (16 'stacrux' (CHARACTER 1 ((
CONSTANT (INTEGER 4) 0 '32'))) () () 0 0 0 ()) (17 'satcrux' (CHARACTER
1 ((CONSTANT (INTEGER 4) 0 '32'))) () () 0 0 0 ()) (18 'satell' (
CHARACTER 1 ((CONSTANT (INTEGER 4) 0 '32'))) () () 0 0 0 ()) (19 'phasecc'
(CHARACTER 1 ((CONSTANT (INTEGER 4) 0 '32'))) () () 0 0 0 ()) (20 'pole'
(CHARACTER 1 ((CONSTANT (INTEGER 4) 0 '32'))) () () 0 0 0 ()) (21
'sinexin' (CHARACTER 1 ((CONSTANT (INTEGER 4) 0 '32'))) () () 0 0 0 ())
(22 'ionexcf' (CHARACTER 1 ((CONSTANT (INTEGER 4) 0 '32'))) () () 0 0 0
()) (23 'coord' (CHARACTER 1 ((CONSTANT (INTEGER 4) 0 '32'))) () () 0 0
0 ()) (24 'velapr' (CHARACTER 1 ((CONSTANT (INTEGER 4) 0 '32'))) () () 0
0 0 ()) (25 'covcomi' (CHARACTER 1 ((CONSTANT (INTEGER 4) 0 '32'))) () ()
0 0 0 ()) (26 'gccinp' (CHARACTER 1 ((CONSTANT (INTEGER 4) 0 '32'))) ()
() 0 0 0 ()) (27 'gccout' (CHARACTER 1 ((CONSTANT (INTEGER 4) 0 '32')))
() () 0 0 0 ()) (28 'dcbinp' (CHARACTER 1 ((CONSTANT (INTEGER 4) 0 '32')))
() () 0 0 0 ()) (29 'rgbinp' (CHARACTER 1 ((CONSTANT (INTEGER 4) 0 '32')))
() () 0 0 0 ()) (30 'ionos' (CHARACTER 1 ((CONSTANT (INTEGER 4) 0 '32')))
() () 0 0 0 ()) (31 'neqout' (CHARACTER 1 ((CONSTANT (INTEGER 4) 0 '32')))
() () 0 0 0 ()) (32 'coordrs' (CHARACTER 1 ((CONSTANT (INTEGER 4) 0 '32')))
() () 0 0 0 ()) (33 'velors' (CHARACTER 1 ((CONSTANT (INTEGER 4) 0 '32')))
() () 0 0 0 ()) (34 'sinexrs' (CHARACTER 1 ((CONSTANT (INTEGER 4) 0 '32')))
() () 0 0 0 ()) (35 'paramin' (CHARACTER 1 ((CONSTANT (INTEGER 4) 0 '32')))
() () 0 0 0 ()) (36 'paramrs' (CHARACTER 1 ((CONSTANT (INTEGER 4) 0 '32')))
() () 0 0 0 ()) (37 'tropsav' (CHARACTER 1 ((CONSTANT (INTEGER 4) 0 '32')))
() () 0 0 0 ()) (38 'tropsnx' (CHARACTER 1 ((CONSTANT (INTEGER 4) 0 '32')))
() () 0 0 0 ()) (39 'dcbout' (CHARACTER 1 ((CONSTANT (INTEGER 4) 0 '32')))
() () 0 0 0 ()) (40 'gravout' (CHARACTER 1 ((CONSTANT (INTEGER 4) 0 '32')))
() () 0 0 0 (CONSTANT (CHARACTER 1 ((CONSTANT (INTEGER 4) 0 '32'))) 0 32
'                                ')) (41 'ionosrs' (CHARACTER 1 ((
CONSTANT (INTEGER 4) 0 '32'))) () () 0 0 0 ()) (42 'ionexrs' (CHARACTER
1 ((CONSTANT (INTEGER 4) 0 '32'))) () () 0 0 0 ()) (43 'polers' (
CHARACTER 1 ((CONSTANT (INTEGER 4) 0 '32'))) () () 0 0 0 ()) (44 'ierspol'
(CHARACTER 1 ((CONSTANT (INTEGER 4) 0 '32'))) () () 0 0 0 ()) (45 'plotrs'
(CHARACTER 1 ((CONSTANT (INTEGER 4) 0 '32'))) () () 0 0 0 ()) (46
'covarrs' (CHARACTER 1 ((CONSTANT (INTEGER 4) 0 '32'))) () () 0 0 0 ())
(47 'covttrs' (CHARACTER 1 ((CONSTANT (INTEGER 4) 0 '32'))) () () 0 0 0
()) (48 'rgbout' (CHARACTER 1 ((CONSTANT (INTEGER 4) 0 '32'))) () () 0 0
0 ()) (49 'wgtout' (CHARACTER 1 ((CONSTANT (INTEGER 4) 0 '32'))) () () 0
0 0 ()) (50 'sysout' (CHARACTER 1 ((CONSTANT (INTEGER 4) 0 '32'))) () ()
0 0 0 ()) (51 'syserr' (CHARACTER 1 ((CONSTANT (INTEGER 4) 0 '32'))) ()
() 0 0 0 ()) (52 'auxfil' (CHARACTER 1 ((CONSTANT (INTEGER 4) 0 '32')))
() () 0 0 0 ()) (53 'maxpar' (INTEGER 4) () () 0 0 0 ()) (54 'neqfilename'
(CHARACTER 1 ((CONSTANT (INTEGER 4) 0 '32'))) (1 DEFERRED () ()) () 1 1
0 ()) (55 'orbfil' (CHARACTER 1 ((CONSTANT (INTEGER 4) 0 '32'))) (2
DEFERRED () () () ()) () 1 1 0 ()) (56 'noinv' (LOGICAL 4) () () 0 0 0 ())
(57 'req' (DERIVED 58) (1 DEFERRED () ()) () 1 1 0 ()) (59 'elimi' (
DERIVED 60) (1 DEFERRED () ()) () 1 1 0 ()) (61 'nstcep' (INTEGER 4) ()
() 0 0 0 ()) (62 'rsw' (INTEGER 4) (1 EXPLICIT (CONSTANT (INTEGER 4) 0 '1')
(CONSTANT (INTEGER 4) 0 '3')) () 1 0 0 ()) (63 'sigrsw' (REAL 8) (1
EXPLICIT (CONSTANT (INTEGER 4) 0 '1') (CONSTANT (INTEGER 4) 0 '3')) () 1
0 0 ()) (64 'numstc' (INTEGER 4) () () 0 0 0 ()) (65 'svnstc' (INTEGER 4)
(1 EXPLICIT (CONSTANT (INTEGER 4) 0 '1') (CONSTANT (INTEGER 4) 0 '130'))
() 1 0 0 ()) (66 'dtstc' (REAL 8) () () 0 0 0 ()) (67 'numdyn' (INTEGER
4) () () 0 0 0 ()) (68 'svndyn' (INTEGER 4) (1 EXPLICIT (CONSTANT (
INTEGER 4) 0 '1') (CONSTANT (INTEGER 4) 0 '130')) () 1 0 0 ()) (69
'numgap' (INTEGER 4) () () 0 0 0 ()) (70 'svngap' (INTEGER 4) (1
EXPLICIT (CONSTANT (INTEGER 4) 0 '1') (CONSTANT (INTEGER 4) 0 '130')) ()
1 0 0 ()) (71 'numnac' (INTEGER 4) () () 0 0 0 ()) (72 'newarc' (
INTEGER 4) (2 EXPLICIT (CONSTANT (INTEGER 4) 0 '1') (CONSTANT (INTEGER 4)
0 '2') (CONSTANT (INTEGER 4) 0 '1') (CONSTANT (INTEGER 4) 0 '3900')) ()
1 0 0 ()) (73 'sigma0' (REAL 8) () () 0 0 0 ()) (74 'sigma' (DERIVED 75)
(1 DEFERRED () ()) () 1 1 0 ()) (76 'trafo' (INTEGER 4) () () 0 0 0 ())
(77 'splitdyn' (INTEGER 4) () () 0 0 0 ()) (78 'polestep' (INTEGER 4) ()
() 0 0 0 ()) (79 'indvsol' (INTEGER 4) () () 0 0 0 ()) (80 'iphelm' (
INTEGER 4) (1 EXPLICIT (CONSTANT (INTEGER 4) 0 '1') (CONSTANT (INTEGER 4)
0 '7')) () 1 0 0 ()) (81 'minsol' (INTEGER 4) () () 0 0 0 ()) (82 'badsol'
(REAL 8) (2 EXPLICIT (CONSTANT (INTEGER 4) 0 '1') (CONSTANT (INTEGER 4)
0 '2') (CONSTANT (INTEGER 4) 0 '1') (CONSTANT (INTEGER 4) 0 '3')) () 1 0
0 ()) (83 'blkret' (REAL 8) () () 0 0 0 ()) (84 'timrefcrd' (REAL 8) ()
() 0 0 0 ()) (85 'helmsig' (REAL 8) (2 EXPLICIT (CONSTANT (INTEGER 4) 0
'1') (CONSTANT (INTEGER 4) 0 '3') (CONSTANT (INTEGER 4) 0 '1') (
CONSTANT (INTEGER 4) 0 '7')) () 1 0 0 ()) (86 'trpexceptday' (INTEGER 4)
() () 0 0 0 ()) (87 'prt' (INTEGER 4) (1 EXPLICIT (CONSTANT (INTEGER 4)
0 '1') (CONSTANT (INTEGER 4) 0 '10')) () 1 0 0 ()) (88 'setupgcc' (
INTEGER 4) () () 0 0 0 ()) (89 'ieuref' (INTEGER 4) () () 0 0 0 ()) (90
'antred' (INTEGER 4) () () 0 0 0 ()) (91 'erprep' (INTEGER 4) () () 0 0
0 ()) (92 'stasort' (INTEGER 4) (1 EXPLICIT (CONSTANT (INTEGER 4) 0 '1')
(CONSTANT (INTEGER 4) 0 '2')) () 1 0 0 ()) (93 'snxinc' (INTEGER 4) () ()
0 0 0 ()) (94 'snxreg' (REAL 8) () () 0 0 0 ()) (95 'dtrelsig' (REAL 8)
(1 EXPLICIT (CONSTANT (INTEGER 4) 0 '1') (CONSTANT (INTEGER 4) 0 '3')) ()
1 0 0 ()) (96 'noabc' (INTEGER 4) () () 0 0 0 ()) (97 'chrono' (INTEGER
4) () () 0 0 0 ()) (98 'step2' (INTEGER 4) () () 0 0 0 ()) (99 'step2_t'
(REAL 8) (1 EXPLICIT (CONSTANT (INTEGER 4) 0 '1') (CONSTANT (INTEGER 4)
0 '2')) () 1 0 0 ()) (100 'sincont' (INTEGER 4) () () 0 0 0 ()) (101
'covmode' (INTEGER 4) () () 0 0 0 ()) (102 'stackrgb' (INTEGER 4) () ()
0 0 0 ()) (103 'saoopt' (INTEGER 4) (1 EXPLICIT (CONSTANT (INTEGER 4) 0
'1') (CONSTANT (INTEGER 4) 0 '2')) () 1 0 0 ()) (104 'sapopt' (INTEGER 4)
(1 EXPLICIT (CONSTANT (INTEGER 4) 0 '1') (CONSTANT (INTEGER 4) 0 '2')) ()
1 0 0 ()) (105 'grdload' (DERIVED 106) (1 EXPLICIT (CONSTANT (INTEGER 4)
0 '1') (CONSTANT (INTEGER 4) 0 '3')) () 1 0 0 ()) (107 'hoi' (DERIVED
108) (1 EXPLICIT (CONSTANT (INTEGER 4) 0 '1') (CONSTANT (INTEGER 4) 0 '3'))
() 1 0 0 ()) (109 'helmert' (DERIVED 110) (1 EXPLICIT (CONSTANT (
INTEGER 4) 0 '1') (CONSTANT (INTEGER 4) 0 '7')) () 1 0 0 ()) (111
'chgrecnam' (INTEGER 4) () () 0 0 0 ()) (112 'chgantnam' (INTEGER 4) ()
() 0 0 0 ()) (113 'chgrecnum' (INTEGER 4) () () 0 0 0 ()) (114 'chgantnum'
(INTEGER 4) () () 0 0 0 ()) (115 'chgantecc' (INTEGER 4) () () 0 0 0 ())
(116 'isbout' (CHARACTER 1 ((CONSTANT (INTEGER 4) 0 '32'))) () () 0 0 0
()) (117 'rcormgps' (INTEGER 4) () () 0 0 0 ()) (118 'rcotofrq' (
INTEGER 4) () () 0 0 0 ()) (119 'rcofromppp' (INTEGER 4) () () 0 0 0 ())
(120 'maxifb' (REAL 8) () () 0 0 0 ()) (121 'gtradat' (INTEGER 4) () ()
0 0 0 ()) (122 'gtrpdat' (INTEGER 4) () () 0 0 0 ()) (123 'gspstack' (
INTEGER 4) () () 0 0 0 ())) PUBLIC ())
110 't_opthelm' 'p_addneq' 6 ((DERIVED UNKNOWN UNKNOWN UNKNOWN NONE NONE)
(UNKNOWN) 0 0 () () () '' ((124 'stack' (INTEGER 4) () () 0 0 0 ()))
PUBLIC ())
108 't_opthoi' 'p_addneq' 6 ((DERIVED UNKNOWN UNKNOWN UNKNOWN NONE NONE)
(UNKNOWN) 0 0 () () () '' ((125 'x0' (REAL 8) () () 0 0 0 ()) (126 'stack'
(LOGICAL 4) () () 0 0 0 ())) PUBLIC ())
106 't_optload' 'p_addneq' 6 ((DERIVED UNKNOWN UNKNOWN UNKNOWN NONE NONE)
(UNKNOWN) 0 0 () () () '' ((127 'keyw' (CHARACTER 1 ((CONSTANT (INTEGER
4) 0 '12'))) () () 0 0 0 ()) (128 'nsta' (INTEGER 4) () () 0 0 0 ()) (
129 'stalst' (CHARACTER 1 ((CONSTANT (INTEGER 4) 0 '16'))) (1 DEFERRED ()
()) () 1 1 0 ()) (130 'staclu' (INTEGER 4) (1 DEFERRED () ()) () 1 1 0 ())
(131 'npar' (INTEGER 4) () () 0 0 0 ()) (132 'x0' (INTEGER 4) () () 0 0
0 ())) PUBLIC ())
75 't_sigma' 'p_addneq' 6 ((DERIVED UNKNOWN UNKNOWN UNKNOWN NONE NONE) (
UNKNOWN) 0 0 () () () '' ((133 'locq' (INTEGER 4) (1 EXPLICIT (CONSTANT
(INTEGER 4) 0 '1') (CONSTANT (INTEGER 4) 0 '7')) () 1 0 0 ()) (134 'name'
(CHARACTER 1 ((CONSTANT (INTEGER 4) 0 '20'))) () () 0 0 0 ()) (135 'value'
(REAL 8) () () 0 0 0 ()) (136 'typflg' (CHARACTER 1 ((CONSTANT (INTEGER
4) 0 '1'))) () () 0 0 0 ())) PUBLIC ())
60 't_elimi' 'p_addneq' 6 ((DERIVED UNKNOWN UNKNOWN UNKNOWN NONE NONE) (
UNKNOWN) 0 0 () () () '' ((137 'locq' (INTEGER 4) (1 EXPLICIT (CONSTANT
(INTEGER 4) 0 '1') (CONSTANT (INTEGER 4) 0 '7')) () 1 0 0 ()) (138 'name'
(CHARACTER 1 ((CONSTANT (INTEGER 4) 0 '20'))) () () 0 0 0 ()) (139 'part'
(INTEGER 4) () () 0 0 0 ()) (140 'mode' (INTEGER 4) () () 0 0 0 ()) (
141 'excp' (INTEGER 4) (1 DEFERRED () ()) () 1 1 0 ()) (142 'deltat' (
REAL 8) () () 0 0 0 ()) (143 'eliwin' (DERIVED 144) () () 0 0 0 ()) (
145 'wparam' (LOGICAL 4) () () 0 0 0 ()) (146 'descr' (CHARACTER 1 ((
CONSTANT (INTEGER 4) 0 '255'))) () () 0 0 0 ())) PUBLIC ())
144 't_timint' 'm_time' 6 ((DERIVED UNKNOWN UNKNOWN UNKNOWN NONE NONE) (
UNKNOWN) 0 0 () () () '' ((147 't' (REAL 8) (1 EXPLICIT (CONSTANT (
INTEGER 4) 0 '1') (CONSTANT (INTEGER 4) 0 '2')) () 1 0 0 ())) PUBLIC ())
58 't_req' 'p_addneq' 6 ((DERIVED UNKNOWN UNKNOWN UNKNOWN NONE NONE) (
UNKNOWN) 0 0 () () () '' ((148 'locq' (INTEGER 4) (1 EXPLICIT (CONSTANT
(INTEGER 4) 0 '1') (CONSTANT (INTEGER 4) 0 '7')) () 1 0 0 ()) (149 'name'
(CHARACTER 1 ((CONSTANT (INTEGER 4) 0 '20'))) () () 0 0 0 ()) (150
'timint' (DERIVED 144) () () 0 0 0 ()) (151 'type' (CHARACTER 1 ((
CONSTANT (INTEGER 4) 0 '2'))) () () 0 0 0 (CONSTANT (CHARACTER 1 ((
CONSTANT (INTEGER 4) 0 '2'))) 0 2 '  ')) (152 'omega' (REAL 8) () () 0 0
0 (CONSTANT (REAL 8) 0 '0' 0 0))) PUBLIC ())
)

('aoptnet' 0 2 's_aoptnet' 0 5)
