G95 module created on Thu Jun 25 17:44:43 2020 from ./.fpp/AOPTANT.f90
If you edit this, you'll get what you deserve.
module-version 9
(() () () () () () () () () () () () () () () () () () () () ())

()

()

()

()

(2 'aoptant' 's_aoptant' 1 ((PROCEDURE UNKNOWN MODULE-PROC DECL NONE
NONE SUBROUTINE) (PROCEDURE 0) 0 0 (3 NONE 4 NONE 5 NONE 6 NONE 7 NONE)
() () '' () ())
8 's_aoptant' 's_aoptant' 1 ((MODULE UNKNOWN UNKNOWN UNKNOWN NONE NONE)
(UNKNOWN) 0 0 () () () '' () ())
7 'parrap' '' 9 ((VARIABLE UNKNOWN UNKNOWN UNKNOWN NONE NONE DUMMY) (
DERIVED 10) 0 0 () () () '' () ())
10 't_parrap' 'p_addneq' 9 ((DERIVED UNKNOWN UNKNOWN UNKNOWN NONE NONE)
(UNKNOWN) 0 0 () () () '' ((11 'nrapgrd' (INTEGER 4) () () 0 0 0 ()) (
12 'nrapshm' (INTEGER 4) () () 0 0 0 ())) PUBLIC ())
6 'parrao' '' 9 ((VARIABLE UNKNOWN UNKNOWN UNKNOWN NONE NONE DUMMY) (
DERIVED 13) 0 0 () () () '' () ())
13 't_parrao' 'p_addneq' 9 ((DERIVED UNKNOWN UNKNOWN UNKNOWN NONE NONE)
(UNKNOWN) 0 0 () () () '' ((14 'nrao' (INTEGER 4) () () 0 0 0 ()) (15
'rao' (INTEGER 4) (1 EXPLICIT (CONSTANT (INTEGER 4) 0 '1') (CONSTANT (
INTEGER 4) 0 '3')) () 1 0 0 ())) PUBLIC ())
5 'parsap' '' 9 ((VARIABLE UNKNOWN UNKNOWN UNKNOWN NONE NONE DIMENSION
POINTER DUMMY) (DERIVED 16) 0 0 () (1 DEFERRED () ()) () '' () ())
16 't_parsap' 'p_addneq' 9 ((DERIVED UNKNOWN UNKNOWN UNKNOWN NONE NONE)
(UNKNOWN) 0 0 () () () '' ((17 'nanspv' (INTEGER 4) () () 0 0 0 ()) (18
'nsaspv' (INTEGER 4) (1 DEFERRED () ()) () 1 1 0 ()) (19 'satspv' (
INTEGER 4) (2 DEFERRED () () () ()) () 1 1 0 ()) (20 'gnrspv' (INTEGER 4)
(1 EXPLICIT (CONSTANT (INTEGER 4) 0 '1') (CONSTANT (INTEGER 4) 0 '260'))
() 1 0 0 ()) (21 'nptspv' (INTEGER 4) (2 EXPLICIT (CONSTANT (INTEGER 4)
0 '1') (CONSTANT (INTEGER 4) 0 '2') (CONSTANT (INTEGER 4) 0 '1') (
CONSTANT (INTEGER 4) 0 '260')) () 1 0 0 ()) (22 'timspv' (REAL 8) (2
EXPLICIT (CONSTANT (INTEGER 4) 0 '1') (CONSTANT (INTEGER 4) 0 '2') (
CONSTANT (INTEGER 4) 0 '1') (CONSTANT (INTEGER 4) 0 '260')) () 1 0 0 ()))
PUBLIC ())
4 'parsao' '' 9 ((VARIABLE UNKNOWN UNKNOWN UNKNOWN NONE NONE DIMENSION
POINTER DUMMY) (DERIVED 23) 0 0 () (1 DEFERRED () ()) () '' () ())
23 't_parsao' 'p_addneq' 9 ((DERIVED UNKNOWN UNKNOWN UNKNOWN NONE NONE)
(UNKNOWN) 0 0 () () () '' ((24 'nanoff' (INTEGER 4) () () 0 0 0 ()) (25
'nsaoff' (INTEGER 4) (1 DEFERRED () ()) () 1 1 0 ()) (26 'satoff' (
INTEGER 4) (2 DEFERRED () () () ()) () 1 1 0 ()) (27 'santoff' (INTEGER
4) (2 EXPLICIT (CONSTANT (INTEGER 4) 0 '1') (CONSTANT (INTEGER 4) 0 '260')
(CONSTANT (INTEGER 4) 0 '1') (CONSTANT (INTEGER 4) 0 '3')) () 1 0 0 ())
(28 'nrqoff' (INTEGER 4) () () 0 0 0 ()) (29 'grpoff' (INTEGER 4) (1
EXPLICIT (CONSTANT (INTEGER 4) 0 '1') (CONSTANT (INTEGER 4) 0 '260')) ()
1 0 0 ()) (30 'gnroff' (INTEGER 4) (1 EXPLICIT (CONSTANT (INTEGER 4) 0 '1')
(CONSTANT (INTEGER 4) 0 '260')) () 1 0 0 ()) (31 'ncoreq' (INTEGER 4) (
1 EXPLICIT (CONSTANT (INTEGER 4) 0 '1') (CONSTANT (INTEGER 4) 0 '260'))
() 1 0 0 ()) (32 'timoff' (REAL 8) (2 EXPLICIT (CONSTANT (INTEGER 4) 0 '1')
(CONSTANT (INTEGER 4) 0 '2') (CONSTANT (INTEGER 4) 0 '1') (CONSTANT (
INTEGER 4) 0 '260')) () 1 0 0 ())) PUBLIC ())
3 'opt' '' 9 ((VARIABLE UNKNOWN UNKNOWN UNKNOWN NONE NONE DUMMY) (
DERIVED 33) 0 0 () () () '' () ())
33 't_opt' 'p_addneq' 9 ((DERIVED UNKNOWN UNKNOWN UNKNOWN NONE NONE) (
UNKNOWN) 0 0 () () () '' ((34 'title' (CHARACTER 1 ((CONSTANT (INTEGER 4)
0 '80'))) () () 0 0 0 ()) (35 'const' (CHARACTER 1 ((CONSTANT (INTEGER 4)
0 '32'))) () () 0 0 0 ()) (36 'datumfil' (CHARACTER 1 ((CONSTANT (
INTEGER 4) 0 '32'))) () () 0 0 0 ()) (37 'stacrux' (CHARACTER 1 ((
CONSTANT (INTEGER 4) 0 '32'))) () () 0 0 0 ()) (38 'satcrux' (CHARACTER
1 ((CONSTANT (INTEGER 4) 0 '32'))) () () 0 0 0 ()) (39 'satell' (
CHARACTER 1 ((CONSTANT (INTEGER 4) 0 '32'))) () () 0 0 0 ()) (40 'phasecc'
(CHARACTER 1 ((CONSTANT (INTEGER 4) 0 '32'))) () () 0 0 0 ()) (41 'pole'
(CHARACTER 1 ((CONSTANT (INTEGER 4) 0 '32'))) () () 0 0 0 ()) (42
'sinexin' (CHARACTER 1 ((CONSTANT (INTEGER 4) 0 '32'))) () () 0 0 0 ())
(43 'ionexcf' (CHARACTER 1 ((CONSTANT (INTEGER 4) 0 '32'))) () () 0 0 0
()) (44 'coord' (CHARACTER 1 ((CONSTANT (INTEGER 4) 0 '32'))) () () 0 0
0 ()) (45 'velapr' (CHARACTER 1 ((CONSTANT (INTEGER 4) 0 '32'))) () () 0
0 0 ()) (46 'covcomi' (CHARACTER 1 ((CONSTANT (INTEGER 4) 0 '32'))) () ()
0 0 0 ()) (47 'gccinp' (CHARACTER 1 ((CONSTANT (INTEGER 4) 0 '32'))) ()
() 0 0 0 ()) (48 'gccout' (CHARACTER 1 ((CONSTANT (INTEGER 4) 0 '32')))
() () 0 0 0 ()) (49 'dcbinp' (CHARACTER 1 ((CONSTANT (INTEGER 4) 0 '32')))
() () 0 0 0 ()) (50 'rgbinp' (CHARACTER 1 ((CONSTANT (INTEGER 4) 0 '32')))
() () 0 0 0 ()) (51 'ionos' (CHARACTER 1 ((CONSTANT (INTEGER 4) 0 '32')))
() () 0 0 0 ()) (52 'neqout' (CHARACTER 1 ((CONSTANT (INTEGER 4) 0 '32')))
() () 0 0 0 ()) (53 'coordrs' (CHARACTER 1 ((CONSTANT (INTEGER 4) 0 '32')))
() () 0 0 0 ()) (54 'velors' (CHARACTER 1 ((CONSTANT (INTEGER 4) 0 '32')))
() () 0 0 0 ()) (55 'sinexrs' (CHARACTER 1 ((CONSTANT (INTEGER 4) 0 '32')))
() () 0 0 0 ()) (56 'paramin' (CHARACTER 1 ((CONSTANT (INTEGER 4) 0 '32')))
() () 0 0 0 ()) (57 'paramrs' (CHARACTER 1 ((CONSTANT (INTEGER 4) 0 '32')))
() () 0 0 0 ()) (58 'tropsav' (CHARACTER 1 ((CONSTANT (INTEGER 4) 0 '32')))
() () 0 0 0 ()) (59 'tropsnx' (CHARACTER 1 ((CONSTANT (INTEGER 4) 0 '32')))
() () 0 0 0 ()) (60 'dcbout' (CHARACTER 1 ((CONSTANT (INTEGER 4) 0 '32')))
() () 0 0 0 ()) (61 'gravout' (CHARACTER 1 ((CONSTANT (INTEGER 4) 0 '32')))
() () 0 0 0 (CONSTANT (CHARACTER 1 ((CONSTANT (INTEGER 4) 0 '32'))) 0 32
'                                ')) (62 'ionosrs' (CHARACTER 1 ((
CONSTANT (INTEGER 4) 0 '32'))) () () 0 0 0 ()) (63 'ionexrs' (CHARACTER
1 ((CONSTANT (INTEGER 4) 0 '32'))) () () 0 0 0 ()) (64 'polers' (
CHARACTER 1 ((CONSTANT (INTEGER 4) 0 '32'))) () () 0 0 0 ()) (65 'ierspol'
(CHARACTER 1 ((CONSTANT (INTEGER 4) 0 '32'))) () () 0 0 0 ()) (66 'plotrs'
(CHARACTER 1 ((CONSTANT (INTEGER 4) 0 '32'))) () () 0 0 0 ()) (67
'covarrs' (CHARACTER 1 ((CONSTANT (INTEGER 4) 0 '32'))) () () 0 0 0 ())
(68 'covttrs' (CHARACTER 1 ((CONSTANT (INTEGER 4) 0 '32'))) () () 0 0 0
()) (69 'rgbout' (CHARACTER 1 ((CONSTANT (INTEGER 4) 0 '32'))) () () 0 0
0 ()) (70 'wgtout' (CHARACTER 1 ((CONSTANT (INTEGER 4) 0 '32'))) () () 0
0 0 ()) (71 'sysout' (CHARACTER 1 ((CONSTANT (INTEGER 4) 0 '32'))) () ()
0 0 0 ()) (72 'syserr' (CHARACTER 1 ((CONSTANT (INTEGER 4) 0 '32'))) ()
() 0 0 0 ()) (73 'auxfil' (CHARACTER 1 ((CONSTANT (INTEGER 4) 0 '32')))
() () 0 0 0 ()) (74 'maxpar' (INTEGER 4) () () 0 0 0 ()) (75 'neqfilename'
(CHARACTER 1 ((CONSTANT (INTEGER 4) 0 '32'))) (1 DEFERRED () ()) () 1 1
0 ()) (76 'orbfil' (CHARACTER 1 ((CONSTANT (INTEGER 4) 0 '32'))) (2
DEFERRED () () () ()) () 1 1 0 ()) (77 'noinv' (LOGICAL 4) () () 0 0 0 ())
(78 'req' (DERIVED 79) (1 DEFERRED () ()) () 1 1 0 ()) (80 'elimi' (
DERIVED 81) (1 DEFERRED () ()) () 1 1 0 ()) (82 'nstcep' (INTEGER 4) ()
() 0 0 0 ()) (83 'rsw' (INTEGER 4) (1 EXPLICIT (CONSTANT (INTEGER 4) 0 '1')
(CONSTANT (INTEGER 4) 0 '3')) () 1 0 0 ()) (84 'sigrsw' (REAL 8) (1
EXPLICIT (CONSTANT (INTEGER 4) 0 '1') (CONSTANT (INTEGER 4) 0 '3')) () 1
0 0 ()) (85 'numstc' (INTEGER 4) () () 0 0 0 ()) (86 'svnstc' (INTEGER 4)
(1 EXPLICIT (CONSTANT (INTEGER 4) 0 '1') (CONSTANT (INTEGER 4) 0 '130'))
() 1 0 0 ()) (87 'dtstc' (REAL 8) () () 0 0 0 ()) (88 'numdyn' (INTEGER
4) () () 0 0 0 ()) (89 'svndyn' (INTEGER 4) (1 EXPLICIT (CONSTANT (
INTEGER 4) 0 '1') (CONSTANT (INTEGER 4) 0 '130')) () 1 0 0 ()) (90
'numgap' (INTEGER 4) () () 0 0 0 ()) (91 'svngap' (INTEGER 4) (1
EXPLICIT (CONSTANT (INTEGER 4) 0 '1') (CONSTANT (INTEGER 4) 0 '130')) ()
1 0 0 ()) (92 'numnac' (INTEGER 4) () () 0 0 0 ()) (93 'newarc' (
INTEGER 4) (2 EXPLICIT (CONSTANT (INTEGER 4) 0 '1') (CONSTANT (INTEGER 4)
0 '2') (CONSTANT (INTEGER 4) 0 '1') (CONSTANT (INTEGER 4) 0 '3900')) ()
1 0 0 ()) (94 'sigma0' (REAL 8) () () 0 0 0 ()) (95 'sigma' (DERIVED 96)
(1 DEFERRED () ()) () 1 1 0 ()) (97 'trafo' (INTEGER 4) () () 0 0 0 ())
(98 'splitdyn' (INTEGER 4) () () 0 0 0 ()) (99 'polestep' (INTEGER 4) ()
() 0 0 0 ()) (100 'indvsol' (INTEGER 4) () () 0 0 0 ()) (101 'iphelm' (
INTEGER 4) (1 EXPLICIT (CONSTANT (INTEGER 4) 0 '1') (CONSTANT (INTEGER 4)
0 '7')) () 1 0 0 ()) (102 'minsol' (INTEGER 4) () () 0 0 0 ()) (103
'badsol' (REAL 8) (2 EXPLICIT (CONSTANT (INTEGER 4) 0 '1') (CONSTANT (
INTEGER 4) 0 '2') (CONSTANT (INTEGER 4) 0 '1') (CONSTANT (INTEGER 4) 0 '3'))
() 1 0 0 ()) (104 'blkret' (REAL 8) () () 0 0 0 ()) (105 'timrefcrd' (
REAL 8) () () 0 0 0 ()) (106 'helmsig' (REAL 8) (2 EXPLICIT (CONSTANT (
INTEGER 4) 0 '1') (CONSTANT (INTEGER 4) 0 '3') (CONSTANT (INTEGER 4) 0 '1')
(CONSTANT (INTEGER 4) 0 '7')) () 1 0 0 ()) (107 'trpexceptday' (INTEGER
4) () () 0 0 0 ()) (108 'prt' (INTEGER 4) (1 EXPLICIT (CONSTANT (
INTEGER 4) 0 '1') (CONSTANT (INTEGER 4) 0 '10')) () 1 0 0 ()) (109
'setupgcc' (INTEGER 4) () () 0 0 0 ()) (110 'ieuref' (INTEGER 4) () () 0
0 0 ()) (111 'antred' (INTEGER 4) () () 0 0 0 ()) (112 'erprep' (
INTEGER 4) () () 0 0 0 ()) (113 'stasort' (INTEGER 4) (1 EXPLICIT (
CONSTANT (INTEGER 4) 0 '1') (CONSTANT (INTEGER 4) 0 '2')) () 1 0 0 ()) (
114 'snxinc' (INTEGER 4) () () 0 0 0 ()) (115 'snxreg' (REAL 8) () () 0
0 0 ()) (116 'dtrelsig' (REAL 8) (1 EXPLICIT (CONSTANT (INTEGER 4) 0 '1')
(CONSTANT (INTEGER 4) 0 '3')) () 1 0 0 ()) (117 'noabc' (INTEGER 4) () ()
0 0 0 ()) (118 'chrono' (INTEGER 4) () () 0 0 0 ()) (119 'step2' (
INTEGER 4) () () 0 0 0 ()) (120 'step2_t' (REAL 8) (1 EXPLICIT (
CONSTANT (INTEGER 4) 0 '1') (CONSTANT (INTEGER 4) 0 '2')) () 1 0 0 ()) (
121 'sincont' (INTEGER 4) () () 0 0 0 ()) (122 'covmode' (INTEGER 4) ()
() 0 0 0 ()) (123 'stackrgb' (INTEGER 4) () () 0 0 0 ()) (124 'saoopt' (
INTEGER 4) (1 EXPLICIT (CONSTANT (INTEGER 4) 0 '1') (CONSTANT (INTEGER 4)
0 '2')) () 1 0 0 ()) (125 'sapopt' (INTEGER 4) (1 EXPLICIT (CONSTANT (
INTEGER 4) 0 '1') (CONSTANT (INTEGER 4) 0 '2')) () 1 0 0 ()) (126
'grdload' (DERIVED 127) (1 EXPLICIT (CONSTANT (INTEGER 4) 0 '1') (
CONSTANT (INTEGER 4) 0 '3')) () 1 0 0 ()) (128 'hoi' (DERIVED 129) (1
EXPLICIT (CONSTANT (INTEGER 4) 0 '1') (CONSTANT (INTEGER 4) 0 '3')) () 1
0 0 ()) (130 'helmert' (DERIVED 131) (1 EXPLICIT (CONSTANT (INTEGER 4) 0
'1') (CONSTANT (INTEGER 4) 0 '7')) () 1 0 0 ()) (132 'chgrecnam' (
INTEGER 4) () () 0 0 0 ()) (133 'chgantnam' (INTEGER 4) () () 0 0 0 ())
(134 'chgrecnum' (INTEGER 4) () () 0 0 0 ()) (135 'chgantnum' (INTEGER 4)
() () 0 0 0 ()) (136 'chgantecc' (INTEGER 4) () () 0 0 0 ()) (137 'isbout'
(CHARACTER 1 ((CONSTANT (INTEGER 4) 0 '32'))) () () 0 0 0 ()) (138
'rcormgps' (INTEGER 4) () () 0 0 0 ()) (139 'rcotofrq' (INTEGER 4) () ()
0 0 0 ()) (140 'rcofromppp' (INTEGER 4) () () 0 0 0 ()) (141 'maxifb' (
REAL 8) () () 0 0 0 ()) (142 'gtradat' (INTEGER 4) () () 0 0 0 ()) (143
'gtrpdat' (INTEGER 4) () () 0 0 0 ()) (144 'gspstack' (INTEGER 4) () ()
0 0 0 ())) PUBLIC ())
131 't_opthelm' 'p_addneq' 9 ((DERIVED UNKNOWN UNKNOWN UNKNOWN NONE NONE)
(UNKNOWN) 0 0 () () () '' ((145 'stack' (INTEGER 4) () () 0 0 0 ()))
PUBLIC ())
129 't_opthoi' 'p_addneq' 9 ((DERIVED UNKNOWN UNKNOWN UNKNOWN NONE NONE)
(UNKNOWN) 0 0 () () () '' ((146 'x0' (REAL 8) () () 0 0 0 ()) (147 'stack'
(LOGICAL 4) () () 0 0 0 ())) PUBLIC ())
127 't_optload' 'p_addneq' 9 ((DERIVED UNKNOWN UNKNOWN UNKNOWN NONE NONE)
(UNKNOWN) 0 0 () () () '' ((148 'keyw' (CHARACTER 1 ((CONSTANT (INTEGER
4) 0 '12'))) () () 0 0 0 ()) (149 'nsta' (INTEGER 4) () () 0 0 0 ()) (
150 'stalst' (CHARACTER 1 ((CONSTANT (INTEGER 4) 0 '16'))) (1 DEFERRED ()
()) () 1 1 0 ()) (151 'staclu' (INTEGER 4) (1 DEFERRED () ()) () 1 1 0 ())
(152 'npar' (INTEGER 4) () () 0 0 0 ()) (153 'x0' (INTEGER 4) () () 0 0
0 ())) PUBLIC ())
96 't_sigma' 'p_addneq' 9 ((DERIVED UNKNOWN UNKNOWN UNKNOWN NONE NONE) (
UNKNOWN) 0 0 () () () '' ((154 'locq' (INTEGER 4) (1 EXPLICIT (CONSTANT
(INTEGER 4) 0 '1') (CONSTANT (INTEGER 4) 0 '7')) () 1 0 0 ()) (155 'name'
(CHARACTER 1 ((CONSTANT (INTEGER 4) 0 '20'))) () () 0 0 0 ()) (156 'value'
(REAL 8) () () 0 0 0 ()) (157 'typflg' (CHARACTER 1 ((CONSTANT (INTEGER
4) 0 '1'))) () () 0 0 0 ())) PUBLIC ())
81 't_elimi' 'p_addneq' 9 ((DERIVED UNKNOWN UNKNOWN UNKNOWN NONE NONE) (
UNKNOWN) 0 0 () () () '' ((158 'locq' (INTEGER 4) (1 EXPLICIT (CONSTANT
(INTEGER 4) 0 '1') (CONSTANT (INTEGER 4) 0 '7')) () 1 0 0 ()) (159 'name'
(CHARACTER 1 ((CONSTANT (INTEGER 4) 0 '20'))) () () 0 0 0 ()) (160 'part'
(INTEGER 4) () () 0 0 0 ()) (161 'mode' (INTEGER 4) () () 0 0 0 ()) (
162 'excp' (INTEGER 4) (1 DEFERRED () ()) () 1 1 0 ()) (163 'deltat' (
REAL 8) () () 0 0 0 ()) (164 'eliwin' (DERIVED 165) () () 0 0 0 ()) (
166 'wparam' (LOGICAL 4) () () 0 0 0 ()) (167 'descr' (CHARACTER 1 ((
CONSTANT (INTEGER 4) 0 '255'))) () () 0 0 0 ())) PUBLIC ())
165 't_timint' 'm_time' 9 ((DERIVED UNKNOWN UNKNOWN UNKNOWN NONE NONE) (
UNKNOWN) 0 0 () () () '' ((168 't' (REAL 8) (1 EXPLICIT (CONSTANT (
INTEGER 4) 0 '1') (CONSTANT (INTEGER 4) 0 '2')) () 1 0 0 ())) PUBLIC ())
79 't_req' 'p_addneq' 9 ((DERIVED UNKNOWN UNKNOWN UNKNOWN NONE NONE) (
UNKNOWN) 0 0 () () () '' ((169 'locq' (INTEGER 4) (1 EXPLICIT (CONSTANT
(INTEGER 4) 0 '1') (CONSTANT (INTEGER 4) 0 '7')) () 1 0 0 ()) (170 'name'
(CHARACTER 1 ((CONSTANT (INTEGER 4) 0 '20'))) () () 0 0 0 ()) (171
'timint' (DERIVED 165) () () 0 0 0 ()) (172 'type' (CHARACTER 1 ((
CONSTANT (INTEGER 4) 0 '2'))) () () 0 0 0 (CONSTANT (CHARACTER 1 ((
CONSTANT (INTEGER 4) 0 '2'))) 0 2 '  ')) (173 'omega' (REAL 8) () () 0 0
0 (CONSTANT (REAL 8) 0 '0' 0 0))) PUBLIC ())
)

('aoptant' 0 2 's_aoptant' 0 8)
