G95 module created on Thu Jun 25 17:43:54 2020 from ./.fpp/AOPTFIL.f90
If you edit this, you'll get what you deserve.
module-version 9
(() () () () () () () () () () () () () () () () () () () () ())

()

()

()

()

(2 'aoptfil' 's_aoptfil' 1 ((PROCEDURE UNKNOWN MODULE-PROC DECL NONE
NONE SUBROUTINE) (PROCEDURE 0) 0 0 (3 NONE 4 NONE 5 NONE 6 NONE 7 NONE 8
NONE 9 NONE 10 NONE 11 NONE 12 NONE 13 NONE 14 NONE 15 NONE 16 NONE 17
NONE 18 NONE 19 NONE) () () '' () ())
20 's_aoptfil' 's_aoptfil' 1 ((MODULE UNKNOWN UNKNOWN UNKNOWN NONE NONE)
(UNKNOWN) 0 0 () () () '' () ())
19 'pargsp' '' 21 ((VARIABLE UNKNOWN UNKNOWN UNKNOWN NONE NONE DUMMY) (
DERIVED 22) 0 0 () () () '' () ())
22 't_pargsp' 'p_addneq' 21 ((DERIVED UNKNOWN UNKNOWN UNKNOWN NONE NONE)
(UNKNOWN) 0 0 () () () '' ((23 'ntra' (INTEGER 4) () () 0 0 0 ()) (24
'nsystra' (INTEGER 4) () () 0 0 0 ()) (25 'systra' (INTEGER 4) (1
EXPLICIT (CONSTANT (INTEGER 4) 0 '1') (CONSTANT (INTEGER 4) 0 '6')) () 1
0 0 ()) (26 'ntrp' (INTEGER 4) () () 0 0 0 ()) (27 'nsystrp' (INTEGER 4)
() () 0 0 0 ()) (28 'systrp' (INTEGER 4) (1 EXPLICIT (CONSTANT (INTEGER
4) 0 '1') (CONSTANT (INTEGER 4) 0 '6')) () 1 0 0 ())) PUBLIC ())
18 'parrgb' '' 21 ((VARIABLE UNKNOWN UNKNOWN UNKNOWN NONE NONE DUMMY) (
DERIVED 29) 0 0 () () () '' () ())
29 't_parrgb' 'p_addneq' 21 ((DERIVED UNKNOWN UNKNOWN UNKNOWN NONE NONE)
(UNKNOWN) 0 0 () () () '' ((30 'nrgb' (INTEGER 4) () () 0 0 0 ()))
PUBLIC ())
17 'pargrd' '' 21 ((VARIABLE UNKNOWN UNKNOWN UNKNOWN NONE NONE DIMENSION
DUMMY) (DERIVED 31) 0 0 () (1 ASSUMED_SHAPE () ()) () '' () ())
31 't_optload' 'p_addneq' 21 ((DERIVED UNKNOWN UNKNOWN UNKNOWN NONE NONE)
(UNKNOWN) 0 0 () () () '' ((32 'keyw' (CHARACTER 1 ((CONSTANT (INTEGER 4)
0 '12'))) () () 0 0 0 ()) (33 'nsta' (INTEGER 4) () () 0 0 0 ()) (34
'stalst' (CHARACTER 1 ((CONSTANT (INTEGER 4) 0 '16'))) (1 DEFERRED () ())
() 1 1 0 ()) (35 'staclu' (INTEGER 4) (1 DEFERRED () ()) () 1 1 0 ()) (
36 'npar' (INTEGER 4) () () 0 0 0 ()) (37 'x0' (INTEGER 4) () () 0 0 0 ()))
PUBLIC ())
16 'pardcb' '' 21 ((VARIABLE UNKNOWN UNKNOWN UNKNOWN NONE NONE DIMENSION
DUMMY) (INTEGER 4) 0 0 () (2 ASSUMED_SHAPE () () () ()) () '' () ())
15 'parrco' '' 21 ((VARIABLE UNKNOWN UNKNOWN UNKNOWN NONE NONE DUMMY) (
DERIVED 38) 0 0 () () () '' () ())
38 't_parrco' 'p_addneq' 21 ((DERIVED UNKNOWN UNKNOWN UNKNOWN NONE NONE)
(UNKNOWN) 0 0 () () () '' ((39 'issta' (INTEGER 4) () () 0 0 0 ()) (40
'isfrq' (INTEGER 4) () () 0 0 0 ()) (41 'issat' (INTEGER 4) () () 0 0 0
())) PUBLIC ())
14 'parrap' '' 21 ((VARIABLE UNKNOWN UNKNOWN UNKNOWN NONE NONE DUMMY) (
DERIVED 42) 0 0 () () () '' () ())
42 't_parrap' 'p_addneq' 21 ((DERIVED UNKNOWN UNKNOWN UNKNOWN NONE NONE)
(UNKNOWN) 0 0 () () () '' ((43 'nrapgrd' (INTEGER 4) () () 0 0 0 ()) (
44 'nrapshm' (INTEGER 4) () () 0 0 0 ())) PUBLIC ())
13 'parrao' '' 21 ((VARIABLE UNKNOWN UNKNOWN UNKNOWN NONE NONE DUMMY) (
DERIVED 45) 0 0 () () () '' () ())
45 't_parrao' 'p_addneq' 21 ((DERIVED UNKNOWN UNKNOWN UNKNOWN NONE NONE)
(UNKNOWN) 0 0 () () () '' ((46 'nrao' (INTEGER 4) () () 0 0 0 ()) (47
'rao' (INTEGER 4) (1 EXPLICIT (CONSTANT (INTEGER 4) 0 '1') (CONSTANT (
INTEGER 4) 0 '3')) () 1 0 0 ())) PUBLIC ())
12 'parsap' '' 21 ((VARIABLE UNKNOWN UNKNOWN UNKNOWN NONE NONE DIMENSION
POINTER DUMMY) (DERIVED 48) 0 0 () (1 DEFERRED () ()) () '' () ())
48 't_parsap' 'p_addneq' 21 ((DERIVED UNKNOWN UNKNOWN UNKNOWN NONE NONE)
(UNKNOWN) 0 0 () () () '' ((49 'nanspv' (INTEGER 4) () () 0 0 0 ()) (50
'nsaspv' (INTEGER 4) (1 DEFERRED () ()) () 1 1 0 ()) (51 'satspv' (
INTEGER 4) (2 DEFERRED () () () ()) () 1 1 0 ()) (52 'gnrspv' (INTEGER 4)
(1 EXPLICIT (CONSTANT (INTEGER 4) 0 '1') (CONSTANT (INTEGER 4) 0 '260'))
() 1 0 0 ()) (53 'nptspv' (INTEGER 4) (2 EXPLICIT (CONSTANT (INTEGER 4)
0 '1') (CONSTANT (INTEGER 4) 0 '2') (CONSTANT (INTEGER 4) 0 '1') (
CONSTANT (INTEGER 4) 0 '260')) () 1 0 0 ()) (54 'timspv' (REAL 8) (2
EXPLICIT (CONSTANT (INTEGER 4) 0 '1') (CONSTANT (INTEGER 4) 0 '2') (
CONSTANT (INTEGER 4) 0 '1') (CONSTANT (INTEGER 4) 0 '260')) () 1 0 0 ()))
PUBLIC ())
11 'parerp' '' 21 ((VARIABLE UNKNOWN UNKNOWN UNKNOWN NONE NONE DUMMY) (
DERIVED 55) 0 0 () () () '' () ())
55 't_parerp' 'p_addneq' 21 ((DERIVED UNKNOWN UNKNOWN UNKNOWN NONE NONE)
(UNKNOWN) 0 0 () () () '' ((56 'nerp' (INTEGER 4) () () 0 0 0 ()) (57
'erp' (INTEGER 4) (1 EXPLICIT (CONSTANT (INTEGER 4) 0 '1') (CONSTANT (
INTEGER 4) 0 '5')) () 1 0 0 ())) PUBLIC ())
10 'paratm' '' 21 ((VARIABLE UNKNOWN UNKNOWN UNKNOWN NONE NONE DUMMY) (
DERIVED 58) 0 0 () () () '' () ())
58 't_paratm' 'p_addneq' 21 ((DERIVED UNKNOWN UNKNOWN UNKNOWN NONE NONE)
(UNKNOWN) 0 0 () () () '' ((59 'ntro' (INTEGER 4) () () 0 0 0 ()) (60
'nmodel' (INTEGER 4) () () 0 0 0 ()) (61 'trpmod' (DERIVED 62) (1
DEFERRED () ()) () 1 1 0 ()) (63 'nion' (INTEGER 4) () () 0 0 0 ()) (64
'nhoi' (INTEGER 4) () () 0 0 0 ())) PUBLIC ())
62 't_partrp' 'p_addneq' 21 ((DERIVED UNKNOWN UNKNOWN UNKNOWN NONE NONE)
(UNKNOWN) 0 0 () () () '' ((65 'fromto' (INTEGER 4) (1 EXPLICIT (
CONSTANT (INTEGER 4) 0 '1') (CONSTANT (INTEGER 4) 0 '2')) () 1 0 0 ()) (
66 'itropo' (INTEGER 4) () () 0 0 0 ()) (67 'iextra' (INTEGER 4) () () 0
0 0 ()) (68 'itrmap' (INTEGER 4) () () 0 0 0 ()) (69 'itrgrd' (INTEGER 4)
() () 0 0 0 ())) PUBLIC ())
9 'parsao' '' 21 ((VARIABLE UNKNOWN UNKNOWN UNKNOWN NONE NONE DIMENSION
POINTER DUMMY) (DERIVED 70) 0 0 () (1 DEFERRED () ()) () '' () ())
70 't_parsao' 'p_addneq' 21 ((DERIVED UNKNOWN UNKNOWN UNKNOWN NONE NONE)
(UNKNOWN) 0 0 () () () '' ((71 'nanoff' (INTEGER 4) () () 0 0 0 ()) (72
'nsaoff' (INTEGER 4) (1 DEFERRED () ()) () 1 1 0 ()) (73 'satoff' (
INTEGER 4) (2 DEFERRED () () () ()) () 1 1 0 ()) (74 'santoff' (INTEGER
4) (2 EXPLICIT (CONSTANT (INTEGER 4) 0 '1') (CONSTANT (INTEGER 4) 0 '260')
(CONSTANT (INTEGER 4) 0 '1') (CONSTANT (INTEGER 4) 0 '3')) () 1 0 0 ())
(75 'nrqoff' (INTEGER 4) () () 0 0 0 ()) (76 'grpoff' (INTEGER 4) (1
EXPLICIT (CONSTANT (INTEGER 4) 0 '1') (CONSTANT (INTEGER 4) 0 '260')) ()
1 0 0 ()) (77 'gnroff' (INTEGER 4) (1 EXPLICIT (CONSTANT (INTEGER 4) 0 '1')
(CONSTANT (INTEGER 4) 0 '260')) () 1 0 0 ()) (78 'ncoreq' (INTEGER 4) (
1 EXPLICIT (CONSTANT (INTEGER 4) 0 '1') (CONSTANT (INTEGER 4) 0 '260'))
() 1 0 0 ()) (79 'timoff' (REAL 8) (2 EXPLICIT (CONSTANT (INTEGER 4) 0 '1')
(CONSTANT (INTEGER 4) 0 '2') (CONSTANT (INTEGER 4) 0 '1') (CONSTANT (
INTEGER 4) 0 '260')) () 1 0 0 ())) PUBLIC ())
8 'pargcc' '' 21 ((VARIABLE UNKNOWN UNKNOWN UNKNOWN NONE NONE DUMMY) (
DERIVED 80) 0 0 () () () '' () ())
80 't_pargcc' 'p_addneq' 21 ((DERIVED UNKNOWN UNKNOWN UNKNOWN NONE NONE)
(UNKNOWN) 0 0 () () () '' ((81 'ngcc' (INTEGER 4) () () 0 0 0 ()) (82
'gcc' (INTEGER 4) (1 EXPLICIT (CONSTANT (INTEGER 4) 0 '1') (CONSTANT (
INTEGER 4) 0 '3')) () 1 0 0 ())) PUBLIC ())
7 'parorb' '' 21 ((VARIABLE UNKNOWN UNKNOWN UNKNOWN NONE NONE DUMMY) (
DERIVED 83) 0 0 () () () '' () ())
83 't_parorb' 'p_addneq' 21 ((DERIVED UNKNOWN UNKNOWN UNKNOWN NONE NONE)
(UNKNOWN) 0 0 () () () '' ((84 'norb' (INTEGER 4) () () 0 0 0 ()) (85
'seqorb' (INTEGER 4) (1 EXPLICIT (CONSTANT (INTEGER 4) 0 '1') (CONSTANT
(INTEGER 4) 0 '15')) () 1 0 0 ()) (86 'epoorb' (REAL 8) (1 DEFERRED () ())
() 1 1 0 ())) PUBLIC ())
6 'limits' '' 21 ((VARIABLE UNKNOWN UNKNOWN UNKNOWN NONE NONE DIMENSION
DUMMY) (DERIVED 87) 0 0 () (1 EXPLICIT (CONSTANT (INTEGER 4) 0 '1') (
CONSTANT (INTEGER 4) 0 '30')) () '' () ())
87 't_timint' 'm_time' 21 ((DERIVED UNKNOWN UNKNOWN UNKNOWN NONE NONE) (
UNKNOWN) 0 0 () () () '' ((88 't' (REAL 8) (1 EXPLICIT (CONSTANT (
INTEGER 4) 0 '1') (CONSTANT (INTEGER 4) 0 '2')) () 1 0 0 ())) PUBLIC ())
5 'clklist' '' 21 ((VARIABLE UNKNOWN UNKNOWN UNKNOWN NONE NONE DIMENSION
POINTER DUMMY) (CHARACTER 1 (())) 0 0 () (2 DEFERRED () () () ()) () ''
() ())
4 'namlist' '' 21 ((VARIABLE UNKNOWN UNKNOWN UNKNOWN NONE NONE DIMENSION
DUMMY) (DERIVED 89) 0 0 () (1 ASSUMED_SHAPE () ()) () '' () ())
89 't_namlst' 'p_addneq' 21 ((DERIVED UNKNOWN UNKNOWN UNKNOWN NONE NONE)
(UNKNOWN) 0 0 () () () '' ((90 'nsta' (INTEGER 4) () () 0 0 0 ()) (91
'nam2' (CHARACTER 1 ((CONSTANT (INTEGER 4) 0 '20'))) (1 DEFERRED () ())
() 1 1 0 ()) (92 'nam' (CHARACTER 1 ((CONSTANT (INTEGER 4) 0 '16'))) (1
DEFERRED () ()) () 1 1 0 ()) (93 'num' (INTEGER 4) (1 DEFERRED () ()) ()
1 1 0 ())) PUBLIC ())
3 'opt' '' 21 ((VARIABLE UNKNOWN UNKNOWN UNKNOWN NONE NONE DUMMY) (
DERIVED 94) 0 0 () () () '' () ())
94 't_opt' 'p_addneq' 21 ((DERIVED UNKNOWN UNKNOWN UNKNOWN NONE NONE) (
UNKNOWN) 0 0 () () () '' ((95 'title' (CHARACTER 1 ((CONSTANT (INTEGER 4)
0 '80'))) () () 0 0 0 ()) (96 'const' (CHARACTER 1 ((CONSTANT (INTEGER 4)
0 '32'))) () () 0 0 0 ()) (97 'datumfil' (CHARACTER 1 ((CONSTANT (
INTEGER 4) 0 '32'))) () () 0 0 0 ()) (98 'stacrux' (CHARACTER 1 ((
CONSTANT (INTEGER 4) 0 '32'))) () () 0 0 0 ()) (99 'satcrux' (CHARACTER
1 ((CONSTANT (INTEGER 4) 0 '32'))) () () 0 0 0 ()) (100 'satell' (
CHARACTER 1 ((CONSTANT (INTEGER 4) 0 '32'))) () () 0 0 0 ()) (101
'phasecc' (CHARACTER 1 ((CONSTANT (INTEGER 4) 0 '32'))) () () 0 0 0 ())
(102 'pole' (CHARACTER 1 ((CONSTANT (INTEGER 4) 0 '32'))) () () 0 0 0 ())
(103 'sinexin' (CHARACTER 1 ((CONSTANT (INTEGER 4) 0 '32'))) () () 0 0 0
()) (104 'ionexcf' (CHARACTER 1 ((CONSTANT (INTEGER 4) 0 '32'))) () () 0
0 0 ()) (105 'coord' (CHARACTER 1 ((CONSTANT (INTEGER 4) 0 '32'))) () ()
0 0 0 ()) (106 'velapr' (CHARACTER 1 ((CONSTANT (INTEGER 4) 0 '32'))) ()
() 0 0 0 ()) (107 'covcomi' (CHARACTER 1 ((CONSTANT (INTEGER 4) 0 '32')))
() () 0 0 0 ()) (108 'gccinp' (CHARACTER 1 ((CONSTANT (INTEGER 4) 0 '32')))
() () 0 0 0 ()) (109 'gccout' (CHARACTER 1 ((CONSTANT (INTEGER 4) 0 '32')))
() () 0 0 0 ()) (110 'dcbinp' (CHARACTER 1 ((CONSTANT (INTEGER 4) 0 '32')))
() () 0 0 0 ()) (111 'rgbinp' (CHARACTER 1 ((CONSTANT (INTEGER 4) 0 '32')))
() () 0 0 0 ()) (112 'ionos' (CHARACTER 1 ((CONSTANT (INTEGER 4) 0 '32')))
() () 0 0 0 ()) (113 'neqout' (CHARACTER 1 ((CONSTANT (INTEGER 4) 0 '32')))
() () 0 0 0 ()) (114 'coordrs' (CHARACTER 1 ((CONSTANT (INTEGER 4) 0 '32')))
() () 0 0 0 ()) (115 'velors' (CHARACTER 1 ((CONSTANT (INTEGER 4) 0 '32')))
() () 0 0 0 ()) (116 'sinexrs' (CHARACTER 1 ((CONSTANT (INTEGER 4) 0 '32')))
() () 0 0 0 ()) (117 'paramin' (CHARACTER 1 ((CONSTANT (INTEGER 4) 0 '32')))
() () 0 0 0 ()) (118 'paramrs' (CHARACTER 1 ((CONSTANT (INTEGER 4) 0 '32')))
() () 0 0 0 ()) (119 'tropsav' (CHARACTER 1 ((CONSTANT (INTEGER 4) 0 '32')))
() () 0 0 0 ()) (120 'tropsnx' (CHARACTER 1 ((CONSTANT (INTEGER 4) 0 '32')))
() () 0 0 0 ()) (121 'dcbout' (CHARACTER 1 ((CONSTANT (INTEGER 4) 0 '32')))
() () 0 0 0 ()) (122 'gravout' (CHARACTER 1 ((CONSTANT (INTEGER 4) 0 '32')))
() () 0 0 0 (CONSTANT (CHARACTER 1 ((CONSTANT (INTEGER 4) 0 '32'))) 0 32
'                                ')) (123 'ionosrs' (CHARACTER 1 ((
CONSTANT (INTEGER 4) 0 '32'))) () () 0 0 0 ()) (124 'ionexrs' (
CHARACTER 1 ((CONSTANT (INTEGER 4) 0 '32'))) () () 0 0 0 ()) (125 'polers'
(CHARACTER 1 ((CONSTANT (INTEGER 4) 0 '32'))) () () 0 0 0 ()) (126
'ierspol' (CHARACTER 1 ((CONSTANT (INTEGER 4) 0 '32'))) () () 0 0 0 ())
(127 'plotrs' (CHARACTER 1 ((CONSTANT (INTEGER 4) 0 '32'))) () () 0 0 0
()) (128 'covarrs' (CHARACTER 1 ((CONSTANT (INTEGER 4) 0 '32'))) () () 0
0 0 ()) (129 'covttrs' (CHARACTER 1 ((CONSTANT (INTEGER 4) 0 '32'))) ()
() 0 0 0 ()) (130 'rgbout' (CHARACTER 1 ((CONSTANT (INTEGER 4) 0 '32')))
() () 0 0 0 ()) (131 'wgtout' (CHARACTER 1 ((CONSTANT (INTEGER 4) 0 '32')))
() () 0 0 0 ()) (132 'sysout' (CHARACTER 1 ((CONSTANT (INTEGER 4) 0 '32')))
() () 0 0 0 ()) (133 'syserr' (CHARACTER 1 ((CONSTANT (INTEGER 4) 0 '32')))
() () 0 0 0 ()) (134 'auxfil' (CHARACTER 1 ((CONSTANT (INTEGER 4) 0 '32')))
() () 0 0 0 ()) (135 'maxpar' (INTEGER 4) () () 0 0 0 ()) (136
'neqfilename' (CHARACTER 1 ((CONSTANT (INTEGER 4) 0 '32'))) (1 DEFERRED
() ()) () 1 1 0 ()) (137 'orbfil' (CHARACTER 1 ((CONSTANT (INTEGER 4) 0
'32'))) (2 DEFERRED () () () ()) () 1 1 0 ()) (138 'noinv' (LOGICAL 4) ()
() 0 0 0 ()) (139 'req' (DERIVED 140) (1 DEFERRED () ()) () 1 1 0 ()) (
141 'elimi' (DERIVED 142) (1 DEFERRED () ()) () 1 1 0 ()) (143 'nstcep'
(INTEGER 4) () () 0 0 0 ()) (144 'rsw' (INTEGER 4) (1 EXPLICIT (
CONSTANT (INTEGER 4) 0 '1') (CONSTANT (INTEGER 4) 0 '3')) () 1 0 0 ()) (
145 'sigrsw' (REAL 8) (1 EXPLICIT (CONSTANT (INTEGER 4) 0 '1') (
CONSTANT (INTEGER 4) 0 '3')) () 1 0 0 ()) (146 'numstc' (INTEGER 4) () ()
0 0 0 ()) (147 'svnstc' (INTEGER 4) (1 EXPLICIT (CONSTANT (INTEGER 4) 0
'1') (CONSTANT (INTEGER 4) 0 '130')) () 1 0 0 ()) (148 'dtstc' (REAL 8)
() () 0 0 0 ()) (149 'numdyn' (INTEGER 4) () () 0 0 0 ()) (150 'svndyn'
(INTEGER 4) (1 EXPLICIT (CONSTANT (INTEGER 4) 0 '1') (CONSTANT (INTEGER
4) 0 '130')) () 1 0 0 ()) (151 'numgap' (INTEGER 4) () () 0 0 0 ()) (
152 'svngap' (INTEGER 4) (1 EXPLICIT (CONSTANT (INTEGER 4) 0 '1') (
CONSTANT (INTEGER 4) 0 '130')) () 1 0 0 ()) (153 'numnac' (INTEGER 4) ()
() 0 0 0 ()) (154 'newarc' (INTEGER 4) (2 EXPLICIT (CONSTANT (INTEGER 4)
0 '1') (CONSTANT (INTEGER 4) 0 '2') (CONSTANT (INTEGER 4) 0 '1') (
CONSTANT (INTEGER 4) 0 '3900')) () 1 0 0 ()) (155 'sigma0' (REAL 8) () ()
0 0 0 ()) (156 'sigma' (DERIVED 157) (1 DEFERRED () ()) () 1 1 0 ()) (
158 'trafo' (INTEGER 4) () () 0 0 0 ()) (159 'splitdyn' (INTEGER 4) () ()
0 0 0 ()) (160 'polestep' (INTEGER 4) () () 0 0 0 ()) (161 'indvsol' (
INTEGER 4) () () 0 0 0 ()) (162 'iphelm' (INTEGER 4) (1 EXPLICIT (
CONSTANT (INTEGER 4) 0 '1') (CONSTANT (INTEGER 4) 0 '7')) () 1 0 0 ()) (
163 'minsol' (INTEGER 4) () () 0 0 0 ()) (164 'badsol' (REAL 8) (2
EXPLICIT (CONSTANT (INTEGER 4) 0 '1') (CONSTANT (INTEGER 4) 0 '2') (
CONSTANT (INTEGER 4) 0 '1') (CONSTANT (INTEGER 4) 0 '3')) () 1 0 0 ()) (
165 'blkret' (REAL 8) () () 0 0 0 ()) (166 'timrefcrd' (REAL 8) () () 0
0 0 ()) (167 'helmsig' (REAL 8) (2 EXPLICIT (CONSTANT (INTEGER 4) 0 '1')
(CONSTANT (INTEGER 4) 0 '3') (CONSTANT (INTEGER 4) 0 '1') (CONSTANT (
INTEGER 4) 0 '7')) () 1 0 0 ()) (168 'trpexceptday' (INTEGER 4) () () 0
0 0 ()) (169 'prt' (INTEGER 4) (1 EXPLICIT (CONSTANT (INTEGER 4) 0 '1')
(CONSTANT (INTEGER 4) 0 '10')) () 1 0 0 ()) (170 'setupgcc' (INTEGER 4)
() () 0 0 0 ()) (171 'ieuref' (INTEGER 4) () () 0 0 0 ()) (172 'antred'
(INTEGER 4) () () 0 0 0 ()) (173 'erprep' (INTEGER 4) () () 0 0 0 ()) (
174 'stasort' (INTEGER 4) (1 EXPLICIT (CONSTANT (INTEGER 4) 0 '1') (
CONSTANT (INTEGER 4) 0 '2')) () 1 0 0 ()) (175 'snxinc' (INTEGER 4) () ()
0 0 0 ()) (176 'snxreg' (REAL 8) () () 0 0 0 ()) (177 'dtrelsig' (REAL 8)
(1 EXPLICIT (CONSTANT (INTEGER 4) 0 '1') (CONSTANT (INTEGER 4) 0 '3')) ()
1 0 0 ()) (178 'noabc' (INTEGER 4) () () 0 0 0 ()) (179 'chrono' (
INTEGER 4) () () 0 0 0 ()) (180 'step2' (INTEGER 4) () () 0 0 0 ()) (
181 'step2_t' (REAL 8) (1 EXPLICIT (CONSTANT (INTEGER 4) 0 '1') (
CONSTANT (INTEGER 4) 0 '2')) () 1 0 0 ()) (182 'sincont' (INTEGER 4) ()
() 0 0 0 ()) (183 'covmode' (INTEGER 4) () () 0 0 0 ()) (184 'stackrgb'
(INTEGER 4) () () 0 0 0 ()) (185 'saoopt' (INTEGER 4) (1 EXPLICIT (
CONSTANT (INTEGER 4) 0 '1') (CONSTANT (INTEGER 4) 0 '2')) () 1 0 0 ()) (
186 'sapopt' (INTEGER 4) (1 EXPLICIT (CONSTANT (INTEGER 4) 0 '1') (
CONSTANT (INTEGER 4) 0 '2')) () 1 0 0 ()) (187 'grdload' (DERIVED 31) (
1 EXPLICIT (CONSTANT (INTEGER 4) 0 '1') (CONSTANT (INTEGER 4) 0 '3')) ()
1 0 0 ()) (188 'hoi' (DERIVED 189) (1 EXPLICIT (CONSTANT (INTEGER 4) 0 '1')
(CONSTANT (INTEGER 4) 0 '3')) () 1 0 0 ()) (190 'helmert' (DERIVED 191)
(1 EXPLICIT (CONSTANT (INTEGER 4) 0 '1') (CONSTANT (INTEGER 4) 0 '7')) ()
1 0 0 ()) (192 'chgrecnam' (INTEGER 4) () () 0 0 0 ()) (193 'chgantnam'
(INTEGER 4) () () 0 0 0 ()) (194 'chgrecnum' (INTEGER 4) () () 0 0 0 ())
(195 'chgantnum' (INTEGER 4) () () 0 0 0 ()) (196 'chgantecc' (INTEGER 4)
() () 0 0 0 ()) (197 'isbout' (CHARACTER 1 ((CONSTANT (INTEGER 4) 0 '32')))
() () 0 0 0 ()) (198 'rcormgps' (INTEGER 4) () () 0 0 0 ()) (199
'rcotofrq' (INTEGER 4) () () 0 0 0 ()) (200 'rcofromppp' (INTEGER 4) ()
() 0 0 0 ()) (201 'maxifb' (REAL 8) () () 0 0 0 ()) (202 'gtradat' (
INTEGER 4) () () 0 0 0 ()) (203 'gtrpdat' (INTEGER 4) () () 0 0 0 ()) (
204 'gspstack' (INTEGER 4) () () 0 0 0 ())) PUBLIC ())
191 't_opthelm' 'p_addneq' 21 ((DERIVED UNKNOWN UNKNOWN UNKNOWN NONE
NONE) (UNKNOWN) 0 0 () () () '' ((205 'stack' (INTEGER 4) () () 0 0 0 ()))
PUBLIC ())
189 't_opthoi' 'p_addneq' 21 ((DERIVED UNKNOWN UNKNOWN UNKNOWN NONE NONE)
(UNKNOWN) 0 0 () () () '' ((206 'x0' (REAL 8) () () 0 0 0 ()) (207 'stack'
(LOGICAL 4) () () 0 0 0 ())) PUBLIC ())
157 't_sigma' 'p_addneq' 21 ((DERIVED UNKNOWN UNKNOWN UNKNOWN NONE NONE)
(UNKNOWN) 0 0 () () () '' ((208 'locq' (INTEGER 4) (1 EXPLICIT (
CONSTANT (INTEGER 4) 0 '1') (CONSTANT (INTEGER 4) 0 '7')) () 1 0 0 ()) (
209 'name' (CHARACTER 1 ((CONSTANT (INTEGER 4) 0 '20'))) () () 0 0 0 ())
(210 'value' (REAL 8) () () 0 0 0 ()) (211 'typflg' (CHARACTER 1 ((
CONSTANT (INTEGER 4) 0 '1'))) () () 0 0 0 ())) PUBLIC ())
142 't_elimi' 'p_addneq' 21 ((DERIVED UNKNOWN UNKNOWN UNKNOWN NONE NONE)
(UNKNOWN) 0 0 () () () '' ((212 'locq' (INTEGER 4) (1 EXPLICIT (
CONSTANT (INTEGER 4) 0 '1') (CONSTANT (INTEGER 4) 0 '7')) () 1 0 0 ()) (
213 'name' (CHARACTER 1 ((CONSTANT (INTEGER 4) 0 '20'))) () () 0 0 0 ())
(214 'part' (INTEGER 4) () () 0 0 0 ()) (215 'mode' (INTEGER 4) () () 0
0 0 ()) (216 'excp' (INTEGER 4) (1 DEFERRED () ()) () 1 1 0 ()) (217
'deltat' (REAL 8) () () 0 0 0 ()) (218 'eliwin' (DERIVED 87) () () 0 0 0
()) (219 'wparam' (LOGICAL 4) () () 0 0 0 ()) (220 'descr' (CHARACTER 1
((CONSTANT (INTEGER 4) 0 '255'))) () () 0 0 0 ())) PUBLIC ())
140 't_req' 'p_addneq' 21 ((DERIVED UNKNOWN UNKNOWN UNKNOWN NONE NONE) (
UNKNOWN) 0 0 () () () '' ((221 'locq' (INTEGER 4) (1 EXPLICIT (CONSTANT
(INTEGER 4) 0 '1') (CONSTANT (INTEGER 4) 0 '7')) () 1 0 0 ()) (222 'name'
(CHARACTER 1 ((CONSTANT (INTEGER 4) 0 '20'))) () () 0 0 0 ()) (223
'timint' (DERIVED 87) () () 0 0 0 ()) (224 'type' (CHARACTER 1 ((
CONSTANT (INTEGER 4) 0 '2'))) () () 0 0 0 (CONSTANT (CHARACTER 1 ((
CONSTANT (INTEGER 4) 0 '2'))) 0 2 '  ')) (225 'omega' (REAL 8) () () 0 0
0 (CONSTANT (REAL 8) 0 '0' 0 0))) PUBLIC ())
)

('aoptfil' 0 2 's_aoptfil' 0 20)
