G95 module created on Thu Jun 25 17:45:00 2020 from ./.fpp/AOPTATM.f90
If you edit this, you'll get what you deserve.
module-version 9
(() () () () () () () () () () () () () () () () () () () () ())

()

()

()

()

(2 'aoptatm' 's_aoptatm' 1 ((PROCEDURE UNKNOWN MODULE-PROC DECL NONE
NONE SUBROUTINE) (PROCEDURE 0) 0 0 (3 NONE 4 NONE) () () '' () ())
5 's_aoptatm' 's_aoptatm' 1 ((MODULE UNKNOWN UNKNOWN UNKNOWN NONE NONE)
(UNKNOWN) 0 0 () () () '' () ())
4 'paratm' '' 6 ((VARIABLE UNKNOWN UNKNOWN UNKNOWN NONE NONE DUMMY) (
DERIVED 7) 0 0 () () () '' () ())
7 't_paratm' 'p_addneq' 6 ((DERIVED UNKNOWN UNKNOWN UNKNOWN NONE NONE) (
UNKNOWN) 0 0 () () () '' ((8 'ntro' (INTEGER 4) () () 0 0 0 ()) (9
'nmodel' (INTEGER 4) () () 0 0 0 ()) (10 'trpmod' (DERIVED 11) (1
DEFERRED () ()) () 1 1 0 ()) (12 'nion' (INTEGER 4) () () 0 0 0 ()) (13
'nhoi' (INTEGER 4) () () 0 0 0 ())) PUBLIC ())
11 't_partrp' 'p_addneq' 6 ((DERIVED UNKNOWN UNKNOWN UNKNOWN NONE NONE)
(UNKNOWN) 0 0 () () () '' ((14 'fromto' (INTEGER 4) (1 EXPLICIT (
CONSTANT (INTEGER 4) 0 '1') (CONSTANT (INTEGER 4) 0 '2')) () 1 0 0 ()) (
15 'itropo' (INTEGER 4) () () 0 0 0 ()) (16 'iextra' (INTEGER 4) () () 0
0 0 ()) (17 'itrmap' (INTEGER 4) () () 0 0 0 ()) (18 'itrgrd' (INTEGER 4)
() () 0 0 0 ())) PUBLIC ())
3 'opt' '' 6 ((VARIABLE UNKNOWN UNKNOWN UNKNOWN NONE NONE DUMMY) (
DERIVED 19) 0 0 () () () '' () ())
19 't_opt' 'p_addneq' 6 ((DERIVED UNKNOWN UNKNOWN UNKNOWN NONE NONE) (
UNKNOWN) 0 0 () () () '' ((20 'title' (CHARACTER 1 ((CONSTANT (INTEGER 4)
0 '80'))) () () 0 0 0 ()) (21 'const' (CHARACTER 1 ((CONSTANT (INTEGER 4)
0 '32'))) () () 0 0 0 ()) (22 'datumfil' (CHARACTER 1 ((CONSTANT (
INTEGER 4) 0 '32'))) () () 0 0 0 ()) (23 'stacrux' (CHARACTER 1 ((
CONSTANT (INTEGER 4) 0 '32'))) () () 0 0 0 ()) (24 'satcrux' (CHARACTER
1 ((CONSTANT (INTEGER 4) 0 '32'))) () () 0 0 0 ()) (25 'satell' (
CHARACTER 1 ((CONSTANT (INTEGER 4) 0 '32'))) () () 0 0 0 ()) (26 'phasecc'
(CHARACTER 1 ((CONSTANT (INTEGER 4) 0 '32'))) () () 0 0 0 ()) (27 'pole'
(CHARACTER 1 ((CONSTANT (INTEGER 4) 0 '32'))) () () 0 0 0 ()) (28
'sinexin' (CHARACTER 1 ((CONSTANT (INTEGER 4) 0 '32'))) () () 0 0 0 ())
(29 'ionexcf' (CHARACTER 1 ((CONSTANT (INTEGER 4) 0 '32'))) () () 0 0 0
()) (30 'coord' (CHARACTER 1 ((CONSTANT (INTEGER 4) 0 '32'))) () () 0 0
0 ()) (31 'velapr' (CHARACTER 1 ((CONSTANT (INTEGER 4) 0 '32'))) () () 0
0 0 ()) (32 'covcomi' (CHARACTER 1 ((CONSTANT (INTEGER 4) 0 '32'))) () ()
0 0 0 ()) (33 'gccinp' (CHARACTER 1 ((CONSTANT (INTEGER 4) 0 '32'))) ()
() 0 0 0 ()) (34 'gccout' (CHARACTER 1 ((CONSTANT (INTEGER 4) 0 '32')))
() () 0 0 0 ()) (35 'dcbinp' (CHARACTER 1 ((CONSTANT (INTEGER 4) 0 '32')))
() () 0 0 0 ()) (36 'rgbinp' (CHARACTER 1 ((CONSTANT (INTEGER 4) 0 '32')))
() () 0 0 0 ()) (37 'ionos' (CHARACTER 1 ((CONSTANT (INTEGER 4) 0 '32')))
() () 0 0 0 ()) (38 'neqout' (CHARACTER 1 ((CONSTANT (INTEGER 4) 0 '32')))
() () 0 0 0 ()) (39 'coordrs' (CHARACTER 1 ((CONSTANT (INTEGER 4) 0 '32')))
() () 0 0 0 ()) (40 'velors' (CHARACTER 1 ((CONSTANT (INTEGER 4) 0 '32')))
() () 0 0 0 ()) (41 'sinexrs' (CHARACTER 1 ((CONSTANT (INTEGER 4) 0 '32')))
() () 0 0 0 ()) (42 'paramin' (CHARACTER 1 ((CONSTANT (INTEGER 4) 0 '32')))
() () 0 0 0 ()) (43 'paramrs' (CHARACTER 1 ((CONSTANT (INTEGER 4) 0 '32')))
() () 0 0 0 ()) (44 'tropsav' (CHARACTER 1 ((CONSTANT (INTEGER 4) 0 '32')))
() () 0 0 0 ()) (45 'tropsnx' (CHARACTER 1 ((CONSTANT (INTEGER 4) 0 '32')))
() () 0 0 0 ()) (46 'dcbout' (CHARACTER 1 ((CONSTANT (INTEGER 4) 0 '32')))
() () 0 0 0 ()) (47 'gravout' (CHARACTER 1 ((CONSTANT (INTEGER 4) 0 '32')))
() () 0 0 0 (CONSTANT (CHARACTER 1 ((CONSTANT (INTEGER 4) 0 '32'))) 0 32
'                                ')) (48 'ionosrs' (CHARACTER 1 ((
CONSTANT (INTEGER 4) 0 '32'))) () () 0 0 0 ()) (49 'ionexrs' (CHARACTER
1 ((CONSTANT (INTEGER 4) 0 '32'))) () () 0 0 0 ()) (50 'polers' (
CHARACTER 1 ((CONSTANT (INTEGER 4) 0 '32'))) () () 0 0 0 ()) (51 'ierspol'
(CHARACTER 1 ((CONSTANT (INTEGER 4) 0 '32'))) () () 0 0 0 ()) (52 'plotrs'
(CHARACTER 1 ((CONSTANT (INTEGER 4) 0 '32'))) () () 0 0 0 ()) (53
'covarrs' (CHARACTER 1 ((CONSTANT (INTEGER 4) 0 '32'))) () () 0 0 0 ())
(54 'covttrs' (CHARACTER 1 ((CONSTANT (INTEGER 4) 0 '32'))) () () 0 0 0
()) (55 'rgbout' (CHARACTER 1 ((CONSTANT (INTEGER 4) 0 '32'))) () () 0 0
0 ()) (56 'wgtout' (CHARACTER 1 ((CONSTANT (INTEGER 4) 0 '32'))) () () 0
0 0 ()) (57 'sysout' (CHARACTER 1 ((CONSTANT (INTEGER 4) 0 '32'))) () ()
0 0 0 ()) (58 'syserr' (CHARACTER 1 ((CONSTANT (INTEGER 4) 0 '32'))) ()
() 0 0 0 ()) (59 'auxfil' (CHARACTER 1 ((CONSTANT (INTEGER 4) 0 '32')))
() () 0 0 0 ()) (60 'maxpar' (INTEGER 4) () () 0 0 0 ()) (61 'neqfilename'
(CHARACTER 1 ((CONSTANT (INTEGER 4) 0 '32'))) (1 DEFERRED () ()) () 1 1
0 ()) (62 'orbfil' (CHARACTER 1 ((CONSTANT (INTEGER 4) 0 '32'))) (2
DEFERRED () () () ()) () 1 1 0 ()) (63 'noinv' (LOGICAL 4) () () 0 0 0 ())
(64 'req' (DERIVED 65) (1 DEFERRED () ()) () 1 1 0 ()) (66 'elimi' (
DERIVED 67) (1 DEFERRED () ()) () 1 1 0 ()) (68 'nstcep' (INTEGER 4) ()
() 0 0 0 ()) (69 'rsw' (INTEGER 4) (1 EXPLICIT (CONSTANT (INTEGER 4) 0 '1')
(CONSTANT (INTEGER 4) 0 '3')) () 1 0 0 ()) (70 'sigrsw' (REAL 8) (1
EXPLICIT (CONSTANT (INTEGER 4) 0 '1') (CONSTANT (INTEGER 4) 0 '3')) () 1
0 0 ()) (71 'numstc' (INTEGER 4) () () 0 0 0 ()) (72 'svnstc' (INTEGER 4)
(1 EXPLICIT (CONSTANT (INTEGER 4) 0 '1') (CONSTANT (INTEGER 4) 0 '130'))
() 1 0 0 ()) (73 'dtstc' (REAL 8) () () 0 0 0 ()) (74 'numdyn' (INTEGER
4) () () 0 0 0 ()) (75 'svndyn' (INTEGER 4) (1 EXPLICIT (CONSTANT (
INTEGER 4) 0 '1') (CONSTANT (INTEGER 4) 0 '130')) () 1 0 0 ()) (76
'numgap' (INTEGER 4) () () 0 0 0 ()) (77 'svngap' (INTEGER 4) (1
EXPLICIT (CONSTANT (INTEGER 4) 0 '1') (CONSTANT (INTEGER 4) 0 '130')) ()
1 0 0 ()) (78 'numnac' (INTEGER 4) () () 0 0 0 ()) (79 'newarc' (
INTEGER 4) (2 EXPLICIT (CONSTANT (INTEGER 4) 0 '1') (CONSTANT (INTEGER 4)
0 '2') (CONSTANT (INTEGER 4) 0 '1') (CONSTANT (INTEGER 4) 0 '3900')) ()
1 0 0 ()) (80 'sigma0' (REAL 8) () () 0 0 0 ()) (81 'sigma' (DERIVED 82)
(1 DEFERRED () ()) () 1 1 0 ()) (83 'trafo' (INTEGER 4) () () 0 0 0 ())
(84 'splitdyn' (INTEGER 4) () () 0 0 0 ()) (85 'polestep' (INTEGER 4) ()
() 0 0 0 ()) (86 'indvsol' (INTEGER 4) () () 0 0 0 ()) (87 'iphelm' (
INTEGER 4) (1 EXPLICIT (CONSTANT (INTEGER 4) 0 '1') (CONSTANT (INTEGER 4)
0 '7')) () 1 0 0 ()) (88 'minsol' (INTEGER 4) () () 0 0 0 ()) (89 'badsol'
(REAL 8) (2 EXPLICIT (CONSTANT (INTEGER 4) 0 '1') (CONSTANT (INTEGER 4)
0 '2') (CONSTANT (INTEGER 4) 0 '1') (CONSTANT (INTEGER 4) 0 '3')) () 1 0
0 ()) (90 'blkret' (REAL 8) () () 0 0 0 ()) (91 'timrefcrd' (REAL 8) ()
() 0 0 0 ()) (92 'helmsig' (REAL 8) (2 EXPLICIT (CONSTANT (INTEGER 4) 0
'1') (CONSTANT (INTEGER 4) 0 '3') (CONSTANT (INTEGER 4) 0 '1') (
CONSTANT (INTEGER 4) 0 '7')) () 1 0 0 ()) (93 'trpexceptday' (INTEGER 4)
() () 0 0 0 ()) (94 'prt' (INTEGER 4) (1 EXPLICIT (CONSTANT (INTEGER 4)
0 '1') (CONSTANT (INTEGER 4) 0 '10')) () 1 0 0 ()) (95 'setupgcc' (
INTEGER 4) () () 0 0 0 ()) (96 'ieuref' (INTEGER 4) () () 0 0 0 ()) (97
'antred' (INTEGER 4) () () 0 0 0 ()) (98 'erprep' (INTEGER 4) () () 0 0
0 ()) (99 'stasort' (INTEGER 4) (1 EXPLICIT (CONSTANT (INTEGER 4) 0 '1')
(CONSTANT (INTEGER 4) 0 '2')) () 1 0 0 ()) (100 'snxinc' (INTEGER 4) ()
() 0 0 0 ()) (101 'snxreg' (REAL 8) () () 0 0 0 ()) (102 'dtrelsig' (
REAL 8) (1 EXPLICIT (CONSTANT (INTEGER 4) 0 '1') (CONSTANT (INTEGER 4) 0
'3')) () 1 0 0 ()) (103 'noabc' (INTEGER 4) () () 0 0 0 ()) (104 'chrono'
(INTEGER 4) () () 0 0 0 ()) (105 'step2' (INTEGER 4) () () 0 0 0 ()) (
106 'step2_t' (REAL 8) (1 EXPLICIT (CONSTANT (INTEGER 4) 0 '1') (
CONSTANT (INTEGER 4) 0 '2')) () 1 0 0 ()) (107 'sincont' (INTEGER 4) ()
() 0 0 0 ()) (108 'covmode' (INTEGER 4) () () 0 0 0 ()) (109 'stackrgb'
(INTEGER 4) () () 0 0 0 ()) (110 'saoopt' (INTEGER 4) (1 EXPLICIT (
CONSTANT (INTEGER 4) 0 '1') (CONSTANT (INTEGER 4) 0 '2')) () 1 0 0 ()) (
111 'sapopt' (INTEGER 4) (1 EXPLICIT (CONSTANT (INTEGER 4) 0 '1') (
CONSTANT (INTEGER 4) 0 '2')) () 1 0 0 ()) (112 'grdload' (DERIVED 113) (
1 EXPLICIT (CONSTANT (INTEGER 4) 0 '1') (CONSTANT (INTEGER 4) 0 '3')) ()
1 0 0 ()) (114 'hoi' (DERIVED 115) (1 EXPLICIT (CONSTANT (INTEGER 4) 0 '1')
(CONSTANT (INTEGER 4) 0 '3')) () 1 0 0 ()) (116 'helmert' (DERIVED 117)
(1 EXPLICIT (CONSTANT (INTEGER 4) 0 '1') (CONSTANT (INTEGER 4) 0 '7')) ()
1 0 0 ()) (118 'chgrecnam' (INTEGER 4) () () 0 0 0 ()) (119 'chgantnam'
(INTEGER 4) () () 0 0 0 ()) (120 'chgrecnum' (INTEGER 4) () () 0 0 0 ())
(121 'chgantnum' (INTEGER 4) () () 0 0 0 ()) (122 'chgantecc' (INTEGER 4)
() () 0 0 0 ()) (123 'isbout' (CHARACTER 1 ((CONSTANT (INTEGER 4) 0 '32')))
() () 0 0 0 ()) (124 'rcormgps' (INTEGER 4) () () 0 0 0 ()) (125
'rcotofrq' (INTEGER 4) () () 0 0 0 ()) (126 'rcofromppp' (INTEGER 4) ()
() 0 0 0 ()) (127 'maxifb' (REAL 8) () () 0 0 0 ()) (128 'gtradat' (
INTEGER 4) () () 0 0 0 ()) (129 'gtrpdat' (INTEGER 4) () () 0 0 0 ()) (
130 'gspstack' (INTEGER 4) () () 0 0 0 ())) PUBLIC ())
117 't_opthelm' 'p_addneq' 6 ((DERIVED UNKNOWN UNKNOWN UNKNOWN NONE NONE)
(UNKNOWN) 0 0 () () () '' ((131 'stack' (INTEGER 4) () () 0 0 0 ()))
PUBLIC ())
115 't_opthoi' 'p_addneq' 6 ((DERIVED UNKNOWN UNKNOWN UNKNOWN NONE NONE)
(UNKNOWN) 0 0 () () () '' ((132 'x0' (REAL 8) () () 0 0 0 ()) (133 'stack'
(LOGICAL 4) () () 0 0 0 ())) PUBLIC ())
113 't_optload' 'p_addneq' 6 ((DERIVED UNKNOWN UNKNOWN UNKNOWN NONE NONE)
(UNKNOWN) 0 0 () () () '' ((134 'keyw' (CHARACTER 1 ((CONSTANT (INTEGER
4) 0 '12'))) () () 0 0 0 ()) (135 'nsta' (INTEGER 4) () () 0 0 0 ()) (
136 'stalst' (CHARACTER 1 ((CONSTANT (INTEGER 4) 0 '16'))) (1 DEFERRED ()
()) () 1 1 0 ()) (137 'staclu' (INTEGER 4) (1 DEFERRED () ()) () 1 1 0 ())
(138 'npar' (INTEGER 4) () () 0 0 0 ()) (139 'x0' (INTEGER 4) () () 0 0
0 ())) PUBLIC ())
82 't_sigma' 'p_addneq' 6 ((DERIVED UNKNOWN UNKNOWN UNKNOWN NONE NONE) (
UNKNOWN) 0 0 () () () '' ((140 'locq' (INTEGER 4) (1 EXPLICIT (CONSTANT
(INTEGER 4) 0 '1') (CONSTANT (INTEGER 4) 0 '7')) () 1 0 0 ()) (141 'name'
(CHARACTER 1 ((CONSTANT (INTEGER 4) 0 '20'))) () () 0 0 0 ()) (142 'value'
(REAL 8) () () 0 0 0 ()) (143 'typflg' (CHARACTER 1 ((CONSTANT (INTEGER
4) 0 '1'))) () () 0 0 0 ())) PUBLIC ())
67 't_elimi' 'p_addneq' 6 ((DERIVED UNKNOWN UNKNOWN UNKNOWN NONE NONE) (
UNKNOWN) 0 0 () () () '' ((144 'locq' (INTEGER 4) (1 EXPLICIT (CONSTANT
(INTEGER 4) 0 '1') (CONSTANT (INTEGER 4) 0 '7')) () 1 0 0 ()) (145 'name'
(CHARACTER 1 ((CONSTANT (INTEGER 4) 0 '20'))) () () 0 0 0 ()) (146 'part'
(INTEGER 4) () () 0 0 0 ()) (147 'mode' (INTEGER 4) () () 0 0 0 ()) (
148 'excp' (INTEGER 4) (1 DEFERRED () ()) () 1 1 0 ()) (149 'deltat' (
REAL 8) () () 0 0 0 ()) (150 'eliwin' (DERIVED 151) () () 0 0 0 ()) (
152 'wparam' (LOGICAL 4) () () 0 0 0 ()) (153 'descr' (CHARACTER 1 ((
CONSTANT (INTEGER 4) 0 '255'))) () () 0 0 0 ())) PUBLIC ())
151 't_timint' 'm_time' 6 ((DERIVED UNKNOWN UNKNOWN UNKNOWN NONE NONE) (
UNKNOWN) 0 0 () () () '' ((154 't' (REAL 8) (1 EXPLICIT (CONSTANT (
INTEGER 4) 0 '1') (CONSTANT (INTEGER 4) 0 '2')) () 1 0 0 ())) PUBLIC ())
65 't_req' 'p_addneq' 6 ((DERIVED UNKNOWN UNKNOWN UNKNOWN NONE NONE) (
UNKNOWN) 0 0 () () () '' ((155 'locq' (INTEGER 4) (1 EXPLICIT (CONSTANT
(INTEGER 4) 0 '1') (CONSTANT (INTEGER 4) 0 '7')) () 1 0 0 ()) (156 'name'
(CHARACTER 1 ((CONSTANT (INTEGER 4) 0 '20'))) () () 0 0 0 ()) (157
'timint' (DERIVED 151) () () 0 0 0 ()) (158 'type' (CHARACTER 1 ((
CONSTANT (INTEGER 4) 0 '2'))) () () 0 0 0 (CONSTANT (CHARACTER 1 ((
CONSTANT (INTEGER 4) 0 '2'))) 0 2 '  ')) (159 'omega' (REAL 8) () () 0 0
0 (CONSTANT (REAL 8) 0 '0' 0 0))) PUBLIC ())
)

('aoptatm' 0 2 's_aoptatm' 0 5)
