G95 module created on Thu Jun 25 17:45:09 2020 from ./.fpp/AOPTCLK.f90
If you edit this, you'll get what you deserve.
module-version 9
(() () () () () () () () () () () () () () () () () () () () ())

()

()

()

()

(2 'aoptclk' 's_aoptclk' 1 ((PROCEDURE UNKNOWN MODULE-PROC DECL NONE
NONE SUBROUTINE) (PROCEDURE 0) 0 0 (3 NONE 4 NONE 5 NONE) () () '' () ())
6 's_aoptclk' 's_aoptclk' 1 ((MODULE UNKNOWN UNKNOWN UNKNOWN NONE NONE)
(UNKNOWN) 0 0 () () () '' () ())
5 'clkhed' '' 7 ((VARIABLE UNKNOWN UNKNOWN UNKNOWN NONE NONE DUMMY) (
DERIVED 8) 0 0 () () () '' () ())
8 't_clkhead' 'd_clkrnx' 7 ((DERIVED UNKNOWN UNKNOWN UNKNOWN NONE NONE)
(UNKNOWN) 0 0 () () () '' ((9 'rnxvers' (REAL 8) () () 0 0 0 ()) (10
'ncomment' (INTEGER 4) () () 0 0 0 ()) (11 'comment' (CHARACTER 1 ((
CONSTANT (INTEGER 4) 0 '60'))) (1 DEFERRED () ()) () 1 1 0 ()) (12
'prognam' (CHARACTER 1 ((CONSTANT (INTEGER 4) 0 '20'))) () () 0 0 0 ())
(13 'runby' (CHARACTER 1 ((CONSTANT (INTEGER 4) 0 '20'))) () () 0 0 0 ())
(14 'crdate' (CHARACTER 1 ((CONSTANT (INTEGER 4) 0 '20'))) () () 0 0 0 ())
(15 'leapsec' (INTEGER 4) () () 0 0 0 ()) (16 'numtyp' (INTEGER 4) () ()
0 0 0 ()) (17 'dattyp' (CHARACTER 1 ((CONSTANT (INTEGER 4) 0 '2'))) (1
DEFERRED () ()) () 1 1 0 ()) (18 'clk0name' (CHARACTER 1 ((CONSTANT (
INTEGER 4) 0 '16'))) () () 0 0 0 ()) (19 'calname' (CHARACTER 1 ((
CONSTANT (INTEGER 4) 0 '60'))) () () 0 0 0 ()) (20 'ac' (CHARACTER 1 ((
CONSTANT (INTEGER 4) 0 '3'))) () () 0 0 0 ()) (21 'acname' (CHARACTER 1
((CONSTANT (INTEGER 4) 0 '55'))) () () 0 0 0 ()) (22 'timsys' (
CHARACTER 1 ((CONSTANT (INTEGER 4) 0 '3'))) () () 0 0 0 ()) (23 'pgmnam'
(CHARACTER 1 ((CONSTANT (INTEGER 4) 0 '17'))) () () 0 0 0 ()) (24 'dcbstr'
(CHARACTER 1 ((CONSTANT (INTEGER 4) 0 '40'))) () () 0 0 0 ()) (25 'pcvstr'
(CHARACTER 1 ((CONSTANT (INTEGER 4) 0 '40'))) () () 0 0 0 ()) (26 'tfirst'
(REAL 8) () () 0 0 0 ()) (27 'numref' (INTEGER 4) () () 0 0 0 ()) (28
'ref' (DERIVED 29) (1 DEFERRED () ()) () 1 1 0 ()) (30 'trfname' (
CHARACTER 1 ((CONSTANT (INTEGER 4) 0 '50'))) () () 0 0 0 ()) (31 'nsta'
(INTEGER 4) () () 0 0 0 ()) (32 'nsat' (INTEGER 4) () () 0 0 0 ()) (33
'clkname' (CHARACTER 1 ((CONSTANT (INTEGER 4) 0 '16'))) (1 DEFERRED () ())
() 1 1 0 ()) (34 'stacoord' (REAL 8) (2 DEFERRED () () () ()) () 1 1 0 ()))
PUBLIC ())
29 't_ref' 'd_clkrnx' 7 ((DERIVED UNKNOWN UNKNOWN UNKNOWN NONE NONE) (
UNKNOWN) 0 0 () () () '' ((35 'nref' (INTEGER 4) () () 0 0 0 ()) (36 'clk'
(DERIVED 37) (1 DEFERRED () ()) () 1 1 0 ()) (38 'refwin' (DERIVED 39) ()
() 0 0 0 ())) PUBLIC ())
39 't_timint' 'm_time' 7 ((DERIVED UNKNOWN UNKNOWN UNKNOWN NONE NONE) (
UNKNOWN) 0 0 () () () '' ((40 't' (REAL 8) (1 EXPLICIT (CONSTANT (
INTEGER 4) 0 '1') (CONSTANT (INTEGER 4) 0 '2')) () 1 0 0 ())) PUBLIC ())
37 't_refclk' 'd_clkrnx' 7 ((DERIVED UNKNOWN UNKNOWN UNKNOWN NONE NONE)
(UNKNOWN) 0 0 () () () '' ((41 'name' (CHARACTER 1 ((CONSTANT (INTEGER 4)
0 '16'))) () () 0 0 0 ()) (42 'sigma' (REAL 8) () () 0 0 0 ()) (43 'idx'
(INTEGER 4) () () 0 0 0 ()) (44 'idx0' (INTEGER 4) () () 0 0 0 ()))
PUBLIC ())
4 'clklist' '' 7 ((VARIABLE UNKNOWN UNKNOWN UNKNOWN NONE NONE DIMENSION
POINTER DUMMY) (CHARACTER 1 (())) 0 0 () (2 DEFERRED () () () ()) () ''
() ())
3 'opt' '' 7 ((VARIABLE UNKNOWN UNKNOWN UNKNOWN NONE NONE DUMMY) (
DERIVED 45) 0 0 () () () '' () ())
45 't_opt' 'p_addneq' 7 ((DERIVED UNKNOWN UNKNOWN UNKNOWN NONE NONE) (
UNKNOWN) 0 0 () () () '' ((46 'title' (CHARACTER 1 ((CONSTANT (INTEGER 4)
0 '80'))) () () 0 0 0 ()) (47 'const' (CHARACTER 1 ((CONSTANT (INTEGER 4)
0 '32'))) () () 0 0 0 ()) (48 'datumfil' (CHARACTER 1 ((CONSTANT (
INTEGER 4) 0 '32'))) () () 0 0 0 ()) (49 'stacrux' (CHARACTER 1 ((
CONSTANT (INTEGER 4) 0 '32'))) () () 0 0 0 ()) (50 'satcrux' (CHARACTER
1 ((CONSTANT (INTEGER 4) 0 '32'))) () () 0 0 0 ()) (51 'satell' (
CHARACTER 1 ((CONSTANT (INTEGER 4) 0 '32'))) () () 0 0 0 ()) (52 'phasecc'
(CHARACTER 1 ((CONSTANT (INTEGER 4) 0 '32'))) () () 0 0 0 ()) (53 'pole'
(CHARACTER 1 ((CONSTANT (INTEGER 4) 0 '32'))) () () 0 0 0 ()) (54
'sinexin' (CHARACTER 1 ((CONSTANT (INTEGER 4) 0 '32'))) () () 0 0 0 ())
(55 'ionexcf' (CHARACTER 1 ((CONSTANT (INTEGER 4) 0 '32'))) () () 0 0 0
()) (56 'coord' (CHARACTER 1 ((CONSTANT (INTEGER 4) 0 '32'))) () () 0 0
0 ()) (57 'velapr' (CHARACTER 1 ((CONSTANT (INTEGER 4) 0 '32'))) () () 0
0 0 ()) (58 'covcomi' (CHARACTER 1 ((CONSTANT (INTEGER 4) 0 '32'))) () ()
0 0 0 ()) (59 'gccinp' (CHARACTER 1 ((CONSTANT (INTEGER 4) 0 '32'))) ()
() 0 0 0 ()) (60 'gccout' (CHARACTER 1 ((CONSTANT (INTEGER 4) 0 '32')))
() () 0 0 0 ()) (61 'dcbinp' (CHARACTER 1 ((CONSTANT (INTEGER 4) 0 '32')))
() () 0 0 0 ()) (62 'rgbinp' (CHARACTER 1 ((CONSTANT (INTEGER 4) 0 '32')))
() () 0 0 0 ()) (63 'ionos' (CHARACTER 1 ((CONSTANT (INTEGER 4) 0 '32')))
() () 0 0 0 ()) (64 'neqout' (CHARACTER 1 ((CONSTANT (INTEGER 4) 0 '32')))
() () 0 0 0 ()) (65 'coordrs' (CHARACTER 1 ((CONSTANT (INTEGER 4) 0 '32')))
() () 0 0 0 ()) (66 'velors' (CHARACTER 1 ((CONSTANT (INTEGER 4) 0 '32')))
() () 0 0 0 ()) (67 'sinexrs' (CHARACTER 1 ((CONSTANT (INTEGER 4) 0 '32')))
() () 0 0 0 ()) (68 'paramin' (CHARACTER 1 ((CONSTANT (INTEGER 4) 0 '32')))
() () 0 0 0 ()) (69 'paramrs' (CHARACTER 1 ((CONSTANT (INTEGER 4) 0 '32')))
() () 0 0 0 ()) (70 'tropsav' (CHARACTER 1 ((CONSTANT (INTEGER 4) 0 '32')))
() () 0 0 0 ()) (71 'tropsnx' (CHARACTER 1 ((CONSTANT (INTEGER 4) 0 '32')))
() () 0 0 0 ()) (72 'dcbout' (CHARACTER 1 ((CONSTANT (INTEGER 4) 0 '32')))
() () 0 0 0 ()) (73 'gravout' (CHARACTER 1 ((CONSTANT (INTEGER 4) 0 '32')))
() () 0 0 0 (CONSTANT (CHARACTER 1 ((CONSTANT (INTEGER 4) 0 '32'))) 0 32
'                                ')) (74 'ionosrs' (CHARACTER 1 ((
CONSTANT (INTEGER 4) 0 '32'))) () () 0 0 0 ()) (75 'ionexrs' (CHARACTER
1 ((CONSTANT (INTEGER 4) 0 '32'))) () () 0 0 0 ()) (76 'polers' (
CHARACTER 1 ((CONSTANT (INTEGER 4) 0 '32'))) () () 0 0 0 ()) (77 'ierspol'
(CHARACTER 1 ((CONSTANT (INTEGER 4) 0 '32'))) () () 0 0 0 ()) (78 'plotrs'
(CHARACTER 1 ((CONSTANT (INTEGER 4) 0 '32'))) () () 0 0 0 ()) (79
'covarrs' (CHARACTER 1 ((CONSTANT (INTEGER 4) 0 '32'))) () () 0 0 0 ())
(80 'covttrs' (CHARACTER 1 ((CONSTANT (INTEGER 4) 0 '32'))) () () 0 0 0
()) (81 'rgbout' (CHARACTER 1 ((CONSTANT (INTEGER 4) 0 '32'))) () () 0 0
0 ()) (82 'wgtout' (CHARACTER 1 ((CONSTANT (INTEGER 4) 0 '32'))) () () 0
0 0 ()) (83 'sysout' (CHARACTER 1 ((CONSTANT (INTEGER 4) 0 '32'))) () ()
0 0 0 ()) (84 'syserr' (CHARACTER 1 ((CONSTANT (INTEGER 4) 0 '32'))) ()
() 0 0 0 ()) (85 'auxfil' (CHARACTER 1 ((CONSTANT (INTEGER 4) 0 '32')))
() () 0 0 0 ()) (86 'maxpar' (INTEGER 4) () () 0 0 0 ()) (87 'neqfilename'
(CHARACTER 1 ((CONSTANT (INTEGER 4) 0 '32'))) (1 DEFERRED () ()) () 1 1
0 ()) (88 'orbfil' (CHARACTER 1 ((CONSTANT (INTEGER 4) 0 '32'))) (2
DEFERRED () () () ()) () 1 1 0 ()) (89 'noinv' (LOGICAL 4) () () 0 0 0 ())
(90 'req' (DERIVED 91) (1 DEFERRED () ()) () 1 1 0 ()) (92 'elimi' (
DERIVED 93) (1 DEFERRED () ()) () 1 1 0 ()) (94 'nstcep' (INTEGER 4) ()
() 0 0 0 ()) (95 'rsw' (INTEGER 4) (1 EXPLICIT (CONSTANT (INTEGER 4) 0 '1')
(CONSTANT (INTEGER 4) 0 '3')) () 1 0 0 ()) (96 'sigrsw' (REAL 8) (1
EXPLICIT (CONSTANT (INTEGER 4) 0 '1') (CONSTANT (INTEGER 4) 0 '3')) () 1
0 0 ()) (97 'numstc' (INTEGER 4) () () 0 0 0 ()) (98 'svnstc' (INTEGER 4)
(1 EXPLICIT (CONSTANT (INTEGER 4) 0 '1') (CONSTANT (INTEGER 4) 0 '130'))
() 1 0 0 ()) (99 'dtstc' (REAL 8) () () 0 0 0 ()) (100 'numdyn' (
INTEGER 4) () () 0 0 0 ()) (101 'svndyn' (INTEGER 4) (1 EXPLICIT (
CONSTANT (INTEGER 4) 0 '1') (CONSTANT (INTEGER 4) 0 '130')) () 1 0 0 ())
(102 'numgap' (INTEGER 4) () () 0 0 0 ()) (103 'svngap' (INTEGER 4) (1
EXPLICIT (CONSTANT (INTEGER 4) 0 '1') (CONSTANT (INTEGER 4) 0 '130')) ()
1 0 0 ()) (104 'numnac' (INTEGER 4) () () 0 0 0 ()) (105 'newarc' (
INTEGER 4) (2 EXPLICIT (CONSTANT (INTEGER 4) 0 '1') (CONSTANT (INTEGER 4)
0 '2') (CONSTANT (INTEGER 4) 0 '1') (CONSTANT (INTEGER 4) 0 '3900')) ()
1 0 0 ()) (106 'sigma0' (REAL 8) () () 0 0 0 ()) (107 'sigma' (DERIVED
108) (1 DEFERRED () ()) () 1 1 0 ()) (109 'trafo' (INTEGER 4) () () 0 0
0 ()) (110 'splitdyn' (INTEGER 4) () () 0 0 0 ()) (111 'polestep' (
INTEGER 4) () () 0 0 0 ()) (112 'indvsol' (INTEGER 4) () () 0 0 0 ()) (
113 'iphelm' (INTEGER 4) (1 EXPLICIT (CONSTANT (INTEGER 4) 0 '1') (
CONSTANT (INTEGER 4) 0 '7')) () 1 0 0 ()) (114 'minsol' (INTEGER 4) () ()
0 0 0 ()) (115 'badsol' (REAL 8) (2 EXPLICIT (CONSTANT (INTEGER 4) 0 '1')
(CONSTANT (INTEGER 4) 0 '2') (CONSTANT (INTEGER 4) 0 '1') (CONSTANT (
INTEGER 4) 0 '3')) () 1 0 0 ()) (116 'blkret' (REAL 8) () () 0 0 0 ()) (
117 'timrefcrd' (REAL 8) () () 0 0 0 ()) (118 'helmsig' (REAL 8) (2
EXPLICIT (CONSTANT (INTEGER 4) 0 '1') (CONSTANT (INTEGER 4) 0 '3') (
CONSTANT (INTEGER 4) 0 '1') (CONSTANT (INTEGER 4) 0 '7')) () 1 0 0 ()) (
119 'trpexceptday' (INTEGER 4) () () 0 0 0 ()) (120 'prt' (INTEGER 4) (
1 EXPLICIT (CONSTANT (INTEGER 4) 0 '1') (CONSTANT (INTEGER 4) 0 '10')) ()
1 0 0 ()) (121 'setupgcc' (INTEGER 4) () () 0 0 0 ()) (122 'ieuref' (
INTEGER 4) () () 0 0 0 ()) (123 'antred' (INTEGER 4) () () 0 0 0 ()) (
124 'erprep' (INTEGER 4) () () 0 0 0 ()) (125 'stasort' (INTEGER 4) (1
EXPLICIT (CONSTANT (INTEGER 4) 0 '1') (CONSTANT (INTEGER 4) 0 '2')) () 1
0 0 ()) (126 'snxinc' (INTEGER 4) () () 0 0 0 ()) (127 'snxreg' (REAL 8)
() () 0 0 0 ()) (128 'dtrelsig' (REAL 8) (1 EXPLICIT (CONSTANT (INTEGER
4) 0 '1') (CONSTANT (INTEGER 4) 0 '3')) () 1 0 0 ()) (129 'noabc' (
INTEGER 4) () () 0 0 0 ()) (130 'chrono' (INTEGER 4) () () 0 0 0 ()) (
131 'step2' (INTEGER 4) () () 0 0 0 ()) (132 'step2_t' (REAL 8) (1
EXPLICIT (CONSTANT (INTEGER 4) 0 '1') (CONSTANT (INTEGER 4) 0 '2')) () 1
0 0 ()) (133 'sincont' (INTEGER 4) () () 0 0 0 ()) (134 'covmode' (
INTEGER 4) () () 0 0 0 ()) (135 'stackrgb' (INTEGER 4) () () 0 0 0 ()) (
136 'saoopt' (INTEGER 4) (1 EXPLICIT (CONSTANT (INTEGER 4) 0 '1') (
CONSTANT (INTEGER 4) 0 '2')) () 1 0 0 ()) (137 'sapopt' (INTEGER 4) (1
EXPLICIT (CONSTANT (INTEGER 4) 0 '1') (CONSTANT (INTEGER 4) 0 '2')) () 1
0 0 ()) (138 'grdload' (DERIVED 139) (1 EXPLICIT (CONSTANT (INTEGER 4) 0
'1') (CONSTANT (INTEGER 4) 0 '3')) () 1 0 0 ()) (140 'hoi' (DERIVED 141)
(1 EXPLICIT (CONSTANT (INTEGER 4) 0 '1') (CONSTANT (INTEGER 4) 0 '3')) ()
1 0 0 ()) (142 'helmert' (DERIVED 143) (1 EXPLICIT (CONSTANT (INTEGER 4)
0 '1') (CONSTANT (INTEGER 4) 0 '7')) () 1 0 0 ()) (144 'chgrecnam' (
INTEGER 4) () () 0 0 0 ()) (145 'chgantnam' (INTEGER 4) () () 0 0 0 ())
(146 'chgrecnum' (INTEGER 4) () () 0 0 0 ()) (147 'chgantnum' (INTEGER 4)
() () 0 0 0 ()) (148 'chgantecc' (INTEGER 4) () () 0 0 0 ()) (149 'isbout'
(CHARACTER 1 ((CONSTANT (INTEGER 4) 0 '32'))) () () 0 0 0 ()) (150
'rcormgps' (INTEGER 4) () () 0 0 0 ()) (151 'rcotofrq' (INTEGER 4) () ()
0 0 0 ()) (152 'rcofromppp' (INTEGER 4) () () 0 0 0 ()) (153 'maxifb' (
REAL 8) () () 0 0 0 ()) (154 'gtradat' (INTEGER 4) () () 0 0 0 ()) (155
'gtrpdat' (INTEGER 4) () () 0 0 0 ()) (156 'gspstack' (INTEGER 4) () ()
0 0 0 ())) PUBLIC ())
143 't_opthelm' 'p_addneq' 7 ((DERIVED UNKNOWN UNKNOWN UNKNOWN NONE NONE)
(UNKNOWN) 0 0 () () () '' ((157 'stack' (INTEGER 4) () () 0 0 0 ()))
PUBLIC ())
141 't_opthoi' 'p_addneq' 7 ((DERIVED UNKNOWN UNKNOWN UNKNOWN NONE NONE)
(UNKNOWN) 0 0 () () () '' ((158 'x0' (REAL 8) () () 0 0 0 ()) (159 'stack'
(LOGICAL 4) () () 0 0 0 ())) PUBLIC ())
139 't_optload' 'p_addneq' 7 ((DERIVED UNKNOWN UNKNOWN UNKNOWN NONE NONE)
(UNKNOWN) 0 0 () () () '' ((160 'keyw' (CHARACTER 1 ((CONSTANT (INTEGER
4) 0 '12'))) () () 0 0 0 ()) (161 'nsta' (INTEGER 4) () () 0 0 0 ()) (
162 'stalst' (CHARACTER 1 ((CONSTANT (INTEGER 4) 0 '16'))) (1 DEFERRED ()
()) () 1 1 0 ()) (163 'staclu' (INTEGER 4) (1 DEFERRED () ()) () 1 1 0 ())
(164 'npar' (INTEGER 4) () () 0 0 0 ()) (165 'x0' (INTEGER 4) () () 0 0
0 ())) PUBLIC ())
108 't_sigma' 'p_addneq' 7 ((DERIVED UNKNOWN UNKNOWN UNKNOWN NONE NONE)
(UNKNOWN) 0 0 () () () '' ((166 'locq' (INTEGER 4) (1 EXPLICIT (
CONSTANT (INTEGER 4) 0 '1') (CONSTANT (INTEGER 4) 0 '7')) () 1 0 0 ()) (
167 'name' (CHARACTER 1 ((CONSTANT (INTEGER 4) 0 '20'))) () () 0 0 0 ())
(168 'value' (REAL 8) () () 0 0 0 ()) (169 'typflg' (CHARACTER 1 ((
CONSTANT (INTEGER 4) 0 '1'))) () () 0 0 0 ())) PUBLIC ())
93 't_elimi' 'p_addneq' 7 ((DERIVED UNKNOWN UNKNOWN UNKNOWN NONE NONE) (
UNKNOWN) 0 0 () () () '' ((170 'locq' (INTEGER 4) (1 EXPLICIT (CONSTANT
(INTEGER 4) 0 '1') (CONSTANT (INTEGER 4) 0 '7')) () 1 0 0 ()) (171 'name'
(CHARACTER 1 ((CONSTANT (INTEGER 4) 0 '20'))) () () 0 0 0 ()) (172 'part'
(INTEGER 4) () () 0 0 0 ()) (173 'mode' (INTEGER 4) () () 0 0 0 ()) (
174 'excp' (INTEGER 4) (1 DEFERRED () ()) () 1 1 0 ()) (175 'deltat' (
REAL 8) () () 0 0 0 ()) (176 'eliwin' (DERIVED 39) () () 0 0 0 ()) (177
'wparam' (LOGICAL 4) () () 0 0 0 ()) (178 'descr' (CHARACTER 1 ((
CONSTANT (INTEGER 4) 0 '255'))) () () 0 0 0 ())) PUBLIC ())
91 't_req' 'p_addneq' 7 ((DERIVED UNKNOWN UNKNOWN UNKNOWN NONE NONE) (
UNKNOWN) 0 0 () () () '' ((179 'locq' (INTEGER 4) (1 EXPLICIT (CONSTANT
(INTEGER 4) 0 '1') (CONSTANT (INTEGER 4) 0 '7')) () 1 0 0 ()) (180 'name'
(CHARACTER 1 ((CONSTANT (INTEGER 4) 0 '20'))) () () 0 0 0 ()) (181
'timint' (DERIVED 39) () () 0 0 0 ()) (182 'type' (CHARACTER 1 ((
CONSTANT (INTEGER 4) 0 '2'))) () () 0 0 0 (CONSTANT (CHARACTER 1 ((
CONSTANT (INTEGER 4) 0 '2'))) 0 2 '  ')) (183 'omega' (REAL 8) () () 0 0
0 (CONSTANT (REAL 8) 0 '0' 0 0))) PUBLIC ())
)

('aoptclk' 0 2 's_aoptclk' 0 6)
