G95 module created on Thu Jun 25 17:45:35 2020 from ./.fpp/APRHELM.f90
If you edit this, you'll get what you deserve.
module-version 9
(() () () () () () () () () () () () () () () () () () () () ())

()

()

()

()

(2 'aprhelm' 's_aprhelm' 1 ((PROCEDURE UNKNOWN MODULE-PROC DECL NONE
NONE SUBROUTINE) (PROCEDURE 0) 0 0 (3 NONE 4 NONE) () () '' () ())
5 's_aprhelm' 's_aprhelm' 1 ((MODULE UNKNOWN UNKNOWN UNKNOWN NONE NONE)
(UNKNOWN) 0 0 () () () '' () ())
4 'ifil' '' 6 ((VARIABLE UNKNOWN UNKNOWN UNKNOWN NONE NONE DUMMY) (
INTEGER 4) 0 0 () () () '' () ())
3 'neq' '' 6 ((VARIABLE UNKNOWN UNKNOWN UNKNOWN NONE NONE DUMMY) (
DERIVED 7) 0 0 () () () '' () ())
7 't_neq' 'd_neq' 6 ((DERIVED UNKNOWN UNKNOWN UNKNOWN NONE NONE) (
UNKNOWN) 0 0 () () () '' ((8 'version' (INTEGER 4) () () 0 0 0 ()) (9
'misc' (DERIVED 10) () () 0 0 0 ()) (11 'par' (DERIVED 12) (1 DEFERRED ()
()) () 1 1 0 ()) (13 'anor' (REAL 8) (1 DEFERRED () ()) () 1 1 0 ()) (
14 'bnor' (REAL 8) (1 DEFERRED () ()) () 1 1 0 ()) (15 'xxx' (REAL 8) (
1 DEFERRED () ()) () 1 1 0 ())) PUBLIC ())
12 't_par' 'd_par' 6 ((DERIVED UNKNOWN UNKNOWN UNKNOWN NONE NONE) (
UNKNOWN) 0 0 () () () '' ((16 'locq' (INTEGER 4) (1 EXPLICIT (CONSTANT (
INTEGER 4) 0 '1') (CONSTANT (INTEGER 4) 0 '7')) () 1 0 0 ()) (17 'name'
(CHARACTER 1 ((CONSTANT (INTEGER 4) 0 '20'))) () () 0 0 0 ()) (18 'time'
(DERIVED 19) () () 0 0 0 ()) (20 'x0' (REAL 8) () () 0 0 0 ()) (21 'scale'
(REAL 8) () () 0 0 0 ()) (22 'techn' (CHARACTER 1 ((CONSTANT (INTEGER 4)
0 '1'))) (1 EXPLICIT (CONSTANT (INTEGER 4) 0 '1') (CONSTANT (INTEGER 4)
0 '2')) () 1 0 0 ()) (23 'obstim' (DERIVED 24) () () 0 0 0 ()) (25 'type'
(CHARACTER 1 ((CONSTANT (INTEGER 4) 0 '2'))) () () 0 0 0 ()) (26 'omega'
(REAL 8) () () 0 0 0 ())) PUBLIC ())
24 't_timint' 'm_time' 6 ((DERIVED UNKNOWN UNKNOWN UNKNOWN NONE NONE) (
UNKNOWN) 0 0 () () () '' ((27 't' (REAL 8) (1 EXPLICIT (CONSTANT (
INTEGER 4) 0 '1') (CONSTANT (INTEGER 4) 0 '2')) () 1 0 0 ())) PUBLIC ())
19 't_time' 'm_time' 6 ((DERIVED UNKNOWN UNKNOWN UNKNOWN NONE NONE
SEQUENCE) (UNKNOWN) 0 0 () () () '' ((28 'mean' (REAL 8) () () 0 0 0 ())
(29 'half' (REAL 8) () () 0 0 0 ())) PUBLIC ())
10 't_misc' 'd_neq' 6 ((DERIVED UNKNOWN UNKNOWN UNKNOWN NONE NONE) (
UNKNOWN) 0 0 () () () '' ((30 'title' (CHARACTER 1 ((CONSTANT (INTEGER 4)
0 '132'))) (1 EXPLICIT (CONSTANT (INTEGER 4) 0 '1') (CONSTANT (INTEGER 4)
0 '2')) () 1 0 0 ()) (31 'datum' (CHARACTER 1 ((CONSTANT (INTEGER 4) 0
'16'))) () () 0 0 0 ()) (32 'nutmod' (CHARACTER 1 ((CONSTANT (INTEGER 4)
0 '16'))) () () 0 0 0 ()) (33 'submod' (CHARACTER 1 ((CONSTANT (INTEGER
4) 0 '16'))) () () 0 0 0 ()) (34 'orbfil' (CHARACTER 1 ((CONSTANT (
INTEGER 4) 0 '32'))) (1 EXPLICIT (CONSTANT (INTEGER 4) 0 '1') (CONSTANT
(INTEGER 4) 0 '2')) () 1 0 0 ()) (35 'gravfil' (CHARACTER 1 ((CONSTANT (
INTEGER 4) 0 '32'))) () () 0 0 0 ()) (36 'nobs' (REAL 8) () () 0 0 0 ())
(37 'npar' (INTEGER 4) () () 0 0 0 ()) (38 'ltpl' (REAL 8) () () 0 0 0 ())
(39 'nparms' (REAL 8) () () 0 0 0 ()) (40 'npseu' (INTEGER 4) () () 0 0
0 ()) (41 'npseuel' (INTEGER 4) () () 0 0 0 ()) (42 'nftot' (INTEGER 4)
() () 0 0 0 ()) (43 'nsmpnq' (INTEGER 4) () () 0 0 0 ()) (44 'ielvnq' (
INTEGER 4) () () 0 0 0 ()) (45 'itropo' (INTEGER 4) () () 0 0 0 ()) (46
'iextra' (INTEGER 4) () () 0 0 0 ()) (47 'itrmap' (INTEGER 4) () () 0 0
0 ()) (48 'itrgrd' (INTEGER 4) () () 0 0 0 ()) (49 'nanoff' (INTEGER 4)
() () 0 0 0 ()) (50 'nsaoff' (INTEGER 4) (1 EXPLICIT (CONSTANT (INTEGER
4) 0 '1') (CONSTANT (INTEGER 4) 0 '260')) () 1 0 0 ()) (51 'satoff' (
INTEGER 4) (2 EXPLICIT (CONSTANT (INTEGER 4) 0 '1') (CONSTANT (INTEGER 4)
0 '130') (CONSTANT (INTEGER 4) 0 '1') (CONSTANT (INTEGER 4) 0 '260')) ()
1 0 0 ()) (52 'nstat_sinex' (INTEGER 4) () () 0 0 0 ()) (53 'sinex' (
DERIVED 54) (1 EXPLICIT (CONSTANT (INTEGER 4) 0 '1') (CONSTANT (INTEGER
4) 0 '2000')) () 1 0 0 ()) (55 'grdneq' (CHARACTER 1 ((CONSTANT (
INTEGER 4) 0 '12'))) (1 EXPLICIT (CONSTANT (INTEGER 4) 0 '1') (CONSTANT
(INTEGER 4) 0 '3')) () 1 0 0 ()) (56 'nobst' (INTEGER 4) () () 0 0 0 ())
(57 'obst' (DERIVED 58) (1 EXPLICIT (CONSTANT (INTEGER 4) 0 '1') (
CONSTANT (INTEGER 4) 0 '30000')) () 1 0 0 ())) PUBLIC ())
58 't_obst' 'd_neq' 6 ((DERIVED UNKNOWN UNKNOWN UNKNOWN NONE NONE) (
UNKNOWN) 0 0 () () () '' ((59 'obstyp' (CHARACTER 1 ((CONSTANT (INTEGER
4) 0 '3'))) (1 EXPLICIT (CONSTANT (INTEGER 4) 0 '1') (CONSTANT (INTEGER
4) 0 '4')) () 1 0 0 ())) PUBLIC ())
54 't_sinex' 'd_neq' 6 ((DERIVED UNKNOWN UNKNOWN UNKNOWN NONE NONE) (
UNKNOWN) 0 0 () () () '' ((60 'timint' (DERIVED 24) () () 0 0 0 ()) (61
'stname' (CHARACTER 1 ((CONSTANT (INTEGER 4) 0 '16'))) () () 0 0 0 ()) (
62 'antecc' (REAL 8) (1 EXPLICIT (CONSTANT (INTEGER 4) 0 '1') (CONSTANT
(INTEGER 4) 0 '3')) () 1 0 0 ()) (63 'antpcv' (DERIVED 64) (1 EXPLICIT (
CONSTANT (INTEGER 4) 0 '0') (CONSTANT (INTEGER 4) 0 '5')) () 1 0 0 ()) (
65 'antnum' (INTEGER 4) () () 0 0 0 ()) (66 'antsta' (CHARACTER 1 ((
CONSTANT (INTEGER 4) 0 '20'))) () () 0 0 0 ()) (67 'antrec' (CHARACTER 1
((CONSTANT (INTEGER 4) 0 '20'))) () () 0 0 0 ())) PUBLIC ())
64 't_sinex_pcv' 'd_neq' 6 ((DERIVED UNKNOWN UNKNOWN UNKNOWN NONE NONE)
(UNKNOWN) 0 0 () () () '' ((68 'nfrq' (INTEGER 4) () () 0 0 0 ()) (69
'antphs' (REAL 8) (2 EXPLICIT (CONSTANT (INTEGER 4) 0 '1') (CONSTANT (
INTEGER 4) 0 '3') (CONSTANT (INTEGER 4) 0 '1') (CONSTANT (INTEGER 4) 0 '2'))
() 1 0 0 ()) (70 'adopted' (INTEGER 4) () () 0 0 0 ()) (71 'individ' (
INTEGER 4) () () 0 0 0 ()) (72 'atxstr' (CHARACTER 1 ((CONSTANT (
INTEGER 4) 0 '10'))) () () 0 0 0 ())) PUBLIC ())
)

('aprhelm' 0 2 's_aprhelm' 0 5)
