G95 module created on Thu Jun 25 17:45:07 2020 from ./.fpp/CCSTAT.f90
If you edit this, you'll get what you deserve.
module-version 9
(() () () () () () () () () () () () () () () () () () () () ())

()

()

()

()

(2 'ccstat' 's_ccstat' 1 ((PROCEDURE UNKNOWN MODULE-PROC DECL NONE NONE
SUBROUTINE) (PROCEDURE 0) 0 0 (3 NONE 4 NONE 5 NONE 6 NONE 7 NONE 8 NONE
9 NONE 10 NONE) () () '' () ())
11 's_ccstat' 's_ccstat' 1 ((MODULE UNKNOWN UNKNOWN UNKNOWN NONE NONE) (
UNKNOWN) 0 0 () () () '' () ())
10 'ircode' '' 12 ((VARIABLE UNKNOWN UNKNOWN UNKNOWN NONE NONE DUMMY) (
INTEGER 4) 0 0 () () () '' () ())
9 'clkjump' '' 12 ((VARIABLE UNKNOWN UNKNOWN UNKNOWN NONE NONE DIMENSION
POINTER DUMMY) (DERIVED 13) 0 0 () (1 DEFERRED () ()) () '' () ())
13 't_jump' 'p_ccrnxc' 12 ((DERIVED UNKNOWN UNKNOWN UNKNOWN NONE NONE) (
UNKNOWN) 0 0 () () () '' ((14 'iclk' (INTEGER 4) () () 0 0 0 ()) (15
'iepo' (INTEGER 4) () () 0 0 0 ()) (16 'jepo' (INTEGER 4) () () 0 0 0 ())
(17 'meandt' (REAL 8) () () 0 0 0 ()) (18 'sdevdt' (REAL 8) () () 0 0 0
()) (19 'jsize' (REAL 8) () () 0 0 0 ()) (20 'ssize' (REAL 8) () () 0 0
0 ())) PUBLIC ())
8 'njump' '' 12 ((VARIABLE UNKNOWN UNKNOWN UNKNOWN NONE NONE DUMMY) (
INTEGER 4) 0 0 () () () '' () ())
7 'inclkrec' '' 12 ((VARIABLE UNKNOWN UNKNOWN UNKNOWN NONE NONE
DIMENSION POINTER DUMMY) (DERIVED 21) 0 0 () (1 DEFERRED () ()) () '' ()
())
21 't_clkrec' 'd_clkrnx' 12 ((DERIVED UNKNOWN UNKNOWN UNKNOWN NONE NONE)
(UNKNOWN) 0 0 () () () '' ((22 'iepo' (INTEGER 4) () () 0 0 0 ()) (23
'nepo' (INTEGER 4) () () 0 0 0 ()) (24 'epoch' (REAL 8) (1 DEFERRED () ())
() 1 1 0 ()) (25 'clock' (REAL 8) (2 DEFERRED () () () ()) () 1 1 0 ())
(26 'sigma' (REAL 8) (2 DEFERRED () () () ()) () 1 1 0 ()) (27 'clkflg'
(CHARACTER 1 ((CONSTANT (INTEGER 4) 0 '1'))) (2 DEFERRED () () () ()) ()
1 1 0 ())) PUBLIC ())
6 'inclkhead' '' 12 ((VARIABLE UNKNOWN UNKNOWN UNKNOWN NONE NONE
DIMENSION POINTER DUMMY) (DERIVED 28) 0 0 () (1 DEFERRED () ()) () '' ()
())
28 't_clkhead' 'd_clkrnx' 12 ((DERIVED UNKNOWN UNKNOWN UNKNOWN NONE NONE)
(UNKNOWN) 0 0 () () () '' ((29 'rnxvers' (REAL 8) () () 0 0 0 ()) (30
'ncomment' (INTEGER 4) () () 0 0 0 ()) (31 'comment' (CHARACTER 1 ((
CONSTANT (INTEGER 4) 0 '60'))) (1 DEFERRED () ()) () 1 1 0 ()) (32
'prognam' (CHARACTER 1 ((CONSTANT (INTEGER 4) 0 '20'))) () () 0 0 0 ())
(33 'runby' (CHARACTER 1 ((CONSTANT (INTEGER 4) 0 '20'))) () () 0 0 0 ())
(34 'crdate' (CHARACTER 1 ((CONSTANT (INTEGER 4) 0 '20'))) () () 0 0 0 ())
(35 'leapsec' (INTEGER 4) () () 0 0 0 ()) (36 'numtyp' (INTEGER 4) () ()
0 0 0 ()) (37 'dattyp' (CHARACTER 1 ((CONSTANT (INTEGER 4) 0 '2'))) (1
DEFERRED () ()) () 1 1 0 ()) (38 'clk0name' (CHARACTER 1 ((CONSTANT (
INTEGER 4) 0 '16'))) () () 0 0 0 ()) (39 'calname' (CHARACTER 1 ((
CONSTANT (INTEGER 4) 0 '60'))) () () 0 0 0 ()) (40 'ac' (CHARACTER 1 ((
CONSTANT (INTEGER 4) 0 '3'))) () () 0 0 0 ()) (41 'acname' (CHARACTER 1
((CONSTANT (INTEGER 4) 0 '55'))) () () 0 0 0 ()) (42 'timsys' (
CHARACTER 1 ((CONSTANT (INTEGER 4) 0 '3'))) () () 0 0 0 ()) (43 'pgmnam'
(CHARACTER 1 ((CONSTANT (INTEGER 4) 0 '17'))) () () 0 0 0 ()) (44 'dcbstr'
(CHARACTER 1 ((CONSTANT (INTEGER 4) 0 '40'))) () () 0 0 0 ()) (45 'pcvstr'
(CHARACTER 1 ((CONSTANT (INTEGER 4) 0 '40'))) () () 0 0 0 ()) (46 'tfirst'
(REAL 8) () () 0 0 0 ()) (47 'numref' (INTEGER 4) () () 0 0 0 ()) (48
'ref' (DERIVED 49) (1 DEFERRED () ()) () 1 1 0 ()) (50 'trfname' (
CHARACTER 1 ((CONSTANT (INTEGER 4) 0 '50'))) () () 0 0 0 ()) (51 'nsta'
(INTEGER 4) () () 0 0 0 ()) (52 'nsat' (INTEGER 4) () () 0 0 0 ()) (53
'clkname' (CHARACTER 1 ((CONSTANT (INTEGER 4) 0 '16'))) (1 DEFERRED () ())
() 1 1 0 ()) (54 'stacoord' (REAL 8) (2 DEFERRED () () () ()) () 1 1 0 ()))
PUBLIC ())
49 't_ref' 'd_clkrnx' 12 ((DERIVED UNKNOWN UNKNOWN UNKNOWN NONE NONE) (
UNKNOWN) 0 0 () () () '' ((55 'nref' (INTEGER 4) () () 0 0 0 ()) (56 'clk'
(DERIVED 57) (1 DEFERRED () ()) () 1 1 0 ()) (58 'refwin' (DERIVED 59) ()
() 0 0 0 ())) PUBLIC ())
59 't_timint' 'm_time' 12 ((DERIVED UNKNOWN UNKNOWN UNKNOWN NONE NONE) (
UNKNOWN) 0 0 () () () '' ((60 't' (REAL 8) (1 EXPLICIT (CONSTANT (
INTEGER 4) 0 '1') (CONSTANT (INTEGER 4) 0 '2')) () 1 0 0 ())) PUBLIC ())
57 't_refclk' 'd_clkrnx' 12 ((DERIVED UNKNOWN UNKNOWN UNKNOWN NONE NONE)
(UNKNOWN) 0 0 () () () '' ((61 'name' (CHARACTER 1 ((CONSTANT (INTEGER 4)
0 '16'))) () () 0 0 0 ()) (62 'sigma' (REAL 8) () () 0 0 0 ()) (63 'idx'
(INTEGER 4) () () 0 0 0 ()) (64 'idx0' (INTEGER 4) () () 0 0 0 ()))
PUBLIC ())
5 'outclkrec' '' 12 ((VARIABLE UNKNOWN UNKNOWN UNKNOWN NONE NONE DUMMY)
(DERIVED 21) 0 0 () () () '' () ())
4 'outclkhead' '' 12 ((VARIABLE UNKNOWN UNKNOWN UNKNOWN NONE NONE DUMMY)
(DERIVED 28) 0 0 () () () '' () ())
3 'ccopt' '' 12 ((VARIABLE UNKNOWN UNKNOWN UNKNOWN NONE NONE DUMMY) (
DERIVED 65) 0 0 () () () '' () ())
65 't_ccrnxc_opt' 'p_ccrnxc' 12 ((DERIVED UNKNOWN UNKNOWN UNKNOWN NONE
NONE) (UNKNOWN) 0 0 () () () '' ((66 'maxdcrd' (REAL 8) () () 0 0 0 ())
(67 'reffil' (LOGICAL 4) () () 0 0 0 ()) (68 'nref' (INTEGER 4) () () 0
0 0 ()) (69 'refclk' (CHARACTER 1 ((CONSTANT (INTEGER 4) 0 '16'))) (1
DEFERRED () ()) () 1 1 0 ()) (70 'clklst' (CHARACTER 1 ((CONSTANT (
INTEGER 4) 0 '16'))) (1 DEFERRED () ()) () 1 1 0 ()) (71 'nalig' (
INTEGER 4) () () 0 0 0 ()) (72 'maxref' (REAL 8) () () 0 0 0 ()) (73
'oneref' (LOGICAL 4) () () 0 0 0 ()) (74 'onlyref' (LOGICAL 4) () () 0 0
0 ()) (75 'usesta' (LOGICAL 4) () () 0 0 0 ()) (76 'usesat' (LOGICAL 4)
() () 0 0 0 ()) (77 'delecl' (INTEGER 4) () () 0 0 0 ()) (78 'sigma0' (
REAL 8) () () 0 0 0 ()) (79 'maxresi' (REAL 8) () () 0 0 0 ()) (80 'combi'
(INTEGER 4) () () 0 0 0 ()) (81 'maxmean' (REAL 8) () () 0 0 0 ()) (82
'minclksta' (INTEGER 4) () () 0 0 0 ()) (83 'minclksat' (INTEGER 4) () ()
0 0 0 ()) (84 'outsigma' (INTEGER 4) () () 0 0 0 ()) (85 'prtdetail' (
INTEGER 4) (1 EXPLICIT (CONSTANT (INTEGER 4) 0 '1') (CONSTANT (INTEGER 4)
0 '6')) () 1 0 0 ()) (86 'timewin' (REAL 8) (1 EXPLICIT (CONSTANT (
INTEGER 4) 0 '1') (CONSTANT (INTEGER 4) 0 '2')) () 1 0 0 ()) (87 'deltat'
(INTEGER 4) () () 0 0 0 ()) (88 'iepoly' (INTEGER 4) () () 0 0 0 ()) (
89 'ietpoly' (DERIVED 59) (1 DEFERRED () ()) () 1 1 0 ()) (90 'iesico' (
INTEGER 4) () () 0 0 0 ()) (91 'ietsico' (DERIVED 59) (1 DEFERRED () ())
() 1 1 0 ()) (92 'iepsico' (REAL 8) (1 DEFERRED () ()) () 1 1 0 ()) (93
'iemrms' (REAL 8) () () 0 0 0 ()) (94 'iemobs' (INTEGER 4) () () 0 0 0 ())
(95 'dointer' (LOGICAL 4) () () 0 0 0 ()) (96 'doextra' (LOGICAL 4) () ()
0 0 0 ()) (97 'jumprms' (REAL 8) () () 0 0 0 ()) (98 'njmpsig' (INTEGER
4) () () 0 0 0 ()) (99 'njmpepo' (INTEGER 4) () () 0 0 0 ()) (100
'jmpdelsta' (LOGICAL 4) () () 0 0 0 ()) (101 'jmpdelsat' (LOGICAL 4) ()
() 0 0 0 ()) (102 'njmppoly' (INTEGER 4) () () 0 0 0 ()) (103 'title' (
CHARACTER 1 ((CONSTANT (INTEGER 4) 0 '60'))) () () 0 0 0 ()) (104
'ninterval' (INTEGER 4) () () 0 0 0 ()) (105 'sumrms' (REAL 8) () () 0 0
0 ()) (106 'numdel' (INTEGER 4) () () 0 0 0 ()) (107 'maxrms' (REAL 8) ()
() 0 0 0 ()) (108 'maxdel' (INTEGER 4) () () 0 0 0 ()) (109 'maxrmsepo'
(CHARACTER 1 ((CONSTANT (INTEGER 4) 0 '19'))) (1 EXPLICIT (CONSTANT (
INTEGER 4) 0 '1') (CONSTANT (INTEGER 4) 0 '2')) () 1 0 0 ()) (110
'maxdelepo' (CHARACTER 1 ((CONSTANT (INTEGER 4) 0 '19'))) (1 EXPLICIT (
CONSTANT (INTEGER 4) 0 '1') (CONSTANT (INTEGER 4) 0 '2')) () 1 0 0 ()) (
111 'clkdata' (DERIVED 59) () () 0 0 0 ())) PUBLIC ())
)

('ccstat' 0 2 's_ccstat' 0 11)
