G95 module created on Thu Jun 25 17:44:17 2020 from ./.fpp/CCINCR.f90
If you edit this, you'll get what you deserve.
module-version 9
(() () () () () () () () () () () () () () () () () () () () ())

()

()

()

()

(2 'ccincr' 's_ccincr' 1 ((PROCEDURE UNKNOWN MODULE-PROC DECL NONE NONE
SUBROUTINE) (PROCEDURE 0) 0 0 (3 NONE 4 NONE 5 NONE 6 NONE 7 NONE) () ()
'' () ())
8 's_ccincr' 's_ccincr' 1 ((MODULE UNKNOWN UNKNOWN UNKNOWN NONE NONE) (
UNKNOWN) 0 0 () () () '' () ())
7 'new' '' 9 ((VARIABLE UNKNOWN UNKNOWN UNKNOWN NONE NONE DUMMY) (
INTEGER 4) 0 0 () () () '' () ())
6 'idx' '' 9 ((VARIABLE UNKNOWN UNKNOWN UNKNOWN NONE NONE DIMENSION
POINTER DUMMY) (DERIVED 10) 0 0 () (1 DEFERRED () ()) () '' () ())
10 't_index' 'p_ccrnxc' 9 ((DERIVED UNKNOWN UNKNOWN UNKNOWN NONE NONE) (
UNKNOWN) 0 0 () () () '' ((11 'ifil' (INTEGER 4) (1 EXPLICIT (CONSTANT (
INTEGER 4) 0 '1') (CONSTANT (INTEGER 4) 0 '2')) () 1 0 0 ()) (12 'iepo'
(INTEGER 4) () () 0 0 0 ()) (13 'clknam' (CHARACTER 1 ((CONSTANT (
INTEGER 4) 0 '16'))) () () 0 0 0 ()) (14 'clktyp' (INTEGER 4) () () 0 0
0 ())) PUBLIC ())
5 'y' '' 9 ((VARIABLE UNKNOWN UNKNOWN UNKNOWN NONE NONE DIMENSION
POINTER DUMMY) (REAL 8) 0 0 () (1 DEFERRED () ()) () '' () ())
4 'p' '' 9 ((VARIABLE UNKNOWN UNKNOWN UNKNOWN NONE NONE DIMENSION
POINTER DUMMY) (REAL 8) 0 0 () (1 DEFERRED () ()) () '' () ())
3 'a' '' 9 ((VARIABLE UNKNOWN UNKNOWN UNKNOWN NONE NONE DIMENSION
POINTER DUMMY) (INTEGER 4) 0 0 () (2 DEFERRED () () () ()) () '' () ())
)

('ccincr' 0 2 's_ccincr' 0 8)
