G95 module created on Thu Jun 25 17:44:35 2020 from ./.fpp/CCLKNQ.f90
If you edit this, you'll get what you deserve.
module-version 9
(() () () () () () () () () () () () () () () () () () () () ())

()

()

()

()

(2 'cclknq' 's_cclknq' 1 ((PROCEDURE UNKNOWN MODULE-PROC DECL NONE NONE
SUBROUTINE) (PROCEDURE 0) 0 0 (3 NONE 4 NONE 5 NONE 6 NONE 7 NONE 8 NONE
9 NONE 10 NONE 11 NONE 12 NONE 13 NONE 14 NONE 15 NONE 16 NONE 17 NONE
18 NONE) () () '' () ())
19 's_cclknq' 's_cclknq' 1 ((MODULE UNKNOWN UNKNOWN UNKNOWN NONE NONE) (
UNKNOWN) 0 0 () () () '' () ())
18 'idx' '' 20 ((VARIABLE UNKNOWN UNKNOWN UNKNOWN NONE NONE DIMENSION
POINTER DUMMY) (DERIVED 21) 0 0 () (1 DEFERRED () ()) () '' () ())
21 't_index' 'p_ccrnxc' 20 ((DERIVED UNKNOWN UNKNOWN UNKNOWN NONE NONE)
(UNKNOWN) 0 0 () () () '' ((22 'ifil' (INTEGER 4) (1 EXPLICIT (CONSTANT
(INTEGER 4) 0 '1') (CONSTANT (INTEGER 4) 0 '2')) () 1 0 0 ()) (23 'iepo'
(INTEGER 4) () () 0 0 0 ()) (24 'clknam' (CHARACTER 1 ((CONSTANT (
INTEGER 4) 0 '16'))) () () 0 0 0 ()) (25 'clktyp' (INTEGER 4) () () 0 0
0 ())) PUBLIC ())
17 'y' '' 20 ((VARIABLE UNKNOWN UNKNOWN UNKNOWN NONE NONE DIMENSION
POINTER DUMMY) (REAL 8) 0 0 () (1 DEFERRED () ()) () '' () ())
16 'p' '' 20 ((VARIABLE UNKNOWN UNKNOWN UNKNOWN NONE NONE DIMENSION
POINTER DUMMY) (REAL 8) 0 0 () (1 DEFERRED () ()) () '' () ())
15 'a' '' 20 ((VARIABLE UNKNOWN UNKNOWN UNKNOWN NONE NONE DIMENSION
POINTER DUMMY) (INTEGER 4) 0 0 () (2 DEFERRED () () () ()) () '' () ())
14 'nsat' '' 20 ((VARIABLE UNKNOWN UNKNOWN UNKNOWN NONE NONE DUMMY) (
INTEGER 4) 0 0 () () () '' () ())
13 'nsta' '' 20 ((VARIABLE UNKNOWN UNKNOWN UNKNOWN NONE NONE DUMMY) (
INTEGER 4) 0 0 () () () '' () ())
12 'nobs' '' 20 ((VARIABLE UNKNOWN UNKNOWN UNKNOWN NONE NONE DUMMY) (
INTEGER 4) 0 0 () () () '' () ())
11 'fillst' '' 20 ((VARIABLE UNKNOWN UNKNOWN UNKNOWN NONE NONE DIMENSION
DUMMY) (INTEGER 4) 0 0 () (1 ASSUMED_SHAPE () ()) () '' () ())
10 'numfil' '' 20 ((VARIABLE UNKNOWN UNKNOWN UNKNOWN NONE NONE DUMMY) (
INTEGER 4) 0 0 () () () '' () ())
9 'outclkrec' '' 20 ((VARIABLE UNKNOWN UNKNOWN UNKNOWN NONE NONE DUMMY)
(DERIVED 26) 0 0 () () () '' () ())
26 't_clkrec' 'd_clkrnx' 20 ((DERIVED UNKNOWN UNKNOWN UNKNOWN NONE NONE)
(UNKNOWN) 0 0 () () () '' ((27 'iepo' (INTEGER 4) () () 0 0 0 ()) (28
'nepo' (INTEGER 4) () () 0 0 0 ()) (29 'epoch' (REAL 8) (1 DEFERRED () ())
() 1 1 0 ()) (30 'clock' (REAL 8) (2 DEFERRED () () () ()) () 1 1 0 ())
(31 'sigma' (REAL 8) (2 DEFERRED () () () ()) () 1 1 0 ()) (32 'clkflg'
(CHARACTER 1 ((CONSTANT (INTEGER 4) 0 '1'))) (2 DEFERRED () () () ()) ()
1 1 0 ())) PUBLIC ())
8 'inclkrec' '' 20 ((VARIABLE UNKNOWN UNKNOWN UNKNOWN NONE NONE
DIMENSION POINTER DUMMY) (DERIVED 26) 0 0 () (1 DEFERRED () ()) () '' ()
())
7 'outclkhead' '' 20 ((VARIABLE UNKNOWN UNKNOWN UNKNOWN NONE NONE DUMMY)
(DERIVED 33) 0 0 () () () '' () ())
33 't_clkhead' 'd_clkrnx' 20 ((DERIVED UNKNOWN UNKNOWN UNKNOWN NONE NONE)
(UNKNOWN) 0 0 () () () '' ((34 'rnxvers' (REAL 8) () () 0 0 0 ()) (35
'ncomment' (INTEGER 4) () () 0 0 0 ()) (36 'comment' (CHARACTER 1 ((
CONSTANT (INTEGER 4) 0 '60'))) (1 DEFERRED () ()) () 1 1 0 ()) (37
'prognam' (CHARACTER 1 ((CONSTANT (INTEGER 4) 0 '20'))) () () 0 0 0 ())
(38 'runby' (CHARACTER 1 ((CONSTANT (INTEGER 4) 0 '20'))) () () 0 0 0 ())
(39 'crdate' (CHARACTER 1 ((CONSTANT (INTEGER 4) 0 '20'))) () () 0 0 0 ())
(40 'leapsec' (INTEGER 4) () () 0 0 0 ()) (41 'numtyp' (INTEGER 4) () ()
0 0 0 ()) (42 'dattyp' (CHARACTER 1 ((CONSTANT (INTEGER 4) 0 '2'))) (1
DEFERRED () ()) () 1 1 0 ()) (43 'clk0name' (CHARACTER 1 ((CONSTANT (
INTEGER 4) 0 '16'))) () () 0 0 0 ()) (44 'calname' (CHARACTER 1 ((
CONSTANT (INTEGER 4) 0 '60'))) () () 0 0 0 ()) (45 'ac' (CHARACTER 1 ((
CONSTANT (INTEGER 4) 0 '3'))) () () 0 0 0 ()) (46 'acname' (CHARACTER 1
((CONSTANT (INTEGER 4) 0 '55'))) () () 0 0 0 ()) (47 'timsys' (
CHARACTER 1 ((CONSTANT (INTEGER 4) 0 '3'))) () () 0 0 0 ()) (48 'pgmnam'
(CHARACTER 1 ((CONSTANT (INTEGER 4) 0 '17'))) () () 0 0 0 ()) (49 'dcbstr'
(CHARACTER 1 ((CONSTANT (INTEGER 4) 0 '40'))) () () 0 0 0 ()) (50 'pcvstr'
(CHARACTER 1 ((CONSTANT (INTEGER 4) 0 '40'))) () () 0 0 0 ()) (51 'tfirst'
(REAL 8) () () 0 0 0 ()) (52 'numref' (INTEGER 4) () () 0 0 0 ()) (53
'ref' (DERIVED 54) (1 DEFERRED () ()) () 1 1 0 ()) (55 'trfname' (
CHARACTER 1 ((CONSTANT (INTEGER 4) 0 '50'))) () () 0 0 0 ()) (56 'nsta'
(INTEGER 4) () () 0 0 0 ()) (57 'nsat' (INTEGER 4) () () 0 0 0 ()) (58
'clkname' (CHARACTER 1 ((CONSTANT (INTEGER 4) 0 '16'))) (1 DEFERRED () ())
() 1 1 0 ()) (59 'stacoord' (REAL 8) (2 DEFERRED () () () ()) () 1 1 0 ()))
PUBLIC ())
54 't_ref' 'd_clkrnx' 20 ((DERIVED UNKNOWN UNKNOWN UNKNOWN NONE NONE) (
UNKNOWN) 0 0 () () () '' ((60 'nref' (INTEGER 4) () () 0 0 0 ()) (61 'clk'
(DERIVED 62) (1 DEFERRED () ()) () 1 1 0 ()) (63 'refwin' (DERIVED 64) ()
() 0 0 0 ())) PUBLIC ())
64 't_timint' 'm_time' 20 ((DERIVED UNKNOWN UNKNOWN UNKNOWN NONE NONE) (
UNKNOWN) 0 0 () () () '' ((65 't' (REAL 8) (1 EXPLICIT (CONSTANT (
INTEGER 4) 0 '1') (CONSTANT (INTEGER 4) 0 '2')) () 1 0 0 ())) PUBLIC ())
62 't_refclk' 'd_clkrnx' 20 ((DERIVED UNKNOWN UNKNOWN UNKNOWN NONE NONE)
(UNKNOWN) 0 0 () () () '' ((66 'name' (CHARACTER 1 ((CONSTANT (INTEGER 4)
0 '16'))) () () 0 0 0 ()) (67 'sigma' (REAL 8) () () 0 0 0 ()) (68 'idx'
(INTEGER 4) () () 0 0 0 ()) (69 'idx0' (INTEGER 4) () () 0 0 0 ()))
PUBLIC ())
6 'inclkhead' '' 20 ((VARIABLE UNKNOWN UNKNOWN UNKNOWN NONE NONE
DIMENSION POINTER DUMMY) (DERIVED 33) 0 0 () (1 DEFERRED () ()) () '' ()
())
5 'ccopt' '' 20 ((VARIABLE UNKNOWN UNKNOWN UNKNOWN NONE NONE DUMMY) (
DERIVED 70) 0 0 () () () '' () ())
70 't_ccrnxc_opt' 'p_ccrnxc' 20 ((DERIVED UNKNOWN UNKNOWN UNKNOWN NONE
NONE) (UNKNOWN) 0 0 () () () '' ((71 'maxdcrd' (REAL 8) () () 0 0 0 ())
(72 'reffil' (LOGICAL 4) () () 0 0 0 ()) (73 'nref' (INTEGER 4) () () 0
0 0 ()) (74 'refclk' (CHARACTER 1 ((CONSTANT (INTEGER 4) 0 '16'))) (1
DEFERRED () ()) () 1 1 0 ()) (75 'clklst' (CHARACTER 1 ((CONSTANT (
INTEGER 4) 0 '16'))) (1 DEFERRED () ()) () 1 1 0 ()) (76 'nalig' (
INTEGER 4) () () 0 0 0 ()) (77 'maxref' (REAL 8) () () 0 0 0 ()) (78
'oneref' (LOGICAL 4) () () 0 0 0 ()) (79 'onlyref' (LOGICAL 4) () () 0 0
0 ()) (80 'usesta' (LOGICAL 4) () () 0 0 0 ()) (81 'usesat' (LOGICAL 4)
() () 0 0 0 ()) (82 'delecl' (INTEGER 4) () () 0 0 0 ()) (83 'sigma0' (
REAL 8) () () 0 0 0 ()) (84 'maxresi' (REAL 8) () () 0 0 0 ()) (85 'combi'
(INTEGER 4) () () 0 0 0 ()) (86 'maxmean' (REAL 8) () () 0 0 0 ()) (87
'minclksta' (INTEGER 4) () () 0 0 0 ()) (88 'minclksat' (INTEGER 4) () ()
0 0 0 ()) (89 'outsigma' (INTEGER 4) () () 0 0 0 ()) (90 'prtdetail' (
INTEGER 4) (1 EXPLICIT (CONSTANT (INTEGER 4) 0 '1') (CONSTANT (INTEGER 4)
0 '6')) () 1 0 0 ()) (91 'timewin' (REAL 8) (1 EXPLICIT (CONSTANT (
INTEGER 4) 0 '1') (CONSTANT (INTEGER 4) 0 '2')) () 1 0 0 ()) (92 'deltat'
(INTEGER 4) () () 0 0 0 ()) (93 'iepoly' (INTEGER 4) () () 0 0 0 ()) (
94 'ietpoly' (DERIVED 64) (1 DEFERRED () ()) () 1 1 0 ()) (95 'iesico' (
INTEGER 4) () () 0 0 0 ()) (96 'ietsico' (DERIVED 64) (1 DEFERRED () ())
() 1 1 0 ()) (97 'iepsico' (REAL 8) (1 DEFERRED () ()) () 1 1 0 ()) (98
'iemrms' (REAL 8) () () 0 0 0 ()) (99 'iemobs' (INTEGER 4) () () 0 0 0 ())
(100 'dointer' (LOGICAL 4) () () 0 0 0 ()) (101 'doextra' (LOGICAL 4) ()
() 0 0 0 ()) (102 'jumprms' (REAL 8) () () 0 0 0 ()) (103 'njmpsig' (
INTEGER 4) () () 0 0 0 ()) (104 'njmpepo' (INTEGER 4) () () 0 0 0 ()) (
105 'jmpdelsta' (LOGICAL 4) () () 0 0 0 ()) (106 'jmpdelsat' (LOGICAL 4)
() () 0 0 0 ()) (107 'njmppoly' (INTEGER 4) () () 0 0 0 ()) (108 'title'
(CHARACTER 1 ((CONSTANT (INTEGER 4) 0 '60'))) () () 0 0 0 ()) (109
'ninterval' (INTEGER 4) () () 0 0 0 ()) (110 'sumrms' (REAL 8) () () 0 0
0 ()) (111 'numdel' (INTEGER 4) () () 0 0 0 ()) (112 'maxrms' (REAL 8) ()
() 0 0 0 ()) (113 'maxdel' (INTEGER 4) () () 0 0 0 ()) (114 'maxrmsepo'
(CHARACTER 1 ((CONSTANT (INTEGER 4) 0 '19'))) (1 EXPLICIT (CONSTANT (
INTEGER 4) 0 '1') (CONSTANT (INTEGER 4) 0 '2')) () 1 0 0 ()) (115
'maxdelepo' (CHARACTER 1 ((CONSTANT (INTEGER 4) 0 '19'))) (1 EXPLICIT (
CONSTANT (INTEGER 4) 0 '1') (CONSTANT (INTEGER 4) 0 '2')) () 1 0 0 ()) (
116 'clkdata' (DERIVED 64) () () 0 0 0 ())) PUBLIC ())
4 'epo2' '' 20 ((VARIABLE UNKNOWN UNKNOWN UNKNOWN NONE NONE DUMMY) (
INTEGER 4) 0 0 () () () '' () ())
3 'epo1' '' 20 ((VARIABLE UNKNOWN UNKNOWN UNKNOWN NONE NONE DUMMY) (
INTEGER 4) 0 0 () () () '' () ())
)

('cclknq' 0 2 's_cclknq' 0 19)
