G95 module created on Thu Jun 25 17:44:01 2020 from ./.fpp/CCMEAN.f90
If you edit this, you'll get what you deserve.
module-version 9
(() () () () () () () () () () () () () () () () () () () () ())

()

()

()

()

(2 'ccmean' 's_ccmean' 1 ((PROCEDURE UNKNOWN MODULE-PROC DECL NONE NONE
SUBROUTINE) (PROCEDURE 0) 0 0 (3 NONE 4 NONE 5 NONE 6 NONE 7 NONE 8 NONE
9 NONE 10 NONE 11 NONE 12 NONE) () () '' () ())
13 's_ccmean' 's_ccmean' 1 ((MODULE UNKNOWN UNKNOWN UNKNOWN NONE NONE) (
UNKNOWN) 0 0 () () () '' () ())
12 'ircode' '' 14 ((VARIABLE UNKNOWN UNKNOWN UNKNOWN NONE NONE DUMMY) (
INTEGER 4) 0 0 () () () '' () ())
11 'newsigma' '' 14 ((VARIABLE UNKNOWN UNKNOWN UNKNOWN NONE NONE DUMMY)
(REAL 8) 0 0 () () () '' () ())
10 'newclock' '' 14 ((VARIABLE UNKNOWN UNKNOWN UNKNOWN NONE NONE DUMMY)
(REAL 8) 0 0 () () () '' () ())
9 'clkmean' '' 14 ((VARIABLE UNKNOWN UNKNOWN UNKNOWN NONE NONE DIMENSION
DUMMY) (DERIVED 15) 0 0 () (1 ASSUMED_SHAPE () ()) () '' () ())
15 't_clkmean' 'p_ccrnxc' 14 ((DERIVED UNKNOWN UNKNOWN UNKNOWN NONE NONE)
(UNKNOWN) 0 0 () () () '' ((16 'ifil' (INTEGER 4) () () 0 0 0 ()) (17
'iclk' (INTEGER 4) () () 0 0 0 ()) (18 'ityp' (INTEGER 4) () () 0 0 0 ())
(19 'value' (REAL 8) () () 0 0 0 ()) (20 'sigma' (REAL 8) () () 0 0 0 ())
(21 'sigoff' (REAL 8) () () 0 0 0 ())) PUBLIC ())
8 'nclock' '' 14 ((VARIABLE UNKNOWN UNKNOWN UNKNOWN NONE NONE DUMMY) (
INTEGER 4) 0 0 () () () '' () ())
7 'epoch' '' 14 ((VARIABLE UNKNOWN UNKNOWN UNKNOWN NONE NONE DUMMY) (
REAL 8) 0 0 () () () '' () ())
6 'outclkhead' '' 14 ((VARIABLE UNKNOWN UNKNOWN UNKNOWN NONE NONE DUMMY)
(DERIVED 22) 0 0 () () () '' () ())
22 't_clkhead' 'd_clkrnx' 14 ((DERIVED UNKNOWN UNKNOWN UNKNOWN NONE NONE)
(UNKNOWN) 0 0 () () () '' ((23 'rnxvers' (REAL 8) () () 0 0 0 ()) (24
'ncomment' (INTEGER 4) () () 0 0 0 ()) (25 'comment' (CHARACTER 1 ((
CONSTANT (INTEGER 4) 0 '60'))) (1 DEFERRED () ()) () 1 1 0 ()) (26
'prognam' (CHARACTER 1 ((CONSTANT (INTEGER 4) 0 '20'))) () () 0 0 0 ())
(27 'runby' (CHARACTER 1 ((CONSTANT (INTEGER 4) 0 '20'))) () () 0 0 0 ())
(28 'crdate' (CHARACTER 1 ((CONSTANT (INTEGER 4) 0 '20'))) () () 0 0 0 ())
(29 'leapsec' (INTEGER 4) () () 0 0 0 ()) (30 'numtyp' (INTEGER 4) () ()
0 0 0 ()) (31 'dattyp' (CHARACTER 1 ((CONSTANT (INTEGER 4) 0 '2'))) (1
DEFERRED () ()) () 1 1 0 ()) (32 'clk0name' (CHARACTER 1 ((CONSTANT (
INTEGER 4) 0 '16'))) () () 0 0 0 ()) (33 'calname' (CHARACTER 1 ((
CONSTANT (INTEGER 4) 0 '60'))) () () 0 0 0 ()) (34 'ac' (CHARACTER 1 ((
CONSTANT (INTEGER 4) 0 '3'))) () () 0 0 0 ()) (35 'acname' (CHARACTER 1
((CONSTANT (INTEGER 4) 0 '55'))) () () 0 0 0 ()) (36 'timsys' (
CHARACTER 1 ((CONSTANT (INTEGER 4) 0 '3'))) () () 0 0 0 ()) (37 'pgmnam'
(CHARACTER 1 ((CONSTANT (INTEGER 4) 0 '17'))) () () 0 0 0 ()) (38 'dcbstr'
(CHARACTER 1 ((CONSTANT (INTEGER 4) 0 '40'))) () () 0 0 0 ()) (39 'pcvstr'
(CHARACTER 1 ((CONSTANT (INTEGER 4) 0 '40'))) () () 0 0 0 ()) (40 'tfirst'
(REAL 8) () () 0 0 0 ()) (41 'numref' (INTEGER 4) () () 0 0 0 ()) (42
'ref' (DERIVED 43) (1 DEFERRED () ()) () 1 1 0 ()) (44 'trfname' (
CHARACTER 1 ((CONSTANT (INTEGER 4) 0 '50'))) () () 0 0 0 ()) (45 'nsta'
(INTEGER 4) () () 0 0 0 ()) (46 'nsat' (INTEGER 4) () () 0 0 0 ()) (47
'clkname' (CHARACTER 1 ((CONSTANT (INTEGER 4) 0 '16'))) (1 DEFERRED () ())
() 1 1 0 ()) (48 'stacoord' (REAL 8) (2 DEFERRED () () () ()) () 1 1 0 ()))
PUBLIC ())
43 't_ref' 'd_clkrnx' 14 ((DERIVED UNKNOWN UNKNOWN UNKNOWN NONE NONE) (
UNKNOWN) 0 0 () () () '' ((49 'nref' (INTEGER 4) () () 0 0 0 ()) (50 'clk'
(DERIVED 51) (1 DEFERRED () ()) () 1 1 0 ()) (52 'refwin' (DERIVED 53) ()
() 0 0 0 ())) PUBLIC ())
53 't_timint' 'm_time' 14 ((DERIVED UNKNOWN UNKNOWN UNKNOWN NONE NONE) (
UNKNOWN) 0 0 () () () '' ((54 't' (REAL 8) (1 EXPLICIT (CONSTANT (
INTEGER 4) 0 '1') (CONSTANT (INTEGER 4) 0 '2')) () 1 0 0 ())) PUBLIC ())
51 't_refclk' 'd_clkrnx' 14 ((DERIVED UNKNOWN UNKNOWN UNKNOWN NONE NONE)
(UNKNOWN) 0 0 () () () '' ((55 'name' (CHARACTER 1 ((CONSTANT (INTEGER 4)
0 '16'))) () () 0 0 0 ()) (56 'sigma' (REAL 8) () () 0 0 0 ()) (57 'idx'
(INTEGER 4) () () 0 0 0 ()) (58 'idx0' (INTEGER 4) () () 0 0 0 ()))
PUBLIC ())
5 'inclkhead' '' 14 ((VARIABLE UNKNOWN UNKNOWN UNKNOWN NONE NONE
DIMENSION POINTER DUMMY) (DERIVED 22) 0 0 () (1 DEFERRED () ()) () '' ()
())
4 'ccfil' '' 14 ((VARIABLE UNKNOWN UNKNOWN UNKNOWN NONE NONE DUMMY) (
DERIVED 59) 0 0 () () () '' () ())
59 't_ccrnxc_fil' 'p_ccrnxc' 14 ((DERIVED UNKNOWN UNKNOWN UNKNOWN NONE
NONE) (UNKNOWN) 0 0 () () () '' ((60 'clkfilnam' (CHARACTER 1 ((
CONSTANT (INTEGER 4) 0 '32'))) (1 DEFERRED () ()) () 1 1 0 ()) (61
'outfilnam' (CHARACTER 1 ((CONSTANT (INTEGER 4) 0 '32'))) () () 0 0 0 ())
(62 'satfilnam' (CHARACTER 1 ((CONSTANT (INTEGER 4) 0 '32'))) () () 0 0
0 ())) PUBLIC ())
3 'ccopt' '' 14 ((VARIABLE UNKNOWN UNKNOWN UNKNOWN NONE NONE DUMMY) (
DERIVED 63) 0 0 () () () '' () ())
63 't_ccrnxc_opt' 'p_ccrnxc' 14 ((DERIVED UNKNOWN UNKNOWN UNKNOWN NONE
NONE) (UNKNOWN) 0 0 () () () '' ((64 'maxdcrd' (REAL 8) () () 0 0 0 ())
(65 'reffil' (LOGICAL 4) () () 0 0 0 ()) (66 'nref' (INTEGER 4) () () 0
0 0 ()) (67 'refclk' (CHARACTER 1 ((CONSTANT (INTEGER 4) 0 '16'))) (1
DEFERRED () ()) () 1 1 0 ()) (68 'clklst' (CHARACTER 1 ((CONSTANT (
INTEGER 4) 0 '16'))) (1 DEFERRED () ()) () 1 1 0 ()) (69 'nalig' (
INTEGER 4) () () 0 0 0 ()) (70 'maxref' (REAL 8) () () 0 0 0 ()) (71
'oneref' (LOGICAL 4) () () 0 0 0 ()) (72 'onlyref' (LOGICAL 4) () () 0 0
0 ()) (73 'usesta' (LOGICAL 4) () () 0 0 0 ()) (74 'usesat' (LOGICAL 4)
() () 0 0 0 ()) (75 'delecl' (INTEGER 4) () () 0 0 0 ()) (76 'sigma0' (
REAL 8) () () 0 0 0 ()) (77 'maxresi' (REAL 8) () () 0 0 0 ()) (78 'combi'
(INTEGER 4) () () 0 0 0 ()) (79 'maxmean' (REAL 8) () () 0 0 0 ()) (80
'minclksta' (INTEGER 4) () () 0 0 0 ()) (81 'minclksat' (INTEGER 4) () ()
0 0 0 ()) (82 'outsigma' (INTEGER 4) () () 0 0 0 ()) (83 'prtdetail' (
INTEGER 4) (1 EXPLICIT (CONSTANT (INTEGER 4) 0 '1') (CONSTANT (INTEGER 4)
0 '6')) () 1 0 0 ()) (84 'timewin' (REAL 8) (1 EXPLICIT (CONSTANT (
INTEGER 4) 0 '1') (CONSTANT (INTEGER 4) 0 '2')) () 1 0 0 ()) (85 'deltat'
(INTEGER 4) () () 0 0 0 ()) (86 'iepoly' (INTEGER 4) () () 0 0 0 ()) (
87 'ietpoly' (DERIVED 53) (1 DEFERRED () ()) () 1 1 0 ()) (88 'iesico' (
INTEGER 4) () () 0 0 0 ()) (89 'ietsico' (DERIVED 53) (1 DEFERRED () ())
() 1 1 0 ()) (90 'iepsico' (REAL 8) (1 DEFERRED () ()) () 1 1 0 ()) (91
'iemrms' (REAL 8) () () 0 0 0 ()) (92 'iemobs' (INTEGER 4) () () 0 0 0 ())
(93 'dointer' (LOGICAL 4) () () 0 0 0 ()) (94 'doextra' (LOGICAL 4) () ()
0 0 0 ()) (95 'jumprms' (REAL 8) () () 0 0 0 ()) (96 'njmpsig' (INTEGER
4) () () 0 0 0 ()) (97 'njmpepo' (INTEGER 4) () () 0 0 0 ()) (98
'jmpdelsta' (LOGICAL 4) () () 0 0 0 ()) (99 'jmpdelsat' (LOGICAL 4) () ()
0 0 0 ()) (100 'njmppoly' (INTEGER 4) () () 0 0 0 ()) (101 'title' (
CHARACTER 1 ((CONSTANT (INTEGER 4) 0 '60'))) () () 0 0 0 ()) (102
'ninterval' (INTEGER 4) () () 0 0 0 ()) (103 'sumrms' (REAL 8) () () 0 0
0 ()) (104 'numdel' (INTEGER 4) () () 0 0 0 ()) (105 'maxrms' (REAL 8) ()
() 0 0 0 ()) (106 'maxdel' (INTEGER 4) () () 0 0 0 ()) (107 'maxrmsepo'
(CHARACTER 1 ((CONSTANT (INTEGER 4) 0 '19'))) (1 EXPLICIT (CONSTANT (
INTEGER 4) 0 '1') (CONSTANT (INTEGER 4) 0 '2')) () 1 0 0 ()) (108
'maxdelepo' (CHARACTER 1 ((CONSTANT (INTEGER 4) 0 '19'))) (1 EXPLICIT (
CONSTANT (INTEGER 4) 0 '1') (CONSTANT (INTEGER 4) 0 '2')) () 1 0 0 ()) (
109 'clkdata' (DERIVED 53) () () 0 0 0 ())) PUBLIC ())
)

('ccmean' 0 2 's_ccmean' 0 13)
