G95 module created on Thu Jun 25 17:45:14 2020 from ./.fpp/CCALIG.f90
If you edit this, you'll get what you deserve.
module-version 9
(() () () () () () () () () () () () () () () () () () () () ())

()

()

()

()

(2 'ccalig' 's_ccalig' 1 ((PROCEDURE UNKNOWN MODULE-PROC DECL NONE NONE
SUBROUTINE) (PROCEDURE 0) 0 0 (3 NONE 4 NONE 5 NONE 6 NONE) () () '' ()
())
7 's_ccalig' 's_ccalig' 1 ((MODULE UNKNOWN UNKNOWN UNKNOWN NONE NONE) (
UNKNOWN) 0 0 () () () '' () ())
6 'ircode' '' 8 ((VARIABLE UNKNOWN UNKNOWN UNKNOWN NONE NONE DUMMY) (
INTEGER 4) 0 0 () () () '' () ())
5 'outclkrec' '' 8 ((VARIABLE UNKNOWN UNKNOWN UNKNOWN NONE NONE DUMMY) (
DERIVED 9) 0 0 () () () '' () ())
9 't_clkrec' 'd_clkrnx' 8 ((DERIVED UNKNOWN UNKNOWN UNKNOWN NONE NONE) (
UNKNOWN) 0 0 () () () '' ((10 'iepo' (INTEGER 4) () () 0 0 0 ()) (11
'nepo' (INTEGER 4) () () 0 0 0 ()) (12 'epoch' (REAL 8) (1 DEFERRED () ())
() 1 1 0 ()) (13 'clock' (REAL 8) (2 DEFERRED () () () ()) () 1 1 0 ())
(14 'sigma' (REAL 8) (2 DEFERRED () () () ()) () 1 1 0 ()) (15 'clkflg'
(CHARACTER 1 ((CONSTANT (INTEGER 4) 0 '1'))) (2 DEFERRED () () () ()) ()
1 1 0 ())) PUBLIC ())
4 'outclkhead' '' 8 ((VARIABLE UNKNOWN UNKNOWN UNKNOWN NONE NONE DUMMY)
(DERIVED 16) 0 0 () () () '' () ())
16 't_clkhead' 'd_clkrnx' 8 ((DERIVED UNKNOWN UNKNOWN UNKNOWN NONE NONE)
(UNKNOWN) 0 0 () () () '' ((17 'rnxvers' (REAL 8) () () 0 0 0 ()) (18
'ncomment' (INTEGER 4) () () 0 0 0 ()) (19 'comment' (CHARACTER 1 ((
CONSTANT (INTEGER 4) 0 '60'))) (1 DEFERRED () ()) () 1 1 0 ()) (20
'prognam' (CHARACTER 1 ((CONSTANT (INTEGER 4) 0 '20'))) () () 0 0 0 ())
(21 'runby' (CHARACTER 1 ((CONSTANT (INTEGER 4) 0 '20'))) () () 0 0 0 ())
(22 'crdate' (CHARACTER 1 ((CONSTANT (INTEGER 4) 0 '20'))) () () 0 0 0 ())
(23 'leapsec' (INTEGER 4) () () 0 0 0 ()) (24 'numtyp' (INTEGER 4) () ()
0 0 0 ()) (25 'dattyp' (CHARACTER 1 ((CONSTANT (INTEGER 4) 0 '2'))) (1
DEFERRED () ()) () 1 1 0 ()) (26 'clk0name' (CHARACTER 1 ((CONSTANT (
INTEGER 4) 0 '16'))) () () 0 0 0 ()) (27 'calname' (CHARACTER 1 ((
CONSTANT (INTEGER 4) 0 '60'))) () () 0 0 0 ()) (28 'ac' (CHARACTER 1 ((
CONSTANT (INTEGER 4) 0 '3'))) () () 0 0 0 ()) (29 'acname' (CHARACTER 1
((CONSTANT (INTEGER 4) 0 '55'))) () () 0 0 0 ()) (30 'timsys' (
CHARACTER 1 ((CONSTANT (INTEGER 4) 0 '3'))) () () 0 0 0 ()) (31 'pgmnam'
(CHARACTER 1 ((CONSTANT (INTEGER 4) 0 '17'))) () () 0 0 0 ()) (32 'dcbstr'
(CHARACTER 1 ((CONSTANT (INTEGER 4) 0 '40'))) () () 0 0 0 ()) (33 'pcvstr'
(CHARACTER 1 ((CONSTANT (INTEGER 4) 0 '40'))) () () 0 0 0 ()) (34 'tfirst'
(REAL 8) () () 0 0 0 ()) (35 'numref' (INTEGER 4) () () 0 0 0 ()) (36
'ref' (DERIVED 37) (1 DEFERRED () ()) () 1 1 0 ()) (38 'trfname' (
CHARACTER 1 ((CONSTANT (INTEGER 4) 0 '50'))) () () 0 0 0 ()) (39 'nsta'
(INTEGER 4) () () 0 0 0 ()) (40 'nsat' (INTEGER 4) () () 0 0 0 ()) (41
'clkname' (CHARACTER 1 ((CONSTANT (INTEGER 4) 0 '16'))) (1 DEFERRED () ())
() 1 1 0 ()) (42 'stacoord' (REAL 8) (2 DEFERRED () () () ()) () 1 1 0 ()))
PUBLIC ())
37 't_ref' 'd_clkrnx' 8 ((DERIVED UNKNOWN UNKNOWN UNKNOWN NONE NONE) (
UNKNOWN) 0 0 () () () '' ((43 'nref' (INTEGER 4) () () 0 0 0 ()) (44 'clk'
(DERIVED 45) (1 DEFERRED () ()) () 1 1 0 ()) (46 'refwin' (DERIVED 47) ()
() 0 0 0 ())) PUBLIC ())
47 't_timint' 'm_time' 8 ((DERIVED UNKNOWN UNKNOWN UNKNOWN NONE NONE) (
UNKNOWN) 0 0 () () () '' ((48 't' (REAL 8) (1 EXPLICIT (CONSTANT (
INTEGER 4) 0 '1') (CONSTANT (INTEGER 4) 0 '2')) () 1 0 0 ())) PUBLIC ())
45 't_refclk' 'd_clkrnx' 8 ((DERIVED UNKNOWN UNKNOWN UNKNOWN NONE NONE)
(UNKNOWN) 0 0 () () () '' ((49 'name' (CHARACTER 1 ((CONSTANT (INTEGER 4)
0 '16'))) () () 0 0 0 ()) (50 'sigma' (REAL 8) () () 0 0 0 ()) (51 'idx'
(INTEGER 4) () () 0 0 0 ()) (52 'idx0' (INTEGER 4) () () 0 0 0 ()))
PUBLIC ())
3 'ccopt' '' 8 ((VARIABLE UNKNOWN UNKNOWN UNKNOWN NONE NONE DUMMY) (
DERIVED 53) 0 0 () () () '' () ())
53 't_ccrnxc_opt' 'p_ccrnxc' 8 ((DERIVED UNKNOWN UNKNOWN UNKNOWN NONE
NONE) (UNKNOWN) 0 0 () () () '' ((54 'maxdcrd' (REAL 8) () () 0 0 0 ())
(55 'reffil' (LOGICAL 4) () () 0 0 0 ()) (56 'nref' (INTEGER 4) () () 0
0 0 ()) (57 'refclk' (CHARACTER 1 ((CONSTANT (INTEGER 4) 0 '16'))) (1
DEFERRED () ()) () 1 1 0 ()) (58 'clklst' (CHARACTER 1 ((CONSTANT (
INTEGER 4) 0 '16'))) (1 DEFERRED () ()) () 1 1 0 ()) (59 'nalig' (
INTEGER 4) () () 0 0 0 ()) (60 'maxref' (REAL 8) () () 0 0 0 ()) (61
'oneref' (LOGICAL 4) () () 0 0 0 ()) (62 'onlyref' (LOGICAL 4) () () 0 0
0 ()) (63 'usesta' (LOGICAL 4) () () 0 0 0 ()) (64 'usesat' (LOGICAL 4)
() () 0 0 0 ()) (65 'delecl' (INTEGER 4) () () 0 0 0 ()) (66 'sigma0' (
REAL 8) () () 0 0 0 ()) (67 'maxresi' (REAL 8) () () 0 0 0 ()) (68 'combi'
(INTEGER 4) () () 0 0 0 ()) (69 'maxmean' (REAL 8) () () 0 0 0 ()) (70
'minclksta' (INTEGER 4) () () 0 0 0 ()) (71 'minclksat' (INTEGER 4) () ()
0 0 0 ()) (72 'outsigma' (INTEGER 4) () () 0 0 0 ()) (73 'prtdetail' (
INTEGER 4) (1 EXPLICIT (CONSTANT (INTEGER 4) 0 '1') (CONSTANT (INTEGER 4)
0 '6')) () 1 0 0 ()) (74 'timewin' (REAL 8) (1 EXPLICIT (CONSTANT (
INTEGER 4) 0 '1') (CONSTANT (INTEGER 4) 0 '2')) () 1 0 0 ()) (75 'deltat'
(INTEGER 4) () () 0 0 0 ()) (76 'iepoly' (INTEGER 4) () () 0 0 0 ()) (
77 'ietpoly' (DERIVED 47) (1 DEFERRED () ()) () 1 1 0 ()) (78 'iesico' (
INTEGER 4) () () 0 0 0 ()) (79 'ietsico' (DERIVED 47) (1 DEFERRED () ())
() 1 1 0 ()) (80 'iepsico' (REAL 8) (1 DEFERRED () ()) () 1 1 0 ()) (81
'iemrms' (REAL 8) () () 0 0 0 ()) (82 'iemobs' (INTEGER 4) () () 0 0 0 ())
(83 'dointer' (LOGICAL 4) () () 0 0 0 ()) (84 'doextra' (LOGICAL 4) () ()
0 0 0 ()) (85 'jumprms' (REAL 8) () () 0 0 0 ()) (86 'njmpsig' (INTEGER
4) () () 0 0 0 ()) (87 'njmpepo' (INTEGER 4) () () 0 0 0 ()) (88
'jmpdelsta' (LOGICAL 4) () () 0 0 0 ()) (89 'jmpdelsat' (LOGICAL 4) () ()
0 0 0 ()) (90 'njmppoly' (INTEGER 4) () () 0 0 0 ()) (91 'title' (
CHARACTER 1 ((CONSTANT (INTEGER 4) 0 '60'))) () () 0 0 0 ()) (92
'ninterval' (INTEGER 4) () () 0 0 0 ()) (93 'sumrms' (REAL 8) () () 0 0
0 ()) (94 'numdel' (INTEGER 4) () () 0 0 0 ()) (95 'maxrms' (REAL 8) ()
() 0 0 0 ()) (96 'maxdel' (INTEGER 4) () () 0 0 0 ()) (97 'maxrmsepo' (
CHARACTER 1 ((CONSTANT (INTEGER 4) 0 '19'))) (1 EXPLICIT (CONSTANT (
INTEGER 4) 0 '1') (CONSTANT (INTEGER 4) 0 '2')) () 1 0 0 ()) (98
'maxdelepo' (CHARACTER 1 ((CONSTANT (INTEGER 4) 0 '19'))) (1 EXPLICIT (
CONSTANT (INTEGER 4) 0 '1') (CONSTANT (INTEGER 4) 0 '2')) () 1 0 0 ()) (
99 'clkdata' (DERIVED 47) () () 0 0 0 ())) PUBLIC ())
)

('ccalig' 0 2 's_ccalig' 0 7)
