G95 module created on Thu Jun 25 17:45:11 2020 from ./.fpp/CCOMBO.f90
If you edit this, you'll get what you deserve.
module-version 9
(() () () () () () () () () () () () () () () () () () () () ())

()

()

()

()

(2 'ccombo' 's_ccombo' 1 ((PROCEDURE UNKNOWN MODULE-PROC DECL NONE NONE
SUBROUTINE) (PROCEDURE 0) 0 0 (3 NONE 4 NONE 5 NONE 6 NONE 7 NONE 8 NONE
9 NONE 10 NONE 11 NONE) () () '' () ())
12 's_ccombo' 's_ccombo' 1 ((MODULE UNKNOWN UNKNOWN UNKNOWN NONE NONE) (
UNKNOWN) 0 0 () () () '' () ())
11 'ircode' '' 13 ((VARIABLE UNKNOWN UNKNOWN UNKNOWN NONE NONE DUMMY) (
INTEGER 4) 0 0 () () () '' () ())
10 'outclkrec' '' 13 ((VARIABLE UNKNOWN UNKNOWN UNKNOWN NONE NONE DUMMY)
(DERIVED 14) 0 0 () () () '' () ())
14 't_clkrec' 'd_clkrnx' 13 ((DERIVED UNKNOWN UNKNOWN UNKNOWN NONE NONE)
(UNKNOWN) 0 0 () () () '' ((15 'iepo' (INTEGER 4) () () 0 0 0 ()) (16
'nepo' (INTEGER 4) () () 0 0 0 ()) (17 'epoch' (REAL 8) (1 DEFERRED () ())
() 1 1 0 ()) (18 'clock' (REAL 8) (2 DEFERRED () () () ()) () 1 1 0 ())
(19 'sigma' (REAL 8) (2 DEFERRED () () () ()) () 1 1 0 ()) (20 'clkflg'
(CHARACTER 1 ((CONSTANT (INTEGER 4) 0 '1'))) (2 DEFERRED () () () ()) ()
1 1 0 ())) PUBLIC ())
9 'inclkrec' '' 13 ((VARIABLE UNKNOWN UNKNOWN UNKNOWN NONE NONE
DIMENSION POINTER DUMMY) (DERIVED 14) 0 0 () (1 DEFERRED () ()) () '' ()
())
8 'outclkhead' '' 13 ((VARIABLE UNKNOWN UNKNOWN UNKNOWN NONE NONE DUMMY)
(DERIVED 21) 0 0 () () () '' () ())
21 't_clkhead' 'd_clkrnx' 13 ((DERIVED UNKNOWN UNKNOWN UNKNOWN NONE NONE)
(UNKNOWN) 0 0 () () () '' ((22 'rnxvers' (REAL 8) () () 0 0 0 ()) (23
'ncomment' (INTEGER 4) () () 0 0 0 ()) (24 'comment' (CHARACTER 1 ((
CONSTANT (INTEGER 4) 0 '60'))) (1 DEFERRED () ()) () 1 1 0 ()) (25
'prognam' (CHARACTER 1 ((CONSTANT (INTEGER 4) 0 '20'))) () () 0 0 0 ())
(26 'runby' (CHARACTER 1 ((CONSTANT (INTEGER 4) 0 '20'))) () () 0 0 0 ())
(27 'crdate' (CHARACTER 1 ((CONSTANT (INTEGER 4) 0 '20'))) () () 0 0 0 ())
(28 'leapsec' (INTEGER 4) () () 0 0 0 ()) (29 'numtyp' (INTEGER 4) () ()
0 0 0 ()) (30 'dattyp' (CHARACTER 1 ((CONSTANT (INTEGER 4) 0 '2'))) (1
DEFERRED () ()) () 1 1 0 ()) (31 'clk0name' (CHARACTER 1 ((CONSTANT (
INTEGER 4) 0 '16'))) () () 0 0 0 ()) (32 'calname' (CHARACTER 1 ((
CONSTANT (INTEGER 4) 0 '60'))) () () 0 0 0 ()) (33 'ac' (CHARACTER 1 ((
CONSTANT (INTEGER 4) 0 '3'))) () () 0 0 0 ()) (34 'acname' (CHARACTER 1
((CONSTANT (INTEGER 4) 0 '55'))) () () 0 0 0 ()) (35 'timsys' (
CHARACTER 1 ((CONSTANT (INTEGER 4) 0 '3'))) () () 0 0 0 ()) (36 'pgmnam'
(CHARACTER 1 ((CONSTANT (INTEGER 4) 0 '17'))) () () 0 0 0 ()) (37 'dcbstr'
(CHARACTER 1 ((CONSTANT (INTEGER 4) 0 '40'))) () () 0 0 0 ()) (38 'pcvstr'
(CHARACTER 1 ((CONSTANT (INTEGER 4) 0 '40'))) () () 0 0 0 ()) (39 'tfirst'
(REAL 8) () () 0 0 0 ()) (40 'numref' (INTEGER 4) () () 0 0 0 ()) (41
'ref' (DERIVED 42) (1 DEFERRED () ()) () 1 1 0 ()) (43 'trfname' (
CHARACTER 1 ((CONSTANT (INTEGER 4) 0 '50'))) () () 0 0 0 ()) (44 'nsta'
(INTEGER 4) () () 0 0 0 ()) (45 'nsat' (INTEGER 4) () () 0 0 0 ()) (46
'clkname' (CHARACTER 1 ((CONSTANT (INTEGER 4) 0 '16'))) (1 DEFERRED () ())
() 1 1 0 ()) (47 'stacoord' (REAL 8) (2 DEFERRED () () () ()) () 1 1 0 ()))
PUBLIC ())
42 't_ref' 'd_clkrnx' 13 ((DERIVED UNKNOWN UNKNOWN UNKNOWN NONE NONE) (
UNKNOWN) 0 0 () () () '' ((48 'nref' (INTEGER 4) () () 0 0 0 ()) (49 'clk'
(DERIVED 50) (1 DEFERRED () ()) () 1 1 0 ()) (51 'refwin' (DERIVED 52) ()
() 0 0 0 ())) PUBLIC ())
52 't_timint' 'm_time' 13 ((DERIVED UNKNOWN UNKNOWN UNKNOWN NONE NONE) (
UNKNOWN) 0 0 () () () '' ((53 't' (REAL 8) (1 EXPLICIT (CONSTANT (
INTEGER 4) 0 '1') (CONSTANT (INTEGER 4) 0 '2')) () 1 0 0 ())) PUBLIC ())
50 't_refclk' 'd_clkrnx' 13 ((DERIVED UNKNOWN UNKNOWN UNKNOWN NONE NONE)
(UNKNOWN) 0 0 () () () '' ((54 'name' (CHARACTER 1 ((CONSTANT (INTEGER 4)
0 '16'))) () () 0 0 0 ()) (55 'sigma' (REAL 8) () () 0 0 0 ()) (56 'idx'
(INTEGER 4) () () 0 0 0 ()) (57 'idx0' (INTEGER 4) () () 0 0 0 ()))
PUBLIC ())
7 'inclkhead' '' 13 ((VARIABLE UNKNOWN UNKNOWN UNKNOWN NONE NONE
DIMENSION POINTER DUMMY) (DERIVED 21) 0 0 () (1 DEFERRED () ()) () '' ()
())
6 'ccfil' '' 13 ((VARIABLE UNKNOWN UNKNOWN UNKNOWN NONE NONE DUMMY) (
DERIVED 58) 0 0 () () () '' () ())
58 't_ccrnxc_fil' 'p_ccrnxc' 13 ((DERIVED UNKNOWN UNKNOWN UNKNOWN NONE
NONE) (UNKNOWN) 0 0 () () () '' ((59 'clkfilnam' (CHARACTER 1 ((
CONSTANT (INTEGER 4) 0 '32'))) (1 DEFERRED () ()) () 1 1 0 ()) (60
'outfilnam' (CHARACTER 1 ((CONSTANT (INTEGER 4) 0 '32'))) () () 0 0 0 ())
(61 'satfilnam' (CHARACTER 1 ((CONSTANT (INTEGER 4) 0 '32'))) () () 0 0
0 ())) PUBLIC ())
5 'ccopt' '' 13 ((VARIABLE UNKNOWN UNKNOWN UNKNOWN NONE NONE DUMMY) (
DERIVED 62) 0 0 () () () '' () ())
62 't_ccrnxc_opt' 'p_ccrnxc' 13 ((DERIVED UNKNOWN UNKNOWN UNKNOWN NONE
NONE) (UNKNOWN) 0 0 () () () '' ((63 'maxdcrd' (REAL 8) () () 0 0 0 ())
(64 'reffil' (LOGICAL 4) () () 0 0 0 ()) (65 'nref' (INTEGER 4) () () 0
0 0 ()) (66 'refclk' (CHARACTER 1 ((CONSTANT (INTEGER 4) 0 '16'))) (1
DEFERRED () ()) () 1 1 0 ()) (67 'clklst' (CHARACTER 1 ((CONSTANT (
INTEGER 4) 0 '16'))) (1 DEFERRED () ()) () 1 1 0 ()) (68 'nalig' (
INTEGER 4) () () 0 0 0 ()) (69 'maxref' (REAL 8) () () 0 0 0 ()) (70
'oneref' (LOGICAL 4) () () 0 0 0 ()) (71 'onlyref' (LOGICAL 4) () () 0 0
0 ()) (72 'usesta' (LOGICAL 4) () () 0 0 0 ()) (73 'usesat' (LOGICAL 4)
() () 0 0 0 ()) (74 'delecl' (INTEGER 4) () () 0 0 0 ()) (75 'sigma0' (
REAL 8) () () 0 0 0 ()) (76 'maxresi' (REAL 8) () () 0 0 0 ()) (77 'combi'
(INTEGER 4) () () 0 0 0 ()) (78 'maxmean' (REAL 8) () () 0 0 0 ()) (79
'minclksta' (INTEGER 4) () () 0 0 0 ()) (80 'minclksat' (INTEGER 4) () ()
0 0 0 ()) (81 'outsigma' (INTEGER 4) () () 0 0 0 ()) (82 'prtdetail' (
INTEGER 4) (1 EXPLICIT (CONSTANT (INTEGER 4) 0 '1') (CONSTANT (INTEGER 4)
0 '6')) () 1 0 0 ()) (83 'timewin' (REAL 8) (1 EXPLICIT (CONSTANT (
INTEGER 4) 0 '1') (CONSTANT (INTEGER 4) 0 '2')) () 1 0 0 ()) (84 'deltat'
(INTEGER 4) () () 0 0 0 ()) (85 'iepoly' (INTEGER 4) () () 0 0 0 ()) (
86 'ietpoly' (DERIVED 52) (1 DEFERRED () ()) () 1 1 0 ()) (87 'iesico' (
INTEGER 4) () () 0 0 0 ()) (88 'ietsico' (DERIVED 52) (1 DEFERRED () ())
() 1 1 0 ()) (89 'iepsico' (REAL 8) (1 DEFERRED () ()) () 1 1 0 ()) (90
'iemrms' (REAL 8) () () 0 0 0 ()) (91 'iemobs' (INTEGER 4) () () 0 0 0 ())
(92 'dointer' (LOGICAL 4) () () 0 0 0 ()) (93 'doextra' (LOGICAL 4) () ()
0 0 0 ()) (94 'jumprms' (REAL 8) () () 0 0 0 ()) (95 'njmpsig' (INTEGER
4) () () 0 0 0 ()) (96 'njmpepo' (INTEGER 4) () () 0 0 0 ()) (97
'jmpdelsta' (LOGICAL 4) () () 0 0 0 ()) (98 'jmpdelsat' (LOGICAL 4) () ()
0 0 0 ()) (99 'njmppoly' (INTEGER 4) () () 0 0 0 ()) (100 'title' (
CHARACTER 1 ((CONSTANT (INTEGER 4) 0 '60'))) () () 0 0 0 ()) (101
'ninterval' (INTEGER 4) () () 0 0 0 ()) (102 'sumrms' (REAL 8) () () 0 0
0 ()) (103 'numdel' (INTEGER 4) () () 0 0 0 ()) (104 'maxrms' (REAL 8) ()
() 0 0 0 ()) (105 'maxdel' (INTEGER 4) () () 0 0 0 ()) (106 'maxrmsepo'
(CHARACTER 1 ((CONSTANT (INTEGER 4) 0 '19'))) (1 EXPLICIT (CONSTANT (
INTEGER 4) 0 '1') (CONSTANT (INTEGER 4) 0 '2')) () 1 0 0 ()) (107
'maxdelepo' (CHARACTER 1 ((CONSTANT (INTEGER 4) 0 '19'))) (1 EXPLICIT (
CONSTANT (INTEGER 4) 0 '1') (CONSTANT (INTEGER 4) 0 '2')) () 1 0 0 ()) (
108 'clkdata' (DERIVED 52) () () 0 0 0 ())) PUBLIC ())
4 'epo2' '' 13 ((VARIABLE UNKNOWN UNKNOWN UNKNOWN NONE NONE DUMMY) (
INTEGER 4) 0 0 () () () '' () ())
3 'epo1' '' 13 ((VARIABLE UNKNOWN UNKNOWN UNKNOWN NONE NONE DUMMY) (
INTEGER 4) 0 0 () () () '' () ())
)

('ccombo' 0 2 's_ccombo' 0 12)
