G95 module created on Thu Jun 25 17:44:54 2020 from ./.fpp/CESREF.f90
If you edit this, you'll get what you deserve.
module-version 9
(() () () () () () () () () () () () () () () () () () () () ())

()

()

()

()

(2 'cesref' 's_cesref' 1 ((PROCEDURE UNKNOWN MODULE-PROC DECL NONE NONE
SUBROUTINE) (PROCEDURE 0) 0 0 (3 NONE 4 NONE 5 NONE 6 NONE 7 NONE 8 NONE
9 NONE 10 NONE 11 NONE 12 NONE 13 NONE 14 NONE 15 NONE 16 NONE 17 NONE
18 NONE 19 NONE 20 NONE 21 NONE 22 NONE 23 NONE 24 NONE 25 NONE 26 NONE
27 NONE 28 NONE) () () '' () ())
29 's_cesref' 's_cesref' 1 ((MODULE UNKNOWN UNKNOWN UNKNOWN NONE NONE) (
UNKNOWN) 0 0 () () () '' () ())
28 'irc' '' 30 ((VARIABLE UNKNOWN UNKNOWN UNKNOWN NONE NONE DUMMY) (
INTEGER 4) 0 0 () () () '' () ())
27 'svnrf' '' 30 ((VARIABLE UNKNOWN UNKNOWN UNKNOWN NONE NONE DUMMY) (
INTEGER 4) 0 0 () () () '' () ())
26 'refclk' '' 30 ((VARIABLE UNKNOWN UNKNOWN UNKNOWN NONE NONE DUMMY) (
CHARACTER 1 ((CONSTANT (INTEGER 4) 0 '16'))) 0 0 () () () '' () ())
25 'islclk' '' 30 ((VARIABLE UNKNOWN UNKNOWN UNKNOWN NONE NONE DUMMY) (
INTEGER 4) 0 0 () () () '' () ())
24 'irfrnx' '' 30 ((VARIABLE UNKNOWN UNKNOWN UNKNOWN NONE NONE DUMMY) (
INTEGER 4) 0 0 () () () '' () ())
23 'irfsit' '' 30 ((VARIABLE UNKNOWN UNKNOWN UNKNOWN NONE NONE DUMMY) (
INTEGER 4) 0 0 () () () '' () ())
22 'irfsat' '' 30 ((VARIABLE UNKNOWN UNKNOWN UNKNOWN NONE NONE DUMMY) (
INTEGER 4) 0 0 () () () '' () ())
21 'mepsit' '' 30 ((VARIABLE UNKNOWN UNKNOWN UNKNOWN NONE NONE DIMENSION
DUMMY) (INTEGER 4) 0 0 () (2 ASSUMED_SHAPE () () () ()) () '' () ())
20 'ndfsit' '' 30 ((VARIABLE UNKNOWN UNKNOWN UNKNOWN NONE NONE DIMENSION
DUMMY) (INTEGER 4) 0 0 () (1 ASSUMED_SHAPE () ()) () '' () ())
19 'ncksit' '' 30 ((VARIABLE UNKNOWN UNKNOWN UNKNOWN NONE NONE DIMENSION
DUMMY) (INTEGER 4) 0 0 () (1 ASSUMED_SHAPE () ()) () '' () ())
18 'stanam' '' 30 ((VARIABLE UNKNOWN UNKNOWN UNKNOWN NONE NONE DIMENSION
DUMMY) (CHARACTER 1 ((CONSTANT (INTEGER 4) 0 '16'))) 0 0 () (1
ASSUMED_SHAPE () ()) () '' () ())
17 'nsta' '' 30 ((VARIABLE UNKNOWN UNKNOWN UNKNOWN NONE NONE DUMMY) (
INTEGER 4) 0 0 () () () '' () ())
16 'mepsat' '' 30 ((VARIABLE UNKNOWN UNKNOWN UNKNOWN NONE NONE DIMENSION
DUMMY) (INTEGER 4) 0 0 () (2 ASSUMED_SHAPE () () () ()) () '' () ())
15 'ndfsat' '' 30 ((VARIABLE UNKNOWN UNKNOWN UNKNOWN NONE NONE DIMENSION
DUMMY) (INTEGER 4) 0 0 () (1 ASSUMED_SHAPE () ()) () '' () ())
14 'ncksat' '' 30 ((VARIABLE UNKNOWN UNKNOWN UNKNOWN NONE NONE DIMENSION
DUMMY) (INTEGER 4) 0 0 () (1 ASSUMED_SHAPE () ()) () '' () ())
13 'svnnum' '' 30 ((VARIABLE UNKNOWN UNKNOWN UNKNOWN NONE NONE DIMENSION
DUMMY) (INTEGER 4) 0 0 () (1 ASSUMED_SHAPE () ()) () '' () ())
12 'nsvn' '' 30 ((VARIABLE UNKNOWN UNKNOWN UNKNOWN NONE NONE DUMMY) (
INTEGER 4) 0 0 () () () '' () ())
11 'epoch' '' 30 ((VARIABLE UNKNOWN UNKNOWN UNKNOWN NONE NONE DIMENSION
DUMMY) (REAL 8) 0 0 () (1 ASSUMED_SHAPE () ()) () '' () ())
10 'nepo' '' 30 ((VARIABLE UNKNOWN UNKNOWN UNKNOWN NONE NONE DUMMY) (
INTEGER 4) 0 0 () () () '' () ())
9 'inclkrec' '' 30 ((VARIABLE UNKNOWN UNKNOWN UNKNOWN NONE NONE DUMMY) (
DERIVED 31) 0 0 () () () '' () ())
31 't_clkrec' 'd_clkrnx' 30 ((DERIVED UNKNOWN UNKNOWN UNKNOWN NONE NONE)
(UNKNOWN) 0 0 () () () '' ((32 'iepo' (INTEGER 4) () () 0 0 0 ()) (33
'nepo' (INTEGER 4) () () 0 0 0 ()) (34 'epoch' (REAL 8) (1 DEFERRED () ())
() 1 1 0 ()) (35 'clock' (REAL 8) (2 DEFERRED () () () ()) () 1 1 0 ())
(36 'sigma' (REAL 8) (2 DEFERRED () () () ()) () 1 1 0 ()) (37 'clkflg'
(CHARACTER 1 ((CONSTANT (INTEGER 4) 0 '1'))) (2 DEFERRED () () () ()) ()
1 1 0 ())) PUBLIC ())
8 'inclkhead' '' 30 ((VARIABLE UNKNOWN UNKNOWN UNKNOWN NONE NONE DUMMY)
(DERIVED 38) 0 0 () () () '' () ())
38 't_clkhead' 'd_clkrnx' 30 ((DERIVED UNKNOWN UNKNOWN UNKNOWN NONE NONE)
(UNKNOWN) 0 0 () () () '' ((39 'rnxvers' (REAL 8) () () 0 0 0 ()) (40
'ncomment' (INTEGER 4) () () 0 0 0 ()) (41 'comment' (CHARACTER 1 ((
CONSTANT (INTEGER 4) 0 '60'))) (1 DEFERRED () ()) () 1 1 0 ()) (42
'prognam' (CHARACTER 1 ((CONSTANT (INTEGER 4) 0 '20'))) () () 0 0 0 ())
(43 'runby' (CHARACTER 1 ((CONSTANT (INTEGER 4) 0 '20'))) () () 0 0 0 ())
(44 'crdate' (CHARACTER 1 ((CONSTANT (INTEGER 4) 0 '20'))) () () 0 0 0 ())
(45 'leapsec' (INTEGER 4) () () 0 0 0 ()) (46 'numtyp' (INTEGER 4) () ()
0 0 0 ()) (47 'dattyp' (CHARACTER 1 ((CONSTANT (INTEGER 4) 0 '2'))) (1
DEFERRED () ()) () 1 1 0 ()) (48 'clk0name' (CHARACTER 1 ((CONSTANT (
INTEGER 4) 0 '16'))) () () 0 0 0 ()) (49 'calname' (CHARACTER 1 ((
CONSTANT (INTEGER 4) 0 '60'))) () () 0 0 0 ()) (50 'ac' (CHARACTER 1 ((
CONSTANT (INTEGER 4) 0 '3'))) () () 0 0 0 ()) (51 'acname' (CHARACTER 1
((CONSTANT (INTEGER 4) 0 '55'))) () () 0 0 0 ()) (52 'timsys' (
CHARACTER 1 ((CONSTANT (INTEGER 4) 0 '3'))) () () 0 0 0 ()) (53 'pgmnam'
(CHARACTER 1 ((CONSTANT (INTEGER 4) 0 '17'))) () () 0 0 0 ()) (54 'dcbstr'
(CHARACTER 1 ((CONSTANT (INTEGER 4) 0 '40'))) () () 0 0 0 ()) (55 'pcvstr'
(CHARACTER 1 ((CONSTANT (INTEGER 4) 0 '40'))) () () 0 0 0 ()) (56 'tfirst'
(REAL 8) () () 0 0 0 ()) (57 'numref' (INTEGER 4) () () 0 0 0 ()) (58
'ref' (DERIVED 59) (1 DEFERRED () ()) () 1 1 0 ()) (60 'trfname' (
CHARACTER 1 ((CONSTANT (INTEGER 4) 0 '50'))) () () 0 0 0 ()) (61 'nsta'
(INTEGER 4) () () 0 0 0 ()) (62 'nsat' (INTEGER 4) () () 0 0 0 ()) (63
'clkname' (CHARACTER 1 ((CONSTANT (INTEGER 4) 0 '16'))) (1 DEFERRED () ())
() 1 1 0 ()) (64 'stacoord' (REAL 8) (2 DEFERRED () () () ()) () 1 1 0 ()))
PUBLIC ())
59 't_ref' 'd_clkrnx' 30 ((DERIVED UNKNOWN UNKNOWN UNKNOWN NONE NONE) (
UNKNOWN) 0 0 () () () '' ((65 'nref' (INTEGER 4) () () 0 0 0 ()) (66 'clk'
(DERIVED 67) (1 DEFERRED () ()) () 1 1 0 ()) (68 'refwin' (DERIVED 69) ()
() 0 0 0 ())) PUBLIC ())
69 't_timint' 'm_time' 30 ((DERIVED UNKNOWN UNKNOWN UNKNOWN NONE NONE) (
UNKNOWN) 0 0 () () () '' ((70 't' (REAL 8) (1 EXPLICIT (CONSTANT (
INTEGER 4) 0 '1') (CONSTANT (INTEGER 4) 0 '2')) () 1 0 0 ())) PUBLIC ())
67 't_refclk' 'd_clkrnx' 30 ((DERIVED UNKNOWN UNKNOWN UNKNOWN NONE NONE)
(UNKNOWN) 0 0 () () () '' ((71 'name' (CHARACTER 1 ((CONSTANT (INTEGER 4)
0 '16'))) () () 0 0 0 ()) (72 'sigma' (REAL 8) () () 0 0 0 ()) (73 'idx'
(INTEGER 4) () () 0 0 0 ()) (74 'idx0' (INTEGER 4) () () 0 0 0 ()))
PUBLIC ())
7 'opt' '' 30 ((VARIABLE UNKNOWN UNKNOWN UNKNOWN NONE NONE DUMMY) (
DERIVED 75) 0 0 () () () '' () ())
75 't_clkopt' 'p_clkest' 30 ((DERIVED UNKNOWN UNKNOWN UNKNOWN NONE NONE)
(UNKNOWN) 0 0 () () () '' ((76 'nsampl' (INTEGER 4) () () 0 0 0 ()) (77
'lincom' (INTEGER 4) () () 0 0 0 ()) (78 'irfsel' (INTEGER 4) () () 0 0
0 ()) (79 'irfclk' (INTEGER 4) () () 0 0 0 ()) (80 'minsta' (INTEGER 4)
() () 0 0 0 ()) (81 'irelj2' (INTEGER 4) () () 0 0 0 ()) (82 'iextra' (
INTEGER 4) () () 0 0 0 ()) (83 'itropo' (INTEGER 4) () () 0 0 0 ()) (84
'chktrp' (INTEGER 4) () () 0 0 0 ()) (85 'cmbsel' (INTEGER 4) () () 0 0
0 ()) (86 'ifix' (INTEGER 4) () () 0 0 0 ()) (87 'allign' (INTEGER 4) ()
() 0 0 0 ()) (88 'maxitc' (INTEGER 4) () () 0 0 0 ()) (89 'maxitp' (
INTEGER 4) () () 0 0 0 ()) (90 'nocode' (INTEGER 4) () () 0 0 0 ()) (91
'remove' (INTEGER 4) () () 0 0 0 ()) (92 'ncom' (INTEGER 4) () () 0 0 0
()) (93 'nrfsta' (INTEGER 4) () () 0 0 0 ()) (94 'nrxsta' (INTEGER 4) ()
() 0 0 0 ()) (95 'clkwrt' (INTEGER 4) () () 0 0 0 ()) (96 'cpyrnx' (
INTEGER 4) () () 0 0 0 ()) (97 'delrnx' (INTEGER 4) () () 0 0 0 ()) (98
'clksel' (INTEGER 4) () () 0 0 0 ()) (99 'debug' (INTEGER 4) () () 0 0 0
()) (100 'maxzen' (REAL 8) () () 0 0 0 ()) (101 'omcmxc' (REAL 8) () ()
0 0 0 ()) (102 'aprsic' (REAL 8) () () 0 0 0 ()) (103 'resmxc' (REAL 8)
() () 0 0 0 ()) (104 'rmsmxc' (REAL 8) () () 0 0 0 ()) (105 'omcmax' (
REAL 8) () () 0 0 0 ()) (106 'aprsip' (REAL 8) () () 0 0 0 ()) (107
'resmxp' (REAL 8) () () 0 0 0 ()) (108 'rmsmxp' (REAL 8) () () 0 0 0 ())
(109 'dtfix' (REAL 8) () () 0 0 0 ()) (110 'dtsim' (REAL 8) () () 0 0 0
()) (111 'secipl' (REAL 8) () () 0 0 0 ()) (112 'epowin' (DERIVED 69) ()
() 0 0 0 ()) (113 'titclk' (CHARACTER 1 ((CONSTANT (INTEGER 4) 0 '80')))
() () 0 0 0 ()) (114 'runby' (CHARACTER 1 ((CONSTANT (INTEGER 4) 0 '20')))
() () 0 0 0 ()) (115 'ac' (CHARACTER 1 ((CONSTANT (INTEGER 4) 0 '3'))) ()
() 0 0 0 ()) (116 'acname' (CHARACTER 1 ((CONSTANT (INTEGER 4) 0 '55')))
() () 0 0 0 ()) (117 'timsys' (CHARACTER 1 ((CONSTANT (INTEGER 4) 0 '3')))
() () 0 0 0 ()) (118 'dcbstr' (CHARACTER 1 ((CONSTANT (INTEGER 4) 0 '40')))
() () 0 0 0 ()) (119 'coment' (CHARACTER 1 ((CONSTANT (INTEGER 4) 0 '60')))
(1 DEFERRED () ()) () 1 1 0 ()) (120 'refsta' (CHARACTER 1 ((CONSTANT (
INTEGER 4) 0 '4'))) (1 DEFERRED () ()) () 1 1 0 ()) (121 'rnxsta' (
CHARACTER 1 ((CONSTANT (INTEGER 4) 0 '4'))) (1 DEFERRED () ()) () 1 1 0
()) (122 'refclk' (CHARACTER 1 ((CONSTANT (INTEGER 4) 0 '4'))) () () 0 0
0 ())) PUBLIC ())
6 'ipref' '' 30 ((VARIABLE UNKNOWN UNKNOWN UNKNOWN NONE NONE DUMMY) (
INTEGER 4) 0 0 () () () '' () ())
5 'irnx' '' 30 ((VARIABLE UNKNOWN UNKNOWN UNKNOWN NONE NONE DUMMY) (
INTEGER 4) 0 0 () () () '' () ())
4 'icond' '' 30 ((VARIABLE UNKNOWN UNKNOWN UNKNOWN NONE NONE DUMMY) (
INTEGER 4) 0 0 () () () '' () ())
3 'isel' '' 30 ((VARIABLE UNKNOWN UNKNOWN UNKNOWN NONE NONE DUMMY) (
INTEGER 4) 0 0 () () () '' () ())
)

('cesref' 0 2 's_cesref' 0 29)
