G95 module created on Thu Jun 25 17:44:35 2020 from ./.fpp/CHMANUAL.f90
If you edit this, you'll get what you deserve.
module-version 9
(() () () () () () () () () () () () () () () () () () () () ())

()

()

()

()

(2 'chmanual' 's_chmanual' 1 ((PROCEDURE UNKNOWN MODULE-PROC DECL NONE
NONE SUBROUTINE) (PROCEDURE 0) 0 0 (3 NONE 4 NONE 5 NONE 6 NONE 7 NONE 8
NONE 9 NONE) () () '' () ())
10 's_chmanual' 's_chmanual' 1 ((MODULE UNKNOWN UNKNOWN UNKNOWN NONE
NONE) (UNKNOWN) 0 0 () () () '' () ())
9 'ircode' '' 11 ((VARIABLE UNKNOWN UNKNOWN UNKNOWN NONE NONE DUMMY) (
INTEGER 4) 0 0 () () () '' () ())
8 'obshead' '' 11 ((VARIABLE UNKNOWN UNKNOWN UNKNOWN NONE NONE DUMMY) (
DERIVED 12) 0 0 () () () '' () ())
12 't_obshead' 'd_gpsobs' 11 ((DERIVED UNKNOWN UNKNOWN UNKNOWN NONE NONE)
(UNKNOWN) 0 0 () () () '' ((13 'campgn' (CHARACTER 1 ((CONSTANT (
INTEGER 4) 0 '16'))) () () 0 0 0 ()) (14 'title' (CHARACTER 1 ((
CONSTANT (INTEGER 4) 0 '53'))) () () 0 0 0 ()) (15 'irmark' (INTEGER 4)
() () 0 0 0 ()) (16 'ifrmat' (INTEGER 4) () () 0 0 0 ()) (17 'csess' (
CHARACTER 1 ((CONSTANT (INTEGER 4) 0 '4'))) (1 EXPLICIT (CONSTANT (
INTEGER 4) 0 '1') (CONSTANT (INTEGER 4) 0 '2')) () 1 0 0 ()) (18 'crdate'
(CHARACTER 1 ((CONSTANT (INTEGER 4) 0 '9'))) (1 EXPLICIT (CONSTANT (
INTEGER 4) 0 '1') (CONSTANT (INTEGER 4) 0 '2')) () 1 0 0 ()) (19 'crtime'
(CHARACTER 1 ((CONSTANT (INTEGER 4) 0 '5'))) (1 EXPLICIT (CONSTANT (
INTEGER 4) 0 '1') (CONSTANT (INTEGER 4) 0 '2')) () 1 0 0 ()) (20 'timref'
(REAL 8) () () 0 0 0 ()) (21 'ideltt' (INTEGER 4) () () 0 0 0 ()) (22
'meatyp' (INTEGER 4) () () 0 0 0 ()) (23 'ndiff' (INTEGER 4) () () 0 0 0
()) (24 'nfreq' (INTEGER 4) () () 0 0 0 ()) (25 'nepoch' (INTEGER 4) ()
() 0 0 0 ()) (26 'numamb' (INTEGER 4) () () 0 0 0 ()) (27 'nsatel' (
INTEGER 4) () () 0 0 0 ()) (28 'nepflg' (INTEGER 4) () () 0 0 0 ()) (29
'sta' (DERIVED 30) (1 EXPLICIT (CONSTANT (INTEGER 4) 0 '1') (CONSTANT (
INTEGER 4) 0 '2')) () 1 0 0 ()) (31 'sat' (DERIVED 32) (1 DEFERRED () ())
() 1 1 0 ()) (33 'ambigu' (DERIVED 34) (1 DEFERRED () ()) () 1 1 0 ()))
PUBLIC ())
34 't_ambigu' 'd_ambigu' 11 ((DERIVED UNKNOWN UNKNOWN UNKNOWN NONE NONE)
(UNKNOWN) 0 0 () () () '' ((35 'ambigu' (REAL 8) (1 EXPLICIT (CONSTANT (
INTEGER 4) 0 '1') (CONSTANT (INTEGER 4) 0 '3')) () 1 0 0 ()) (36 'ambsat'
(INTEGER 4) () () 0 0 0 ()) (37 'ambiep' (INTEGER 4) () () 0 0 0 ()) (
38 'ambwlf' (INTEGER 4) (1 EXPLICIT (CONSTANT (INTEGER 4) 0 '1') (
CONSTANT (INTEGER 4) 0 '2')) () 1 0 0 ()) (39 'ambcls' (INTEGER 4) (1
EXPLICIT (CONSTANT (INTEGER 4) 0 '1') (CONSTANT (INTEGER 4) 0 '3')) () 1
0 0 ()) (40 'solved' (LOGICAL 4) () () 0 0 0 ())) PUBLIC ())
32 't_sat' 'd_gpsobs' 11 ((DERIVED UNKNOWN UNKNOWN UNKNOWN NONE NONE) (
UNKNOWN) 0 0 () () () '' ((41 'numsat' (INTEGER 4) () () 0 0 0 ()) (42
'numobs' (INTEGER 4) (1 EXPLICIT (CONSTANT (INTEGER 4) 0 '1') (CONSTANT
(INTEGER 4) 0 '2')) () 1 0 0 ()) (43 'nummrk' (INTEGER 4) (1 EXPLICIT (
CONSTANT (INTEGER 4) 0 '1') (CONSTANT (INTEGER 4) 0 '2')) () 1 0 0 ()) (
44 'obstyp' (CHARACTER 1 ((CONSTANT (INTEGER 4) 0 '3'))) (1 EXPLICIT (
CONSTANT (INTEGER 4) 0 '1') (CONSTANT (INTEGER 4) 0 '8')) () 1 0 0 ()))
PUBLIC ())
30 't_sta' 'd_gpsobs' 11 ((DERIVED UNKNOWN UNKNOWN UNKNOWN NONE NONE) (
UNKNOWN) 0 0 () () () '' ((45 'stanam' (CHARACTER 1 ((CONSTANT (INTEGER
4) 0 '16'))) () () 0 0 0 ()) (46 'oprnam' (CHARACTER 1 ((CONSTANT (
INTEGER 4) 0 '20'))) () () 0 0 0 ()) (47 'rectyp' (CHARACTER 1 ((
CONSTANT (INTEGER 4) 0 '20'))) () () 0 0 0 ()) (48 'irunit' (INTEGER 4)
() () 0 0 0 ()) (49 'anttyp' (CHARACTER 1 ((CONSTANT (INTEGER 4) 0 '20')))
() () 0 0 0 ()) (50 'ianten' (INTEGER 4) () () 0 0 0 ()) (51 'posecc' (
REAL 8) (1 EXPLICIT (CONSTANT (INTEGER 4) 0 '1') (CONSTANT (INTEGER 4) 0
'3')) () 1 0 0 ()) (52 'iclock' (INTEGER 4) () () 0 0 0 ())) PUBLIC ())
7 'chreal' '' 11 ((VARIABLE UNKNOWN UNKNOWN UNKNOWN NONE NONE DIMENSION
POINTER DUMMY) (DERIVED 53) 0 0 () (1 DEFERRED () ()) () '' () ())
53 't_chghed_real' 'p_chghed' 11 ((DERIVED UNKNOWN UNKNOWN UNKNOWN NONE
NONE) (UNKNOWN) 0 0 () () () '' ((54 'reaold' (REAL 8) () () 0 0 0 ()) (
55 'reanew' (REAL 8) () () 0 0 0 ())) PUBLIC ())
6 'chgint' '' 11 ((VARIABLE UNKNOWN UNKNOWN UNKNOWN NONE NONE DIMENSION
POINTER DUMMY) (DERIVED 56) 0 0 () (1 DEFERRED () ()) () '' () ())
56 't_chghed_int' 'p_chghed' 11 ((DERIVED UNKNOWN UNKNOWN UNKNOWN NONE
NONE) (UNKNOWN) 0 0 () () () '' ((57 'intold' (INTEGER 4) () () 0 0 0 ())
(58 'intnew' (INTEGER 4) () () 0 0 0 ())) PUBLIC ())
5 'chgchr' '' 11 ((VARIABLE UNKNOWN UNKNOWN UNKNOWN NONE NONE DIMENSION
POINTER DUMMY) (DERIVED 59) 0 0 () (1 DEFERRED () ()) () '' () ())
59 't_chghed_chr' 'p_chghed' 11 ((DERIVED UNKNOWN UNKNOWN UNKNOWN NONE
NONE) (UNKNOWN) 0 0 () () () '' ((60 'chrold' (CHARACTER 1 ((CONSTANT (
INTEGER 4) 0 '20'))) () () 0 0 0 ()) (61 'chrnew' (CHARACTER 1 ((
CONSTANT (INTEGER 4) 0 '20'))) () () 0 0 0 ())) PUBLIC ())
4 'titnew' '' 11 ((VARIABLE UNKNOWN UNKNOWN UNKNOWN NONE NONE DUMMY) (
CHARACTER 1 ((CONSTANT (INTEGER 4) 0 '53'))) 0 0 () () () '' () ())
3 'opt' '' 11 ((VARIABLE UNKNOWN UNKNOWN UNKNOWN NONE NONE DIMENSION
DUMMY) (DERIVED 62) 0 0 () (1 ASSUMED_SHAPE () ()) () '' () ())
62 't_chghed' 'p_chghed' 11 ((DERIVED UNKNOWN UNKNOWN UNKNOWN NONE NONE)
(UNKNOWN) 0 0 () () () '' ((63 'ioptio' (INTEGER 4) () () 0 0 0 ()) (64
'optany' (INTEGER 4) () () 0 0 0 ()) (65 'text' (CHARACTER 1 ((CONSTANT
(INTEGER 4) 0 '20'))) () () 0 0 0 ()) (66 'keylist' (CHARACTER 1 ((
CONSTANT (INTEGER 4) 0 '32'))) (1 EXPLICIT (CONSTANT (INTEGER 4) 0 '1')
(CONSTANT (INTEGER 4) 0 '3')) () 1 0 0 ()) (67 'idxchr' (INTEGER 4) () ()
0 0 0 ()) (68 'idxint' (INTEGER 4) () () 0 0 0 ()) (69 'idxrea' (
INTEGER 4) () () 0 0 0 ())) PUBLIC ())
)

('chmanual' 0 2 's_chmanual' 0 10)
