G95 module created on Thu Jun 25 17:43:58 2020 from ./.fpp/COS2SLR.f90
If you edit this, you'll get what you deserve.
module-version 9
(() () () () () () () () () () () () () () () () () () () () ())

()

()

()

()

(2 'cos2slr' 's_cos2slr' 1 ((PROCEDURE UNKNOWN MODULE-PROC DECL NONE
NONE SUBROUTINE) (PROCEDURE 0) 0 0 (3 NONE 4 NONE) () () '' () ())
5 's_cos2slr' 's_cos2slr' 1 ((MODULE UNKNOWN UNKNOWN UNKNOWN NONE NONE)
(UNKNOWN) 0 0 () () () '' () ())
4 'slrcos' '' 6 ((VARIABLE UNKNOWN UNKNOWN UNKNOWN NONE NONE DUMMY) (
CHARACTER 1 ((CONSTANT (INTEGER 4) 0 '7'))) 0 0 () () () '' () ())
3 'cospar' '' 6 ((VARIABLE UNKNOWN UNKNOWN UNKNOWN NONE NONE DUMMY) (
CHARACTER 1 ((CONSTANT (INTEGER 4) 0 '9'))) 0 0 () () () '' () ())
)

('cos2slr' 0 2 's_cos2slr' 0 5)
