G95 module created on Thu Jun 25 17:45:31 2020 from ./.fpp/CRDGTREC.f90
If you edit this, you'll get what you deserve.
module-version 9
(() () () () () () () () () () () () () () () () () () () () ())

()

()

()

()

(2 'crdgtrec' 's_crdgtrec' 1 ((PROCEDURE UNKNOWN MODULE-PROC DECL NONE
NONE SUBROUTINE) (PROCEDURE 0) 0 0 (3 NONE 4 NONE 5 NONE 6 NONE 7 NONE)
() () '' () ())
8 's_crdgtrec' 's_crdgtrec' 1 ((MODULE UNKNOWN UNKNOWN UNKNOWN NONE NONE)
(UNKNOWN) 0 0 () () () '' () ())
7 'qlobs' '' 9 ((VARIABLE UNKNOWN UNKNOWN UNKNOWN NONE NONE DUMMY) (
DERIVED 10) 0 0 () () () '' () ())
10 't_qlobs' 'd_qlfil' 9 ((DERIVED UNKNOWN UNKNOWN UNKNOWN NONE NONE) (
UNKNOWN) 0 0 () () () '' ((11 'iwlfac' (INTEGER 4) (1 EXPLICIT (
CONSTANT (INTEGER 4) 0 '1') (CONSTANT (INTEGER 4) 0 '2')) () 1 0 0 ()) (
12 'cdps' (INTEGER 4) () () 0 0 0 ()) (13 'cdpo' (INTEGER 4) () () 0 0 0
()) (14 'timsy' (INTEGER 4) () () 0 0 0 ()) (15 'syscf' (INTEGER 4) () ()
0 0 0 ()) (16 'revnr' (INTEGER 4) () () 0 0 0 ()) (17 'qlrec' (DERIVED
18) (1 DEFERRED () ()) () 1 1 0 ())) PUBLIC ())
18 't_qlrec' 'd_qlfil' 9 ((DERIVED UNKNOWN UNKNOWN UNKNOWN NONE NONE) (
UNKNOWN) 0 0 () () () '' ((19 'satnr' (INTEGER 4) () () 0 0 0 ()) (20
'iobstp' (INTEGER 4) () () 0 0 0 ()) (21 'numnpt' (INTEGER 4) () () 0 0
0 ()) (22 'llinpt' (INTEGER 4) () () 0 0 0 ()) (23 'range' (REAL 8) () ()
0 0 0 ()) (24 'epoch' (REAL 8) (1 EXPLICIT (CONSTANT (INTEGER 4) 0 '1')
(CONSTANT (INTEGER 4) 0 '2')) () 1 0 0 ()) (25 'press' (REAL 8) () () 0
0 0 ()) (26 'temp' (REAL 8) () () 0 0 0 ()) (27 'humid' (REAL 8) () () 0
0 0 ()) (28 'versnr' (INTEGER 4) () () 0 0 0 ())) PUBLIC ())
6 'nrec' '' 9 ((VARIABLE UNKNOWN UNKNOWN UNKNOWN NONE NONE DUMMY) (
INTEGER 4) 0 0 () () () '' () ())
5 'stanam' '' 9 ((VARIABLE UNKNOWN UNKNOWN UNKNOWN NONE NONE DUMMY) (
CHARACTER 1 ((CONSTANT (INTEGER 4) 0 '4'))) 0 0 () () () '' () ())
4 'window' '' 9 ((VARIABLE UNKNOWN UNKNOWN UNKNOWN NONE NONE DIMENSION
DUMMY) (REAL 8) 0 0 () (1 EXPLICIT (CONSTANT (INTEGER 4) 0 '1') (
CONSTANT (INTEGER 4) 0 '2')) () '' () ())
3 'lfnscr' '' 9 ((VARIABLE UNKNOWN UNKNOWN UNKNOWN NONE NONE DUMMY) (
INTEGER 4) 0 0 () () () '' () ())
)

('crdgtrec' 0 2 's_crdgtrec' 0 8)
