G95 module created on Thu Jun 25 17:45:17 2020 from ./.fpp/DEQVR1.f
If you edit this, you'll get what you deserve.
module-version 9
(() () () () () () () () () () () () () () () () () () () () ())

()

()

()

()

(2 'deqvr1' 's_deqvr1' 1 ((PROCEDURE UNKNOWN MODULE-PROC DECL NONE NONE
SUBROUTINE) (PROCEDURE 0) 0 0 (3 NONE 4 NONE 5 NONE 6 NONE 7 NONE) () ()
'' () ())
8 's_deqvr1' 's_deqvr1' 1 ((MODULE UNKNOWN UNKNOWN UNKNOWN NONE NONE) (
UNKNOWN) 0 0 () () () '' () ())
7 'act_sat' '' 9 ((VARIABLE UNKNOWN UNKNOWN UNKNOWN NONE NONE OPTIONAL
DUMMY) (INTEGER 4) 0 0 () () () '' () ())
6 'stdorb' '' 9 ((VARIABLE UNKNOWN UNKNOWN UNKNOWN NONE NONE DIMENSION
OPTIONAL DUMMY) (DERIVED 10) 0 0 () (1 ASSUMED_SHAPE () ()) () '' () ())
10 't_stdorb' 's_stdorbit_t' 9 ((DERIVED UNKNOWN UNKNOWN UNKNOWN NONE
NONE) (UNKNOWN) 0 0 () () () '' ((11 'version' (INTEGER 4) () () 0 0 0 (
CONSTANT (INTEGER 4) 0 '2')) (12 'title' (CHARACTER 1 ((CONSTANT (
INTEGER 4) 0 '255'))) () () 0 0 0 (CONSTANT (CHARACTER 1 ((CONSTANT (
INTEGER 4) 0 '255'))) 0 255
'                                                                                                                                                                                                                                                               '))
(13 'useoldgetorb' (LOGICAL 4) () () 0 0 0 (CONSTANT (LOGICAL 4) 0 0)) (
14 'moddesc' (DERIVED 15) (1 DEFERRED () ()) () 1 1 0 (NULL (DERIVED 15)
1)) (16 'orbarc' (DERIVED 17) (1 DEFERRED () ()) () 1 1 0 (NULL (
DERIVED 17) 1)) (18 'par' (DERIVED 19) (1 DEFERRED () ()) () 1 1 0 (
NULL (DERIVED 19) 1)) (20 'estpar' (DERIVED 21) (1 DEFERRED () ()) () 1
1 0 (NULL (DERIVED 21) 1)) (22 'eststc' (DERIVED 23) (1 DEFERRED () ())
() 1 1 0 (NULL (DERIVED 23) 1)) (24 'orbarcpart' (DERIVED 17) (1
DEFERRED () ()) () 1 1 0 (NULL (DERIVED 17) 1))) PUBLIC ())
23 't_stoch' 's_stdorbit_t' 9 ((DERIVED UNKNOWN UNKNOWN UNKNOWN NONE
NONE) (UNKNOWN) 0 0 () () () '' ((25 'typ' (CHARACTER 1 ((CONSTANT (
INTEGER 4) 0 '1'))) () () 0 0 0 ()) (26 'comp' (CHARACTER 1 ((CONSTANT (
INTEGER 4) 0 '1'))) () () 0 0 0 ()) (27 'left' (REAL 8) () () 0 0 0 (
CONSTANT (REAL 8) 0 '0' 0 0)) (28 'right' (REAL 8) () () 0 0 0 (
CONSTANT (REAL 8) 0 '0' 0 0)) (29 'value' (REAL 8) () () 0 0 0 (
CONSTANT (REAL 8) 0 '0' 0 0)) (30 'deds' (REAL 8) (1 EXPLICIT (CONSTANT
(INTEGER 4) 0 '1') (CONSTANT (INTEGER 4) 0 '6')) () 1 0 0 (CONSTANT (
REAL 8) 0 '0' 0 0)) (31 'de' (REAL 8) (1 EXPLICIT (CONSTANT (INTEGER 4)
0 '1') (CONSTANT (INTEGER 4) 0 '6')) () 1 0 0 (CONSTANT (REAL 8) 0 '0' 0
0))) PUBLIC ())
21 't_estpar' 's_stdorbit_t' 9 ((DERIVED UNKNOWN UNKNOWN UNKNOWN NONE
NONE) (UNKNOWN) 0 0 () () () '' ((32 'locq' (INTEGER 4) (1 EXPLICIT (
CONSTANT (INTEGER 4) 0 '1') (CONSTANT (INTEGER 4) 0 '7')) () 1 0 0 (
CONSTANT (INTEGER 4) 0 '0')) (33 'name' (CHARACTER 1 ((CONSTANT (
INTEGER 4) 0 '16'))) () () 0 0 0 (CONSTANT (CHARACTER 1 ((CONSTANT (
INTEGER 4) 0 '16'))) 0 16 '                ')) (34 'time' (DERIVED 35) ()
() 0 0 0 ()) (36 'x0' (REAL 8) () () 0 0 0 (CONSTANT (REAL 8) 0 '0' 0 0))
(37 'dx' (REAL 8) () () 0 0 0 (CONSTANT (REAL 8) 0 '0' 0 0)) (38 'scale'
(REAL 8) () () 0 0 0 (CONSTANT (REAL 8) 0 '4503599627370496' 0 1023)))
PUBLIC ())
35 't_time' 'm_time' 9 ((DERIVED UNKNOWN UNKNOWN UNKNOWN NONE NONE
SEQUENCE) (UNKNOWN) 0 0 () () () '' ((39 'mean' (REAL 8) () () 0 0 0 ())
(40 'half' (REAL 8) () () 0 0 0 ())) PUBLIC ())
19 't_par' 'd_par' 9 ((DERIVED UNKNOWN UNKNOWN UNKNOWN NONE NONE) (
UNKNOWN) 0 0 () () () '' ((41 'locq' (INTEGER 4) (1 EXPLICIT (CONSTANT (
INTEGER 4) 0 '1') (CONSTANT (INTEGER 4) 0 '7')) () 1 0 0 ()) (42 'name'
(CHARACTER 1 ((CONSTANT (INTEGER 4) 0 '20'))) () () 0 0 0 ()) (43 'time'
(DERIVED 35) () () 0 0 0 ()) (44 'x0' (REAL 8) () () 0 0 0 ()) (45 'scale'
(REAL 8) () () 0 0 0 ()) (46 'techn' (CHARACTER 1 ((CONSTANT (INTEGER 4)
0 '1'))) (1 EXPLICIT (CONSTANT (INTEGER 4) 0 '1') (CONSTANT (INTEGER 4)
0 '2')) () 1 0 0 ()) (47 'obstim' (DERIVED 48) () () 0 0 0 ()) (49 'type'
(CHARACTER 1 ((CONSTANT (INTEGER 4) 0 '2'))) () () 0 0 0 ()) (50 'omega'
(REAL 8) () () 0 0 0 ())) PUBLIC ())
48 't_timint' 'm_time' 9 ((DERIVED UNKNOWN UNKNOWN UNKNOWN NONE NONE) (
UNKNOWN) 0 0 () () () '' ((51 't' (REAL 8) (1 EXPLICIT (CONSTANT (
INTEGER 4) 0 '1') (CONSTANT (INTEGER 4) 0 '2')) () 1 0 0 ())) PUBLIC ())
17 't_orbarc' 's_stdorbit_t' 9 ((DERIVED UNKNOWN UNKNOWN UNKNOWN NONE
NONE) (UNKNOWN) 0 0 () () () '' ((52 'sys' (CHARACTER 1 ((CONSTANT (
INTEGER 4) 0 '1'))) () () 0 0 0 (CONSTANT (CHARACTER 1 ((CONSTANT (
INTEGER 4) 0 '1'))) 0 1 'G')) (53 'svn' (INTEGER 4) () () 0 0 0 (
CONSTANT (INTEGER 4) 0 '0')) (54 'man' (INTEGER 4) () () 0 0 0 (
CONSTANT (INTEGER 4) 0 '0')) (55 'twin' (DERIVED 56) () () 0 0 0 ()) (
57 'moddesc' (DERIVED 15) (1 DEFERRED () ()) () 1 1 0 (NULL (DERIVED 15)
1)) (58 'orbint' (DERIVED 59) (1 DEFERRED () ()) () 1 1 0 (NULL (
DERIVED 59) 1)) (60 'stoch' (DERIVED 23) (1 DEFERRED () ()) () 1 1 0 (
NULL (DERIVED 23) 1))) PUBLIC ())
59 't_orbint' 's_stdorbit_t' 9 ((DERIVED UNKNOWN UNKNOWN UNKNOWN NONE
NONE) (UNKNOWN) 0 0 () () () '' ((61 'left' (REAL 8) () () 0 0 0 (
CONSTANT (REAL 8) 0 '0' 0 0)) (62 'right' (REAL 8) () () 0 0 0 (
CONSTANT (REAL 8) 0 '0' 0 0)) (63 'shadow' (LOGICAL 4) () () 0 0 0 ()) (
64 'hh' (REAL 8) () () 0 0 0 ()) (65 't0' (REAL 8) () () 0 0 0 ()) (66
'qq' (INTEGER 4) () () 0 0 0 ()) (67 'rcoe' (REAL 8) (2 DEFERRED () () ()
()) () 1 1 0 (NULL (REAL 8) 2)) (68 'drdecoe' (REAL 8) (3 DEFERRED () ()
() () () ()) () 1 1 0 (NULL (REAL 8) 3)) (69 'drdscoe' (REAL 8) (3
DEFERRED () () () () () ()) () 1 1 0 (NULL (REAL 8) 3))) PUBLIC ())
56 't_timwin' 'm_epoch' 9 ((DERIVED UNKNOWN UNKNOWN UNKNOWN NONE NONE) (
UNKNOWN) 0 0 () () () '' ((70 't' (DERIVED 71) (1 EXPLICIT (CONSTANT (
INTEGER 4) 0 '1') (CONSTANT (INTEGER 4) 0 '2')) () 1 0 0 ())) PUBLIC ())
71 't_epoch' 'm_epoch' 9 ((DERIVED UNKNOWN UNKNOWN UNKNOWN NONE NONE) (
UNKNOWN) 0 0 () () () '' ((72 'day' (INTEGER 4) () () 0 0 0 ()) (73 'frac'
(REAL 8) () () 0 0 0 ())) PUBLIC ())
15 't_key' 'm_bern' 9 ((DERIVED UNKNOWN UNKNOWN UNKNOWN NONE NONE) (
UNKNOWN) 0 0 () () () '' ((74 'name' (CHARACTER 1 ((CONSTANT (INTEGER 4)
0 '32'))) () () 0 0 0 ()) (75 'value' (CHARACTER 1 ((CONSTANT (INTEGER 4)
0 '255'))) (1 DEFERRED () ()) () 1 1 0 ())) PUBLIC ())
5 'satpos' '' 9 ((VARIABLE UNKNOWN UNKNOWN UNKNOWN NONE NONE DIMENSION
OPTIONAL DUMMY) (DERIVED 76) 0 0 () (1 ASSUMED_SHAPE () ()) () '' () ())
76 't_satpos' 's_stdorbit_t' 9 ((DERIVED UNKNOWN UNKNOWN UNKNOWN NONE
NONE) (UNKNOWN) 0 0 () () () '' ((77 'sys' (CHARACTER 1 ((CONSTANT (
INTEGER 4) 0 '1'))) () () 0 0 0 (CONSTANT (CHARACTER 1 ((CONSTANT (
INTEGER 4) 0 '1'))) 0 1 'G')) (78 'svn' (INTEGER 4) () () 0 0 0 (
CONSTANT (INTEGER 4) 0 '0')) (79 'epoch' (DERIVED 71) () () 0 0 0 ()) (
80 'xv' (REAL 8) (2 DEFERRED () () () ()) () 1 1 0 (NULL (REAL 8) 2)) (
81 'dxvdele' (REAL 8) (3 DEFERRED () () () () () ()) () 1 1 0 (NULL (
REAL 8) 3)) (82 'dxvdp' (REAL 8) (2 DEFERRED () () () ()) () 1 1 0 (
NULL (REAL 8) 2))) PUBLIC ())
4 'rhs' '' 9 ((VARIABLE UNKNOWN UNKNOWN UNKNOWN NONE NONE DIMENSION
DUMMY) (REAL 8) 0 0 () (1 ASSUMED_SIZE (CONSTANT (INTEGER 4) 0 '1') ())
() '' () ())
3 'tmjd' '' 9 ((VARIABLE UNKNOWN UNKNOWN UNKNOWN NONE NONE DUMMY) (REAL
8) 0 0 () () () '' () ())
)

('deqvr1' 0 2 's_deqvr1' 0 8)
