G95 module created on Thu Jun 25 17:44:27 2020 from ./.fpp/DIFCOMP.f90
If you edit this, you'll get what you deserve.
module-version 9
(() () () () () () () () () () () () () () () () () () () () ())

()

()

()

()

(2 'difcomp' 's_difcomp' 1 ((PROCEDURE UNKNOWN MODULE-PROC DECL NONE
NONE SUBROUTINE) (PROCEDURE 0) 0 0 (3 NONE 4 NONE 5 NONE 6 NONE) () () ''
() ())
7 's_difcomp' 's_difcomp' 1 ((MODULE UNKNOWN UNKNOWN UNKNOWN NONE NONE)
(UNKNOWN) 0 0 () () () '' () ())
6 'dx' '' 8 ((VARIABLE UNKNOWN UNKNOWN UNKNOWN NONE NONE DIMENSION DUMMY)
(DERIVED 9) 0 0 () (1 EXPLICIT (CONSTANT (INTEGER 4) 0 '1') (VARIABLE (
INTEGER 4) 0 4 ((COMPONENT 10 'misc') (COMPONENT 11 'npar')))) () '' ()
())
11 't_misc' 'd_neq' 8 ((DERIVED UNKNOWN UNKNOWN UNKNOWN NONE NONE) (
UNKNOWN) 0 0 () () () '' ((12 'title' (CHARACTER 1 ((CONSTANT (INTEGER 4)
0 '132'))) (1 EXPLICIT (CONSTANT (INTEGER 4) 0 '1') (CONSTANT (INTEGER 4)
0 '2')) () 1 0 0 ()) (13 'datum' (CHARACTER 1 ((CONSTANT (INTEGER 4) 0
'16'))) () () 0 0 0 ()) (14 'nutmod' (CHARACTER 1 ((CONSTANT (INTEGER 4)
0 '16'))) () () 0 0 0 ()) (15 'submod' (CHARACTER 1 ((CONSTANT (INTEGER
4) 0 '16'))) () () 0 0 0 ()) (16 'orbfil' (CHARACTER 1 ((CONSTANT (
INTEGER 4) 0 '32'))) (1 EXPLICIT (CONSTANT (INTEGER 4) 0 '1') (CONSTANT
(INTEGER 4) 0 '2')) () 1 0 0 ()) (17 'gravfil' (CHARACTER 1 ((CONSTANT (
INTEGER 4) 0 '32'))) () () 0 0 0 ()) (18 'nobs' (REAL 8) () () 0 0 0 ())
(19 'npar' (INTEGER 4) () () 0 0 0 ()) (20 'ltpl' (REAL 8) () () 0 0 0 ())
(21 'nparms' (REAL 8) () () 0 0 0 ()) (22 'npseu' (INTEGER 4) () () 0 0
0 ()) (23 'npseuel' (INTEGER 4) () () 0 0 0 ()) (24 'nftot' (INTEGER 4)
() () 0 0 0 ()) (25 'nsmpnq' (INTEGER 4) () () 0 0 0 ()) (26 'ielvnq' (
INTEGER 4) () () 0 0 0 ()) (27 'itropo' (INTEGER 4) () () 0 0 0 ()) (28
'iextra' (INTEGER 4) () () 0 0 0 ()) (29 'itrmap' (INTEGER 4) () () 0 0
0 ()) (30 'itrgrd' (INTEGER 4) () () 0 0 0 ()) (31 'nanoff' (INTEGER 4)
() () 0 0 0 ()) (32 'nsaoff' (INTEGER 4) (1 EXPLICIT (CONSTANT (INTEGER
4) 0 '1') (CONSTANT (INTEGER 4) 0 '260')) () 1 0 0 ()) (33 'satoff' (
INTEGER 4) (2 EXPLICIT (CONSTANT (INTEGER 4) 0 '1') (CONSTANT (INTEGER 4)
0 '130') (CONSTANT (INTEGER 4) 0 '1') (CONSTANT (INTEGER 4) 0 '260')) ()
1 0 0 ()) (34 'nstat_sinex' (INTEGER 4) () () 0 0 0 ()) (35 'sinex' (
DERIVED 36) (1 EXPLICIT (CONSTANT (INTEGER 4) 0 '1') (CONSTANT (INTEGER
4) 0 '2000')) () 1 0 0 ()) (37 'grdneq' (CHARACTER 1 ((CONSTANT (
INTEGER 4) 0 '12'))) (1 EXPLICIT (CONSTANT (INTEGER 4) 0 '1') (CONSTANT
(INTEGER 4) 0 '3')) () 1 0 0 ()) (38 'nobst' (INTEGER 4) () () 0 0 0 ())
(39 'obst' (DERIVED 40) (1 EXPLICIT (CONSTANT (INTEGER 4) 0 '1') (
CONSTANT (INTEGER 4) 0 '30000')) () 1 0 0 ())) PUBLIC ())
40 't_obst' 'd_neq' 8 ((DERIVED UNKNOWN UNKNOWN UNKNOWN NONE NONE) (
UNKNOWN) 0 0 () () () '' ((41 'obstyp' (CHARACTER 1 ((CONSTANT (INTEGER
4) 0 '3'))) (1 EXPLICIT (CONSTANT (INTEGER 4) 0 '1') (CONSTANT (INTEGER
4) 0 '4')) () 1 0 0 ())) PUBLIC ())
36 't_sinex' 'd_neq' 8 ((DERIVED UNKNOWN UNKNOWN UNKNOWN NONE NONE) (
UNKNOWN) 0 0 () () () '' ((42 'timint' (DERIVED 43) () () 0 0 0 ()) (44
'stname' (CHARACTER 1 ((CONSTANT (INTEGER 4) 0 '16'))) () () 0 0 0 ()) (
45 'antecc' (REAL 8) (1 EXPLICIT (CONSTANT (INTEGER 4) 0 '1') (CONSTANT
(INTEGER 4) 0 '3')) () 1 0 0 ()) (46 'antpcv' (DERIVED 47) (1 EXPLICIT (
CONSTANT (INTEGER 4) 0 '0') (CONSTANT (INTEGER 4) 0 '5')) () 1 0 0 ()) (
48 'antnum' (INTEGER 4) () () 0 0 0 ()) (49 'antsta' (CHARACTER 1 ((
CONSTANT (INTEGER 4) 0 '20'))) () () 0 0 0 ()) (50 'antrec' (CHARACTER 1
((CONSTANT (INTEGER 4) 0 '20'))) () () 0 0 0 ())) PUBLIC ())
47 't_sinex_pcv' 'd_neq' 8 ((DERIVED UNKNOWN UNKNOWN UNKNOWN NONE NONE)
(UNKNOWN) 0 0 () () () '' ((51 'nfrq' (INTEGER 4) () () 0 0 0 ()) (52
'antphs' (REAL 8) (2 EXPLICIT (CONSTANT (INTEGER 4) 0 '1') (CONSTANT (
INTEGER 4) 0 '3') (CONSTANT (INTEGER 4) 0 '1') (CONSTANT (INTEGER 4) 0 '2'))
() 1 0 0 ()) (53 'adopted' (INTEGER 4) () () 0 0 0 ()) (54 'individ' (
INTEGER 4) () () 0 0 0 ()) (55 'atxstr' (CHARACTER 1 ((CONSTANT (
INTEGER 4) 0 '10'))) () () 0 0 0 ())) PUBLIC ())
43 't_timint' 'm_time' 8 ((DERIVED UNKNOWN UNKNOWN UNKNOWN NONE NONE) (
UNKNOWN) 0 0 () () () '' ((56 't' (REAL 8) (1 EXPLICIT (CONSTANT (
INTEGER 4) 0 '1') (CONSTANT (INTEGER 4) 0 '2')) () 1 0 0 ())) PUBLIC ())
10 't_neq' 'd_neq' 8 ((DERIVED UNKNOWN UNKNOWN UNKNOWN NONE NONE) (
UNKNOWN) 0 0 () () () '' ((57 'version' (INTEGER 4) () () 0 0 0 ()) (58
'misc' (DERIVED 11) () () 0 0 0 ()) (59 'par' (DERIVED 60) (1 DEFERRED ()
()) () 1 1 0 ()) (61 'anor' (REAL 8) (1 DEFERRED () ()) () 1 1 0 ()) (
62 'bnor' (REAL 8) (1 DEFERRED () ()) () 1 1 0 ()) (63 'xxx' (REAL 8) (
1 DEFERRED () ()) () 1 1 0 ())) PUBLIC ())
60 't_par' 'd_par' 8 ((DERIVED UNKNOWN UNKNOWN UNKNOWN NONE NONE) (
UNKNOWN) 0 0 () () () '' ((64 'locq' (INTEGER 4) (1 EXPLICIT (CONSTANT (
INTEGER 4) 0 '1') (CONSTANT (INTEGER 4) 0 '7')) () 1 0 0 ()) (65 'name'
(CHARACTER 1 ((CONSTANT (INTEGER 4) 0 '20'))) () () 0 0 0 ()) (66 'time'
(DERIVED 67) () () 0 0 0 ()) (68 'x0' (REAL 8) () () 0 0 0 ()) (69 'scale'
(REAL 8) () () 0 0 0 ()) (70 'techn' (CHARACTER 1 ((CONSTANT (INTEGER 4)
0 '1'))) (1 EXPLICIT (CONSTANT (INTEGER 4) 0 '1') (CONSTANT (INTEGER 4)
0 '2')) () 1 0 0 ()) (71 'obstim' (DERIVED 43) () () 0 0 0 ()) (72 'type'
(CHARACTER 1 ((CONSTANT (INTEGER 4) 0 '2'))) () () 0 0 0 ()) (73 'omega'
(REAL 8) () () 0 0 0 ())) PUBLIC ())
67 't_time' 'm_time' 8 ((DERIVED UNKNOWN UNKNOWN UNKNOWN NONE NONE
SEQUENCE) (UNKNOWN) 0 0 () () () '' ((74 'mean' (REAL 8) () () 0 0 0 ())
(75 'half' (REAL 8) () () 0 0 0 ())) PUBLIC ())
9 't_dx' 'p_addneq' 8 ((DERIVED UNKNOWN UNKNOWN UNKNOWN NONE NONE) (
UNKNOWN) 0 0 () () () '' ((76 'flag' (LOGICAL 4) () () 0 0 0 ()) (77
'diff' (REAL 8) () () 0 0 0 ()) (78 't' (DERIVED 67) () () 0 0 0 ()) (
79 'rms' (REAL 8) (1 EXPLICIT (CONSTANT (INTEGER 4) 0 '1') (CONSTANT (
INTEGER 4) 0 '3')) () 1 0 0 ())) PUBLIC ())
5 'neq_1' '' 8 ((VARIABLE UNKNOWN UNKNOWN UNKNOWN NONE NONE DUMMY) (
DERIVED 10) 0 0 () () () '' () ())
4 'neq' '' 8 ((VARIABLE UNKNOWN UNKNOWN UNKNOWN NONE NONE DUMMY) (
DERIVED 10) 0 0 () () () '' () ())
3 'ifil' '' 8 ((VARIABLE UNKNOWN UNKNOWN UNKNOWN NONE NONE DUMMY) (
INTEGER 4) 0 0 () () () '' () ())
)

('difcomp' 0 2 's_difcomp' 0 7)
