G95 module created on Thu Jun 25 17:45:31 2020 from ./.fpp/ESTWGT.f90
If you edit this, you'll get what you deserve.
module-version 9
(() () () () () () () () () () () () () () () () () () () () ())

()

()

()

()

(2 'estwgt' 's_estwgt' 1 ((PROCEDURE UNKNOWN MODULE-PROC DECL NONE NONE
SUBROUTINE) (PROCEDURE 0) 0 0 (3 NONE 4 NONE 5 NONE 6 NONE) () () '' ()
())
7 's_estwgt' 's_estwgt' 1 ((MODULE UNKNOWN UNKNOWN UNKNOWN NONE NONE) (
UNKNOWN) 0 0 () () () '' () ())
6 'stawgt' '' 8 ((VARIABLE UNKNOWN UNKNOWN UNKNOWN NONE NONE DUMMY) (
DERIVED 9) 0 0 () () () '' () ())
9 't_stawgt' 'd_stawgt' 8 ((DERIVED UNKNOWN UNKNOWN UNKNOWN NONE NONE) (
UNKNOWN) 0 0 () () () '' ((10 'title' (CHARACTER 1 ((CONSTANT (INTEGER 4)
0 '80'))) () () 0 0 0 ()) (11 'nwgt' (INTEGER 4) () () 0 0 0 ()) (12 'wgt'
(DERIVED 13) (1 DEFERRED () ()) () 1 1 0 ())) PUBLIC ())
13 't_wgt' 'd_stawgt' 8 ((DERIVED UNKNOWN UNKNOWN UNKNOWN NONE NONE) (
UNKNOWN) 0 0 () () () '' ((14 'stanam' (CHARACTER 1 ((CONSTANT (INTEGER
4) 0 '16'))) () () 0 0 0 ()) (15 'meatyp' (INTEGER 4) () () 0 0 0 ()) (
16 'weight' (REAL 8) () () 0 0 0 ()) (17 'timwin' (DERIVED 18) () () 0 0
0 ())) PUBLIC ())
18 't_timint' 'm_time' 8 ((DERIVED UNKNOWN UNKNOWN UNKNOWN NONE NONE) (
UNKNOWN) 0 0 () () () '' ((19 't' (REAL 8) (1 EXPLICIT (CONSTANT (
INTEGER 4) 0 '1') (CONSTANT (INTEGER 4) 0 '2')) () 1 0 0 ())) PUBLIC ())
5 'wgtcls' '' 8 ((VARIABLE UNKNOWN UNKNOWN UNKNOWN NONE NONE DIMENSION
POINTER DUMMY) (REAL 8) 0 0 () (2 DEFERRED () () () ()) () '' () ())
4 'weight' '' 8 ((VARIABLE UNKNOWN UNKNOWN UNKNOWN NONE NONE DIMENSION
DUMMY) (REAL 8) 0 0 () (1 ASSUMED_SHAPE () ()) () '' () ())
3 'edt' '' 8 ((VARIABLE UNKNOWN UNKNOWN UNKNOWN NONE NONE DUMMY) (
DERIVED 20) 0 0 () () () '' () ())
20 't_edit' 'd_edit' 8 ((DERIVED UNKNOWN UNKNOWN UNKNOWN NONE NONE) (
UNKNOWN) 0 0 () () () '' ((21 'head' (DERIVED 22) (1 DEFERRED () ()) ()
1 1 0 ()) (23 'rec' (DERIVED 24) (1 DEFERRED () ()) () 1 1 0 ()) (25
'title' (CHARACTER 1 ((CONSTANT (INTEGER 4) 0 '80'))) () () 0 0 0 ()) (
26 'filnam' (CHARACTER 1 ((CONSTANT (INTEGER 4) 0 '32'))) () () 0 0 0 ())
(27 'resmax' (REAL 8) (1 EXPLICIT (CONSTANT (INTEGER 4) 0 '1') (
CONSTANT (INTEGER 4) 0 '3')) () 1 0 0 ()) (28 'nedfil' (INTEGER 4) () ()
0 0 0 ()) (29 'nedt' (INTEGER 4) () () 0 0 0 ()) (30 'nsampl' (INTEGER 4)
() () 0 0 0 ()) (31 'minamb' (INTEGER 4) () () 0 0 0 ()) (32 'minint' (
INTEGER 4) () () 0 0 0 ()) (33 'isampl' (INTEGER 4) () () 0 0 0 ()))
PUBLIC ())
24 't_edtrec' 'd_edit' 8 ((DERIVED UNKNOWN UNKNOWN UNKNOWN NONE NONE) (
UNKNOWN) 0 0 () () () '' ((34 'lstcyc' (REAL 8) () () 0 0 0 ()) (35
'lstedt' (INTEGER 4) (1 EXPLICIT (CONSTANT (INTEGER 4) 0 '1') (CONSTANT
(INTEGER 4) 0 '7')) () 1 0 0 ())) PUBLIC ())
22 't_edthead' 'd_edit' 8 ((DERIVED UNKNOWN UNKNOWN UNKNOWN NONE NONE) (
UNKNOWN) 0 0 () () () '' ((36 'cseedt' (CHARACTER 1 ((CONSTANT (INTEGER
4) 0 '4'))) (1 EXPLICIT (CONSTANT (INTEGER 4) 0 '1') (CONSTANT (INTEGER
4) 0 '2')) () 1 0 0 ()) (37 'staedt' (CHARACTER 1 ((CONSTANT (INTEGER 4)
0 '16'))) (1 EXPLICIT (CONSTANT (INTEGER 4) 0 '1') (CONSTANT (INTEGER 4)
0 '2')) () 1 0 0 ()) (38 'timedt' (REAL 8) () () 0 0 0 ()) (39 'idtedt'
(INTEGER 4) () () 0 0 0 ()) (40 'meaedt' (INTEGER 4) () () 0 0 0 ()))
PUBLIC ())
)

('estwgt' 0 2 's_estwgt' 0 7)
