G95 module created on Thu Jun 25 17:45:34 2020 from ./.fpp/FMTSTDFL.f90
If you edit this, you'll get what you deserve.
module-version 9
(() () () () () () () () () () () () () () () () () () () () ())

()

()

()

()

(2 'fmtstdfl' 's_fmtstdfl' 1 ((PROCEDURE UNKNOWN MODULE-PROC DECL NONE
NONE SUBROUTINE) (PROCEDURE 0) 0 0 (3 NONE 4 NONE 5 NONE) () () '' () ())
6 's_fmtstdfl' 's_fmtstdfl' 1 ((MODULE UNKNOWN UNKNOWN UNKNOWN NONE NONE)
(UNKNOWN) 0 0 () () () '' () ())
5 'filnam' '' 7 ((VARIABLE UNKNOWN UNKNOWN UNKNOWN NONE NONE DIMENSION
DUMMY) (CHARACTER 1 (())) 0 0 () (2 ASSUMED_SIZE (CONSTANT (INTEGER 4) 0
'1') (CONSTANT (INTEGER 4) 0 '4') (CONSTANT (INTEGER 4) 0 '1') ()) () ''
() ())
4 'nfil' '' 7 ((VARIABLE UNKNOWN UNKNOWN UNKNOWN NONE NONE DUMMY) (
INTEGER 4) 0 0 () () () '' () ())
3 'maxfil' '' 7 ((VARIABLE UNKNOWN UNKNOWN UNKNOWN NONE NONE DUMMY) (
INTEGER 4) 0 0 () () () '' () ())
)

('fmtstdfl' 0 2 's_fmtstdfl' 0 6)
