G95 module created on Thu Jun 25 17:44:28 2020 from ./.fpp/FODIMPOD.f90
If you edit this, you'll get what you deserve.
module-version 9
(() () () () () () () () () () () () () () () () () () () () ())

()

()

()

()

(2 'fodimpod' 's_fodimpod' 1 ((PROCEDURE UNKNOWN MODULE-PROC DECL NONE
NONE SUBROUTINE) (PROCEDURE 0) 0 0 (3 NONE 4 NONE 5 NONE) () () '' () ())
6 'fodimpod_chkpresevntinnotmod' 's_fodimpod' 1 ((PROCEDURE UNKNOWN
MODULE-PROC DECL NONE NONE SUBROUTINE INVOKED) (PROCEDURE 0) 0 0 (7 NONE
8 NONE 9 NONE 10 NONE) () () '' () ())
11 's_fodimpod' 's_fodimpod' 1 ((MODULE UNKNOWN UNKNOWN UNKNOWN NONE
NONE) (UNKNOWN) 0 0 () () () '' () ())
10 'jjevnt' '' 12 ((VARIABLE UNKNOWN UNKNOWN UNKNOWN NONE NONE DUMMY) (
INTEGER 4) 0 0 () () () '' () ())
9 'nevnt' '' 12 ((VARIABLE UNKNOWN UNKNOWN UNKNOWN NONE NONE DUMMY) (
INTEGER 4) 0 0 () () () '' () ())
8 'evnt' '' 12 ((VARIABLE UNKNOWN UNKNOWN UNKNOWN NONE NONE DIMENSION
POINTER DUMMY) (DERIVED 13) 0 0 () (1 DEFERRED () ()) () '' () ())
13 't_evnt' 'p_fodits' 12 ((DERIVED UNKNOWN UNKNOWN UNKNOWN NONE NONE) (
UNKNOWN) 0 0 () () () '' ((14 'type' (INTEGER 4) () () 0 0 0 ()) (15
'info' (INTEGER 4) () () 0 0 0 ()) (16 'mjd' (REAL 8) () () 0 0 0 ()) (
17 'omega' (REAL 8) () () 0 0 0 ()) (18 'timint' (DERIVED 19) () () 0 0
0 ()) (20 'flag' (INTEGER 4) () () 0 0 0 ()) (21 'remark' (CHARACTER 1 (
(CONSTANT (INTEGER 4) 0 '8'))) () () 0 0 0 ()) (22 'index' (INTEGER 4) ()
() 0 0 0 ()) (23 'cand' (INTEGER 4) () () 0 0 0 ()) (24 'par' (REAL 8) (
1 EXPLICIT (CONSTANT (INTEGER 4) 0 '1') (CONSTANT (INTEGER 4) 0 '3')) ()
1 0 0 ()) (25 'val' (REAL 8) () () 0 0 0 ()) (26 'dval' (REAL 8) () () 0
0 0 ()) (27 'vltst' (REAL 8) () () 0 0 0 ()) (28 'sttst' (REAL 8) () ()
0 0 0 ()) (29 'sitst' (INTEGER 4) () () 0 0 0 ()) (30 'rename' (
CHARACTER 1 ((CONSTANT (INTEGER 4) 0 '2'))) () () 0 0 0 ()) (31 'recchg'
(CHARACTER 1 ((CONSTANT (INTEGER 4) 0 '20'))) (1 EXPLICIT (CONSTANT (
INTEGER 4) 0 '1') (CONSTANT (INTEGER 4) 0 '2')) () 1 0 0 ()) (32 'antchg'
(CHARACTER 1 ((CONSTANT (INTEGER 4) 0 '20'))) (1 EXPLICIT (CONSTANT (
INTEGER 4) 0 '1') (CONSTANT (INTEGER 4) 0 '2')) () 1 0 0 ()) (33 'eccchg'
(REAL 8) (2 EXPLICIT (CONSTANT (INTEGER 4) 0 '1') (CONSTANT (INTEGER 4)
0 '3') (CONSTANT (INTEGER 4) 0 '1') (CONSTANT (INTEGER 4) 0 '2')) () 1 0
0 ()) (34 'mjd2' (REAL 8) () () 0 0 0 ()) (35 'dpar' (REAL 8) (1
EXPLICIT (CONSTANT (INTEGER 4) 0 '1') (CONSTANT (INTEGER 4) 0 '3')) () 1
0 0 ()) (36 'phi' (REAL 8) (1 EXPLICIT (CONSTANT (INTEGER 4) 0 '1') (
CONSTANT (INTEGER 4) 0 '3')) () 1 0 0 ()) (37 'ppar' (REAL 8) (2
EXPLICIT (CONSTANT (INTEGER 4) 0 '1') (CONSTANT (INTEGER 4) 0 '3') (
CONSTANT (INTEGER 4) 0 '1') (CONSTANT (INTEGER 4) 0 '2')) () 1 0 0 ()) (
38 'mod' (REAL 8) (1 EXPLICIT (CONSTANT (INTEGER 4) 0 '1') (CONSTANT (
INTEGER 4) 0 '3')) () 1 0 0 ())) PUBLIC ())
19 't_timint' 'm_time' 12 ((DERIVED UNKNOWN UNKNOWN UNKNOWN NONE NONE) (
UNKNOWN) 0 0 () () () '' ((39 't' (REAL 8) (1 EXPLICIT (CONSTANT (
INTEGER 4) 0 '1') (CONSTANT (INTEGER 4) 0 '2')) () 1 0 0 ())) PUBLIC ())
7 'elem' '' 12 ((VARIABLE UNKNOWN UNKNOWN UNKNOWN NONE NONE DUMMY) (
DERIVED 13) 0 0 () () () '' () ())
5 'ista' '' 40 ((VARIABLE IN UNKNOWN UNKNOWN NONE NONE DUMMY) (INTEGER 4)
0 0 () () () '' () ())
4 'score' '' 40 ((VARIABLE UNKNOWN UNKNOWN UNKNOWN NONE NONE DUMMY) (
DERIVED 41) 0 0 () () () '' () ())
41 't_score' 'p_fodits' 40 ((DERIVED UNKNOWN UNKNOWN UNKNOWN NONE NONE)
(UNKNOWN) 0 0 () () () '' ((42 'nsta' (INTEGER 4) () () 0 0 0 ()) (43
'nval' (INTEGER 4) () () 0 0 0 ()) (44 'ntotmjd' (INTEGER 4) () () 0 0 0
()) (45 'begmjd' (REAL 8) () () 0 0 0 ()) (46 'endmjd' (REAL 8) () () 0
0 0 ()) (47 'deltamjd' (REAL 8) () () 0 0 0 ()) (48 'intimrefcrd' (REAL
8) () () 0 0 0 ()) (49 'outtimrefcrd' (REAL 8) () () 0 0 0 ()) (50
'datumname' (CHARACTER 1 ((CONSTANT (INTEGER 4) 0 '16'))) () () 0 0 0 ())
(51 'sta' (DERIVED 52) (1 DEFERRED () ()) () 1 1 0 ()) (53 'mdl' (
DERIVED 54) () () 0 0 0 ()) (55 'lsa' (DERIVED 56) () () 0 0 0 ()) (57
'lsb' (DERIVED 58) () () 0 0 0 ()) (59 'ctr' (DERIVED 60) () () 0 0 0 ())
(61 'san' (DERIVED 62) () () 0 0 0 ()) (63 'ddf' (DERIVED 64) () () 0 0
0 ())) PUBLIC ())
64 't_datumdef' 'p_fodits' 40 ((DERIVED UNKNOWN UNKNOWN UNKNOWN NONE
NONE) (UNKNOWN) 0 0 () () () '' ((65 'mjd' (REAL 8) (1 DEFERRED () ()) ()
1 1 0 ()) (66 'hlmpar' (REAL 8) (2 DEFERRED () () () ()) () 1 1 0 ()) (
67 'rmshlmpar' (REAL 8) (2 DEFERRED () () () ()) () 1 1 0 ()) (68
'rmshlmtra' (REAL 8) (1 DEFERRED () ()) () 1 1 0 ()) (69 'totsta' (
INTEGER 4) (1 DEFERRED () ()) () 1 1 0 ()) (70 'refsta' (INTEGER 4) (1
DEFERRED () ()) () 1 1 0 ()) (71 'rejsta' (INTEGER 4) (1 DEFERRED () ())
() 1 1 0 ()) (72 'hlmparoffst' (REAL 8) (1 EXPLICIT (CONSTANT (INTEGER 4)
0 '1') (CONSTANT (INTEGER 4) 0 '7')) () 1 0 0 ()) (73 'hlmparoffstrms' (
REAL 8) (1 EXPLICIT (CONSTANT (INTEGER 4) 0 '1') (CONSTANT (INTEGER 4) 0
'7')) () 1 0 0 ()) (74 'hlmpardrift' (REAL 8) (1 EXPLICIT (CONSTANT (
INTEGER 4) 0 '1') (CONSTANT (INTEGER 4) 0 '7')) () 1 0 0 ()) (75
'hlmpardriftrms' (REAL 8) (1 EXPLICIT (CONSTANT (INTEGER 4) 0 '1') (
CONSTANT (INTEGER 4) 0 '7')) () 1 0 0 ())) PUBLIC ())
62 't_san' 'p_fodits' 40 ((DERIVED UNKNOWN UNKNOWN UNKNOWN NONE NONE) (
UNKNOWN) 0 0 () () () '' ((76 'nper' (INTEGER 4) () () 0 0 0 ()) (77 'per'
(REAL 8) (1 DEFERRED () ()) () 1 1 0 ())) PUBLIC ())
60 't_ctr' 'p_fodits' 40 ((DERIVED UNKNOWN UNKNOWN UNKNOWN NONE NONE) (
UNKNOWN) 0 0 () () () '' ((78 'niterloop' (INTEGER 4) () () 0 0 0 ()) (
79 'modnumiter' (REAL 8) (1 DEFERRED () ()) () 1 1 0 ()) (80
'modnumiteroutl' (REAL 8) (1 DEFERRED () ()) () 1 1 0 ()) (81 'nscrnloop'
(INTEGER 4) () () 0 0 0 ()) (82 'modnumscrn' (REAL 8) (1 DEFERRED () ())
() 1 1 0 ()) (83 'modnumscrnoutl' (REAL 8) (1 DEFERRED () ()) () 1 1 0 ())
(84 'nremoloop' (INTEGER 4) () () 0 0 0 ())) PUBLIC ())
58 't_lsb' 'p_fodits' 40 ((DERIVED UNKNOWN UNKNOWN UNKNOWN NONE NONE) (
UNKNOWN) 0 0 () () () '' ((85 'prevvtv' (REAL 8) () () 0 0 0 ()) (86 'm0'
(REAL 8) () () 0 0 0 ())) PUBLIC ())
56 't_lsa' 'p_fodits' 40 ((DERIVED UNKNOWN UNKNOWN UNKNOWN NONE NONE) (
UNKNOWN) 0 0 () () () '' ((87 'nnpar' (INTEGER 4) () () 0 0 0 ()) (88
'nnmjd' (INTEGER 4) () () 0 0 0 ()) (89 'a' (REAL 8) (2 DEFERRED () () ()
()) () 1 1 0 ()) (90 'qxx' (REAL 8) (2 DEFERRED () () () ()) () 1 1 0 ())
(91 'y' (REAL 8) (1 DEFERRED () ()) () 1 1 0 ()) (92 'x' (REAL 8) (1
DEFERRED () ()) () 1 1 0 ()) (93 'mod' (REAL 8) (1 DEFERRED () ()) () 1
1 0 ()) (94 'v' (REAL 8) (1 DEFERRED () ()) () 1 1 0 ()) (95 'p' (REAL 8)
(1 DEFERRED () ()) () 1 1 0 ()) (96 'iqyy' (REAL 8) (3 DEFERRED () () ()
() () ()) () 1 1 0 ()) (97 'dof' (INTEGER 4) () () 0 0 0 ()) (98 'detn'
(REAL 8) () () 0 0 0 ()) (99 'vtv' (REAL 8) () () 0 0 0 ()) (100 'm0' (
REAL 8) () () 0 0 0 ())) PUBLIC ())
54 't_mdl' 'p_fodits' 40 ((DERIVED UNKNOWN UNKNOWN UNKNOWN NONE NONE) (
UNKNOWN) 0 0 () () () '' ((101 'evnt' (DERIVED 102) () () 0 0 0 ()) (
103 'napri' (INTEGER 4) () () 0 0 0 ()) (104 'apri' (DERIVED 102) (1
DEFERRED () ()) () 1 1 0 ()) (105 'niden' (INTEGER 4) () () 0 0 0 ()) (
106 'iden' (DERIVED 102) (1 DEFERRED () ()) () 1 1 0 ()) (107 'namod' (
INTEGER 4) () () 0 0 0 ()) (108 'amod' (DERIVED 102) (1 DEFERRED () ())
() 1 1 0 ()) (109 'outlmjd' (REAL 8) (1 DEFERRED () ()) () 1 1 0 ()))
PUBLIC ())
102 't_evnt' 'p_fodits' 40 ((DERIVED UNKNOWN UNKNOWN UNKNOWN NONE NONE)
(UNKNOWN) 0 0 () () () '' ((110 'type' (INTEGER 4) () () 0 0 0 ()) (111
'info' (INTEGER 4) () () 0 0 0 ()) (112 'mjd' (REAL 8) () () 0 0 0 ()) (
113 'omega' (REAL 8) () () 0 0 0 ()) (114 'timint' (DERIVED 115) () () 0
0 0 ()) (116 'flag' (INTEGER 4) () () 0 0 0 ()) (117 'remark' (
CHARACTER 1 ((CONSTANT (INTEGER 4) 0 '8'))) () () 0 0 0 ()) (118 'index'
(INTEGER 4) () () 0 0 0 ()) (119 'cand' (INTEGER 4) () () 0 0 0 ()) (
120 'par' (REAL 8) (1 EXPLICIT (CONSTANT (INTEGER 4) 0 '1') (CONSTANT (
INTEGER 4) 0 '3')) () 1 0 0 ()) (121 'val' (REAL 8) () () 0 0 0 ()) (
122 'dval' (REAL 8) () () 0 0 0 ()) (123 'vltst' (REAL 8) () () 0 0 0 ())
(124 'sttst' (REAL 8) () () 0 0 0 ()) (125 'sitst' (INTEGER 4) () () 0 0
0 ()) (126 'rename' (CHARACTER 1 ((CONSTANT (INTEGER 4) 0 '2'))) () () 0
0 0 ()) (127 'recchg' (CHARACTER 1 ((CONSTANT (INTEGER 4) 0 '20'))) (1
EXPLICIT (CONSTANT (INTEGER 4) 0 '1') (CONSTANT (INTEGER 4) 0 '2')) () 1
0 0 ()) (128 'antchg' (CHARACTER 1 ((CONSTANT (INTEGER 4) 0 '20'))) (1
EXPLICIT (CONSTANT (INTEGER 4) 0 '1') (CONSTANT (INTEGER 4) 0 '2')) () 1
0 0 ()) (129 'eccchg' (REAL 8) (2 EXPLICIT (CONSTANT (INTEGER 4) 0 '1')
(CONSTANT (INTEGER 4) 0 '3') (CONSTANT (INTEGER 4) 0 '1') (CONSTANT (
INTEGER 4) 0 '2')) () 1 0 0 ()) (130 'mjd2' (REAL 8) () () 0 0 0 ()) (
131 'dpar' (REAL 8) (1 EXPLICIT (CONSTANT (INTEGER 4) 0 '1') (CONSTANT (
INTEGER 4) 0 '3')) () 1 0 0 ()) (132 'phi' (REAL 8) (1 EXPLICIT (
CONSTANT (INTEGER 4) 0 '1') (CONSTANT (INTEGER 4) 0 '3')) () 1 0 0 ()) (
133 'ppar' (REAL 8) (2 EXPLICIT (CONSTANT (INTEGER 4) 0 '1') (CONSTANT (
INTEGER 4) 0 '3') (CONSTANT (INTEGER 4) 0 '1') (CONSTANT (INTEGER 4) 0 '2'))
() 1 0 0 ()) (134 'mod' (REAL 8) (1 EXPLICIT (CONSTANT (INTEGER 4) 0 '1')
(CONSTANT (INTEGER 4) 0 '3')) () 1 0 0 ())) PUBLIC ())
115 't_timint' 'm_time' 40 ((DERIVED UNKNOWN UNKNOWN UNKNOWN NONE NONE)
(UNKNOWN) 0 0 () () () '' ((135 't' (REAL 8) (1 EXPLICIT (CONSTANT (
INTEGER 4) 0 '1') (CONSTANT (INTEGER 4) 0 '2')) () 1 0 0 ())) PUBLIC ())
52 't_score_stat' 'p_fodits' 40 ((DERIVED UNKNOWN UNKNOWN UNKNOWN NONE
NONE) (UNKNOWN) 0 0 () () () '' ((136 'name' (CHARACTER 1 ((CONSTANT (
INTEGER 4) 0 '16'))) () () 0 0 0 ()) (137 'irefsta' (INTEGER 4) () () 0
0 0 ()) (138 'nstasta' (INTEGER 4) () () 0 0 0 ()) (139 'stasta' (
DERIVED 140) (1 DEFERRED () ()) () 1 1 0 ()) (141 'outcrdxyz' (REAL 8) (
1 EXPLICIT (CONSTANT (INTEGER 4) 0 '1') (CONSTANT (INTEGER 4) 0 '3')) ()
1 0 0 ()) (142 'outvelxyz' (REAL 8) (1 EXPLICIT (CONSTANT (INTEGER 4) 0
'1') (CONSTANT (INTEGER 4) 0 '3')) () 1 0 0 ()) (143 'nitersteps' (
INTEGER 4) () () 0 0 0 ()) (144 'modrms' (REAL 8) () () 0 0 0 ()) (145
'singular' (INTEGER 4) () () 0 0 0 ()) (146 'ts' (DERIVED 147) () () 0 0
0 ()) (148 'mod' (DERIVED 149) () () 0 0 0 ()) (150 'upd' (DERIVED 151)
() () 0 0 0 ())) PUBLIC ())
151 't_upd' 'p_fodits' 40 ((DERIVED UNKNOWN UNKNOWN UNKNOWN NONE NONE) (
UNKNOWN) 0 0 () () () '' ((152 'nren' (INTEGER 4) () () 0 0 0 ()) (153
'ren' (DERIVED 154) (1 DEFERRED () ()) () 1 1 0 ()) (155 'stastatusref'
(INTEGER 4) () () 0 0 0 ()) (156 'maxtimeinterv' (REAL 8) () () 0 0 0 ()))
PUBLIC ())
154 't_upd_ren' 'p_fodits' 40 ((DERIVED UNKNOWN UNKNOWN UNKNOWN NONE
NONE) (UNKNOWN) 0 0 () () () '' ((157 'type' (INTEGER 4) () () 0 0 0 ())
(158 'info' (INTEGER 4) () () 0 0 0 ()) (159 'timint' (DERIVED 115) () ()
0 0 0 ()) (160 'rename' (CHARACTER 1 ((CONSTANT (INTEGER 4) 0 '2'))) ()
() 0 0 0 ()) (161 'cnstr' (INTEGER 4) () () 0 0 0 ()) (162 'group' (
INTEGER 4) () () 0 0 0 ()) (163 'grouplength' (REAL 8) () () 0 0 0 ()) (
164 'groupnumdata' (INTEGER 4) () () 0 0 0 ()) (165 'remark' (CHARACTER
1 ((CONSTANT (INTEGER 4) 0 '8'))) () () 0 0 0 ())) PUBLIC ())
149 't_mod' 'p_fodits' 40 ((DERIVED UNKNOWN UNKNOWN UNKNOWN NONE NONE) (
UNKNOWN) 0 0 () () () '' ((166 'nevnt' (INTEGER 4) () () 0 0 0 ()) (167
'evnt' (DERIVED 102) (1 DEFERRED () ()) () 1 1 0 ())) PUBLIC ())
147 't_ts' 'p_fodits' 40 ((DERIVED UNKNOWN UNKNOWN UNKNOWN NONE NONE) (
UNKNOWN) 0 0 () () () '' ((168 'nval' (INTEGER 4) () () 0 0 0 ()) (169
'nmjd' (INTEGER 4) () () 0 0 0 ()) (170 'mjd' (REAL 8) (1 DEFERRED () ())
() 1 1 0 ()) (171 'val' (REAL 8) (2 DEFERRED () () () ()) () 1 1 0 ()) (
172 'dval' (REAL 8) (2 DEFERRED () () () ()) () 1 1 0 ()) (173 'vci' (
REAL 8) (3 DEFERRED () () () () () ()) () 1 1 0 ()) (174 'ddef' (REAL 8)
(2 DEFERRED () () () ()) () 1 1 0 ()) (175 'ddefrej' (INTEGER 4) (1
DEFERRED () ()) () 1 1 0 ())) PUBLIC ())
140 't_stasta' 'p_fodits' 40 ((DERIVED UNKNOWN UNKNOWN UNKNOWN NONE NONE)
(UNKNOWN) 0 0 () () () '' ((176 'rename' (CHARACTER 1 ((CONSTANT (
INTEGER 4) 0 '16'))) () () 0 0 0 ()) (177 'timint' (DERIVED 115) () () 0
0 0 ()) (178 'incrdxyz' (REAL 8) (1 EXPLICIT (CONSTANT (INTEGER 4) 0 '1')
(CONSTANT (INTEGER 4) 0 '3')) () 1 0 0 ()) (179 'incrdneu' (REAL 8) (1
EXPLICIT (CONSTANT (INTEGER 4) 0 '1') (CONSTANT (INTEGER 4) 0 '3')) () 1
0 0 ()) (180 'incrdflg' (CHARACTER 1 ((CONSTANT (INTEGER 4) 0 '1'))) ()
() 0 0 0 ()) (181 'invelxyz' (REAL 8) (1 EXPLICIT (CONSTANT (INTEGER 4)
0 '1') (CONSTANT (INTEGER 4) 0 '3')) () 1 0 0 ()) (182 'invelneu' (REAL
8) (1 EXPLICIT (CONSTANT (INTEGER 4) 0 '1') (CONSTANT (INTEGER 4) 0 '3'))
() 1 0 0 ()) (183 'invelflg' (CHARACTER 1 ((CONSTANT (INTEGER 4) 0 '5')))
() () 0 0 0 ()) (184 'invelplate' (CHARACTER 1 ((CONSTANT (INTEGER 4) 0
'4'))) () () 0 0 0 ())) PUBLIC ())
3 'opt' '' 40 ((VARIABLE UNKNOWN UNKNOWN UNKNOWN NONE NONE DUMMY) (
DERIVED 185) 0 0 () () () '' () ())
185 't_opt' 'p_fodits' 40 ((DERIVED UNKNOWN UNKNOWN UNKNOWN NONE NONE) (
UNKNOWN) 0 0 () () () '' ((186 'rdonlystanames' (INTEGER 4) () () 0 0 0
()) (187 'selinptstype' (INTEGER 4) () () 0 0 0 ()) (188 'inpltfile' (
CHARACTER 1 ((CONSTANT (INTEGER 4) 0 '32'))) () () 0 0 0 ()) (189
'inpltfilevciena' (INTEGER 4) () () 0 0 0 ()) (190 'inpltfilevim0' (
REAL 8) () () 0 0 0 ()) (191 'incrdfile' (CHARACTER 1 ((CONSTANT (
INTEGER 4) 0 '32'))) () () 0 0 0 ()) (192 'invelfile' (CHARACTER 1 ((
CONSTANT (INTEGER 4) 0 '32'))) () () 0 0 0 ()) (193 'ncrds' (INTEGER 4)
() () 0 0 0 ()) (194 'crdfilename' (CHARACTER 1 ((CONSTANT (INTEGER 4) 0
'32'))) (1 DEFERRED () ()) () 1 1 0 ()) (195 'inevlfile' (CHARACTER 1 (
(CONSTANT (INTEGER 4) 0 '32'))) () () 0 0 0 ()) (196 'instafile' (
CHARACTER 1 ((CONSTANT (INTEGER 4) 0 '32'))) () () 0 0 0 ()) (197
'inerqfile' (CHARACTER 1 ((CONSTANT (INTEGER 4) 0 '80'))) () () 0 0 0 ())
(198 'const' (CHARACTER 1 ((CONSTANT (INTEGER 4) 0 '32'))) () () 0 0 0 ())
(199 'datum' (CHARACTER 1 ((CONSTANT (INTEGER 4) 0 '32'))) () () 0 0 0 ())
(200 'gvarerqfacta' (REAL 8) () () 0 0 0 ()) (201 'gvarerqfactb' (REAL 8)
() () 0 0 0 ()) (202 'gvarerqmindist' (REAL 8) () () 0 0 0 ()) (203
'incrdfileaddplt' (INTEGER 4) () () 0 0 0 ()) (204 'invelfileaddplt' (
INTEGER 4) () () 0 0 0 ()) (205 'gvarmaxnriterstep' (INTEGER 4) () () 0
0 0 ()) (206 'gvarmaxnrscrnstep' (INTEGER 4) () () 0 0 0 ()) (207
'modnnewoutl' (INTEGER 4) () () 0 0 0 ()) (208 'modnoutlrms' (REAL 8) ()
() 0 0 0 ()) (209 'outevlfile' (CHARACTER 1 ((CONSTANT (INTEGER 4) 0 '32')))
() () 0 0 0 ()) (210 'outstafileforaddneq2' (CHARACTER 1 ((CONSTANT (
INTEGER 4) 0 '32'))) () () 0 0 0 ()) (211 'outpltfile' (CHARACTER 1 ((
CONSTANT (INTEGER 4) 0 '32'))) () () 0 0 0 ()) (212 'outfileverbose' (
INTEGER 4) () () 0 0 0 ()) (213 'outfileverboset' (INTEGER 4) () () 0 0
0 ()) (214 'outfileverbosett' (INTEGER 4) () () 0 0 0 ()) (215 'title' (
CHARACTER 1 ((CONSTANT (INTEGER 4) 0 '80'))) () () 0 0 0 ()) (216
'intruncstaname' (INTEGER 4) () () 0 0 0 ()) (217 'nstasel' (INTEGER 4)
() () 0 0 0 ()) (218 'instaselection' (CHARACTER 1 ((CONSTANT (INTEGER 4)
0 '16'))) (1 DEFERRED () ()) () 1 1 0 ()) (219 'inminnrobs' (INTEGER 4)
() () 0 0 0 ()) (220 'tstevltst' (INTEGER 4) () () 0 0 0 ()) (221
'tststarenamings' (INTEGER 4) () () 0 0 0 ()) (222 'tstrectypechanges' (
INTEGER 4) () () 0 0 0 ()) (223 'tstrecnumberchanges' (INTEGER 4) () ()
0 0 0 ()) (224 'tstanttypechanges' (INTEGER 4) () () 0 0 0 ()) (225
'tstantnumberchanges' (INTEGER 4) () () 0 0 0 ()) (226 'tsteccchanges' (
INTEGER 4) () () 0 0 0 ()) (227 'modpredattest' (INTEGER 4) () () 0 0 0
()) (228 'minintervforvel' (REAL 8) () () 0 0 0 ()) (229 'modperann' (
INTEGER 4) () () 0 0 0 ()) (230 'modaddena' (INTEGER 4) () () 0 0 0 ())
(231 'naddperparam' (INTEGER 4) () () 0 0 0 ()) (232 'modaddperparam' (
REAL 8) (1 DEFERRED () ()) () 1 1 0 ()) (233 'indatumcrdfile' (
CHARACTER 1 ((CONSTANT (INTEGER 4) 0 '32'))) () () 0 0 0 ()) (234
'indatumvelfile' (CHARACTER 1 ((CONSTANT (INTEGER 4) 0 '32'))) () () 0 0
0 ()) (235 'indatumfixfile' (CHARACTER 1 ((CONSTANT (INTEGER 4) 0 '32')))
() () 0 0 0 ()) (236 'dathlmtx' (INTEGER 4) () () 0 0 0 ()) (237
'dathlmty' (INTEGER 4) () () 0 0 0 ()) (238 'dathlmtz' (INTEGER 4) () ()
0 0 0 ()) (239 'dathlmrx' (INTEGER 4) () () 0 0 0 ()) (240 'dathlmry' (
INTEGER 4) () () 0 0 0 ()) (241 'dathlmrz' (INTEGER 4) () () 0 0 0 ()) (
242 'dathlmsc' (INTEGER 4) () () 0 0 0 ()) (243 'datrejectcrd' (INTEGER
4) () () 0 0 0 ()) (244 'datnlimitcrd' (REAL 8) () () 0 0 0 ()) (245
'datelimitcrd' (REAL 8) () () 0 0 0 ()) (246 'datulimitcrd' (REAL 8) ()
() 0 0 0 ()) (247 'datrejectoutlcrd' (INTEGER 4) () () 0 0 0 ()) (248
'modtestvalue' (REAL 8) () () 0 0 0 ()) (249 'modoutltestvalue' (REAL 8)
() () 0 0 0 ()) (250 'modjumpspac' (REAL 8) () () 0 0 0 ()) (251
'modjumpsing' (REAL 8) () () 0 0 0 ()) (252 'modjumphori' (REAL 8) () ()
0 0 0 ()) (253 'modjumpvert' (REAL 8) () () 0 0 0 ()) (254 'modvelospac'
(REAL 8) () () 0 0 0 ()) (255 'modvelosing' (REAL 8) () () 0 0 0 ()) (
256 'modvelohori' (REAL 8) () () 0 0 0 ()) (257 'modvelovert' (REAL 8) ()
() 0 0 0 ()) (258 'modoutlspac' (REAL 8) () () 0 0 0 ()) (259
'modoutlsing' (REAL 8) () () 0 0 0 ()) (260 'modoutlhori' (REAL 8) () ()
0 0 0 ()) (261 'modoutlvert' (REAL 8) () () 0 0 0 ()) (262 'modperispac'
(REAL 8) () () 0 0 0 ()) (263 'modperising' (REAL 8) () () 0 0 0 ()) (
264 'modperihori' (REAL 8) () () 0 0 0 ()) (265 'modperivert' (REAL 8) ()
() 0 0 0 ()) (266 'modnewjumpidentify' (INTEGER 4) () () 0 0 0 ()) (267
'modnewveloidentify' (INTEGER 4) () () 0 0 0 ()) (268 'modnewoutlidentify'
(INTEGER 4) () () 0 0 0 ()) (269 'modnewperiidentify' (INTEGER 4) () ()
0 0 0 ()) (270 'modaddveloaj' (INTEGER 4) () () 0 0 0 ()) (271 'sannlines'
(INTEGER 4) () () 0 0 0 ()) (272 'sanminperiod' (REAL 8) () () 0 0 0 ())
(273 'sanmaxperiod' (REAL 8) () () 0 0 0 ()) (274 'outtimref' (REAL 8) ()
() 0 0 0 ()) (275 'mintimeintlength' (REAL 8) () () 0 0 0 ()) (276
'minpercdatafix' (REAL 8) () () 0 0 0 ()) (277 'incrdfileforaddneq2' (
CHARACTER 1 ((CONSTANT (INTEGER 4) 0 '32'))) () () 0 0 0 ()) (278
'invelfileforaddneq2' (CHARACTER 1 ((CONSTANT (INTEGER 4) 0 '32'))) () ()
0 0 0 ()) (279 'infixfileforaddneq2' (CHARACTER 1 ((CONSTANT (INTEGER 4)
0 '32'))) () () 0 0 0 ()) (280 'insigfileforaddneq2' (CHARACTER 1 ((
CONSTANT (INTEGER 4) 0 '32'))) () () 0 0 0 ()) (281 'outcrdfileforaddneq2'
(CHARACTER 1 ((CONSTANT (INTEGER 4) 0 '32'))) () () 0 0 0 ()) (282
'outvelfileforaddneq2' (CHARACTER 1 ((CONSTANT (INTEGER 4) 0 '32'))) ()
() 0 0 0 ()) (283 'outfixfileforaddneq2' (CHARACTER 1 ((CONSTANT (
INTEGER 4) 0 '32'))) () () 0 0 0 ()) (284 'outsigfileforaddneq2' (
CHARACTER 1 ((CONSTANT (INTEGER 4) 0 '32'))) () () 0 0 0 ()) (285
'updstandays' (INTEGER 4) () () 0 0 0 ()) (286 'gvarcstrcrd' (REAL 8) ()
() 0 0 0 ()) (287 'gvarcstrvel' (REAL 8) () () 0 0 0 ())) PUBLIC ())
)

('fodimpod' 0 2 'fodimpod_chkpresevntinnotmod' 0 6 's_fodimpod' 0 11)
