G95 module created on Thu Jun 25 17:45:15 2020 from ./.fpp/FODIGETI.f90
If you edit this, you'll get what you deserve.
module-version 9
(() () () () () () () () () () () () () () () () () () () () ())

()

()

()

()

(2 'fodigeti' 's_fodigeti' 1 ((PROCEDURE UNKNOWN MODULE-PROC DECL NONE
NONE SUBROUTINE) (PROCEDURE 0) 0 0 (3 NONE 4 NONE 5 NONE) () () '' () ())
6 'fodigeti_screenmodforerqs' 's_fodigeti' 1 ((PROCEDURE UNKNOWN
MODULE-PROC DECL NONE NONE SUBROUTINE INVOKED) (PROCEDURE 0) 0 0 (7 NONE
8 NONE 9 NONE) () () '' () ())
10 'fodigeti_screenmodwithnotevnt' 's_fodigeti' 1 ((PROCEDURE UNKNOWN
MODULE-PROC DECL NONE NONE SUBROUTINE INVOKED) (PROCEDURE 0) 0 0 (11
NONE 12 NONE) () () '' () ())
13 's_fodigeti' 's_fodigeti' 1 ((MODULE UNKNOWN UNKNOWN UNKNOWN NONE
NONE) (UNKNOWN) 0 0 () () () '' () ())
12 'nevnt' '' 14 ((VARIABLE UNKNOWN UNKNOWN UNKNOWN NONE NONE DUMMY) (
INTEGER 4) 0 0 () () () '' () ())
11 'evnt' '' 14 ((VARIABLE UNKNOWN UNKNOWN UNKNOWN NONE NONE DIMENSION
POINTER DUMMY) (DERIVED 15) 0 0 () (1 DEFERRED () ()) () '' () ())
15 't_evnt' 'p_fodits' 14 ((DERIVED UNKNOWN UNKNOWN UNKNOWN NONE NONE) (
UNKNOWN) 0 0 () () () '' ((16 'type' (INTEGER 4) () () 0 0 0 ()) (17
'info' (INTEGER 4) () () 0 0 0 ()) (18 'mjd' (REAL 8) () () 0 0 0 ()) (
19 'omega' (REAL 8) () () 0 0 0 ()) (20 'timint' (DERIVED 21) () () 0 0
0 ()) (22 'flag' (INTEGER 4) () () 0 0 0 ()) (23 'remark' (CHARACTER 1 (
(CONSTANT (INTEGER 4) 0 '8'))) () () 0 0 0 ()) (24 'index' (INTEGER 4) ()
() 0 0 0 ()) (25 'cand' (INTEGER 4) () () 0 0 0 ()) (26 'par' (REAL 8) (
1 EXPLICIT (CONSTANT (INTEGER 4) 0 '1') (CONSTANT (INTEGER 4) 0 '3')) ()
1 0 0 ()) (27 'val' (REAL 8) () () 0 0 0 ()) (28 'dval' (REAL 8) () () 0
0 0 ()) (29 'vltst' (REAL 8) () () 0 0 0 ()) (30 'sttst' (REAL 8) () ()
0 0 0 ()) (31 'sitst' (INTEGER 4) () () 0 0 0 ()) (32 'rename' (
CHARACTER 1 ((CONSTANT (INTEGER 4) 0 '2'))) () () 0 0 0 ()) (33 'recchg'
(CHARACTER 1 ((CONSTANT (INTEGER 4) 0 '20'))) (1 EXPLICIT (CONSTANT (
INTEGER 4) 0 '1') (CONSTANT (INTEGER 4) 0 '2')) () 1 0 0 ()) (34 'antchg'
(CHARACTER 1 ((CONSTANT (INTEGER 4) 0 '20'))) (1 EXPLICIT (CONSTANT (
INTEGER 4) 0 '1') (CONSTANT (INTEGER 4) 0 '2')) () 1 0 0 ()) (35 'eccchg'
(REAL 8) (2 EXPLICIT (CONSTANT (INTEGER 4) 0 '1') (CONSTANT (INTEGER 4)
0 '3') (CONSTANT (INTEGER 4) 0 '1') (CONSTANT (INTEGER 4) 0 '2')) () 1 0
0 ()) (36 'mjd2' (REAL 8) () () 0 0 0 ()) (37 'dpar' (REAL 8) (1
EXPLICIT (CONSTANT (INTEGER 4) 0 '1') (CONSTANT (INTEGER 4) 0 '3')) () 1
0 0 ()) (38 'phi' (REAL 8) (1 EXPLICIT (CONSTANT (INTEGER 4) 0 '1') (
CONSTANT (INTEGER 4) 0 '3')) () 1 0 0 ()) (39 'ppar' (REAL 8) (2
EXPLICIT (CONSTANT (INTEGER 4) 0 '1') (CONSTANT (INTEGER 4) 0 '3') (
CONSTANT (INTEGER 4) 0 '1') (CONSTANT (INTEGER 4) 0 '2')) () 1 0 0 ()) (
40 'mod' (REAL 8) (1 EXPLICIT (CONSTANT (INTEGER 4) 0 '1') (CONSTANT (
INTEGER 4) 0 '3')) () 1 0 0 ())) PUBLIC ())
21 't_timint' 'm_time' 14 ((DERIVED UNKNOWN UNKNOWN UNKNOWN NONE NONE) (
UNKNOWN) 0 0 () () () '' ((41 't' (REAL 8) (1 EXPLICIT (CONSTANT (
INTEGER 4) 0 '1') (CONSTANT (INTEGER 4) 0 '2')) () 1 0 0 ())) PUBLIC ())
9 'disterqsmjd' '' 42 ((VARIABLE IN UNKNOWN UNKNOWN NONE NONE DUMMY) (
REAL 8) 0 0 () () () '' () ())
8 'score' '' 42 ((VARIABLE UNKNOWN UNKNOWN UNKNOWN NONE NONE DUMMY) (
DERIVED 43) 0 0 () () () '' () ())
43 't_score' 'p_fodits' 42 ((DERIVED UNKNOWN UNKNOWN UNKNOWN NONE NONE)
(UNKNOWN) 0 0 () () () '' ((44 'nsta' (INTEGER 4) () () 0 0 0 ()) (45
'nval' (INTEGER 4) () () 0 0 0 ()) (46 'ntotmjd' (INTEGER 4) () () 0 0 0
()) (47 'begmjd' (REAL 8) () () 0 0 0 ()) (48 'endmjd' (REAL 8) () () 0
0 0 ()) (49 'deltamjd' (REAL 8) () () 0 0 0 ()) (50 'intimrefcrd' (REAL
8) () () 0 0 0 ()) (51 'outtimrefcrd' (REAL 8) () () 0 0 0 ()) (52
'datumname' (CHARACTER 1 ((CONSTANT (INTEGER 4) 0 '16'))) () () 0 0 0 ())
(53 'sta' (DERIVED 54) (1 DEFERRED () ()) () 1 1 0 ()) (55 'mdl' (
DERIVED 56) () () 0 0 0 ()) (57 'lsa' (DERIVED 58) () () 0 0 0 ()) (59
'lsb' (DERIVED 60) () () 0 0 0 ()) (61 'ctr' (DERIVED 62) () () 0 0 0 ())
(63 'san' (DERIVED 64) () () 0 0 0 ()) (65 'ddf' (DERIVED 66) () () 0 0
0 ())) PUBLIC ())
66 't_datumdef' 'p_fodits' 42 ((DERIVED UNKNOWN UNKNOWN UNKNOWN NONE
NONE) (UNKNOWN) 0 0 () () () '' ((67 'mjd' (REAL 8) (1 DEFERRED () ()) ()
1 1 0 ()) (68 'hlmpar' (REAL 8) (2 DEFERRED () () () ()) () 1 1 0 ()) (
69 'rmshlmpar' (REAL 8) (2 DEFERRED () () () ()) () 1 1 0 ()) (70
'rmshlmtra' (REAL 8) (1 DEFERRED () ()) () 1 1 0 ()) (71 'totsta' (
INTEGER 4) (1 DEFERRED () ()) () 1 1 0 ()) (72 'refsta' (INTEGER 4) (1
DEFERRED () ()) () 1 1 0 ()) (73 'rejsta' (INTEGER 4) (1 DEFERRED () ())
() 1 1 0 ()) (74 'hlmparoffst' (REAL 8) (1 EXPLICIT (CONSTANT (INTEGER 4)
0 '1') (CONSTANT (INTEGER 4) 0 '7')) () 1 0 0 ()) (75 'hlmparoffstrms' (
REAL 8) (1 EXPLICIT (CONSTANT (INTEGER 4) 0 '1') (CONSTANT (INTEGER 4) 0
'7')) () 1 0 0 ()) (76 'hlmpardrift' (REAL 8) (1 EXPLICIT (CONSTANT (
INTEGER 4) 0 '1') (CONSTANT (INTEGER 4) 0 '7')) () 1 0 0 ()) (77
'hlmpardriftrms' (REAL 8) (1 EXPLICIT (CONSTANT (INTEGER 4) 0 '1') (
CONSTANT (INTEGER 4) 0 '7')) () 1 0 0 ())) PUBLIC ())
64 't_san' 'p_fodits' 42 ((DERIVED UNKNOWN UNKNOWN UNKNOWN NONE NONE) (
UNKNOWN) 0 0 () () () '' ((78 'nper' (INTEGER 4) () () 0 0 0 ()) (79 'per'
(REAL 8) (1 DEFERRED () ()) () 1 1 0 ())) PUBLIC ())
62 't_ctr' 'p_fodits' 42 ((DERIVED UNKNOWN UNKNOWN UNKNOWN NONE NONE) (
UNKNOWN) 0 0 () () () '' ((80 'niterloop' (INTEGER 4) () () 0 0 0 ()) (
81 'modnumiter' (REAL 8) (1 DEFERRED () ()) () 1 1 0 ()) (82
'modnumiteroutl' (REAL 8) (1 DEFERRED () ()) () 1 1 0 ()) (83 'nscrnloop'
(INTEGER 4) () () 0 0 0 ()) (84 'modnumscrn' (REAL 8) (1 DEFERRED () ())
() 1 1 0 ()) (85 'modnumscrnoutl' (REAL 8) (1 DEFERRED () ()) () 1 1 0 ())
(86 'nremoloop' (INTEGER 4) () () 0 0 0 ())) PUBLIC ())
60 't_lsb' 'p_fodits' 42 ((DERIVED UNKNOWN UNKNOWN UNKNOWN NONE NONE) (
UNKNOWN) 0 0 () () () '' ((87 'prevvtv' (REAL 8) () () 0 0 0 ()) (88 'm0'
(REAL 8) () () 0 0 0 ())) PUBLIC ())
58 't_lsa' 'p_fodits' 42 ((DERIVED UNKNOWN UNKNOWN UNKNOWN NONE NONE) (
UNKNOWN) 0 0 () () () '' ((89 'nnpar' (INTEGER 4) () () 0 0 0 ()) (90
'nnmjd' (INTEGER 4) () () 0 0 0 ()) (91 'a' (REAL 8) (2 DEFERRED () () ()
()) () 1 1 0 ()) (92 'qxx' (REAL 8) (2 DEFERRED () () () ()) () 1 1 0 ())
(93 'y' (REAL 8) (1 DEFERRED () ()) () 1 1 0 ()) (94 'x' (REAL 8) (1
DEFERRED () ()) () 1 1 0 ()) (95 'mod' (REAL 8) (1 DEFERRED () ()) () 1
1 0 ()) (96 'v' (REAL 8) (1 DEFERRED () ()) () 1 1 0 ()) (97 'p' (REAL 8)
(1 DEFERRED () ()) () 1 1 0 ()) (98 'iqyy' (REAL 8) (3 DEFERRED () () ()
() () ()) () 1 1 0 ()) (99 'dof' (INTEGER 4) () () 0 0 0 ()) (100 'detn'
(REAL 8) () () 0 0 0 ()) (101 'vtv' (REAL 8) () () 0 0 0 ()) (102 'm0' (
REAL 8) () () 0 0 0 ())) PUBLIC ())
56 't_mdl' 'p_fodits' 42 ((DERIVED UNKNOWN UNKNOWN UNKNOWN NONE NONE) (
UNKNOWN) 0 0 () () () '' ((103 'evnt' (DERIVED 104) () () 0 0 0 ()) (
105 'napri' (INTEGER 4) () () 0 0 0 ()) (106 'apri' (DERIVED 104) (1
DEFERRED () ()) () 1 1 0 ()) (107 'niden' (INTEGER 4) () () 0 0 0 ()) (
108 'iden' (DERIVED 104) (1 DEFERRED () ()) () 1 1 0 ()) (109 'namod' (
INTEGER 4) () () 0 0 0 ()) (110 'amod' (DERIVED 104) (1 DEFERRED () ())
() 1 1 0 ()) (111 'outlmjd' (REAL 8) (1 DEFERRED () ()) () 1 1 0 ()))
PUBLIC ())
104 't_evnt' 'p_fodits' 42 ((DERIVED UNKNOWN UNKNOWN UNKNOWN NONE NONE)
(UNKNOWN) 0 0 () () () '' ((112 'type' (INTEGER 4) () () 0 0 0 ()) (113
'info' (INTEGER 4) () () 0 0 0 ()) (114 'mjd' (REAL 8) () () 0 0 0 ()) (
115 'omega' (REAL 8) () () 0 0 0 ()) (116 'timint' (DERIVED 117) () () 0
0 0 ()) (118 'flag' (INTEGER 4) () () 0 0 0 ()) (119 'remark' (
CHARACTER 1 ((CONSTANT (INTEGER 4) 0 '8'))) () () 0 0 0 ()) (120 'index'
(INTEGER 4) () () 0 0 0 ()) (121 'cand' (INTEGER 4) () () 0 0 0 ()) (
122 'par' (REAL 8) (1 EXPLICIT (CONSTANT (INTEGER 4) 0 '1') (CONSTANT (
INTEGER 4) 0 '3')) () 1 0 0 ()) (123 'val' (REAL 8) () () 0 0 0 ()) (
124 'dval' (REAL 8) () () 0 0 0 ()) (125 'vltst' (REAL 8) () () 0 0 0 ())
(126 'sttst' (REAL 8) () () 0 0 0 ()) (127 'sitst' (INTEGER 4) () () 0 0
0 ()) (128 'rename' (CHARACTER 1 ((CONSTANT (INTEGER 4) 0 '2'))) () () 0
0 0 ()) (129 'recchg' (CHARACTER 1 ((CONSTANT (INTEGER 4) 0 '20'))) (1
EXPLICIT (CONSTANT (INTEGER 4) 0 '1') (CONSTANT (INTEGER 4) 0 '2')) () 1
0 0 ()) (130 'antchg' (CHARACTER 1 ((CONSTANT (INTEGER 4) 0 '20'))) (1
EXPLICIT (CONSTANT (INTEGER 4) 0 '1') (CONSTANT (INTEGER 4) 0 '2')) () 1
0 0 ()) (131 'eccchg' (REAL 8) (2 EXPLICIT (CONSTANT (INTEGER 4) 0 '1')
(CONSTANT (INTEGER 4) 0 '3') (CONSTANT (INTEGER 4) 0 '1') (CONSTANT (
INTEGER 4) 0 '2')) () 1 0 0 ()) (132 'mjd2' (REAL 8) () () 0 0 0 ()) (
133 'dpar' (REAL 8) (1 EXPLICIT (CONSTANT (INTEGER 4) 0 '1') (CONSTANT (
INTEGER 4) 0 '3')) () 1 0 0 ()) (134 'phi' (REAL 8) (1 EXPLICIT (
CONSTANT (INTEGER 4) 0 '1') (CONSTANT (INTEGER 4) 0 '3')) () 1 0 0 ()) (
135 'ppar' (REAL 8) (2 EXPLICIT (CONSTANT (INTEGER 4) 0 '1') (CONSTANT (
INTEGER 4) 0 '3') (CONSTANT (INTEGER 4) 0 '1') (CONSTANT (INTEGER 4) 0 '2'))
() 1 0 0 ()) (136 'mod' (REAL 8) (1 EXPLICIT (CONSTANT (INTEGER 4) 0 '1')
(CONSTANT (INTEGER 4) 0 '3')) () 1 0 0 ())) PUBLIC ())
117 't_timint' 'm_time' 42 ((DERIVED UNKNOWN UNKNOWN UNKNOWN NONE NONE)
(UNKNOWN) 0 0 () () () '' ((137 't' (REAL 8) (1 EXPLICIT (CONSTANT (
INTEGER 4) 0 '1') (CONSTANT (INTEGER 4) 0 '2')) () 1 0 0 ())) PUBLIC ())
54 't_score_stat' 'p_fodits' 42 ((DERIVED UNKNOWN UNKNOWN UNKNOWN NONE
NONE) (UNKNOWN) 0 0 () () () '' ((138 'name' (CHARACTER 1 ((CONSTANT (
INTEGER 4) 0 '16'))) () () 0 0 0 ()) (139 'irefsta' (INTEGER 4) () () 0
0 0 ()) (140 'nstasta' (INTEGER 4) () () 0 0 0 ()) (141 'stasta' (
DERIVED 142) (1 DEFERRED () ()) () 1 1 0 ()) (143 'outcrdxyz' (REAL 8) (
1 EXPLICIT (CONSTANT (INTEGER 4) 0 '1') (CONSTANT (INTEGER 4) 0 '3')) ()
1 0 0 ()) (144 'outvelxyz' (REAL 8) (1 EXPLICIT (CONSTANT (INTEGER 4) 0
'1') (CONSTANT (INTEGER 4) 0 '3')) () 1 0 0 ()) (145 'nitersteps' (
INTEGER 4) () () 0 0 0 ()) (146 'modrms' (REAL 8) () () 0 0 0 ()) (147
'singular' (INTEGER 4) () () 0 0 0 ()) (148 'ts' (DERIVED 149) () () 0 0
0 ()) (150 'mod' (DERIVED 151) () () 0 0 0 ()) (152 'upd' (DERIVED 153)
() () 0 0 0 ())) PUBLIC ())
153 't_upd' 'p_fodits' 42 ((DERIVED UNKNOWN UNKNOWN UNKNOWN NONE NONE) (
UNKNOWN) 0 0 () () () '' ((154 'nren' (INTEGER 4) () () 0 0 0 ()) (155
'ren' (DERIVED 156) (1 DEFERRED () ()) () 1 1 0 ()) (157 'stastatusref'
(INTEGER 4) () () 0 0 0 ()) (158 'maxtimeinterv' (REAL 8) () () 0 0 0 ()))
PUBLIC ())
156 't_upd_ren' 'p_fodits' 42 ((DERIVED UNKNOWN UNKNOWN UNKNOWN NONE
NONE) (UNKNOWN) 0 0 () () () '' ((159 'type' (INTEGER 4) () () 0 0 0 ())
(160 'info' (INTEGER 4) () () 0 0 0 ()) (161 'timint' (DERIVED 117) () ()
0 0 0 ()) (162 'rename' (CHARACTER 1 ((CONSTANT (INTEGER 4) 0 '2'))) ()
() 0 0 0 ()) (163 'cnstr' (INTEGER 4) () () 0 0 0 ()) (164 'group' (
INTEGER 4) () () 0 0 0 ()) (165 'grouplength' (REAL 8) () () 0 0 0 ()) (
166 'groupnumdata' (INTEGER 4) () () 0 0 0 ()) (167 'remark' (CHARACTER
1 ((CONSTANT (INTEGER 4) 0 '8'))) () () 0 0 0 ())) PUBLIC ())
151 't_mod' 'p_fodits' 42 ((DERIVED UNKNOWN UNKNOWN UNKNOWN NONE NONE) (
UNKNOWN) 0 0 () () () '' ((168 'nevnt' (INTEGER 4) () () 0 0 0 ()) (169
'evnt' (DERIVED 104) (1 DEFERRED () ()) () 1 1 0 ())) PUBLIC ())
149 't_ts' 'p_fodits' 42 ((DERIVED UNKNOWN UNKNOWN UNKNOWN NONE NONE) (
UNKNOWN) 0 0 () () () '' ((170 'nval' (INTEGER 4) () () 0 0 0 ()) (171
'nmjd' (INTEGER 4) () () 0 0 0 ()) (172 'mjd' (REAL 8) (1 DEFERRED () ())
() 1 1 0 ()) (173 'val' (REAL 8) (2 DEFERRED () () () ()) () 1 1 0 ()) (
174 'dval' (REAL 8) (2 DEFERRED () () () ()) () 1 1 0 ()) (175 'vci' (
REAL 8) (3 DEFERRED () () () () () ()) () 1 1 0 ()) (176 'ddef' (REAL 8)
(2 DEFERRED () () () ()) () 1 1 0 ()) (177 'ddefrej' (INTEGER 4) (1
DEFERRED () ()) () 1 1 0 ())) PUBLIC ())
142 't_stasta' 'p_fodits' 42 ((DERIVED UNKNOWN UNKNOWN UNKNOWN NONE NONE)
(UNKNOWN) 0 0 () () () '' ((178 'rename' (CHARACTER 1 ((CONSTANT (
INTEGER 4) 0 '16'))) () () 0 0 0 ()) (179 'timint' (DERIVED 117) () () 0
0 0 ()) (180 'incrdxyz' (REAL 8) (1 EXPLICIT (CONSTANT (INTEGER 4) 0 '1')
(CONSTANT (INTEGER 4) 0 '3')) () 1 0 0 ()) (181 'incrdneu' (REAL 8) (1
EXPLICIT (CONSTANT (INTEGER 4) 0 '1') (CONSTANT (INTEGER 4) 0 '3')) () 1
0 0 ()) (182 'incrdflg' (CHARACTER 1 ((CONSTANT (INTEGER 4) 0 '1'))) ()
() 0 0 0 ()) (183 'invelxyz' (REAL 8) (1 EXPLICIT (CONSTANT (INTEGER 4)
0 '1') (CONSTANT (INTEGER 4) 0 '3')) () 1 0 0 ()) (184 'invelneu' (REAL
8) (1 EXPLICIT (CONSTANT (INTEGER 4) 0 '1') (CONSTANT (INTEGER 4) 0 '3'))
() 1 0 0 ()) (185 'invelflg' (CHARACTER 1 ((CONSTANT (INTEGER 4) 0 '5')))
() () 0 0 0 ()) (186 'invelplate' (CHARACTER 1 ((CONSTANT (INTEGER 4) 0
'4'))) () () 0 0 0 ())) PUBLIC ())
7 'ista' '' 42 ((VARIABLE IN UNKNOWN UNKNOWN NONE NONE DUMMY) (INTEGER 4)
0 0 () () () '' () ())
5 'score' '' 187 ((VARIABLE UNKNOWN UNKNOWN UNKNOWN NONE NONE DUMMY) (
DERIVED 188) 0 0 () () () '' () ())
188 't_score' 'p_fodits' 187 ((DERIVED UNKNOWN UNKNOWN UNKNOWN NONE NONE)
(UNKNOWN) 0 0 () () () '' ((189 'nsta' (INTEGER 4) () () 0 0 0 ()) (190
'nval' (INTEGER 4) () () 0 0 0 ()) (191 'ntotmjd' (INTEGER 4) () () 0 0
0 ()) (192 'begmjd' (REAL 8) () () 0 0 0 ()) (193 'endmjd' (REAL 8) () ()
0 0 0 ()) (194 'deltamjd' (REAL 8) () () 0 0 0 ()) (195 'intimrefcrd' (
REAL 8) () () 0 0 0 ()) (196 'outtimrefcrd' (REAL 8) () () 0 0 0 ()) (
197 'datumname' (CHARACTER 1 ((CONSTANT (INTEGER 4) 0 '16'))) () () 0 0
0 ()) (198 'sta' (DERIVED 199) (1 DEFERRED () ()) () 1 1 0 ()) (200 'mdl'
(DERIVED 201) () () 0 0 0 ()) (202 'lsa' (DERIVED 203) () () 0 0 0 ()) (
204 'lsb' (DERIVED 205) () () 0 0 0 ()) (206 'ctr' (DERIVED 207) () () 0
0 0 ()) (208 'san' (DERIVED 209) () () 0 0 0 ()) (210 'ddf' (DERIVED 211)
() () 0 0 0 ())) PUBLIC ())
211 't_datumdef' 'p_fodits' 187 ((DERIVED UNKNOWN UNKNOWN UNKNOWN NONE
NONE) (UNKNOWN) 0 0 () () () '' ((212 'mjd' (REAL 8) (1 DEFERRED () ())
() 1 1 0 ()) (213 'hlmpar' (REAL 8) (2 DEFERRED () () () ()) () 1 1 0 ())
(214 'rmshlmpar' (REAL 8) (2 DEFERRED () () () ()) () 1 1 0 ()) (215
'rmshlmtra' (REAL 8) (1 DEFERRED () ()) () 1 1 0 ()) (216 'totsta' (
INTEGER 4) (1 DEFERRED () ()) () 1 1 0 ()) (217 'refsta' (INTEGER 4) (1
DEFERRED () ()) () 1 1 0 ()) (218 'rejsta' (INTEGER 4) (1 DEFERRED () ())
() 1 1 0 ()) (219 'hlmparoffst' (REAL 8) (1 EXPLICIT (CONSTANT (INTEGER
4) 0 '1') (CONSTANT (INTEGER 4) 0 '7')) () 1 0 0 ()) (220 'hlmparoffstrms'
(REAL 8) (1 EXPLICIT (CONSTANT (INTEGER 4) 0 '1') (CONSTANT (INTEGER 4)
0 '7')) () 1 0 0 ()) (221 'hlmpardrift' (REAL 8) (1 EXPLICIT (CONSTANT (
INTEGER 4) 0 '1') (CONSTANT (INTEGER 4) 0 '7')) () 1 0 0 ()) (222
'hlmpardriftrms' (REAL 8) (1 EXPLICIT (CONSTANT (INTEGER 4) 0 '1') (
CONSTANT (INTEGER 4) 0 '7')) () 1 0 0 ())) PUBLIC ())
209 't_san' 'p_fodits' 187 ((DERIVED UNKNOWN UNKNOWN UNKNOWN NONE NONE)
(UNKNOWN) 0 0 () () () '' ((223 'nper' (INTEGER 4) () () 0 0 0 ()) (224
'per' (REAL 8) (1 DEFERRED () ()) () 1 1 0 ())) PUBLIC ())
207 't_ctr' 'p_fodits' 187 ((DERIVED UNKNOWN UNKNOWN UNKNOWN NONE NONE)
(UNKNOWN) 0 0 () () () '' ((225 'niterloop' (INTEGER 4) () () 0 0 0 ())
(226 'modnumiter' (REAL 8) (1 DEFERRED () ()) () 1 1 0 ()) (227
'modnumiteroutl' (REAL 8) (1 DEFERRED () ()) () 1 1 0 ()) (228 'nscrnloop'
(INTEGER 4) () () 0 0 0 ()) (229 'modnumscrn' (REAL 8) (1 DEFERRED () ())
() 1 1 0 ()) (230 'modnumscrnoutl' (REAL 8) (1 DEFERRED () ()) () 1 1 0
()) (231 'nremoloop' (INTEGER 4) () () 0 0 0 ())) PUBLIC ())
205 't_lsb' 'p_fodits' 187 ((DERIVED UNKNOWN UNKNOWN UNKNOWN NONE NONE)
(UNKNOWN) 0 0 () () () '' ((232 'prevvtv' (REAL 8) () () 0 0 0 ()) (233
'm0' (REAL 8) () () 0 0 0 ())) PUBLIC ())
203 't_lsa' 'p_fodits' 187 ((DERIVED UNKNOWN UNKNOWN UNKNOWN NONE NONE)
(UNKNOWN) 0 0 () () () '' ((234 'nnpar' (INTEGER 4) () () 0 0 0 ()) (
235 'nnmjd' (INTEGER 4) () () 0 0 0 ()) (236 'a' (REAL 8) (2 DEFERRED ()
() () ()) () 1 1 0 ()) (237 'qxx' (REAL 8) (2 DEFERRED () () () ()) () 1
1 0 ()) (238 'y' (REAL 8) (1 DEFERRED () ()) () 1 1 0 ()) (239 'x' (
REAL 8) (1 DEFERRED () ()) () 1 1 0 ()) (240 'mod' (REAL 8) (1 DEFERRED
() ()) () 1 1 0 ()) (241 'v' (REAL 8) (1 DEFERRED () ()) () 1 1 0 ()) (
242 'p' (REAL 8) (1 DEFERRED () ()) () 1 1 0 ()) (243 'iqyy' (REAL 8) (
3 DEFERRED () () () () () ()) () 1 1 0 ()) (244 'dof' (INTEGER 4) () ()
0 0 0 ()) (245 'detn' (REAL 8) () () 0 0 0 ()) (246 'vtv' (REAL 8) () ()
0 0 0 ()) (247 'm0' (REAL 8) () () 0 0 0 ())) PUBLIC ())
201 't_mdl' 'p_fodits' 187 ((DERIVED UNKNOWN UNKNOWN UNKNOWN NONE NONE)
(UNKNOWN) 0 0 () () () '' ((248 'evnt' (DERIVED 249) () () 0 0 0 ()) (
250 'napri' (INTEGER 4) () () 0 0 0 ()) (251 'apri' (DERIVED 249) (1
DEFERRED () ()) () 1 1 0 ()) (252 'niden' (INTEGER 4) () () 0 0 0 ()) (
253 'iden' (DERIVED 249) (1 DEFERRED () ()) () 1 1 0 ()) (254 'namod' (
INTEGER 4) () () 0 0 0 ()) (255 'amod' (DERIVED 249) (1 DEFERRED () ())
() 1 1 0 ()) (256 'outlmjd' (REAL 8) (1 DEFERRED () ()) () 1 1 0 ()))
PUBLIC ())
249 't_evnt' 'p_fodits' 187 ((DERIVED UNKNOWN UNKNOWN UNKNOWN NONE NONE)
(UNKNOWN) 0 0 () () () '' ((257 'type' (INTEGER 4) () () 0 0 0 ()) (258
'info' (INTEGER 4) () () 0 0 0 ()) (259 'mjd' (REAL 8) () () 0 0 0 ()) (
260 'omega' (REAL 8) () () 0 0 0 ()) (261 'timint' (DERIVED 262) () () 0
0 0 ()) (263 'flag' (INTEGER 4) () () 0 0 0 ()) (264 'remark' (
CHARACTER 1 ((CONSTANT (INTEGER 4) 0 '8'))) () () 0 0 0 ()) (265 'index'
(INTEGER 4) () () 0 0 0 ()) (266 'cand' (INTEGER 4) () () 0 0 0 ()) (
267 'par' (REAL 8) (1 EXPLICIT (CONSTANT (INTEGER 4) 0 '1') (CONSTANT (
INTEGER 4) 0 '3')) () 1 0 0 ()) (268 'val' (REAL 8) () () 0 0 0 ()) (
269 'dval' (REAL 8) () () 0 0 0 ()) (270 'vltst' (REAL 8) () () 0 0 0 ())
(271 'sttst' (REAL 8) () () 0 0 0 ()) (272 'sitst' (INTEGER 4) () () 0 0
0 ()) (273 'rename' (CHARACTER 1 ((CONSTANT (INTEGER 4) 0 '2'))) () () 0
0 0 ()) (274 'recchg' (CHARACTER 1 ((CONSTANT (INTEGER 4) 0 '20'))) (1
EXPLICIT (CONSTANT (INTEGER 4) 0 '1') (CONSTANT (INTEGER 4) 0 '2')) () 1
0 0 ()) (275 'antchg' (CHARACTER 1 ((CONSTANT (INTEGER 4) 0 '20'))) (1
EXPLICIT (CONSTANT (INTEGER 4) 0 '1') (CONSTANT (INTEGER 4) 0 '2')) () 1
0 0 ()) (276 'eccchg' (REAL 8) (2 EXPLICIT (CONSTANT (INTEGER 4) 0 '1')
(CONSTANT (INTEGER 4) 0 '3') (CONSTANT (INTEGER 4) 0 '1') (CONSTANT (
INTEGER 4) 0 '2')) () 1 0 0 ()) (277 'mjd2' (REAL 8) () () 0 0 0 ()) (
278 'dpar' (REAL 8) (1 EXPLICIT (CONSTANT (INTEGER 4) 0 '1') (CONSTANT (
INTEGER 4) 0 '3')) () 1 0 0 ()) (279 'phi' (REAL 8) (1 EXPLICIT (
CONSTANT (INTEGER 4) 0 '1') (CONSTANT (INTEGER 4) 0 '3')) () 1 0 0 ()) (
280 'ppar' (REAL 8) (2 EXPLICIT (CONSTANT (INTEGER 4) 0 '1') (CONSTANT (
INTEGER 4) 0 '3') (CONSTANT (INTEGER 4) 0 '1') (CONSTANT (INTEGER 4) 0 '2'))
() 1 0 0 ()) (281 'mod' (REAL 8) (1 EXPLICIT (CONSTANT (INTEGER 4) 0 '1')
(CONSTANT (INTEGER 4) 0 '3')) () 1 0 0 ())) PUBLIC ())
262 't_timint' 'm_time' 187 ((DERIVED UNKNOWN UNKNOWN UNKNOWN NONE NONE)
(UNKNOWN) 0 0 () () () '' ((282 't' (REAL 8) (1 EXPLICIT (CONSTANT (
INTEGER 4) 0 '1') (CONSTANT (INTEGER 4) 0 '2')) () 1 0 0 ())) PUBLIC ())
199 't_score_stat' 'p_fodits' 187 ((DERIVED UNKNOWN UNKNOWN UNKNOWN NONE
NONE) (UNKNOWN) 0 0 () () () '' ((283 'name' (CHARACTER 1 ((CONSTANT (
INTEGER 4) 0 '16'))) () () 0 0 0 ()) (284 'irefsta' (INTEGER 4) () () 0
0 0 ()) (285 'nstasta' (INTEGER 4) () () 0 0 0 ()) (286 'stasta' (
DERIVED 287) (1 DEFERRED () ()) () 1 1 0 ()) (288 'outcrdxyz' (REAL 8) (
1 EXPLICIT (CONSTANT (INTEGER 4) 0 '1') (CONSTANT (INTEGER 4) 0 '3')) ()
1 0 0 ()) (289 'outvelxyz' (REAL 8) (1 EXPLICIT (CONSTANT (INTEGER 4) 0
'1') (CONSTANT (INTEGER 4) 0 '3')) () 1 0 0 ()) (290 'nitersteps' (
INTEGER 4) () () 0 0 0 ()) (291 'modrms' (REAL 8) () () 0 0 0 ()) (292
'singular' (INTEGER 4) () () 0 0 0 ()) (293 'ts' (DERIVED 294) () () 0 0
0 ()) (295 'mod' (DERIVED 296) () () 0 0 0 ()) (297 'upd' (DERIVED 298)
() () 0 0 0 ())) PUBLIC ())
298 't_upd' 'p_fodits' 187 ((DERIVED UNKNOWN UNKNOWN UNKNOWN NONE NONE)
(UNKNOWN) 0 0 () () () '' ((299 'nren' (INTEGER 4) () () 0 0 0 ()) (300
'ren' (DERIVED 301) (1 DEFERRED () ()) () 1 1 0 ()) (302 'stastatusref'
(INTEGER 4) () () 0 0 0 ()) (303 'maxtimeinterv' (REAL 8) () () 0 0 0 ()))
PUBLIC ())
301 't_upd_ren' 'p_fodits' 187 ((DERIVED UNKNOWN UNKNOWN UNKNOWN NONE
NONE) (UNKNOWN) 0 0 () () () '' ((304 'type' (INTEGER 4) () () 0 0 0 ())
(305 'info' (INTEGER 4) () () 0 0 0 ()) (306 'timint' (DERIVED 262) () ()
0 0 0 ()) (307 'rename' (CHARACTER 1 ((CONSTANT (INTEGER 4) 0 '2'))) ()
() 0 0 0 ()) (308 'cnstr' (INTEGER 4) () () 0 0 0 ()) (309 'group' (
INTEGER 4) () () 0 0 0 ()) (310 'grouplength' (REAL 8) () () 0 0 0 ()) (
311 'groupnumdata' (INTEGER 4) () () 0 0 0 ()) (312 'remark' (CHARACTER
1 ((CONSTANT (INTEGER 4) 0 '8'))) () () 0 0 0 ())) PUBLIC ())
296 't_mod' 'p_fodits' 187 ((DERIVED UNKNOWN UNKNOWN UNKNOWN NONE NONE)
(UNKNOWN) 0 0 () () () '' ((313 'nevnt' (INTEGER 4) () () 0 0 0 ()) (
314 'evnt' (DERIVED 249) (1 DEFERRED () ()) () 1 1 0 ())) PUBLIC ())
294 't_ts' 'p_fodits' 187 ((DERIVED UNKNOWN UNKNOWN UNKNOWN NONE NONE) (
UNKNOWN) 0 0 () () () '' ((315 'nval' (INTEGER 4) () () 0 0 0 ()) (316
'nmjd' (INTEGER 4) () () 0 0 0 ()) (317 'mjd' (REAL 8) (1 DEFERRED () ())
() 1 1 0 ()) (318 'val' (REAL 8) (2 DEFERRED () () () ()) () 1 1 0 ()) (
319 'dval' (REAL 8) (2 DEFERRED () () () ()) () 1 1 0 ()) (320 'vci' (
REAL 8) (3 DEFERRED () () () () () ()) () 1 1 0 ()) (321 'ddef' (REAL 8)
(2 DEFERRED () () () ()) () 1 1 0 ()) (322 'ddefrej' (INTEGER 4) (1
DEFERRED () ()) () 1 1 0 ())) PUBLIC ())
287 't_stasta' 'p_fodits' 187 ((DERIVED UNKNOWN UNKNOWN UNKNOWN NONE
NONE) (UNKNOWN) 0 0 () () () '' ((323 'rename' (CHARACTER 1 ((CONSTANT (
INTEGER 4) 0 '16'))) () () 0 0 0 ()) (324 'timint' (DERIVED 262) () () 0
0 0 ()) (325 'incrdxyz' (REAL 8) (1 EXPLICIT (CONSTANT (INTEGER 4) 0 '1')
(CONSTANT (INTEGER 4) 0 '3')) () 1 0 0 ()) (326 'incrdneu' (REAL 8) (1
EXPLICIT (CONSTANT (INTEGER 4) 0 '1') (CONSTANT (INTEGER 4) 0 '3')) () 1
0 0 ()) (327 'incrdflg' (CHARACTER 1 ((CONSTANT (INTEGER 4) 0 '1'))) ()
() 0 0 0 ()) (328 'invelxyz' (REAL 8) (1 EXPLICIT (CONSTANT (INTEGER 4)
0 '1') (CONSTANT (INTEGER 4) 0 '3')) () 1 0 0 ()) (329 'invelneu' (REAL
8) (1 EXPLICIT (CONSTANT (INTEGER 4) 0 '1') (CONSTANT (INTEGER 4) 0 '3'))
() 1 0 0 ()) (330 'invelflg' (CHARACTER 1 ((CONSTANT (INTEGER 4) 0 '5')))
() () 0 0 0 ()) (331 'invelplate' (CHARACTER 1 ((CONSTANT (INTEGER 4) 0
'4'))) () () 0 0 0 ())) PUBLIC ())
4 'datfil' '' 187 ((VARIABLE UNKNOWN UNKNOWN UNKNOWN NONE NONE DUMMY) (
DERIVED 332) 0 0 () () () '' () ())
332 't_datfil' 'p_fodits' 187 ((DERIVED UNKNOWN UNKNOWN UNKNOWN NONE
NONE) (UNKNOWN) 0 0 () () () '' ((333 'stain' (DERIVED 334) () () 0 0 0
()) (335 'evlin' (DERIVED 336) () () 0 0 0 ()) (337 'erqin' (DERIVED 338)
() () 0 0 0 ()) (339 'staout' (DERIVED 334) () () 0 0 0 ()) (340 'evlout'
(DERIVED 336) () () 0 0 0 ())) PUBLIC ())
338 't_erq' 'p_fodits' 187 ((DERIVED UNKNOWN UNKNOWN UNKNOWN NONE NONE)
(UNKNOWN) 0 0 () () () '' ((341 'nerq' (INTEGER 4) () () 0 0 0 ()) (342
'erq' (DERIVED 343) (1 DEFERRED () ()) () 1 1 0 ())) PUBLIC ())
343 't_erq_nr' 'p_fodits' 187 ((DERIVED UNKNOWN UNKNOWN UNKNOWN NONE
NONE) (UNKNOWN) 0 0 () () () '' ((344 'mjd' (REAL 8) () () 0 0 0 ()) (
345 'lat' (REAL 8) () () 0 0 0 ()) (346 'lon' (REAL 8) () () 0 0 0 ()) (
347 'crdxyz' (REAL 8) (1 EXPLICIT (CONSTANT (INTEGER 4) 0 '1') (
CONSTANT (INTEGER 4) 0 '3')) () 1 0 0 ()) (348 'dep' (INTEGER 4) () () 0
0 0 ()) (349 'mag' (REAL 8) () () 0 0 0 ()) (350 'magdescr' (CHARACTER 1
((CONSTANT (INTEGER 4) 0 '5'))) () () 0 0 0 ())) PUBLIC ())
336 't_evl' 'p_fodits' 187 ((DERIVED UNKNOWN UNKNOWN UNKNOWN NONE NONE)
(UNKNOWN) 0 0 () () () '' ((351 'nsta' (INTEGER 4) () () 0 0 0 ()) (352
'sta' (DERIVED 353) (1 DEFERRED () ()) () 1 1 0 ())) PUBLIC ())
353 't_evl_sta' 'p_fodits' 187 ((DERIVED UNKNOWN UNKNOWN UNKNOWN NONE
NONE) (UNKNOWN) 0 0 () () () '' ((354 'name' (CHARACTER 1 ((CONSTANT (
INTEGER 4) 0 '16'))) () () 0 0 0 ()) (355 'nevnt' (INTEGER 4) () () 0 0
0 ()) (356 'evnt' (DERIVED 357) (1 DEFERRED () ()) () 1 1 0 ())) PUBLIC
())
357 't_evl_sta_evnt' 'p_fodits' 187 ((DERIVED UNKNOWN UNKNOWN UNKNOWN
NONE NONE) (UNKNOWN) 0 0 () () () '' ((358 'type' (CHARACTER 1 ((
CONSTANT (INTEGER 4) 0 '4'))) () () 0 0 0 ()) (359 'omega' (REAL 8) () ()
0 0 0 ()) (360 'timint' (DERIVED 262) () () 0 0 0 ()) (361 'flag' (
CHARACTER 1 ((CONSTANT (INTEGER 4) 0 '3'))) () () 0 0 0 ()) (362 'remark'
(CHARACTER 1 ((CONSTANT (INTEGER 4) 0 '8'))) () () 0 0 0 ()) (363 'par'
(REAL 8) (1 EXPLICIT (CONSTANT (INTEGER 4) 0 '1') (CONSTANT (INTEGER 4)
0 '3')) () 1 0 0 ()) (364 'val' (REAL 8) () () 0 0 0 ()) (365 'dval' (
REAL 8) () () 0 0 0 ()) (366 'sttst' (REAL 8) () () 0 0 0 ()) (367 'sitst'
(INTEGER 4) () () 0 0 0 ()) (368 'phi' (REAL 8) (1 EXPLICIT (CONSTANT (
INTEGER 4) 0 '1') (CONSTANT (INTEGER 4) 0 '3')) () 1 0 0 ())) PUBLIC ())
334 't_stacrux' 'd_stacrx' 187 ((DERIVED UNKNOWN UNKNOWN UNKNOWN NONE
NONE) (UNKNOWN) 0 0 () () () '' ((369 'nrenam' (INTEGER 4) () () 0 0 0 ())
(370 'ninfo' (INTEGER 4) () () 0 0 0 ()) (371 'nprob' (INTEGER 4) () ()
0 0 0 ()) (372 'ncoovel' (INTEGER 4) () () 0 0 0 ()) (373 'nrelpar' (
INTEGER 4) () () 0 0 0 ()) (374 'nstatype' (INTEGER 4) () () 0 0 0 ()) (
375 'version' (REAL 8) () () 0 0 0 ()) (376 'technique' (CHARACTER 1 ((
CONSTANT (INTEGER 4) 0 '30'))) () () 0 0 0 ()) (377 'renamsta' (DERIVED
378) (1 DEFERRED () ()) () 1 1 0 ()) (379 'stainfo' (DERIVED 380) (1
DEFERRED () ()) () 1 1 0 ()) (381 'staprob' (DERIVED 382) (1 DEFERRED ()
()) () 1 1 0 ()) (383 'coovel' (DERIVED 384) (1 DEFERRED () ()) () 1 1 0
()) (385 'starelpar' (DERIVED 386) (1 DEFERRED () ()) () 1 1 0 ()) (387
'statype' (DERIVED 388) (1 DEFERRED () ()) () 1 1 0 ())) PUBLIC ())
388 't_statype' 'd_stacrx' 187 ((DERIVED UNKNOWN UNKNOWN UNKNOWN NONE
NONE) (UNKNOWN) 0 0 () () () '' ((389 'stanam' (CHARACTER 1 ((CONSTANT (
INTEGER 4) 0 '16'))) () () 0 0 0 ()) (390 'flg' (CHARACTER 1 ((CONSTANT
(INTEGER 4) 0 '3'))) () () 0 0 0 ()) (391 'timint' (DERIVED 262) () () 0
0 0 ()) (392 'markertype' (CHARACTER 1 ((CONSTANT (INTEGER 4) 0 '20')))
() () 0 0 0 ()) (393 'remark' (CHARACTER 1 ((CONSTANT (INTEGER 4) 0 '24')))
() () 0 0 0 ())) PUBLIC ())
386 't_starelpar' 'd_stacrx' 187 ((DERIVED UNKNOWN UNKNOWN UNKNOWN NONE
NONE) (UNKNOWN) 0 0 () () () '' ((394 'stanam' (CHARACTER 1 ((CONSTANT (
INTEGER 4) 0 '16'))) (1 EXPLICIT (CONSTANT (INTEGER 4) 0 '1') (CONSTANT
(INTEGER 4) 0 '2')) () 1 0 0 ()) (395 'flg' (CHARACTER 1 ((CONSTANT (
INTEGER 4) 0 '3'))) () () 0 0 0 ()) (396 'timwin' (DERIVED 262) () () 0
0 0 ()) (397 'partyp' (CHARACTER 1 ((CONSTANT (INTEGER 4) 0 '8'))) () ()
0 0 0 ()) (398 'sys' (CHARACTER 1 ((CONSTANT (INTEGER 4) 0 '3'))) (1
EXPLICIT (CONSTANT (INTEGER 4) 0 '1') (CONSTANT (INTEGER 4) 0 '2')) () 1
0 0 ()) (399 'loctie' (REAL 8) (1 EXPLICIT (CONSTANT (INTEGER 4) 0 '1')
(CONSTANT (INTEGER 4) 0 '3')) () 1 0 0 ()) (400 'constr' (REAL 8) (1
EXPLICIT (CONSTANT (INTEGER 4) 0 '1') (CONSTANT (INTEGER 4) 0 '3')) () 1
0 0 ()) (401 'correl' (REAL 8) (1 EXPLICIT (CONSTANT (INTEGER 4) 0 '1')
(CONSTANT (INTEGER 4) 0 '3')) () 1 0 0 ()) (402 'remark' (CHARACTER 1 (
(CONSTANT (INTEGER 4) 0 '24'))) () () 0 0 0 ()) (403 'applied' (LOGICAL
4) () () 0 0 0 ())) PUBLIC ())
384 't_coovel' 'd_stacrx' 187 ((DERIVED UNKNOWN UNKNOWN UNKNOWN NONE
NONE) (UNKNOWN) 0 0 () () () '' ((404 'stanam' (CHARACTER 1 ((CONSTANT (
INTEGER 4) 0 '16'))) (1 EXPLICIT (CONSTANT (INTEGER 4) 0 '1') (CONSTANT
(INTEGER 4) 0 '2')) () 1 0 0 ()) (405 'constr' (REAL 8) (1 EXPLICIT (
CONSTANT (INTEGER 4) 0 '1') (CONSTANT (INTEGER 4) 0 '6')) () 1 0 0 ()))
PUBLIC ())
382 't_staprob' 'd_stacrx' 187 ((DERIVED UNKNOWN UNKNOWN UNKNOWN NONE
NONE) (UNKNOWN) 0 0 () () () '' ((406 'stanam' (CHARACTER 1 ((CONSTANT (
INTEGER 4) 0 '16'))) () () 0 0 0 ()) (407 'flg' (CHARACTER 1 ((CONSTANT
(INTEGER 4) 0 '3'))) () () 0 0 0 ()) (408 'timint' (DERIVED 262) () () 0
0 0 ()) (409 'remark' (CHARACTER 1 ((CONSTANT (INTEGER 4) 0 '60'))) () ()
0 0 0 ())) PUBLIC ())
380 't_stainfo' 'd_stacrx' 187 ((DERIVED UNKNOWN UNKNOWN UNKNOWN NONE
NONE) (UNKNOWN) 0 0 () () () '' ((410 'stanam' (CHARACTER 1 ((CONSTANT (
INTEGER 4) 0 '16'))) () () 0 0 0 ()) (411 'flg' (CHARACTER 1 ((CONSTANT
(INTEGER 4) 0 '3'))) () () 0 0 0 ()) (412 'timint' (DERIVED 262) () () 0
0 0 ()) (413 'recnam' (CHARACTER 1 ((CONSTANT (INTEGER 4) 0 '20'))) () ()
0 0 0 ()) (414 'antnam' (CHARACTER 1 ((CONSTANT (INTEGER 4) 0 '20'))) ()
() 0 0 0 ()) (415 'recser' (CHARACTER 1 ((CONSTANT (INTEGER 4) 0 '20')))
() () 0 0 0 ()) (416 'antser' (CHARACTER 1 ((CONSTANT (INTEGER 4) 0 '20')))
() () 0 0 0 ()) (417 'recnum' (INTEGER 4) () () 0 0 0 ()) (418 'antnum'
(INTEGER 4) () () 0 0 0 ()) (419 'antecc' (REAL 8) (1 EXPLICIT (
CONSTANT (INTEGER 4) 0 '1') (CONSTANT (INTEGER 4) 0 '3')) () 1 0 0 ()) (
420 'descri' (CHARACTER 1 ((CONSTANT (INTEGER 4) 0 '22'))) () () 0 0 0 ())
(421 'remark' (CHARACTER 1 ((CONSTANT (INTEGER 4) 0 '24'))) () () 0 0 0
()) (422 'cdpsod' (CHARACTER 1 ((CONSTANT (INTEGER 4) 0 '8'))) () () 0 0
0 ())) PUBLIC ())
378 't_renamsta' 'd_stacrx' 187 ((DERIVED UNKNOWN UNKNOWN UNKNOWN NONE
NONE) (UNKNOWN) 0 0 () () () '' ((423 'stanam' (CHARACTER 1 ((CONSTANT (
INTEGER 4) 0 '16'))) () () 0 0 0 ()) (424 'flg' (CHARACTER 1 ((CONSTANT
(INTEGER 4) 0 '3'))) () () 0 0 0 ()) (425 'timint' (DERIVED 262) () () 0
0 0 ()) (426 'oldnam' (CHARACTER 1 ((CONSTANT (INTEGER 4) 0 '16'))) () ()
0 0 0 ()) (427 'remark' (CHARACTER 1 ((CONSTANT (INTEGER 4) 0 '24'))) ()
() 0 0 0 ())) PUBLIC ())
3 'opt' '' 187 ((VARIABLE UNKNOWN UNKNOWN UNKNOWN NONE NONE DUMMY) (
DERIVED 428) 0 0 () () () '' () ())
428 't_opt' 'p_fodits' 187 ((DERIVED UNKNOWN UNKNOWN UNKNOWN NONE NONE)
(UNKNOWN) 0 0 () () () '' ((429 'rdonlystanames' (INTEGER 4) () () 0 0 0
()) (430 'selinptstype' (INTEGER 4) () () 0 0 0 ()) (431 'inpltfile' (
CHARACTER 1 ((CONSTANT (INTEGER 4) 0 '32'))) () () 0 0 0 ()) (432
'inpltfilevciena' (INTEGER 4) () () 0 0 0 ()) (433 'inpltfilevim0' (
REAL 8) () () 0 0 0 ()) (434 'incrdfile' (CHARACTER 1 ((CONSTANT (
INTEGER 4) 0 '32'))) () () 0 0 0 ()) (435 'invelfile' (CHARACTER 1 ((
CONSTANT (INTEGER 4) 0 '32'))) () () 0 0 0 ()) (436 'ncrds' (INTEGER 4)
() () 0 0 0 ()) (437 'crdfilename' (CHARACTER 1 ((CONSTANT (INTEGER 4) 0
'32'))) (1 DEFERRED () ()) () 1 1 0 ()) (438 'inevlfile' (CHARACTER 1 (
(CONSTANT (INTEGER 4) 0 '32'))) () () 0 0 0 ()) (439 'instafile' (
CHARACTER 1 ((CONSTANT (INTEGER 4) 0 '32'))) () () 0 0 0 ()) (440
'inerqfile' (CHARACTER 1 ((CONSTANT (INTEGER 4) 0 '80'))) () () 0 0 0 ())
(441 'const' (CHARACTER 1 ((CONSTANT (INTEGER 4) 0 '32'))) () () 0 0 0 ())
(442 'datum' (CHARACTER 1 ((CONSTANT (INTEGER 4) 0 '32'))) () () 0 0 0 ())
(443 'gvarerqfacta' (REAL 8) () () 0 0 0 ()) (444 'gvarerqfactb' (REAL 8)
() () 0 0 0 ()) (445 'gvarerqmindist' (REAL 8) () () 0 0 0 ()) (446
'incrdfileaddplt' (INTEGER 4) () () 0 0 0 ()) (447 'invelfileaddplt' (
INTEGER 4) () () 0 0 0 ()) (448 'gvarmaxnriterstep' (INTEGER 4) () () 0
0 0 ()) (449 'gvarmaxnrscrnstep' (INTEGER 4) () () 0 0 0 ()) (450
'modnnewoutl' (INTEGER 4) () () 0 0 0 ()) (451 'modnoutlrms' (REAL 8) ()
() 0 0 0 ()) (452 'outevlfile' (CHARACTER 1 ((CONSTANT (INTEGER 4) 0 '32')))
() () 0 0 0 ()) (453 'outstafileforaddneq2' (CHARACTER 1 ((CONSTANT (
INTEGER 4) 0 '32'))) () () 0 0 0 ()) (454 'outpltfile' (CHARACTER 1 ((
CONSTANT (INTEGER 4) 0 '32'))) () () 0 0 0 ()) (455 'outfileverbose' (
INTEGER 4) () () 0 0 0 ()) (456 'outfileverboset' (INTEGER 4) () () 0 0
0 ()) (457 'outfileverbosett' (INTEGER 4) () () 0 0 0 ()) (458 'title' (
CHARACTER 1 ((CONSTANT (INTEGER 4) 0 '80'))) () () 0 0 0 ()) (459
'intruncstaname' (INTEGER 4) () () 0 0 0 ()) (460 'nstasel' (INTEGER 4)
() () 0 0 0 ()) (461 'instaselection' (CHARACTER 1 ((CONSTANT (INTEGER 4)
0 '16'))) (1 DEFERRED () ()) () 1 1 0 ()) (462 'inminnrobs' (INTEGER 4)
() () 0 0 0 ()) (463 'tstevltst' (INTEGER 4) () () 0 0 0 ()) (464
'tststarenamings' (INTEGER 4) () () 0 0 0 ()) (465 'tstrectypechanges' (
INTEGER 4) () () 0 0 0 ()) (466 'tstrecnumberchanges' (INTEGER 4) () ()
0 0 0 ()) (467 'tstanttypechanges' (INTEGER 4) () () 0 0 0 ()) (468
'tstantnumberchanges' (INTEGER 4) () () 0 0 0 ()) (469 'tsteccchanges' (
INTEGER 4) () () 0 0 0 ()) (470 'modpredattest' (INTEGER 4) () () 0 0 0
()) (471 'minintervforvel' (REAL 8) () () 0 0 0 ()) (472 'modperann' (
INTEGER 4) () () 0 0 0 ()) (473 'modaddena' (INTEGER 4) () () 0 0 0 ())
(474 'naddperparam' (INTEGER 4) () () 0 0 0 ()) (475 'modaddperparam' (
REAL 8) (1 DEFERRED () ()) () 1 1 0 ()) (476 'indatumcrdfile' (
CHARACTER 1 ((CONSTANT (INTEGER 4) 0 '32'))) () () 0 0 0 ()) (477
'indatumvelfile' (CHARACTER 1 ((CONSTANT (INTEGER 4) 0 '32'))) () () 0 0
0 ()) (478 'indatumfixfile' (CHARACTER 1 ((CONSTANT (INTEGER 4) 0 '32')))
() () 0 0 0 ()) (479 'dathlmtx' (INTEGER 4) () () 0 0 0 ()) (480
'dathlmty' (INTEGER 4) () () 0 0 0 ()) (481 'dathlmtz' (INTEGER 4) () ()
0 0 0 ()) (482 'dathlmrx' (INTEGER 4) () () 0 0 0 ()) (483 'dathlmry' (
INTEGER 4) () () 0 0 0 ()) (484 'dathlmrz' (INTEGER 4) () () 0 0 0 ()) (
485 'dathlmsc' (INTEGER 4) () () 0 0 0 ()) (486 'datrejectcrd' (INTEGER
4) () () 0 0 0 ()) (487 'datnlimitcrd' (REAL 8) () () 0 0 0 ()) (488
'datelimitcrd' (REAL 8) () () 0 0 0 ()) (489 'datulimitcrd' (REAL 8) ()
() 0 0 0 ()) (490 'datrejectoutlcrd' (INTEGER 4) () () 0 0 0 ()) (491
'modtestvalue' (REAL 8) () () 0 0 0 ()) (492 'modoutltestvalue' (REAL 8)
() () 0 0 0 ()) (493 'modjumpspac' (REAL 8) () () 0 0 0 ()) (494
'modjumpsing' (REAL 8) () () 0 0 0 ()) (495 'modjumphori' (REAL 8) () ()
0 0 0 ()) (496 'modjumpvert' (REAL 8) () () 0 0 0 ()) (497 'modvelospac'
(REAL 8) () () 0 0 0 ()) (498 'modvelosing' (REAL 8) () () 0 0 0 ()) (
499 'modvelohori' (REAL 8) () () 0 0 0 ()) (500 'modvelovert' (REAL 8) ()
() 0 0 0 ()) (501 'modoutlspac' (REAL 8) () () 0 0 0 ()) (502
'modoutlsing' (REAL 8) () () 0 0 0 ()) (503 'modoutlhori' (REAL 8) () ()
0 0 0 ()) (504 'modoutlvert' (REAL 8) () () 0 0 0 ()) (505 'modperispac'
(REAL 8) () () 0 0 0 ()) (506 'modperising' (REAL 8) () () 0 0 0 ()) (
507 'modperihori' (REAL 8) () () 0 0 0 ()) (508 'modperivert' (REAL 8) ()
() 0 0 0 ()) (509 'modnewjumpidentify' (INTEGER 4) () () 0 0 0 ()) (510
'modnewveloidentify' (INTEGER 4) () () 0 0 0 ()) (511 'modnewoutlidentify'
(INTEGER 4) () () 0 0 0 ()) (512 'modnewperiidentify' (INTEGER 4) () ()
0 0 0 ()) (513 'modaddveloaj' (INTEGER 4) () () 0 0 0 ()) (514 'sannlines'
(INTEGER 4) () () 0 0 0 ()) (515 'sanminperiod' (REAL 8) () () 0 0 0 ())
(516 'sanmaxperiod' (REAL 8) () () 0 0 0 ()) (517 'outtimref' (REAL 8) ()
() 0 0 0 ()) (518 'mintimeintlength' (REAL 8) () () 0 0 0 ()) (519
'minpercdatafix' (REAL 8) () () 0 0 0 ()) (520 'incrdfileforaddneq2' (
CHARACTER 1 ((CONSTANT (INTEGER 4) 0 '32'))) () () 0 0 0 ()) (521
'invelfileforaddneq2' (CHARACTER 1 ((CONSTANT (INTEGER 4) 0 '32'))) () ()
0 0 0 ()) (522 'infixfileforaddneq2' (CHARACTER 1 ((CONSTANT (INTEGER 4)
0 '32'))) () () 0 0 0 ()) (523 'insigfileforaddneq2' (CHARACTER 1 ((
CONSTANT (INTEGER 4) 0 '32'))) () () 0 0 0 ()) (524 'outcrdfileforaddneq2'
(CHARACTER 1 ((CONSTANT (INTEGER 4) 0 '32'))) () () 0 0 0 ()) (525
'outvelfileforaddneq2' (CHARACTER 1 ((CONSTANT (INTEGER 4) 0 '32'))) ()
() 0 0 0 ()) (526 'outfixfileforaddneq2' (CHARACTER 1 ((CONSTANT (
INTEGER 4) 0 '32'))) () () 0 0 0 ()) (527 'outsigfileforaddneq2' (
CHARACTER 1 ((CONSTANT (INTEGER 4) 0 '32'))) () () 0 0 0 ()) (528
'updstandays' (INTEGER 4) () () 0 0 0 ()) (529 'gvarcstrcrd' (REAL 8) ()
() 0 0 0 ()) (530 'gvarcstrvel' (REAL 8) () () 0 0 0 ())) PUBLIC ())
)

('fodigeti' 0 2 'fodigeti_screenmodforerqs' 0 6
'fodigeti_screenmodwithnotevnt' 0 10 's_fodigeti' 0 13)
