G95 module created on Thu Jun 25 17:43:53 2020 from ./.fpp/FODIWEVL.f90
If you edit this, you'll get what you deserve.
module-version 9
(() () () () () () () () () () () () () () () () () () ()
() ())

()

()

()

()

(2 'fodiwevl' 's_fodiwevl' 1 ((PROCEDURE UNKNOWN MODULE-PROC DECL NONE
NONE SUBROUTINE) (PROCEDURE 0) 0 0 (3 NONE 4 NONE) () () '' () ())
5 's_fodiwevl' 's_fodiwevl' 1 ((MODULE UNKNOWN UNKNOWN UNKNOWN NONE NONE)
(UNKNOWN) 0 0 () () () '' () ())
4 'datfil' '' 6 ((VARIABLE UNKNOWN UNKNOWN UNKNOWN NONE NONE DUMMY) (
DERIVED 7) 0 0 () () () '' () ())
7 't_datfil' 'p_fodits' 6 ((DERIVED UNKNOWN UNKNOWN UNKNOWN NONE NONE) (
UNKNOWN) 0 0 () () () '' ((8 'stain' (DERIVED 9) () () 0 0 0 ()) (10
'evlin' (DERIVED 11) () () 0 0 0 ()) (12 'erqin' (DERIVED 13) () () 0 0
0 ()) (14 'staout' (DERIVED 9) () () 0 0 0 ()) (15 'evlout' (DERIVED 11)
() () 0 0 0 ())) PUBLIC ())
13 't_erq' 'p_fodits' 6 ((DERIVED UNKNOWN UNKNOWN UNKNOWN NONE NONE) (
UNKNOWN) 0 0 () () () '' ((16 'nerq' (INTEGER 4) () () 0 0 0 ()) (17 'erq'
(DERIVED 18) (1 DEFERRED () ()) () 1 1 0 ())) PUBLIC ())
18 't_erq_nr' 'p_fodits' 6 ((DERIVED UNKNOWN UNKNOWN UNKNOWN NONE NONE)
(UNKNOWN) 0 0 () () () '' ((19 'mjd' (REAL 8) () () 0 0 0 ()) (20 'lat'
(REAL 8) () () 0 0 0 ()) (21 'lon' (REAL 8) () () 0 0 0 ()) (22 'crdxyz'
(REAL 8) (1 EXPLICIT (CONSTANT (INTEGER 4) 0 '1') (CONSTANT (INTEGER 4)
0 '3')) () 1 0 0 ()) (23 'dep' (INTEGER 4) () () 0 0 0 ()) (24 'mag' (
REAL 8) () () 0 0 0 ()) (25 'magdescr' (CHARACTER 1 ((CONSTANT (INTEGER
4) 0 '5'))) () () 0 0 0 ())) PUBLIC ())
11 't_evl' 'p_fodits' 6 ((DERIVED UNKNOWN UNKNOWN UNKNOWN NONE NONE) (
UNKNOWN) 0 0 () () () '' ((26 'nsta' (INTEGER 4) () () 0 0 0 ()) (27 'sta'
(DERIVED 28) (1 DEFERRED () ()) () 1 1 0 ())) PUBLIC ())
28 't_evl_sta' 'p_fodits' 6 ((DERIVED UNKNOWN UNKNOWN UNKNOWN NONE NONE)
(UNKNOWN) 0 0 () () () '' ((29 'name' (CHARACTER 1 ((CONSTANT (INTEGER 4)
0 '16'))) () () 0 0 0 ()) (30 'nevnt' (INTEGER 4) () () 0 0 0 ()) (31
'evnt' (DERIVED 32) (1 DEFERRED () ()) () 1 1 0 ())) PUBLIC ())
32 't_evl_sta_evnt' 'p_fodits' 6 ((DERIVED UNKNOWN UNKNOWN UNKNOWN NONE
NONE) (UNKNOWN) 0 0 () () () '' ((33 'type' (CHARACTER 1 ((CONSTANT (
INTEGER 4) 0 '4'))) () () 0 0 0 ()) (34 'omega' (REAL 8) () () 0 0 0 ())
(35 'timint' (DERIVED 36) () () 0 0 0 ()) (37 'flag' (CHARACTER 1 ((
CONSTANT (INTEGER 4) 0 '3'))) () () 0 0 0 ()) (38 'remark' (CHARACTER 1
((CONSTANT (INTEGER 4) 0 '8'))) () () 0 0 0 ()) (39 'par' (REAL 8) (1
EXPLICIT (CONSTANT (INTEGER 4) 0 '1') (CONSTANT (INTEGER 4) 0 '3')) () 1
0 0 ()) (40 'val' (REAL 8) () () 0 0 0 ()) (41 'dval' (REAL 8) () () 0 0
0 ()) (42 'sttst' (REAL 8) () () 0 0 0 ()) (43 'sitst' (INTEGER 4) () ()
0 0 0 ()) (44 'phi' (REAL 8) (1 EXPLICIT (CONSTANT (INTEGER 4) 0 '1') (
CONSTANT (INTEGER 4) 0 '3')) () 1 0 0 ())) PUBLIC ())
36 't_timint' 'm_time' 6 ((DERIVED UNKNOWN UNKNOWN UNKNOWN NONE NONE) (
UNKNOWN) 0 0 () () () '' ((45 't' (REAL 8) (1 EXPLICIT (CONSTANT (
INTEGER 4) 0 '1') (CONSTANT (INTEGER 4) 0 '2')) () 1 0 0 ())) PUBLIC ())
9 't_stacrux' 'd_stacrx' 6 ((DERIVED UNKNOWN UNKNOWN UNKNOWN NONE NONE)
(UNKNOWN) 0 0 () () () '' ((46 'nrenam' (INTEGER 4) () () 0 0 0 ()) (47
'ninfo' (INTEGER 4) () () 0 0 0 ()) (48 'nprob' (INTEGER 4) () () 0 0 0
()) (49 'ncoovel' (INTEGER 4) () () 0 0 0 ()) (50 'nrelpar' (INTEGER 4)
() () 0 0 0 ()) (51 'nstatype' (INTEGER 4) () () 0 0 0 ()) (52 'version'
(REAL 8) () () 0 0 0 ()) (53 'technique' (CHARACTER 1 ((CONSTANT (
INTEGER 4) 0 '30'))) () () 0 0 0 ()) (54 'renamsta' (DERIVED 55) (1
DEFERRED () ()) () 1 1 0 ()) (56 'stainfo' (DERIVED 57) (1 DEFERRED () ())
() 1 1 0 ()) (58 'staprob' (DERIVED 59) (1 DEFERRED () ()) () 1 1 0 ())
(60 'coovel' (DERIVED 61) (1 DEFERRED () ()) () 1 1 0 ()) (62 'starelpar'
(DERIVED 63) (1 DEFERRED () ()) () 1 1 0 ()) (64 'statype' (DERIVED 65)
(1 DEFERRED () ()) () 1 1 0 ())) PUBLIC ())
65 't_statype' 'd_stacrx' 6 ((DERIVED UNKNOWN UNKNOWN UNKNOWN NONE NONE)
(UNKNOWN) 0 0 () () () '' ((66 'stanam' (CHARACTER 1 ((CONSTANT (
INTEGER 4) 0 '16'))) () () 0 0 0 ()) (67 'flg' (CHARACTER 1 ((CONSTANT (
INTEGER 4) 0 '3'))) () () 0 0 0 ()) (68 'timint' (DERIVED 36) () () 0 0
0 ()) (69 'markertype' (CHARACTER 1 ((CONSTANT (INTEGER 4) 0 '20'))) ()
() 0 0 0 ()) (70 'remark' (CHARACTER 1 ((CONSTANT (INTEGER 4) 0 '24')))
() () 0 0 0 ())) PUBLIC ())
63 't_starelpar' 'd_stacrx' 6 ((DERIVED UNKNOWN UNKNOWN UNKNOWN NONE
NONE) (UNKNOWN) 0 0 () () () '' ((71 'stanam' (CHARACTER 1 ((CONSTANT (
INTEGER 4) 0 '16'))) (1 EXPLICIT (CONSTANT (INTEGER 4) 0 '1') (CONSTANT
(INTEGER 4) 0 '2')) () 1 0 0 ()) (72 'flg' (CHARACTER 1 ((CONSTANT (
INTEGER 4) 0 '3'))) () () 0 0 0 ()) (73 'timwin' (DERIVED 36) () () 0 0
0 ()) (74 'partyp' (CHARACTER 1 ((CONSTANT (INTEGER 4) 0 '8'))) () () 0
0 0 ()) (75 'sys' (CHARACTER 1 ((CONSTANT (INTEGER 4) 0 '3'))) (1
EXPLICIT (CONSTANT (INTEGER 4) 0 '1') (CONSTANT (INTEGER 4) 0 '2')) () 1
0 0 ()) (76 'loctie' (REAL 8) (1 EXPLICIT (CONSTANT (INTEGER 4) 0 '1') (
CONSTANT (INTEGER 4) 0 '3')) () 1 0 0 ()) (77 'constr' (REAL 8) (1
EXPLICIT (CONSTANT (INTEGER 4) 0 '1') (CONSTANT (INTEGER 4) 0 '3')) () 1
0 0 ()) (78 'correl' (REAL 8) (1 EXPLICIT (CONSTANT (INTEGER 4) 0 '1') (
CONSTANT (INTEGER 4) 0 '3')) () 1 0 0 ()) (79 'remark' (CHARACTER 1 ((
CONSTANT (INTEGER 4) 0 '24'))) () () 0 0 0 ()) (80 'applied' (LOGICAL 4)
() () 0 0 0 ())) PUBLIC ())
61 't_coovel' 'd_stacrx' 6 ((DERIVED UNKNOWN UNKNOWN UNKNOWN NONE NONE)
(UNKNOWN) 0 0 () () () '' ((81 'stanam' (CHARACTER 1 ((CONSTANT (
INTEGER 4) 0 '16'))) (1 EXPLICIT (CONSTANT (INTEGER 4) 0 '1') (CONSTANT
(INTEGER 4) 0 '2')) () 1 0 0 ()) (82 'constr' (REAL 8) (1 EXPLICIT (
CONSTANT (INTEGER 4) 0 '1') (CONSTANT (INTEGER 4) 0 '6')) () 1 0 0 ()))
PUBLIC ())
59 't_staprob' 'd_stacrx' 6 ((DERIVED UNKNOWN UNKNOWN UNKNOWN NONE NONE)
(UNKNOWN) 0 0 () () () '' ((83 'stanam' (CHARACTER 1 ((CONSTANT (
INTEGER 4) 0 '16'))) () () 0 0 0 ()) (84 'flg' (CHARACTER 1 ((CONSTANT (
INTEGER 4) 0 '3'))) () () 0 0 0 ()) (85 'timint' (DERIVED 36) () () 0 0
0 ()) (86 'remark' (CHARACTER 1 ((CONSTANT (INTEGER 4) 0 '60'))) () () 0
0 0 ())) PUBLIC ())
57 't_stainfo' 'd_stacrx' 6 ((DERIVED UNKNOWN UNKNOWN UNKNOWN NONE NONE)
(UNKNOWN) 0 0 () () () '' ((87 'stanam' (CHARACTER 1 ((CONSTANT (
INTEGER 4) 0 '16'))) () () 0 0 0 ()) (88 'flg' (CHARACTER 1 ((CONSTANT (
INTEGER 4) 0 '3'))) () () 0 0 0 ()) (89 'timint' (DERIVED 36) () () 0 0
0 ()) (90 'recnam' (CHARACTER 1 ((CONSTANT (INTEGER 4) 0 '20'))) () () 0
0 0 ()) (91 'antnam' (CHARACTER 1 ((CONSTANT (INTEGER 4) 0 '20'))) () ()
0 0 0 ()) (92 'recser' (CHARACTER 1 ((CONSTANT (INTEGER 4) 0 '20'))) ()
() 0 0 0 ()) (93 'antser' (CHARACTER 1 ((CONSTANT (INTEGER 4) 0 '20')))
() () 0 0 0 ()) (94 'recnum' (INTEGER 4) () () 0 0 0 ()) (95 'antnum' (
INTEGER 4) () () 0 0 0 ()) (96 'antecc' (REAL 8) (1 EXPLICIT (CONSTANT (
INTEGER 4) 0 '1') (CONSTANT (INTEGER 4) 0 '3')) () 1 0 0 ()) (97 'descri'
(CHARACTER 1 ((CONSTANT (INTEGER 4) 0 '22'))) () () 0 0 0 ()) (98 'remark'
(CHARACTER 1 ((CONSTANT (INTEGER 4) 0 '24'))) () () 0 0 0 ()) (99 'cdpsod'
(CHARACTER 1 ((CONSTANT (INTEGER 4) 0 '8'))) () () 0 0 0 ())) PUBLIC ())
55 't_renamsta' 'd_stacrx' 6 ((DERIVED UNKNOWN UNKNOWN UNKNOWN NONE NONE)
(UNKNOWN) 0 0 () () () '' ((100 'stanam' (CHARACTER 1 ((CONSTANT (
INTEGER 4) 0 '16'))) () () 0 0 0 ()) (101 'flg' (CHARACTER 1 ((CONSTANT
(INTEGER 4) 0 '3'))) () () 0 0 0 ()) (102 'timint' (DERIVED 36) () () 0
0 0 ()) (103 'oldnam' (CHARACTER 1 ((CONSTANT (INTEGER 4) 0 '16'))) () ()
0 0 0 ()) (104 'remark' (CHARACTER 1 ((CONSTANT (INTEGER 4) 0 '24'))) ()
() 0 0 0 ())) PUBLIC ())
3 'opt' '' 6 ((VARIABLE UNKNOWN UNKNOWN UNKNOWN NONE NONE DUMMY) (
DERIVED 105) 0 0 () () () '' () ())
105 't_opt' 'p_fodits' 6 ((DERIVED UNKNOWN UNKNOWN UNKNOWN NONE NONE) (
UNKNOWN) 0 0 () () () '' ((106 'rdonlystanames' (INTEGER 4) () () 0 0 0
()) (107 'selinptstype' (INTEGER 4) () () 0 0 0 ()) (108 'inpltfile' (
CHARACTER 1 ((CONSTANT (INTEGER 4) 0 '32'))) () () 0 0 0 ()) (109
'inpltfilevciena' (INTEGER 4) () () 0 0 0 ()) (110 'inpltfilevim0' (
REAL 8) () () 0 0 0 ()) (111 'incrdfile' (CHARACTER 1 ((CONSTANT (
INTEGER 4) 0 '32'))) () () 0 0 0 ()) (112 'invelfile' (CHARACTER 1 ((
CONSTANT (INTEGER 4) 0 '32'))) () () 0 0 0 ()) (113 'ncrds' (INTEGER 4)
() () 0 0 0 ()) (114 'crdfilename' (CHARACTER 1 ((CONSTANT (INTEGER 4) 0
'32'))) (1 DEFERRED () ()) () 1 1 0 ()) (115 'inevlfile' (CHARACTER 1 (
(CONSTANT (INTEGER 4) 0 '32'))) () () 0 0 0 ()) (116 'instafile' (
CHARACTER 1 ((CONSTANT (INTEGER 4) 0 '32'))) () () 0 0 0 ()) (117
'inerqfile' (CHARACTER 1 ((CONSTANT (INTEGER 4) 0 '80'))) () () 0 0 0 ())
(118 'const' (CHARACTER 1 ((CONSTANT (INTEGER 4) 0 '32'))) () () 0 0 0 ())
(119 'datum' (CHARACTER 1 ((CONSTANT (INTEGER 4) 0 '32'))) () () 0 0 0 ())
(120 'gvarerqfacta' (REAL 8) () () 0 0 0 ()) (121 'gvarerqfactb' (REAL 8)
() () 0 0 0 ()) (122 'gvarerqmindist' (REAL 8) () () 0 0 0 ()) (123
'incrdfileaddplt' (INTEGER 4) () () 0 0 0 ()) (124 'invelfileaddplt' (
INTEGER 4) () () 0 0 0 ()) (125 'gvarmaxnriterstep' (INTEGER 4) () () 0
0 0 ()) (126 'gvarmaxnrscrnstep' (INTEGER 4) () () 0 0 0 ()) (127
'modnnewoutl' (INTEGER 4) () () 0 0 0 ()) (128 'modnoutlrms' (REAL 8) ()
() 0 0 0 ()) (129 'outevlfile' (CHARACTER 1 ((CONSTANT (INTEGER 4) 0 '32')))
() () 0 0 0 ()) (130 'outstafileforaddneq2' (CHARACTER 1 ((CONSTANT (
INTEGER 4) 0 '32'))) () () 0 0 0 ()) (131 'outpltfile' (CHARACTER 1 ((
CONSTANT (INTEGER 4) 0 '32'))) () () 0 0 0 ()) (132 'outfileverbose' (
INTEGER 4) () () 0 0 0 ()) (133 'outfileverboset' (INTEGER 4) () () 0 0
0 ()) (134 'outfileverbosett' (INTEGER 4) () () 0 0 0 ()) (135 'title' (
CHARACTER 1 ((CONSTANT (INTEGER 4) 0 '80'))) () () 0 0 0 ()) (136
'intruncstaname' (INTEGER 4) () () 0 0 0 ()) (137 'nstasel' (INTEGER 4)
() () 0 0 0 ()) (138 'instaselection' (CHARACTER 1 ((CONSTANT (INTEGER 4)
0 '16'))) (1 DEFERRED () ()) () 1 1 0 ()) (139 'inminnrobs' (INTEGER 4)
() () 0 0 0 ()) (140 'tstevltst' (INTEGER 4) () () 0 0 0 ()) (141
'tststarenamings' (INTEGER 4) () () 0 0 0 ()) (142 'tstrectypechanges' (
INTEGER 4) () () 0 0 0 ()) (143 'tstrecnumberchanges' (INTEGER 4) () ()
0 0 0 ()) (144 'tstanttypechanges' (INTEGER 4) () () 0 0 0 ()) (145
'tstantnumberchanges' (INTEGER 4) () () 0 0 0 ()) (146 'tsteccchanges' (
INTEGER 4) () () 0 0 0 ()) (147 'modpredattest' (INTEGER 4) () () 0 0 0
()) (148 'minintervforvel' (REAL 8) () () 0 0 0 ()) (149 'modperann' (
INTEGER 4) () () 0 0 0 ()) (150 'modaddena' (INTEGER 4) () () 0 0 0 ())
(151 'naddperparam' (INTEGER 4) () () 0 0 0 ()) (152 'modaddperparam' (
REAL 8) (1 DEFERRED () ()) () 1 1 0 ()) (153 'indatumcrdfile' (
CHARACTER 1 ((CONSTANT (INTEGER 4) 0 '32'))) () () 0 0 0 ()) (154
'indatumvelfile' (CHARACTER 1 ((CONSTANT (INTEGER 4) 0 '32'))) () () 0 0
0 ()) (155 'indatumfixfile' (CHARACTER 1 ((CONSTANT (INTEGER 4) 0 '32')))
() () 0 0 0 ()) (156 'dathlmtx' (INTEGER 4) () () 0 0 0 ()) (157
'dathlmty' (INTEGER 4) () () 0 0 0 ()) (158 'dathlmtz' (INTEGER 4) () ()
0 0 0 ()) (159 'dathlmrx' (INTEGER 4) () () 0 0 0 ()) (160 'dathlmry' (
INTEGER 4) () () 0 0 0 ()) (161 'dathlmrz' (INTEGER 4) () () 0 0 0 ()) (
162 'dathlmsc' (INTEGER 4) () () 0 0 0 ()) (163 'datrejectcrd' (INTEGER
4) () () 0 0 0 ()) (164 'datnlimitcrd' (REAL 8) () () 0 0 0 ()) (165
'datelimitcrd' (REAL 8) () () 0 0 0 ()) (166 'datulimitcrd' (REAL 8) ()
() 0 0 0 ()) (167 'datrejectoutlcrd' (INTEGER 4) () () 0 0 0 ()) (168
'modtestvalue' (REAL 8) () () 0 0 0 ()) (169 'modoutltestvalue' (REAL 8)
() () 0 0 0 ()) (170 'modjumpspac' (REAL 8) () () 0 0 0 ()) (171
'modjumpsing' (REAL 8) () () 0 0 0 ()) (172 'modjumphori' (REAL 8) () ()
0 0 0 ()) (173 'modjumpvert' (REAL 8) () () 0 0 0 ()) (174 'modvelospac'
(REAL 8) () () 0 0 0 ()) (175 'modvelosing' (REAL 8) () () 0 0 0 ()) (
176 'modvelohori' (REAL 8) () () 0 0 0 ()) (177 'modvelovert' (REAL 8) ()
() 0 0 0 ()) (178 'modoutlspac' (REAL 8) () () 0 0 0 ()) (179
'modoutlsing' (REAL 8) () () 0 0 0 ()) (180 'modoutlhori' (REAL 8) () ()
0 0 0 ()) (181 'modoutlvert' (REAL 8) () () 0 0 0 ()) (182 'modperispac'
(REAL 8) () () 0 0 0 ()) (183 'modperising' (REAL 8) () () 0 0 0 ()) (
184 'modperihori' (REAL 8) () () 0 0 0 ()) (185 'modperivert' (REAL 8) ()
() 0 0 0 ()) (186 'modnewjumpidentify' (INTEGER 4) () () 0 0 0 ()) (187
'modnewveloidentify' (INTEGER 4) () () 0 0 0 ()) (188 'modnewoutlidentify'
(INTEGER 4) () () 0 0 0 ()) (189 'modnewperiidentify' (INTEGER 4) () ()
0 0 0 ()) (190 'modaddveloaj' (INTEGER 4) () () 0 0 0 ()) (191 'sannlines'
(INTEGER 4) () () 0 0 0 ()) (192 'sanminperiod' (REAL 8) () () 0 0 0 ())
(193 'sanmaxperiod' (REAL 8) () () 0 0 0 ()) (194 'outtimref' (REAL 8) ()
() 0 0 0 ()) (195 'mintimeintlength' (REAL 8) () () 0 0 0 ()) (196
'minpercdatafix' (REAL 8) () () 0 0 0 ()) (197 'incrdfileforaddneq2' (
CHARACTER 1 ((CONSTANT (INTEGER 4) 0 '32'))) () () 0 0 0 ()) (198
'invelfileforaddneq2' (CHARACTER 1 ((CONSTANT (INTEGER 4) 0 '32'))) () ()
0 0 0 ()) (199 'infixfileforaddneq2' (CHARACTER 1 ((CONSTANT (INTEGER 4)
0 '32'))) () () 0 0 0 ()) (200 'insigfileforaddneq2' (CHARACTER 1 ((
CONSTANT (INTEGER 4) 0 '32'))) () () 0 0 0 ()) (201 'outcrdfileforaddneq2'
(CHARACTER 1 ((CONSTANT (INTEGER 4) 0 '32'))) () () 0 0 0 ()) (202
'outvelfileforaddneq2' (CHARACTER 1 ((CONSTANT (INTEGER 4) 0 '32'))) ()
() 0 0 0 ()) (203 'outfixfileforaddneq2' (CHARACTER 1 ((CONSTANT (
INTEGER 4) 0 '32'))) () () 0 0 0 ()) (204 'outsigfileforaddneq2' (
CHARACTER 1 ((CONSTANT (INTEGER 4) 0 '32'))) () () 0 0 0 ()) (205
'updstandays' (INTEGER 4) () () 0 0 0 ()) (206 'gvarcstrcrd' (REAL 8) ()
() 0 0 0 ()) (207 'gvarcstrvel' (REAL 8) () () 0 0 0 ())) PUBLIC ())
)

('fodiwevl' 0 2 's_fodiwevl' 0 5)
