G95 module created on Thu Jun 25 17:44:13 2020 from ./.fpp/FODIROPT.f90
If you edit this, you'll get what you deserve.
module-version 9
(() () () () () () () () () () () () () () () () () () () () ())

()

()

()

()

(2 'fodiropt' 's_fodiropt' 1 ((PROCEDURE UNKNOWN MODULE-PROC DECL NONE
NONE SUBROUTINE) (PROCEDURE 0) 0 0 (3 NONE 4 NONE) () () '' () ())
5 's_fodiropt' 's_fodiropt' 1 ((MODULE UNKNOWN UNKNOWN UNKNOWN NONE NONE)
(UNKNOWN) 0 0 () () () '' () ())
4 'score' '' 6 ((VARIABLE UNKNOWN UNKNOWN UNKNOWN NONE NONE DUMMY) (
DERIVED 7) 0 0 () () () '' () ())
7 't_score' 'p_fodits' 6 ((DERIVED UNKNOWN UNKNOWN UNKNOWN NONE NONE) (
UNKNOWN) 0 0 () () () '' ((8 'nsta' (INTEGER 4) () () 0 0 0 ()) (9 'nval'
(INTEGER 4) () () 0 0 0 ()) (10 'ntotmjd' (INTEGER 4) () () 0 0 0 ()) (
11 'begmjd' (REAL 8) () () 0 0 0 ()) (12 'endmjd' (REAL 8) () () 0 0 0 ())
(13 'deltamjd' (REAL 8) () () 0 0 0 ()) (14 'intimrefcrd' (REAL 8) () ()
0 0 0 ()) (15 'outtimrefcrd' (REAL 8) () () 0 0 0 ()) (16 'datumname' (
CHARACTER 1 ((CONSTANT (INTEGER 4) 0 '16'))) () () 0 0 0 ()) (17 'sta' (
DERIVED 18) (1 DEFERRED () ()) () 1 1 0 ()) (19 'mdl' (DERIVED 20) () ()
0 0 0 ()) (21 'lsa' (DERIVED 22) () () 0 0 0 ()) (23 'lsb' (DERIVED 24)
() () 0 0 0 ()) (25 'ctr' (DERIVED 26) () () 0 0 0 ()) (27 'san' (
DERIVED 28) () () 0 0 0 ()) (29 'ddf' (DERIVED 30) () () 0 0 0 ()))
PUBLIC ())
30 't_datumdef' 'p_fodits' 6 ((DERIVED UNKNOWN UNKNOWN UNKNOWN NONE NONE)
(UNKNOWN) 0 0 () () () '' ((31 'mjd' (REAL 8) (1 DEFERRED () ()) () 1 1
0 ()) (32 'hlmpar' (REAL 8) (2 DEFERRED () () () ()) () 1 1 0 ()) (33
'rmshlmpar' (REAL 8) (2 DEFERRED () () () ()) () 1 1 0 ()) (34 'rmshlmtra'
(REAL 8) (1 DEFERRED () ()) () 1 1 0 ()) (35 'totsta' (INTEGER 4) (1
DEFERRED () ()) () 1 1 0 ()) (36 'refsta' (INTEGER 4) (1 DEFERRED () ())
() 1 1 0 ()) (37 'rejsta' (INTEGER 4) (1 DEFERRED () ()) () 1 1 0 ()) (
38 'hlmparoffst' (REAL 8) (1 EXPLICIT (CONSTANT (INTEGER 4) 0 '1') (
CONSTANT (INTEGER 4) 0 '7')) () 1 0 0 ()) (39 'hlmparoffstrms' (REAL 8)
(1 EXPLICIT (CONSTANT (INTEGER 4) 0 '1') (CONSTANT (INTEGER 4) 0 '7')) ()
1 0 0 ()) (40 'hlmpardrift' (REAL 8) (1 EXPLICIT (CONSTANT (INTEGER 4) 0
'1') (CONSTANT (INTEGER 4) 0 '7')) () 1 0 0 ()) (41 'hlmpardriftrms' (
REAL 8) (1 EXPLICIT (CONSTANT (INTEGER 4) 0 '1') (CONSTANT (INTEGER 4) 0
'7')) () 1 0 0 ())) PUBLIC ())
28 't_san' 'p_fodits' 6 ((DERIVED UNKNOWN UNKNOWN UNKNOWN NONE NONE) (
UNKNOWN) 0 0 () () () '' ((42 'nper' (INTEGER 4) () () 0 0 0 ()) (43 'per'
(REAL 8) (1 DEFERRED () ()) () 1 1 0 ())) PUBLIC ())
26 't_ctr' 'p_fodits' 6 ((DERIVED UNKNOWN UNKNOWN UNKNOWN NONE NONE) (
UNKNOWN) 0 0 () () () '' ((44 'niterloop' (INTEGER 4) () () 0 0 0 ()) (
45 'modnumiter' (REAL 8) (1 DEFERRED () ()) () 1 1 0 ()) (46
'modnumiteroutl' (REAL 8) (1 DEFERRED () ()) () 1 1 0 ()) (47 'nscrnloop'
(INTEGER 4) () () 0 0 0 ()) (48 'modnumscrn' (REAL 8) (1 DEFERRED () ())
() 1 1 0 ()) (49 'modnumscrnoutl' (REAL 8) (1 DEFERRED () ()) () 1 1 0 ())
(50 'nremoloop' (INTEGER 4) () () 0 0 0 ())) PUBLIC ())
24 't_lsb' 'p_fodits' 6 ((DERIVED UNKNOWN UNKNOWN UNKNOWN NONE NONE) (
UNKNOWN) 0 0 () () () '' ((51 'prevvtv' (REAL 8) () () 0 0 0 ()) (52 'm0'
(REAL 8) () () 0 0 0 ())) PUBLIC ())
22 't_lsa' 'p_fodits' 6 ((DERIVED UNKNOWN UNKNOWN UNKNOWN NONE NONE) (
UNKNOWN) 0 0 () () () '' ((53 'nnpar' (INTEGER 4) () () 0 0 0 ()) (54
'nnmjd' (INTEGER 4) () () 0 0 0 ()) (55 'a' (REAL 8) (2 DEFERRED () () ()
()) () 1 1 0 ()) (56 'qxx' (REAL 8) (2 DEFERRED () () () ()) () 1 1 0 ())
(57 'y' (REAL 8) (1 DEFERRED () ()) () 1 1 0 ()) (58 'x' (REAL 8) (1
DEFERRED () ()) () 1 1 0 ()) (59 'mod' (REAL 8) (1 DEFERRED () ()) () 1
1 0 ()) (60 'v' (REAL 8) (1 DEFERRED () ()) () 1 1 0 ()) (61 'p' (REAL 8)
(1 DEFERRED () ()) () 1 1 0 ()) (62 'iqyy' (REAL 8) (3 DEFERRED () () ()
() () ()) () 1 1 0 ()) (63 'dof' (INTEGER 4) () () 0 0 0 ()) (64 'detn'
(REAL 8) () () 0 0 0 ()) (65 'vtv' (REAL 8) () () 0 0 0 ()) (66 'm0' (
REAL 8) () () 0 0 0 ())) PUBLIC ())
20 't_mdl' 'p_fodits' 6 ((DERIVED UNKNOWN UNKNOWN UNKNOWN NONE NONE) (
UNKNOWN) 0 0 () () () '' ((67 'evnt' (DERIVED 68) () () 0 0 0 ()) (69
'napri' (INTEGER 4) () () 0 0 0 ()) (70 'apri' (DERIVED 68) (1 DEFERRED
() ()) () 1 1 0 ()) (71 'niden' (INTEGER 4) () () 0 0 0 ()) (72 'iden' (
DERIVED 68) (1 DEFERRED () ()) () 1 1 0 ()) (73 'namod' (INTEGER 4) () ()
0 0 0 ()) (74 'amod' (DERIVED 68) (1 DEFERRED () ()) () 1 1 0 ()) (75
'outlmjd' (REAL 8) (1 DEFERRED () ()) () 1 1 0 ())) PUBLIC ())
68 't_evnt' 'p_fodits' 6 ((DERIVED UNKNOWN UNKNOWN UNKNOWN NONE NONE) (
UNKNOWN) 0 0 () () () '' ((76 'type' (INTEGER 4) () () 0 0 0 ()) (77
'info' (INTEGER 4) () () 0 0 0 ()) (78 'mjd' (REAL 8) () () 0 0 0 ()) (
79 'omega' (REAL 8) () () 0 0 0 ()) (80 'timint' (DERIVED 81) () () 0 0
0 ()) (82 'flag' (INTEGER 4) () () 0 0 0 ()) (83 'remark' (CHARACTER 1 (
(CONSTANT (INTEGER 4) 0 '8'))) () () 0 0 0 ()) (84 'index' (INTEGER 4) ()
() 0 0 0 ()) (85 'cand' (INTEGER 4) () () 0 0 0 ()) (86 'par' (REAL 8) (
1 EXPLICIT (CONSTANT (INTEGER 4) 0 '1') (CONSTANT (INTEGER 4) 0 '3')) ()
1 0 0 ()) (87 'val' (REAL 8) () () 0 0 0 ()) (88 'dval' (REAL 8) () () 0
0 0 ()) (89 'vltst' (REAL 8) () () 0 0 0 ()) (90 'sttst' (REAL 8) () ()
0 0 0 ()) (91 'sitst' (INTEGER 4) () () 0 0 0 ()) (92 'rename' (
CHARACTER 1 ((CONSTANT (INTEGER 4) 0 '2'))) () () 0 0 0 ()) (93 'recchg'
(CHARACTER 1 ((CONSTANT (INTEGER 4) 0 '20'))) (1 EXPLICIT (CONSTANT (
INTEGER 4) 0 '1') (CONSTANT (INTEGER 4) 0 '2')) () 1 0 0 ()) (94 'antchg'
(CHARACTER 1 ((CONSTANT (INTEGER 4) 0 '20'))) (1 EXPLICIT (CONSTANT (
INTEGER 4) 0 '1') (CONSTANT (INTEGER 4) 0 '2')) () 1 0 0 ()) (95 'eccchg'
(REAL 8) (2 EXPLICIT (CONSTANT (INTEGER 4) 0 '1') (CONSTANT (INTEGER 4)
0 '3') (CONSTANT (INTEGER 4) 0 '1') (CONSTANT (INTEGER 4) 0 '2')) () 1 0
0 ()) (96 'mjd2' (REAL 8) () () 0 0 0 ()) (97 'dpar' (REAL 8) (1
EXPLICIT (CONSTANT (INTEGER 4) 0 '1') (CONSTANT (INTEGER 4) 0 '3')) () 1
0 0 ()) (98 'phi' (REAL 8) (1 EXPLICIT (CONSTANT (INTEGER 4) 0 '1') (
CONSTANT (INTEGER 4) 0 '3')) () 1 0 0 ()) (99 'ppar' (REAL 8) (2
EXPLICIT (CONSTANT (INTEGER 4) 0 '1') (CONSTANT (INTEGER 4) 0 '3') (
CONSTANT (INTEGER 4) 0 '1') (CONSTANT (INTEGER 4) 0 '2')) () 1 0 0 ()) (
100 'mod' (REAL 8) (1 EXPLICIT (CONSTANT (INTEGER 4) 0 '1') (CONSTANT (
INTEGER 4) 0 '3')) () 1 0 0 ())) PUBLIC ())
81 't_timint' 'm_time' 6 ((DERIVED UNKNOWN UNKNOWN UNKNOWN NONE NONE) (
UNKNOWN) 0 0 () () () '' ((101 't' (REAL 8) (1 EXPLICIT (CONSTANT (
INTEGER 4) 0 '1') (CONSTANT (INTEGER 4) 0 '2')) () 1 0 0 ())) PUBLIC ())
18 't_score_stat' 'p_fodits' 6 ((DERIVED UNKNOWN UNKNOWN UNKNOWN NONE
NONE) (UNKNOWN) 0 0 () () () '' ((102 'name' (CHARACTER 1 ((CONSTANT (
INTEGER 4) 0 '16'))) () () 0 0 0 ()) (103 'irefsta' (INTEGER 4) () () 0
0 0 ()) (104 'nstasta' (INTEGER 4) () () 0 0 0 ()) (105 'stasta' (
DERIVED 106) (1 DEFERRED () ()) () 1 1 0 ()) (107 'outcrdxyz' (REAL 8) (
1 EXPLICIT (CONSTANT (INTEGER 4) 0 '1') (CONSTANT (INTEGER 4) 0 '3')) ()
1 0 0 ()) (108 'outvelxyz' (REAL 8) (1 EXPLICIT (CONSTANT (INTEGER 4) 0
'1') (CONSTANT (INTEGER 4) 0 '3')) () 1 0 0 ()) (109 'nitersteps' (
INTEGER 4) () () 0 0 0 ()) (110 'modrms' (REAL 8) () () 0 0 0 ()) (111
'singular' (INTEGER 4) () () 0 0 0 ()) (112 'ts' (DERIVED 113) () () 0 0
0 ()) (114 'mod' (DERIVED 115) () () 0 0 0 ()) (116 'upd' (DERIVED 117)
() () 0 0 0 ())) PUBLIC ())
117 't_upd' 'p_fodits' 6 ((DERIVED UNKNOWN UNKNOWN UNKNOWN NONE NONE) (
UNKNOWN) 0 0 () () () '' ((118 'nren' (INTEGER 4) () () 0 0 0 ()) (119
'ren' (DERIVED 120) (1 DEFERRED () ()) () 1 1 0 ()) (121 'stastatusref'
(INTEGER 4) () () 0 0 0 ()) (122 'maxtimeinterv' (REAL 8) () () 0 0 0 ()))
PUBLIC ())
120 't_upd_ren' 'p_fodits' 6 ((DERIVED UNKNOWN UNKNOWN UNKNOWN NONE NONE)
(UNKNOWN) 0 0 () () () '' ((123 'type' (INTEGER 4) () () 0 0 0 ()) (124
'info' (INTEGER 4) () () 0 0 0 ()) (125 'timint' (DERIVED 81) () () 0 0
0 ()) (126 'rename' (CHARACTER 1 ((CONSTANT (INTEGER 4) 0 '2'))) () () 0
0 0 ()) (127 'cnstr' (INTEGER 4) () () 0 0 0 ()) (128 'group' (INTEGER 4)
() () 0 0 0 ()) (129 'grouplength' (REAL 8) () () 0 0 0 ()) (130
'groupnumdata' (INTEGER 4) () () 0 0 0 ()) (131 'remark' (CHARACTER 1 (
(CONSTANT (INTEGER 4) 0 '8'))) () () 0 0 0 ())) PUBLIC ())
115 't_mod' 'p_fodits' 6 ((DERIVED UNKNOWN UNKNOWN UNKNOWN NONE NONE) (
UNKNOWN) 0 0 () () () '' ((132 'nevnt' (INTEGER 4) () () 0 0 0 ()) (133
'evnt' (DERIVED 68) (1 DEFERRED () ()) () 1 1 0 ())) PUBLIC ())
113 't_ts' 'p_fodits' 6 ((DERIVED UNKNOWN UNKNOWN UNKNOWN NONE NONE) (
UNKNOWN) 0 0 () () () '' ((134 'nval' (INTEGER 4) () () 0 0 0 ()) (135
'nmjd' (INTEGER 4) () () 0 0 0 ()) (136 'mjd' (REAL 8) (1 DEFERRED () ())
() 1 1 0 ()) (137 'val' (REAL 8) (2 DEFERRED () () () ()) () 1 1 0 ()) (
138 'dval' (REAL 8) (2 DEFERRED () () () ()) () 1 1 0 ()) (139 'vci' (
REAL 8) (3 DEFERRED () () () () () ()) () 1 1 0 ()) (140 'ddef' (REAL 8)
(2 DEFERRED () () () ()) () 1 1 0 ()) (141 'ddefrej' (INTEGER 4) (1
DEFERRED () ()) () 1 1 0 ())) PUBLIC ())
106 't_stasta' 'p_fodits' 6 ((DERIVED UNKNOWN UNKNOWN UNKNOWN NONE NONE)
(UNKNOWN) 0 0 () () () '' ((142 'rename' (CHARACTER 1 ((CONSTANT (
INTEGER 4) 0 '16'))) () () 0 0 0 ()) (143 'timint' (DERIVED 81) () () 0
0 0 ()) (144 'incrdxyz' (REAL 8) (1 EXPLICIT (CONSTANT (INTEGER 4) 0 '1')
(CONSTANT (INTEGER 4) 0 '3')) () 1 0 0 ()) (145 'incrdneu' (REAL 8) (1
EXPLICIT (CONSTANT (INTEGER 4) 0 '1') (CONSTANT (INTEGER 4) 0 '3')) () 1
0 0 ()) (146 'incrdflg' (CHARACTER 1 ((CONSTANT (INTEGER 4) 0 '1'))) ()
() 0 0 0 ()) (147 'invelxyz' (REAL 8) (1 EXPLICIT (CONSTANT (INTEGER 4)
0 '1') (CONSTANT (INTEGER 4) 0 '3')) () 1 0 0 ()) (148 'invelneu' (REAL
8) (1 EXPLICIT (CONSTANT (INTEGER 4) 0 '1') (CONSTANT (INTEGER 4) 0 '3'))
() 1 0 0 ()) (149 'invelflg' (CHARACTER 1 ((CONSTANT (INTEGER 4) 0 '5')))
() () 0 0 0 ()) (150 'invelplate' (CHARACTER 1 ((CONSTANT (INTEGER 4) 0
'4'))) () () 0 0 0 ())) PUBLIC ())
3 'opt' '' 6 ((VARIABLE UNKNOWN UNKNOWN UNKNOWN NONE NONE DUMMY) (
DERIVED 151) 0 0 () () () '' () ())
151 't_opt' 'p_fodits' 6 ((DERIVED UNKNOWN UNKNOWN UNKNOWN NONE NONE) (
UNKNOWN) 0 0 () () () '' ((152 'rdonlystanames' (INTEGER 4) () () 0 0 0
()) (153 'selinptstype' (INTEGER 4) () () 0 0 0 ()) (154 'inpltfile' (
CHARACTER 1 ((CONSTANT (INTEGER 4) 0 '32'))) () () 0 0 0 ()) (155
'inpltfilevciena' (INTEGER 4) () () 0 0 0 ()) (156 'inpltfilevim0' (
REAL 8) () () 0 0 0 ()) (157 'incrdfile' (CHARACTER 1 ((CONSTANT (
INTEGER 4) 0 '32'))) () () 0 0 0 ()) (158 'invelfile' (CHARACTER 1 ((
CONSTANT (INTEGER 4) 0 '32'))) () () 0 0 0 ()) (159 'ncrds' (INTEGER 4)
() () 0 0 0 ()) (160 'crdfilename' (CHARACTER 1 ((CONSTANT (INTEGER 4) 0
'32'))) (1 DEFERRED () ()) () 1 1 0 ()) (161 'inevlfile' (CHARACTER 1 (
(CONSTANT (INTEGER 4) 0 '32'))) () () 0 0 0 ()) (162 'instafile' (
CHARACTER 1 ((CONSTANT (INTEGER 4) 0 '32'))) () () 0 0 0 ()) (163
'inerqfile' (CHARACTER 1 ((CONSTANT (INTEGER 4) 0 '80'))) () () 0 0 0 ())
(164 'const' (CHARACTER 1 ((CONSTANT (INTEGER 4) 0 '32'))) () () 0 0 0 ())
(165 'datum' (CHARACTER 1 ((CONSTANT (INTEGER 4) 0 '32'))) () () 0 0 0 ())
(166 'gvarerqfacta' (REAL 8) () () 0 0 0 ()) (167 'gvarerqfactb' (REAL 8)
() () 0 0 0 ()) (168 'gvarerqmindist' (REAL 8) () () 0 0 0 ()) (169
'incrdfileaddplt' (INTEGER 4) () () 0 0 0 ()) (170 'invelfileaddplt' (
INTEGER 4) () () 0 0 0 ()) (171 'gvarmaxnriterstep' (INTEGER 4) () () 0
0 0 ()) (172 'gvarmaxnrscrnstep' (INTEGER 4) () () 0 0 0 ()) (173
'modnnewoutl' (INTEGER 4) () () 0 0 0 ()) (174 'modnoutlrms' (REAL 8) ()
() 0 0 0 ()) (175 'outevlfile' (CHARACTER 1 ((CONSTANT (INTEGER 4) 0 '32')))
() () 0 0 0 ()) (176 'outstafileforaddneq2' (CHARACTER 1 ((CONSTANT (
INTEGER 4) 0 '32'))) () () 0 0 0 ()) (177 'outpltfile' (CHARACTER 1 ((
CONSTANT (INTEGER 4) 0 '32'))) () () 0 0 0 ()) (178 'outfileverbose' (
INTEGER 4) () () 0 0 0 ()) (179 'outfileverboset' (INTEGER 4) () () 0 0
0 ()) (180 'outfileverbosett' (INTEGER 4) () () 0 0 0 ()) (181 'title' (
CHARACTER 1 ((CONSTANT (INTEGER 4) 0 '80'))) () () 0 0 0 ()) (182
'intruncstaname' (INTEGER 4) () () 0 0 0 ()) (183 'nstasel' (INTEGER 4)
() () 0 0 0 ()) (184 'instaselection' (CHARACTER 1 ((CONSTANT (INTEGER 4)
0 '16'))) (1 DEFERRED () ()) () 1 1 0 ()) (185 'inminnrobs' (INTEGER 4)
() () 0 0 0 ()) (186 'tstevltst' (INTEGER 4) () () 0 0 0 ()) (187
'tststarenamings' (INTEGER 4) () () 0 0 0 ()) (188 'tstrectypechanges' (
INTEGER 4) () () 0 0 0 ()) (189 'tstrecnumberchanges' (INTEGER 4) () ()
0 0 0 ()) (190 'tstanttypechanges' (INTEGER 4) () () 0 0 0 ()) (191
'tstantnumberchanges' (INTEGER 4) () () 0 0 0 ()) (192 'tsteccchanges' (
INTEGER 4) () () 0 0 0 ()) (193 'modpredattest' (INTEGER 4) () () 0 0 0
()) (194 'minintervforvel' (REAL 8) () () 0 0 0 ()) (195 'modperann' (
INTEGER 4) () () 0 0 0 ()) (196 'modaddena' (INTEGER 4) () () 0 0 0 ())
(197 'naddperparam' (INTEGER 4) () () 0 0 0 ()) (198 'modaddperparam' (
REAL 8) (1 DEFERRED () ()) () 1 1 0 ()) (199 'indatumcrdfile' (
CHARACTER 1 ((CONSTANT (INTEGER 4) 0 '32'))) () () 0 0 0 ()) (200
'indatumvelfile' (CHARACTER 1 ((CONSTANT (INTEGER 4) 0 '32'))) () () 0 0
0 ()) (201 'indatumfixfile' (CHARACTER 1 ((CONSTANT (INTEGER 4) 0 '32')))
() () 0 0 0 ()) (202 'dathlmtx' (INTEGER 4) () () 0 0 0 ()) (203
'dathlmty' (INTEGER 4) () () 0 0 0 ()) (204 'dathlmtz' (INTEGER 4) () ()
0 0 0 ()) (205 'dathlmrx' (INTEGER 4) () () 0 0 0 ()) (206 'dathlmry' (
INTEGER 4) () () 0 0 0 ()) (207 'dathlmrz' (INTEGER 4) () () 0 0 0 ()) (
208 'dathlmsc' (INTEGER 4) () () 0 0 0 ()) (209 'datrejectcrd' (INTEGER
4) () () 0 0 0 ()) (210 'datnlimitcrd' (REAL 8) () () 0 0 0 ()) (211
'datelimitcrd' (REAL 8) () () 0 0 0 ()) (212 'datulimitcrd' (REAL 8) ()
() 0 0 0 ()) (213 'datrejectoutlcrd' (INTEGER 4) () () 0 0 0 ()) (214
'modtestvalue' (REAL 8) () () 0 0 0 ()) (215 'modoutltestvalue' (REAL 8)
() () 0 0 0 ()) (216 'modjumpspac' (REAL 8) () () 0 0 0 ()) (217
'modjumpsing' (REAL 8) () () 0 0 0 ()) (218 'modjumphori' (REAL 8) () ()
0 0 0 ()) (219 'modjumpvert' (REAL 8) () () 0 0 0 ()) (220 'modvelospac'
(REAL 8) () () 0 0 0 ()) (221 'modvelosing' (REAL 8) () () 0 0 0 ()) (
222 'modvelohori' (REAL 8) () () 0 0 0 ()) (223 'modvelovert' (REAL 8) ()
() 0 0 0 ()) (224 'modoutlspac' (REAL 8) () () 0 0 0 ()) (225
'modoutlsing' (REAL 8) () () 0 0 0 ()) (226 'modoutlhori' (REAL 8) () ()
0 0 0 ()) (227 'modoutlvert' (REAL 8) () () 0 0 0 ()) (228 'modperispac'
(REAL 8) () () 0 0 0 ()) (229 'modperising' (REAL 8) () () 0 0 0 ()) (
230 'modperihori' (REAL 8) () () 0 0 0 ()) (231 'modperivert' (REAL 8) ()
() 0 0 0 ()) (232 'modnewjumpidentify' (INTEGER 4) () () 0 0 0 ()) (233
'modnewveloidentify' (INTEGER 4) () () 0 0 0 ()) (234 'modnewoutlidentify'
(INTEGER 4) () () 0 0 0 ()) (235 'modnewperiidentify' (INTEGER 4) () ()
0 0 0 ()) (236 'modaddveloaj' (INTEGER 4) () () 0 0 0 ()) (237 'sannlines'
(INTEGER 4) () () 0 0 0 ()) (238 'sanminperiod' (REAL 8) () () 0 0 0 ())
(239 'sanmaxperiod' (REAL 8) () () 0 0 0 ()) (240 'outtimref' (REAL 8) ()
() 0 0 0 ()) (241 'mintimeintlength' (REAL 8) () () 0 0 0 ()) (242
'minpercdatafix' (REAL 8) () () 0 0 0 ()) (243 'incrdfileforaddneq2' (
CHARACTER 1 ((CONSTANT (INTEGER 4) 0 '32'))) () () 0 0 0 ()) (244
'invelfileforaddneq2' (CHARACTER 1 ((CONSTANT (INTEGER 4) 0 '32'))) () ()
0 0 0 ()) (245 'infixfileforaddneq2' (CHARACTER 1 ((CONSTANT (INTEGER 4)
0 '32'))) () () 0 0 0 ()) (246 'insigfileforaddneq2' (CHARACTER 1 ((
CONSTANT (INTEGER 4) 0 '32'))) () () 0 0 0 ()) (247 'outcrdfileforaddneq2'
(CHARACTER 1 ((CONSTANT (INTEGER 4) 0 '32'))) () () 0 0 0 ()) (248
'outvelfileforaddneq2' (CHARACTER 1 ((CONSTANT (INTEGER 4) 0 '32'))) ()
() 0 0 0 ()) (249 'outfixfileforaddneq2' (CHARACTER 1 ((CONSTANT (
INTEGER 4) 0 '32'))) () () 0 0 0 ()) (250 'outsigfileforaddneq2' (
CHARACTER 1 ((CONSTANT (INTEGER 4) 0 '32'))) () () 0 0 0 ()) (251
'updstandays' (INTEGER 4) () () 0 0 0 ()) (252 'gvarcstrcrd' (REAL 8) ()
() 0 0 0 ()) (253 'gvarcstrvel' (REAL 8) () () 0 0 0 ())) PUBLIC ())
)

('fodiropt' 0 2 's_fodiropt' 0 5)
