G95 module created on Thu Jun 25 17:45:22 2020 from ./.fpp/FODIPUTO.f90
If you edit this, you'll get what you deserve.
module-version 9
(() () () () () () () () () () () () () () () () () () () () ())

()

()

()

()

(2 'fodiputo' 's_fodiputo' 1 ((PROCEDURE UNKNOWN MODULE-PROC DECL NONE
NONE SUBROUTINE) (PROCEDURE 0) 0 0 (3 NONE 4 NONE 5 NONE) () () '' () ())
6 's_fodiputo' 's_fodiputo' 1 ((MODULE UNKNOWN UNKNOWN UNKNOWN NONE NONE)
(UNKNOWN) 0 0 () () () '' () ())
5 'datfil' '' 7 ((VARIABLE UNKNOWN UNKNOWN UNKNOWN NONE NONE DUMMY) (
DERIVED 8) 0 0 () () () '' () ())
8 't_datfil' 'p_fodits' 7 ((DERIVED UNKNOWN UNKNOWN UNKNOWN NONE NONE) (
UNKNOWN) 0 0 () () () '' ((9 'stain' (DERIVED 10) () () 0 0 0 ()) (11
'evlin' (DERIVED 12) () () 0 0 0 ()) (13 'erqin' (DERIVED 14) () () 0 0
0 ()) (15 'staout' (DERIVED 10) () () 0 0 0 ()) (16 'evlout' (DERIVED 12)
() () 0 0 0 ())) PUBLIC ())
14 't_erq' 'p_fodits' 7 ((DERIVED UNKNOWN UNKNOWN UNKNOWN NONE NONE) (
UNKNOWN) 0 0 () () () '' ((17 'nerq' (INTEGER 4) () () 0 0 0 ()) (18 'erq'
(DERIVED 19) (1 DEFERRED () ()) () 1 1 0 ())) PUBLIC ())
19 't_erq_nr' 'p_fodits' 7 ((DERIVED UNKNOWN UNKNOWN UNKNOWN NONE NONE)
(UNKNOWN) 0 0 () () () '' ((20 'mjd' (REAL 8) () () 0 0 0 ()) (21 'lat'
(REAL 8) () () 0 0 0 ()) (22 'lon' (REAL 8) () () 0 0 0 ()) (23 'crdxyz'
(REAL 8) (1 EXPLICIT (CONSTANT (INTEGER 4) 0 '1') (CONSTANT (INTEGER 4)
0 '3')) () 1 0 0 ()) (24 'dep' (INTEGER 4) () () 0 0 0 ()) (25 'mag' (
REAL 8) () () 0 0 0 ()) (26 'magdescr' (CHARACTER 1 ((CONSTANT (INTEGER
4) 0 '5'))) () () 0 0 0 ())) PUBLIC ())
12 't_evl' 'p_fodits' 7 ((DERIVED UNKNOWN UNKNOWN UNKNOWN NONE NONE) (
UNKNOWN) 0 0 () () () '' ((27 'nsta' (INTEGER 4) () () 0 0 0 ()) (28 'sta'
(DERIVED 29) (1 DEFERRED () ()) () 1 1 0 ())) PUBLIC ())
29 't_evl_sta' 'p_fodits' 7 ((DERIVED UNKNOWN UNKNOWN UNKNOWN NONE NONE)
(UNKNOWN) 0 0 () () () '' ((30 'name' (CHARACTER 1 ((CONSTANT (INTEGER 4)
0 '16'))) () () 0 0 0 ()) (31 'nevnt' (INTEGER 4) () () 0 0 0 ()) (32
'evnt' (DERIVED 33) (1 DEFERRED () ()) () 1 1 0 ())) PUBLIC ())
33 't_evl_sta_evnt' 'p_fodits' 7 ((DERIVED UNKNOWN UNKNOWN UNKNOWN NONE
NONE) (UNKNOWN) 0 0 () () () '' ((34 'type' (CHARACTER 1 ((CONSTANT (
INTEGER 4) 0 '4'))) () () 0 0 0 ()) (35 'omega' (REAL 8) () () 0 0 0 ())
(36 'timint' (DERIVED 37) () () 0 0 0 ()) (38 'flag' (CHARACTER 1 ((
CONSTANT (INTEGER 4) 0 '3'))) () () 0 0 0 ()) (39 'remark' (CHARACTER 1
((CONSTANT (INTEGER 4) 0 '8'))) () () 0 0 0 ()) (40 'par' (REAL 8) (1
EXPLICIT (CONSTANT (INTEGER 4) 0 '1') (CONSTANT (INTEGER 4) 0 '3')) () 1
0 0 ()) (41 'val' (REAL 8) () () 0 0 0 ()) (42 'dval' (REAL 8) () () 0 0
0 ()) (43 'sttst' (REAL 8) () () 0 0 0 ()) (44 'sitst' (INTEGER 4) () ()
0 0 0 ()) (45 'phi' (REAL 8) (1 EXPLICIT (CONSTANT (INTEGER 4) 0 '1') (
CONSTANT (INTEGER 4) 0 '3')) () 1 0 0 ())) PUBLIC ())
37 't_timint' 'm_time' 7 ((DERIVED UNKNOWN UNKNOWN UNKNOWN NONE NONE) (
UNKNOWN) 0 0 () () () '' ((46 't' (REAL 8) (1 EXPLICIT (CONSTANT (
INTEGER 4) 0 '1') (CONSTANT (INTEGER 4) 0 '2')) () 1 0 0 ())) PUBLIC ())
10 't_stacrux' 'd_stacrx' 7 ((DERIVED UNKNOWN UNKNOWN UNKNOWN NONE NONE)
(UNKNOWN) 0 0 () () () '' ((47 'nrenam' (INTEGER 4) () () 0 0 0 ()) (48
'ninfo' (INTEGER 4) () () 0 0 0 ()) (49 'nprob' (INTEGER 4) () () 0 0 0
()) (50 'ncoovel' (INTEGER 4) () () 0 0 0 ()) (51 'nrelpar' (INTEGER 4)
() () 0 0 0 ()) (52 'nstatype' (INTEGER 4) () () 0 0 0 ()) (53 'version'
(REAL 8) () () 0 0 0 ()) (54 'technique' (CHARACTER 1 ((CONSTANT (
INTEGER 4) 0 '30'))) () () 0 0 0 ()) (55 'renamsta' (DERIVED 56) (1
DEFERRED () ()) () 1 1 0 ()) (57 'stainfo' (DERIVED 58) (1 DEFERRED () ())
() 1 1 0 ()) (59 'staprob' (DERIVED 60) (1 DEFERRED () ()) () 1 1 0 ())
(61 'coovel' (DERIVED 62) (1 DEFERRED () ()) () 1 1 0 ()) (63 'starelpar'
(DERIVED 64) (1 DEFERRED () ()) () 1 1 0 ()) (65 'statype' (DERIVED 66)
(1 DEFERRED () ()) () 1 1 0 ())) PUBLIC ())
66 't_statype' 'd_stacrx' 7 ((DERIVED UNKNOWN UNKNOWN UNKNOWN NONE NONE)
(UNKNOWN) 0 0 () () () '' ((67 'stanam' (CHARACTER 1 ((CONSTANT (
INTEGER 4) 0 '16'))) () () 0 0 0 ()) (68 'flg' (CHARACTER 1 ((CONSTANT (
INTEGER 4) 0 '3'))) () () 0 0 0 ()) (69 'timint' (DERIVED 37) () () 0 0
0 ()) (70 'markertype' (CHARACTER 1 ((CONSTANT (INTEGER 4) 0 '20'))) ()
() 0 0 0 ()) (71 'remark' (CHARACTER 1 ((CONSTANT (INTEGER 4) 0 '24')))
() () 0 0 0 ())) PUBLIC ())
64 't_starelpar' 'd_stacrx' 7 ((DERIVED UNKNOWN UNKNOWN UNKNOWN NONE
NONE) (UNKNOWN) 0 0 () () () '' ((72 'stanam' (CHARACTER 1 ((CONSTANT (
INTEGER 4) 0 '16'))) (1 EXPLICIT (CONSTANT (INTEGER 4) 0 '1') (CONSTANT
(INTEGER 4) 0 '2')) () 1 0 0 ()) (73 'flg' (CHARACTER 1 ((CONSTANT (
INTEGER 4) 0 '3'))) () () 0 0 0 ()) (74 'timwin' (DERIVED 37) () () 0 0
0 ()) (75 'partyp' (CHARACTER 1 ((CONSTANT (INTEGER 4) 0 '8'))) () () 0
0 0 ()) (76 'sys' (CHARACTER 1 ((CONSTANT (INTEGER 4) 0 '3'))) (1
EXPLICIT (CONSTANT (INTEGER 4) 0 '1') (CONSTANT (INTEGER 4) 0 '2')) () 1
0 0 ()) (77 'loctie' (REAL 8) (1 EXPLICIT (CONSTANT (INTEGER 4) 0 '1') (
CONSTANT (INTEGER 4) 0 '3')) () 1 0 0 ()) (78 'constr' (REAL 8) (1
EXPLICIT (CONSTANT (INTEGER 4) 0 '1') (CONSTANT (INTEGER 4) 0 '3')) () 1
0 0 ()) (79 'correl' (REAL 8) (1 EXPLICIT (CONSTANT (INTEGER 4) 0 '1') (
CONSTANT (INTEGER 4) 0 '3')) () 1 0 0 ()) (80 'remark' (CHARACTER 1 ((
CONSTANT (INTEGER 4) 0 '24'))) () () 0 0 0 ()) (81 'applied' (LOGICAL 4)
() () 0 0 0 ())) PUBLIC ())
62 't_coovel' 'd_stacrx' 7 ((DERIVED UNKNOWN UNKNOWN UNKNOWN NONE NONE)
(UNKNOWN) 0 0 () () () '' ((82 'stanam' (CHARACTER 1 ((CONSTANT (
INTEGER 4) 0 '16'))) (1 EXPLICIT (CONSTANT (INTEGER 4) 0 '1') (CONSTANT
(INTEGER 4) 0 '2')) () 1 0 0 ()) (83 'constr' (REAL 8) (1 EXPLICIT (
CONSTANT (INTEGER 4) 0 '1') (CONSTANT (INTEGER 4) 0 '6')) () 1 0 0 ()))
PUBLIC ())
60 't_staprob' 'd_stacrx' 7 ((DERIVED UNKNOWN UNKNOWN UNKNOWN NONE NONE)
(UNKNOWN) 0 0 () () () '' ((84 'stanam' (CHARACTER 1 ((CONSTANT (
INTEGER 4) 0 '16'))) () () 0 0 0 ()) (85 'flg' (CHARACTER 1 ((CONSTANT (
INTEGER 4) 0 '3'))) () () 0 0 0 ()) (86 'timint' (DERIVED 37) () () 0 0
0 ()) (87 'remark' (CHARACTER 1 ((CONSTANT (INTEGER 4) 0 '60'))) () () 0
0 0 ())) PUBLIC ())
58 't_stainfo' 'd_stacrx' 7 ((DERIVED UNKNOWN UNKNOWN UNKNOWN NONE NONE)
(UNKNOWN) 0 0 () () () '' ((88 'stanam' (CHARACTER 1 ((CONSTANT (
INTEGER 4) 0 '16'))) () () 0 0 0 ()) (89 'flg' (CHARACTER 1 ((CONSTANT (
INTEGER 4) 0 '3'))) () () 0 0 0 ()) (90 'timint' (DERIVED 37) () () 0 0
0 ()) (91 'recnam' (CHARACTER 1 ((CONSTANT (INTEGER 4) 0 '20'))) () () 0
0 0 ()) (92 'antnam' (CHARACTER 1 ((CONSTANT (INTEGER 4) 0 '20'))) () ()
0 0 0 ()) (93 'recser' (CHARACTER 1 ((CONSTANT (INTEGER 4) 0 '20'))) ()
() 0 0 0 ()) (94 'antser' (CHARACTER 1 ((CONSTANT (INTEGER 4) 0 '20')))
() () 0 0 0 ()) (95 'recnum' (INTEGER 4) () () 0 0 0 ()) (96 'antnum' (
INTEGER 4) () () 0 0 0 ()) (97 'antecc' (REAL 8) (1 EXPLICIT (CONSTANT (
INTEGER 4) 0 '1') (CONSTANT (INTEGER 4) 0 '3')) () 1 0 0 ()) (98 'descri'
(CHARACTER 1 ((CONSTANT (INTEGER 4) 0 '22'))) () () 0 0 0 ()) (99 'remark'
(CHARACTER 1 ((CONSTANT (INTEGER 4) 0 '24'))) () () 0 0 0 ()) (100
'cdpsod' (CHARACTER 1 ((CONSTANT (INTEGER 4) 0 '8'))) () () 0 0 0 ()))
PUBLIC ())
56 't_renamsta' 'd_stacrx' 7 ((DERIVED UNKNOWN UNKNOWN UNKNOWN NONE NONE)
(UNKNOWN) 0 0 () () () '' ((101 'stanam' (CHARACTER 1 ((CONSTANT (
INTEGER 4) 0 '16'))) () () 0 0 0 ()) (102 'flg' (CHARACTER 1 ((CONSTANT
(INTEGER 4) 0 '3'))) () () 0 0 0 ()) (103 'timint' (DERIVED 37) () () 0
0 0 ()) (104 'oldnam' (CHARACTER 1 ((CONSTANT (INTEGER 4) 0 '16'))) () ()
0 0 0 ()) (105 'remark' (CHARACTER 1 ((CONSTANT (INTEGER 4) 0 '24'))) ()
() 0 0 0 ())) PUBLIC ())
4 'score' '' 7 ((VARIABLE UNKNOWN UNKNOWN UNKNOWN NONE NONE DUMMY) (
DERIVED 106) 0 0 () () () '' () ())
106 't_score' 'p_fodits' 7 ((DERIVED UNKNOWN UNKNOWN UNKNOWN NONE NONE)
(UNKNOWN) 0 0 () () () '' ((107 'nsta' (INTEGER 4) () () 0 0 0 ()) (108
'nval' (INTEGER 4) () () 0 0 0 ()) (109 'ntotmjd' (INTEGER 4) () () 0 0
0 ()) (110 'begmjd' (REAL 8) () () 0 0 0 ()) (111 'endmjd' (REAL 8) () ()
0 0 0 ()) (112 'deltamjd' (REAL 8) () () 0 0 0 ()) (113 'intimrefcrd' (
REAL 8) () () 0 0 0 ()) (114 'outtimrefcrd' (REAL 8) () () 0 0 0 ()) (
115 'datumname' (CHARACTER 1 ((CONSTANT (INTEGER 4) 0 '16'))) () () 0 0
0 ()) (116 'sta' (DERIVED 117) (1 DEFERRED () ()) () 1 1 0 ()) (118 'mdl'
(DERIVED 119) () () 0 0 0 ()) (120 'lsa' (DERIVED 121) () () 0 0 0 ()) (
122 'lsb' (DERIVED 123) () () 0 0 0 ()) (124 'ctr' (DERIVED 125) () () 0
0 0 ()) (126 'san' (DERIVED 127) () () 0 0 0 ()) (128 'ddf' (DERIVED 129)
() () 0 0 0 ())) PUBLIC ())
129 't_datumdef' 'p_fodits' 7 ((DERIVED UNKNOWN UNKNOWN UNKNOWN NONE
NONE) (UNKNOWN) 0 0 () () () '' ((130 'mjd' (REAL 8) (1 DEFERRED () ())
() 1 1 0 ()) (131 'hlmpar' (REAL 8) (2 DEFERRED () () () ()) () 1 1 0 ())
(132 'rmshlmpar' (REAL 8) (2 DEFERRED () () () ()) () 1 1 0 ()) (133
'rmshlmtra' (REAL 8) (1 DEFERRED () ()) () 1 1 0 ()) (134 'totsta' (
INTEGER 4) (1 DEFERRED () ()) () 1 1 0 ()) (135 'refsta' (INTEGER 4) (1
DEFERRED () ()) () 1 1 0 ()) (136 'rejsta' (INTEGER 4) (1 DEFERRED () ())
() 1 1 0 ()) (137 'hlmparoffst' (REAL 8) (1 EXPLICIT (CONSTANT (INTEGER
4) 0 '1') (CONSTANT (INTEGER 4) 0 '7')) () 1 0 0 ()) (138 'hlmparoffstrms'
(REAL 8) (1 EXPLICIT (CONSTANT (INTEGER 4) 0 '1') (CONSTANT (INTEGER 4)
0 '7')) () 1 0 0 ()) (139 'hlmpardrift' (REAL 8) (1 EXPLICIT (CONSTANT (
INTEGER 4) 0 '1') (CONSTANT (INTEGER 4) 0 '7')) () 1 0 0 ()) (140
'hlmpardriftrms' (REAL 8) (1 EXPLICIT (CONSTANT (INTEGER 4) 0 '1') (
CONSTANT (INTEGER 4) 0 '7')) () 1 0 0 ())) PUBLIC ())
127 't_san' 'p_fodits' 7 ((DERIVED UNKNOWN UNKNOWN UNKNOWN NONE NONE) (
UNKNOWN) 0 0 () () () '' ((141 'nper' (INTEGER 4) () () 0 0 0 ()) (142
'per' (REAL 8) (1 DEFERRED () ()) () 1 1 0 ())) PUBLIC ())
125 't_ctr' 'p_fodits' 7 ((DERIVED UNKNOWN UNKNOWN UNKNOWN NONE NONE) (
UNKNOWN) 0 0 () () () '' ((143 'niterloop' (INTEGER 4) () () 0 0 0 ()) (
144 'modnumiter' (REAL 8) (1 DEFERRED () ()) () 1 1 0 ()) (145
'modnumiteroutl' (REAL 8) (1 DEFERRED () ()) () 1 1 0 ()) (146 'nscrnloop'
(INTEGER 4) () () 0 0 0 ()) (147 'modnumscrn' (REAL 8) (1 DEFERRED () ())
() 1 1 0 ()) (148 'modnumscrnoutl' (REAL 8) (1 DEFERRED () ()) () 1 1 0
()) (149 'nremoloop' (INTEGER 4) () () 0 0 0 ())) PUBLIC ())
123 't_lsb' 'p_fodits' 7 ((DERIVED UNKNOWN UNKNOWN UNKNOWN NONE NONE) (
UNKNOWN) 0 0 () () () '' ((150 'prevvtv' (REAL 8) () () 0 0 0 ()) (151
'm0' (REAL 8) () () 0 0 0 ())) PUBLIC ())
121 't_lsa' 'p_fodits' 7 ((DERIVED UNKNOWN UNKNOWN UNKNOWN NONE NONE) (
UNKNOWN) 0 0 () () () '' ((152 'nnpar' (INTEGER 4) () () 0 0 0 ()) (153
'nnmjd' (INTEGER 4) () () 0 0 0 ()) (154 'a' (REAL 8) (2 DEFERRED () ()
() ()) () 1 1 0 ()) (155 'qxx' (REAL 8) (2 DEFERRED () () () ()) () 1 1
0 ()) (156 'y' (REAL 8) (1 DEFERRED () ()) () 1 1 0 ()) (157 'x' (REAL 8)
(1 DEFERRED () ()) () 1 1 0 ()) (158 'mod' (REAL 8) (1 DEFERRED () ()) ()
1 1 0 ()) (159 'v' (REAL 8) (1 DEFERRED () ()) () 1 1 0 ()) (160 'p' (
REAL 8) (1 DEFERRED () ()) () 1 1 0 ()) (161 'iqyy' (REAL 8) (3 DEFERRED
() () () () () ()) () 1 1 0 ()) (162 'dof' (INTEGER 4) () () 0 0 0 ()) (
163 'detn' (REAL 8) () () 0 0 0 ()) (164 'vtv' (REAL 8) () () 0 0 0 ())
(165 'm0' (REAL 8) () () 0 0 0 ())) PUBLIC ())
119 't_mdl' 'p_fodits' 7 ((DERIVED UNKNOWN UNKNOWN UNKNOWN NONE NONE) (
UNKNOWN) 0 0 () () () '' ((166 'evnt' (DERIVED 167) () () 0 0 0 ()) (
168 'napri' (INTEGER 4) () () 0 0 0 ()) (169 'apri' (DERIVED 167) (1
DEFERRED () ()) () 1 1 0 ()) (170 'niden' (INTEGER 4) () () 0 0 0 ()) (
171 'iden' (DERIVED 167) (1 DEFERRED () ()) () 1 1 0 ()) (172 'namod' (
INTEGER 4) () () 0 0 0 ()) (173 'amod' (DERIVED 167) (1 DEFERRED () ())
() 1 1 0 ()) (174 'outlmjd' (REAL 8) (1 DEFERRED () ()) () 1 1 0 ()))
PUBLIC ())
167 't_evnt' 'p_fodits' 7 ((DERIVED UNKNOWN UNKNOWN UNKNOWN NONE NONE) (
UNKNOWN) 0 0 () () () '' ((175 'type' (INTEGER 4) () () 0 0 0 ()) (176
'info' (INTEGER 4) () () 0 0 0 ()) (177 'mjd' (REAL 8) () () 0 0 0 ()) (
178 'omega' (REAL 8) () () 0 0 0 ()) (179 'timint' (DERIVED 37) () () 0
0 0 ()) (180 'flag' (INTEGER 4) () () 0 0 0 ()) (181 'remark' (
CHARACTER 1 ((CONSTANT (INTEGER 4) 0 '8'))) () () 0 0 0 ()) (182 'index'
(INTEGER 4) () () 0 0 0 ()) (183 'cand' (INTEGER 4) () () 0 0 0 ()) (
184 'par' (REAL 8) (1 EXPLICIT (CONSTANT (INTEGER 4) 0 '1') (CONSTANT (
INTEGER 4) 0 '3')) () 1 0 0 ()) (185 'val' (REAL 8) () () 0 0 0 ()) (
186 'dval' (REAL 8) () () 0 0 0 ()) (187 'vltst' (REAL 8) () () 0 0 0 ())
(188 'sttst' (REAL 8) () () 0 0 0 ()) (189 'sitst' (INTEGER 4) () () 0 0
0 ()) (190 'rename' (CHARACTER 1 ((CONSTANT (INTEGER 4) 0 '2'))) () () 0
0 0 ()) (191 'recchg' (CHARACTER 1 ((CONSTANT (INTEGER 4) 0 '20'))) (1
EXPLICIT (CONSTANT (INTEGER 4) 0 '1') (CONSTANT (INTEGER 4) 0 '2')) () 1
0 0 ()) (192 'antchg' (CHARACTER 1 ((CONSTANT (INTEGER 4) 0 '20'))) (1
EXPLICIT (CONSTANT (INTEGER 4) 0 '1') (CONSTANT (INTEGER 4) 0 '2')) () 1
0 0 ()) (193 'eccchg' (REAL 8) (2 EXPLICIT (CONSTANT (INTEGER 4) 0 '1')
(CONSTANT (INTEGER 4) 0 '3') (CONSTANT (INTEGER 4) 0 '1') (CONSTANT (
INTEGER 4) 0 '2')) () 1 0 0 ()) (194 'mjd2' (REAL 8) () () 0 0 0 ()) (
195 'dpar' (REAL 8) (1 EXPLICIT (CONSTANT (INTEGER 4) 0 '1') (CONSTANT (
INTEGER 4) 0 '3')) () 1 0 0 ()) (196 'phi' (REAL 8) (1 EXPLICIT (
CONSTANT (INTEGER 4) 0 '1') (CONSTANT (INTEGER 4) 0 '3')) () 1 0 0 ()) (
197 'ppar' (REAL 8) (2 EXPLICIT (CONSTANT (INTEGER 4) 0 '1') (CONSTANT (
INTEGER 4) 0 '3') (CONSTANT (INTEGER 4) 0 '1') (CONSTANT (INTEGER 4) 0 '2'))
() 1 0 0 ()) (198 'mod' (REAL 8) (1 EXPLICIT (CONSTANT (INTEGER 4) 0 '1')
(CONSTANT (INTEGER 4) 0 '3')) () 1 0 0 ())) PUBLIC ())
117 't_score_stat' 'p_fodits' 7 ((DERIVED UNKNOWN UNKNOWN UNKNOWN NONE
NONE) (UNKNOWN) 0 0 () () () '' ((199 'name' (CHARACTER 1 ((CONSTANT (
INTEGER 4) 0 '16'))) () () 0 0 0 ()) (200 'irefsta' (INTEGER 4) () () 0
0 0 ()) (201 'nstasta' (INTEGER 4) () () 0 0 0 ()) (202 'stasta' (
DERIVED 203) (1 DEFERRED () ()) () 1 1 0 ()) (204 'outcrdxyz' (REAL 8) (
1 EXPLICIT (CONSTANT (INTEGER 4) 0 '1') (CONSTANT (INTEGER 4) 0 '3')) ()
1 0 0 ()) (205 'outvelxyz' (REAL 8) (1 EXPLICIT (CONSTANT (INTEGER 4) 0
'1') (CONSTANT (INTEGER 4) 0 '3')) () 1 0 0 ()) (206 'nitersteps' (
INTEGER 4) () () 0 0 0 ()) (207 'modrms' (REAL 8) () () 0 0 0 ()) (208
'singular' (INTEGER 4) () () 0 0 0 ()) (209 'ts' (DERIVED 210) () () 0 0
0 ()) (211 'mod' (DERIVED 212) () () 0 0 0 ()) (213 'upd' (DERIVED 214)
() () 0 0 0 ())) PUBLIC ())
214 't_upd' 'p_fodits' 7 ((DERIVED UNKNOWN UNKNOWN UNKNOWN NONE NONE) (
UNKNOWN) 0 0 () () () '' ((215 'nren' (INTEGER 4) () () 0 0 0 ()) (216
'ren' (DERIVED 217) (1 DEFERRED () ()) () 1 1 0 ()) (218 'stastatusref'
(INTEGER 4) () () 0 0 0 ()) (219 'maxtimeinterv' (REAL 8) () () 0 0 0 ()))
PUBLIC ())
217 't_upd_ren' 'p_fodits' 7 ((DERIVED UNKNOWN UNKNOWN UNKNOWN NONE NONE)
(UNKNOWN) 0 0 () () () '' ((220 'type' (INTEGER 4) () () 0 0 0 ()) (221
'info' (INTEGER 4) () () 0 0 0 ()) (222 'timint' (DERIVED 37) () () 0 0
0 ()) (223 'rename' (CHARACTER 1 ((CONSTANT (INTEGER 4) 0 '2'))) () () 0
0 0 ()) (224 'cnstr' (INTEGER 4) () () 0 0 0 ()) (225 'group' (INTEGER 4)
() () 0 0 0 ()) (226 'grouplength' (REAL 8) () () 0 0 0 ()) (227
'groupnumdata' (INTEGER 4) () () 0 0 0 ()) (228 'remark' (CHARACTER 1 (
(CONSTANT (INTEGER 4) 0 '8'))) () () 0 0 0 ())) PUBLIC ())
212 't_mod' 'p_fodits' 7 ((DERIVED UNKNOWN UNKNOWN UNKNOWN NONE NONE) (
UNKNOWN) 0 0 () () () '' ((229 'nevnt' (INTEGER 4) () () 0 0 0 ()) (230
'evnt' (DERIVED 167) (1 DEFERRED () ()) () 1 1 0 ())) PUBLIC ())
210 't_ts' 'p_fodits' 7 ((DERIVED UNKNOWN UNKNOWN UNKNOWN NONE NONE) (
UNKNOWN) 0 0 () () () '' ((231 'nval' (INTEGER 4) () () 0 0 0 ()) (232
'nmjd' (INTEGER 4) () () 0 0 0 ()) (233 'mjd' (REAL 8) (1 DEFERRED () ())
() 1 1 0 ()) (234 'val' (REAL 8) (2 DEFERRED () () () ()) () 1 1 0 ()) (
235 'dval' (REAL 8) (2 DEFERRED () () () ()) () 1 1 0 ()) (236 'vci' (
REAL 8) (3 DEFERRED () () () () () ()) () 1 1 0 ()) (237 'ddef' (REAL 8)
(2 DEFERRED () () () ()) () 1 1 0 ()) (238 'ddefrej' (INTEGER 4) (1
DEFERRED () ()) () 1 1 0 ())) PUBLIC ())
203 't_stasta' 'p_fodits' 7 ((DERIVED UNKNOWN UNKNOWN UNKNOWN NONE NONE)
(UNKNOWN) 0 0 () () () '' ((239 'rename' (CHARACTER 1 ((CONSTANT (
INTEGER 4) 0 '16'))) () () 0 0 0 ()) (240 'timint' (DERIVED 37) () () 0
0 0 ()) (241 'incrdxyz' (REAL 8) (1 EXPLICIT (CONSTANT (INTEGER 4) 0 '1')
(CONSTANT (INTEGER 4) 0 '3')) () 1 0 0 ()) (242 'incrdneu' (REAL 8) (1
EXPLICIT (CONSTANT (INTEGER 4) 0 '1') (CONSTANT (INTEGER 4) 0 '3')) () 1
0 0 ()) (243 'incrdflg' (CHARACTER 1 ((CONSTANT (INTEGER 4) 0 '1'))) ()
() 0 0 0 ()) (244 'invelxyz' (REAL 8) (1 EXPLICIT (CONSTANT (INTEGER 4)
0 '1') (CONSTANT (INTEGER 4) 0 '3')) () 1 0 0 ()) (245 'invelneu' (REAL
8) (1 EXPLICIT (CONSTANT (INTEGER 4) 0 '1') (CONSTANT (INTEGER 4) 0 '3'))
() 1 0 0 ()) (246 'invelflg' (CHARACTER 1 ((CONSTANT (INTEGER 4) 0 '5')))
() () 0 0 0 ()) (247 'invelplate' (CHARACTER 1 ((CONSTANT (INTEGER 4) 0
'4'))) () () 0 0 0 ())) PUBLIC ())
3 'opt' '' 7 ((VARIABLE UNKNOWN UNKNOWN UNKNOWN NONE NONE DUMMY) (
DERIVED 248) 0 0 () () () '' () ())
248 't_opt' 'p_fodits' 7 ((DERIVED UNKNOWN UNKNOWN UNKNOWN NONE NONE) (
UNKNOWN) 0 0 () () () '' ((249 'rdonlystanames' (INTEGER 4) () () 0 0 0
()) (250 'selinptstype' (INTEGER 4) () () 0 0 0 ()) (251 'inpltfile' (
CHARACTER 1 ((CONSTANT (INTEGER 4) 0 '32'))) () () 0 0 0 ()) (252
'inpltfilevciena' (INTEGER 4) () () 0 0 0 ()) (253 'inpltfilevim0' (
REAL 8) () () 0 0 0 ()) (254 'incrdfile' (CHARACTER 1 ((CONSTANT (
INTEGER 4) 0 '32'))) () () 0 0 0 ()) (255 'invelfile' (CHARACTER 1 ((
CONSTANT (INTEGER 4) 0 '32'))) () () 0 0 0 ()) (256 'ncrds' (INTEGER 4)
() () 0 0 0 ()) (257 'crdfilename' (CHARACTER 1 ((CONSTANT (INTEGER 4) 0
'32'))) (1 DEFERRED () ()) () 1 1 0 ()) (258 'inevlfile' (CHARACTER 1 (
(CONSTANT (INTEGER 4) 0 '32'))) () () 0 0 0 ()) (259 'instafile' (
CHARACTER 1 ((CONSTANT (INTEGER 4) 0 '32'))) () () 0 0 0 ()) (260
'inerqfile' (CHARACTER 1 ((CONSTANT (INTEGER 4) 0 '80'))) () () 0 0 0 ())
(261 'const' (CHARACTER 1 ((CONSTANT (INTEGER 4) 0 '32'))) () () 0 0 0 ())
(262 'datum' (CHARACTER 1 ((CONSTANT (INTEGER 4) 0 '32'))) () () 0 0 0 ())
(263 'gvarerqfacta' (REAL 8) () () 0 0 0 ()) (264 'gvarerqfactb' (REAL 8)
() () 0 0 0 ()) (265 'gvarerqmindist' (REAL 8) () () 0 0 0 ()) (266
'incrdfileaddplt' (INTEGER 4) () () 0 0 0 ()) (267 'invelfileaddplt' (
INTEGER 4) () () 0 0 0 ()) (268 'gvarmaxnriterstep' (INTEGER 4) () () 0
0 0 ()) (269 'gvarmaxnrscrnstep' (INTEGER 4) () () 0 0 0 ()) (270
'modnnewoutl' (INTEGER 4) () () 0 0 0 ()) (271 'modnoutlrms' (REAL 8) ()
() 0 0 0 ()) (272 'outevlfile' (CHARACTER 1 ((CONSTANT (INTEGER 4) 0 '32')))
() () 0 0 0 ()) (273 'outstafileforaddneq2' (CHARACTER 1 ((CONSTANT (
INTEGER 4) 0 '32'))) () () 0 0 0 ()) (274 'outpltfile' (CHARACTER 1 ((
CONSTANT (INTEGER 4) 0 '32'))) () () 0 0 0 ()) (275 'outfileverbose' (
INTEGER 4) () () 0 0 0 ()) (276 'outfileverboset' (INTEGER 4) () () 0 0
0 ()) (277 'outfileverbosett' (INTEGER 4) () () 0 0 0 ()) (278 'title' (
CHARACTER 1 ((CONSTANT (INTEGER 4) 0 '80'))) () () 0 0 0 ()) (279
'intruncstaname' (INTEGER 4) () () 0 0 0 ()) (280 'nstasel' (INTEGER 4)
() () 0 0 0 ()) (281 'instaselection' (CHARACTER 1 ((CONSTANT (INTEGER 4)
0 '16'))) (1 DEFERRED () ()) () 1 1 0 ()) (282 'inminnrobs' (INTEGER 4)
() () 0 0 0 ()) (283 'tstevltst' (INTEGER 4) () () 0 0 0 ()) (284
'tststarenamings' (INTEGER 4) () () 0 0 0 ()) (285 'tstrectypechanges' (
INTEGER 4) () () 0 0 0 ()) (286 'tstrecnumberchanges' (INTEGER 4) () ()
0 0 0 ()) (287 'tstanttypechanges' (INTEGER 4) () () 0 0 0 ()) (288
'tstantnumberchanges' (INTEGER 4) () () 0 0 0 ()) (289 'tsteccchanges' (
INTEGER 4) () () 0 0 0 ()) (290 'modpredattest' (INTEGER 4) () () 0 0 0
()) (291 'minintervforvel' (REAL 8) () () 0 0 0 ()) (292 'modperann' (
INTEGER 4) () () 0 0 0 ()) (293 'modaddena' (INTEGER 4) () () 0 0 0 ())
(294 'naddperparam' (INTEGER 4) () () 0 0 0 ()) (295 'modaddperparam' (
REAL 8) (1 DEFERRED () ()) () 1 1 0 ()) (296 'indatumcrdfile' (
CHARACTER 1 ((CONSTANT (INTEGER 4) 0 '32'))) () () 0 0 0 ()) (297
'indatumvelfile' (CHARACTER 1 ((CONSTANT (INTEGER 4) 0 '32'))) () () 0 0
0 ()) (298 'indatumfixfile' (CHARACTER 1 ((CONSTANT (INTEGER 4) 0 '32')))
() () 0 0 0 ()) (299 'dathlmtx' (INTEGER 4) () () 0 0 0 ()) (300
'dathlmty' (INTEGER 4) () () 0 0 0 ()) (301 'dathlmtz' (INTEGER 4) () ()
0 0 0 ()) (302 'dathlmrx' (INTEGER 4) () () 0 0 0 ()) (303 'dathlmry' (
INTEGER 4) () () 0 0 0 ()) (304 'dathlmrz' (INTEGER 4) () () 0 0 0 ()) (
305 'dathlmsc' (INTEGER 4) () () 0 0 0 ()) (306 'datrejectcrd' (INTEGER
4) () () 0 0 0 ()) (307 'datnlimitcrd' (REAL 8) () () 0 0 0 ()) (308
'datelimitcrd' (REAL 8) () () 0 0 0 ()) (309 'datulimitcrd' (REAL 8) ()
() 0 0 0 ()) (310 'datrejectoutlcrd' (INTEGER 4) () () 0 0 0 ()) (311
'modtestvalue' (REAL 8) () () 0 0 0 ()) (312 'modoutltestvalue' (REAL 8)
() () 0 0 0 ()) (313 'modjumpspac' (REAL 8) () () 0 0 0 ()) (314
'modjumpsing' (REAL 8) () () 0 0 0 ()) (315 'modjumphori' (REAL 8) () ()
0 0 0 ()) (316 'modjumpvert' (REAL 8) () () 0 0 0 ()) (317 'modvelospac'
(REAL 8) () () 0 0 0 ()) (318 'modvelosing' (REAL 8) () () 0 0 0 ()) (
319 'modvelohori' (REAL 8) () () 0 0 0 ()) (320 'modvelovert' (REAL 8) ()
() 0 0 0 ()) (321 'modoutlspac' (REAL 8) () () 0 0 0 ()) (322
'modoutlsing' (REAL 8) () () 0 0 0 ()) (323 'modoutlhori' (REAL 8) () ()
0 0 0 ()) (324 'modoutlvert' (REAL 8) () () 0 0 0 ()) (325 'modperispac'
(REAL 8) () () 0 0 0 ()) (326 'modperising' (REAL 8) () () 0 0 0 ()) (
327 'modperihori' (REAL 8) () () 0 0 0 ()) (328 'modperivert' (REAL 8) ()
() 0 0 0 ()) (329 'modnewjumpidentify' (INTEGER 4) () () 0 0 0 ()) (330
'modnewveloidentify' (INTEGER 4) () () 0 0 0 ()) (331 'modnewoutlidentify'
(INTEGER 4) () () 0 0 0 ()) (332 'modnewperiidentify' (INTEGER 4) () ()
0 0 0 ()) (333 'modaddveloaj' (INTEGER 4) () () 0 0 0 ()) (334 'sannlines'
(INTEGER 4) () () 0 0 0 ()) (335 'sanminperiod' (REAL 8) () () 0 0 0 ())
(336 'sanmaxperiod' (REAL 8) () () 0 0 0 ()) (337 'outtimref' (REAL 8) ()
() 0 0 0 ()) (338 'mintimeintlength' (REAL 8) () () 0 0 0 ()) (339
'minpercdatafix' (REAL 8) () () 0 0 0 ()) (340 'incrdfileforaddneq2' (
CHARACTER 1 ((CONSTANT (INTEGER 4) 0 '32'))) () () 0 0 0 ()) (341
'invelfileforaddneq2' (CHARACTER 1 ((CONSTANT (INTEGER 4) 0 '32'))) () ()
0 0 0 ()) (342 'infixfileforaddneq2' (CHARACTER 1 ((CONSTANT (INTEGER 4)
0 '32'))) () () 0 0 0 ()) (343 'insigfileforaddneq2' (CHARACTER 1 ((
CONSTANT (INTEGER 4) 0 '32'))) () () 0 0 0 ()) (344 'outcrdfileforaddneq2'
(CHARACTER 1 ((CONSTANT (INTEGER 4) 0 '32'))) () () 0 0 0 ()) (345
'outvelfileforaddneq2' (CHARACTER 1 ((CONSTANT (INTEGER 4) 0 '32'))) ()
() 0 0 0 ()) (346 'outfixfileforaddneq2' (CHARACTER 1 ((CONSTANT (
INTEGER 4) 0 '32'))) () () 0 0 0 ()) (347 'outsigfileforaddneq2' (
CHARACTER 1 ((CONSTANT (INTEGER 4) 0 '32'))) () () 0 0 0 ()) (348
'updstandays' (INTEGER 4) () () 0 0 0 ()) (349 'gvarcstrcrd' (REAL 8) ()
() 0 0 0 ()) (350 'gvarcstrvel' (REAL 8) () () 0 0 0 ())) PUBLIC ())
)

('fodiputo' 0 2 's_fodiputo' 0 6)
