G95 module created on Thu Jun 25 17:44:15 2020 from ./.fpp/FODIADAS.f90
If you edit this, you'll get what you deserve.
module-version 9
(() () () () () () () () () () () () () () () () () () () () ())

()

()

()

()

(2 'fodiadas' 's_fodiadas' 1 ((PROCEDURE UNKNOWN MODULE-PROC DECL NONE
NONE SUBROUTINE) (PROCEDURE 0) 0 0 (3 NONE 4 NONE 5 NONE 6 NONE 7 NONE)
() () '' () ())
8 's_fodiadas' 's_fodiadas' 1 ((MODULE UNKNOWN UNKNOWN UNKNOWN NONE NONE)
(UNKNOWN) 0 0 () () () '' () ())
7 'statem' '' 9 ((VARIABLE UNKNOWN UNKNOWN UNKNOWN NONE NONE DUMMY) (
INTEGER 4) 0 0 () () () '' () ())
6 'ista' '' 9 ((VARIABLE UNKNOWN UNKNOWN UNKNOWN NONE NONE DUMMY) (
INTEGER 4) 0 0 () () () '' () ())
5 'score' '' 9 ((VARIABLE UNKNOWN UNKNOWN UNKNOWN NONE NONE DUMMY) (
DERIVED 10) 0 0 () () () '' () ())
10 't_score' 'p_fodits' 9 ((DERIVED UNKNOWN UNKNOWN UNKNOWN NONE NONE) (
UNKNOWN) 0 0 () () () '' ((11 'nsta' (INTEGER 4) () () 0 0 0 ()) (12
'nval' (INTEGER 4) () () 0 0 0 ()) (13 'ntotmjd' (INTEGER 4) () () 0 0 0
()) (14 'begmjd' (REAL 8) () () 0 0 0 ()) (15 'endmjd' (REAL 8) () () 0
0 0 ()) (16 'deltamjd' (REAL 8) () () 0 0 0 ()) (17 'intimrefcrd' (REAL
8) () () 0 0 0 ()) (18 'outtimrefcrd' (REAL 8) () () 0 0 0 ()) (19
'datumname' (CHARACTER 1 ((CONSTANT (INTEGER 4) 0 '16'))) () () 0 0 0 ())
(20 'sta' (DERIVED 21) (1 DEFERRED () ()) () 1 1 0 ()) (22 'mdl' (
DERIVED 23) () () 0 0 0 ()) (24 'lsa' (DERIVED 25) () () 0 0 0 ()) (26
'lsb' (DERIVED 27) () () 0 0 0 ()) (28 'ctr' (DERIVED 29) () () 0 0 0 ())
(30 'san' (DERIVED 31) () () 0 0 0 ()) (32 'ddf' (DERIVED 33) () () 0 0
0 ())) PUBLIC ())
33 't_datumdef' 'p_fodits' 9 ((DERIVED UNKNOWN UNKNOWN UNKNOWN NONE NONE)
(UNKNOWN) 0 0 () () () '' ((34 'mjd' (REAL 8) (1 DEFERRED () ()) () 1 1
0 ()) (35 'hlmpar' (REAL 8) (2 DEFERRED () () () ()) () 1 1 0 ()) (36
'rmshlmpar' (REAL 8) (2 DEFERRED () () () ()) () 1 1 0 ()) (37 'rmshlmtra'
(REAL 8) (1 DEFERRED () ()) () 1 1 0 ()) (38 'totsta' (INTEGER 4) (1
DEFERRED () ()) () 1 1 0 ()) (39 'refsta' (INTEGER 4) (1 DEFERRED () ())
() 1 1 0 ()) (40 'rejsta' (INTEGER 4) (1 DEFERRED () ()) () 1 1 0 ()) (
41 'hlmparoffst' (REAL 8) (1 EXPLICIT (CONSTANT (INTEGER 4) 0 '1') (
CONSTANT (INTEGER 4) 0 '7')) () 1 0 0 ()) (42 'hlmparoffstrms' (REAL 8)
(1 EXPLICIT (CONSTANT (INTEGER 4) 0 '1') (CONSTANT (INTEGER 4) 0 '7')) ()
1 0 0 ()) (43 'hlmpardrift' (REAL 8) (1 EXPLICIT (CONSTANT (INTEGER 4) 0
'1') (CONSTANT (INTEGER 4) 0 '7')) () 1 0 0 ()) (44 'hlmpardriftrms' (
REAL 8) (1 EXPLICIT (CONSTANT (INTEGER 4) 0 '1') (CONSTANT (INTEGER 4) 0
'7')) () 1 0 0 ())) PUBLIC ())
31 't_san' 'p_fodits' 9 ((DERIVED UNKNOWN UNKNOWN UNKNOWN NONE NONE) (
UNKNOWN) 0 0 () () () '' ((45 'nper' (INTEGER 4) () () 0 0 0 ()) (46 'per'
(REAL 8) (1 DEFERRED () ()) () 1 1 0 ())) PUBLIC ())
29 't_ctr' 'p_fodits' 9 ((DERIVED UNKNOWN UNKNOWN UNKNOWN NONE NONE) (
UNKNOWN) 0 0 () () () '' ((47 'niterloop' (INTEGER 4) () () 0 0 0 ()) (
48 'modnumiter' (REAL 8) (1 DEFERRED () ()) () 1 1 0 ()) (49
'modnumiteroutl' (REAL 8) (1 DEFERRED () ()) () 1 1 0 ()) (50 'nscrnloop'
(INTEGER 4) () () 0 0 0 ()) (51 'modnumscrn' (REAL 8) (1 DEFERRED () ())
() 1 1 0 ()) (52 'modnumscrnoutl' (REAL 8) (1 DEFERRED () ()) () 1 1 0 ())
(53 'nremoloop' (INTEGER 4) () () 0 0 0 ())) PUBLIC ())
27 't_lsb' 'p_fodits' 9 ((DERIVED UNKNOWN UNKNOWN UNKNOWN NONE NONE) (
UNKNOWN) 0 0 () () () '' ((54 'prevvtv' (REAL 8) () () 0 0 0 ()) (55 'm0'
(REAL 8) () () 0 0 0 ())) PUBLIC ())
25 't_lsa' 'p_fodits' 9 ((DERIVED UNKNOWN UNKNOWN UNKNOWN NONE NONE) (
UNKNOWN) 0 0 () () () '' ((56 'nnpar' (INTEGER 4) () () 0 0 0 ()) (57
'nnmjd' (INTEGER 4) () () 0 0 0 ()) (58 'a' (REAL 8) (2 DEFERRED () () ()
()) () 1 1 0 ()) (59 'qxx' (REAL 8) (2 DEFERRED () () () ()) () 1 1 0 ())
(60 'y' (REAL 8) (1 DEFERRED () ()) () 1 1 0 ()) (61 'x' (REAL 8) (1
DEFERRED () ()) () 1 1 0 ()) (62 'mod' (REAL 8) (1 DEFERRED () ()) () 1
1 0 ()) (63 'v' (REAL 8) (1 DEFERRED () ()) () 1 1 0 ()) (64 'p' (REAL 8)
(1 DEFERRED () ()) () 1 1 0 ()) (65 'iqyy' (REAL 8) (3 DEFERRED () () ()
() () ()) () 1 1 0 ()) (66 'dof' (INTEGER 4) () () 0 0 0 ()) (67 'detn'
(REAL 8) () () 0 0 0 ()) (68 'vtv' (REAL 8) () () 0 0 0 ()) (69 'm0' (
REAL 8) () () 0 0 0 ())) PUBLIC ())
23 't_mdl' 'p_fodits' 9 ((DERIVED UNKNOWN UNKNOWN UNKNOWN NONE NONE) (
UNKNOWN) 0 0 () () () '' ((70 'evnt' (DERIVED 71) () () 0 0 0 ()) (72
'napri' (INTEGER 4) () () 0 0 0 ()) (73 'apri' (DERIVED 71) (1 DEFERRED
() ()) () 1 1 0 ()) (74 'niden' (INTEGER 4) () () 0 0 0 ()) (75 'iden' (
DERIVED 71) (1 DEFERRED () ()) () 1 1 0 ()) (76 'namod' (INTEGER 4) () ()
0 0 0 ()) (77 'amod' (DERIVED 71) (1 DEFERRED () ()) () 1 1 0 ()) (78
'outlmjd' (REAL 8) (1 DEFERRED () ()) () 1 1 0 ())) PUBLIC ())
71 't_evnt' 'p_fodits' 9 ((DERIVED UNKNOWN UNKNOWN UNKNOWN NONE NONE) (
UNKNOWN) 0 0 () () () '' ((79 'type' (INTEGER 4) () () 0 0 0 ()) (80
'info' (INTEGER 4) () () 0 0 0 ()) (81 'mjd' (REAL 8) () () 0 0 0 ()) (
82 'omega' (REAL 8) () () 0 0 0 ()) (83 'timint' (DERIVED 84) () () 0 0
0 ()) (85 'flag' (INTEGER 4) () () 0 0 0 ()) (86 'remark' (CHARACTER 1 (
(CONSTANT (INTEGER 4) 0 '8'))) () () 0 0 0 ()) (87 'index' (INTEGER 4) ()
() 0 0 0 ()) (88 'cand' (INTEGER 4) () () 0 0 0 ()) (89 'par' (REAL 8) (
1 EXPLICIT (CONSTANT (INTEGER 4) 0 '1') (CONSTANT (INTEGER 4) 0 '3')) ()
1 0 0 ()) (90 'val' (REAL 8) () () 0 0 0 ()) (91 'dval' (REAL 8) () () 0
0 0 ()) (92 'vltst' (REAL 8) () () 0 0 0 ()) (93 'sttst' (REAL 8) () ()
0 0 0 ()) (94 'sitst' (INTEGER 4) () () 0 0 0 ()) (95 'rename' (
CHARACTER 1 ((CONSTANT (INTEGER 4) 0 '2'))) () () 0 0 0 ()) (96 'recchg'
(CHARACTER 1 ((CONSTANT (INTEGER 4) 0 '20'))) (1 EXPLICIT (CONSTANT (
INTEGER 4) 0 '1') (CONSTANT (INTEGER 4) 0 '2')) () 1 0 0 ()) (97 'antchg'
(CHARACTER 1 ((CONSTANT (INTEGER 4) 0 '20'))) (1 EXPLICIT (CONSTANT (
INTEGER 4) 0 '1') (CONSTANT (INTEGER 4) 0 '2')) () 1 0 0 ()) (98 'eccchg'
(REAL 8) (2 EXPLICIT (CONSTANT (INTEGER 4) 0 '1') (CONSTANT (INTEGER 4)
0 '3') (CONSTANT (INTEGER 4) 0 '1') (CONSTANT (INTEGER 4) 0 '2')) () 1 0
0 ()) (99 'mjd2' (REAL 8) () () 0 0 0 ()) (100 'dpar' (REAL 8) (1
EXPLICIT (CONSTANT (INTEGER 4) 0 '1') (CONSTANT (INTEGER 4) 0 '3')) () 1
0 0 ()) (101 'phi' (REAL 8) (1 EXPLICIT (CONSTANT (INTEGER 4) 0 '1') (
CONSTANT (INTEGER 4) 0 '3')) () 1 0 0 ()) (102 'ppar' (REAL 8) (2
EXPLICIT (CONSTANT (INTEGER 4) 0 '1') (CONSTANT (INTEGER 4) 0 '3') (
CONSTANT (INTEGER 4) 0 '1') (CONSTANT (INTEGER 4) 0 '2')) () 1 0 0 ()) (
103 'mod' (REAL 8) (1 EXPLICIT (CONSTANT (INTEGER 4) 0 '1') (CONSTANT (
INTEGER 4) 0 '3')) () 1 0 0 ())) PUBLIC ())
84 't_timint' 'm_time' 9 ((DERIVED UNKNOWN UNKNOWN UNKNOWN NONE NONE) (
UNKNOWN) 0 0 () () () '' ((104 't' (REAL 8) (1 EXPLICIT (CONSTANT (
INTEGER 4) 0 '1') (CONSTANT (INTEGER 4) 0 '2')) () 1 0 0 ())) PUBLIC ())
21 't_score_stat' 'p_fodits' 9 ((DERIVED UNKNOWN UNKNOWN UNKNOWN NONE
NONE) (UNKNOWN) 0 0 () () () '' ((105 'name' (CHARACTER 1 ((CONSTANT (
INTEGER 4) 0 '16'))) () () 0 0 0 ()) (106 'irefsta' (INTEGER 4) () () 0
0 0 ()) (107 'nstasta' (INTEGER 4) () () 0 0 0 ()) (108 'stasta' (
DERIVED 109) (1 DEFERRED () ()) () 1 1 0 ()) (110 'outcrdxyz' (REAL 8) (
1 EXPLICIT (CONSTANT (INTEGER 4) 0 '1') (CONSTANT (INTEGER 4) 0 '3')) ()
1 0 0 ()) (111 'outvelxyz' (REAL 8) (1 EXPLICIT (CONSTANT (INTEGER 4) 0
'1') (CONSTANT (INTEGER 4) 0 '3')) () 1 0 0 ()) (112 'nitersteps' (
INTEGER 4) () () 0 0 0 ()) (113 'modrms' (REAL 8) () () 0 0 0 ()) (114
'singular' (INTEGER 4) () () 0 0 0 ()) (115 'ts' (DERIVED 116) () () 0 0
0 ()) (117 'mod' (DERIVED 118) () () 0 0 0 ()) (119 'upd' (DERIVED 120)
() () 0 0 0 ())) PUBLIC ())
120 't_upd' 'p_fodits' 9 ((DERIVED UNKNOWN UNKNOWN UNKNOWN NONE NONE) (
UNKNOWN) 0 0 () () () '' ((121 'nren' (INTEGER 4) () () 0 0 0 ()) (122
'ren' (DERIVED 123) (1 DEFERRED () ()) () 1 1 0 ()) (124 'stastatusref'
(INTEGER 4) () () 0 0 0 ()) (125 'maxtimeinterv' (REAL 8) () () 0 0 0 ()))
PUBLIC ())
123 't_upd_ren' 'p_fodits' 9 ((DERIVED UNKNOWN UNKNOWN UNKNOWN NONE NONE)
(UNKNOWN) 0 0 () () () '' ((126 'type' (INTEGER 4) () () 0 0 0 ()) (127
'info' (INTEGER 4) () () 0 0 0 ()) (128 'timint' (DERIVED 84) () () 0 0
0 ()) (129 'rename' (CHARACTER 1 ((CONSTANT (INTEGER 4) 0 '2'))) () () 0
0 0 ()) (130 'cnstr' (INTEGER 4) () () 0 0 0 ()) (131 'group' (INTEGER 4)
() () 0 0 0 ()) (132 'grouplength' (REAL 8) () () 0 0 0 ()) (133
'groupnumdata' (INTEGER 4) () () 0 0 0 ()) (134 'remark' (CHARACTER 1 (
(CONSTANT (INTEGER 4) 0 '8'))) () () 0 0 0 ())) PUBLIC ())
118 't_mod' 'p_fodits' 9 ((DERIVED UNKNOWN UNKNOWN UNKNOWN NONE NONE) (
UNKNOWN) 0 0 () () () '' ((135 'nevnt' (INTEGER 4) () () 0 0 0 ()) (136
'evnt' (DERIVED 71) (1 DEFERRED () ()) () 1 1 0 ())) PUBLIC ())
116 't_ts' 'p_fodits' 9 ((DERIVED UNKNOWN UNKNOWN UNKNOWN NONE NONE) (
UNKNOWN) 0 0 () () () '' ((137 'nval' (INTEGER 4) () () 0 0 0 ()) (138
'nmjd' (INTEGER 4) () () 0 0 0 ()) (139 'mjd' (REAL 8) (1 DEFERRED () ())
() 1 1 0 ()) (140 'val' (REAL 8) (2 DEFERRED () () () ()) () 1 1 0 ()) (
141 'dval' (REAL 8) (2 DEFERRED () () () ()) () 1 1 0 ()) (142 'vci' (
REAL 8) (3 DEFERRED () () () () () ()) () 1 1 0 ()) (143 'ddef' (REAL 8)
(2 DEFERRED () () () ()) () 1 1 0 ()) (144 'ddefrej' (INTEGER 4) (1
DEFERRED () ()) () 1 1 0 ())) PUBLIC ())
109 't_stasta' 'p_fodits' 9 ((DERIVED UNKNOWN UNKNOWN UNKNOWN NONE NONE)
(UNKNOWN) 0 0 () () () '' ((145 'rename' (CHARACTER 1 ((CONSTANT (
INTEGER 4) 0 '16'))) () () 0 0 0 ()) (146 'timint' (DERIVED 84) () () 0
0 0 ()) (147 'incrdxyz' (REAL 8) (1 EXPLICIT (CONSTANT (INTEGER 4) 0 '1')
(CONSTANT (INTEGER 4) 0 '3')) () 1 0 0 ()) (148 'incrdneu' (REAL 8) (1
EXPLICIT (CONSTANT (INTEGER 4) 0 '1') (CONSTANT (INTEGER 4) 0 '3')) () 1
0 0 ()) (149 'incrdflg' (CHARACTER 1 ((CONSTANT (INTEGER 4) 0 '1'))) ()
() 0 0 0 ()) (150 'invelxyz' (REAL 8) (1 EXPLICIT (CONSTANT (INTEGER 4)
0 '1') (CONSTANT (INTEGER 4) 0 '3')) () 1 0 0 ()) (151 'invelneu' (REAL
8) (1 EXPLICIT (CONSTANT (INTEGER 4) 0 '1') (CONSTANT (INTEGER 4) 0 '3'))
() 1 0 0 ()) (152 'invelflg' (CHARACTER 1 ((CONSTANT (INTEGER 4) 0 '5')))
() () 0 0 0 ()) (153 'invelplate' (CHARACTER 1 ((CONSTANT (INTEGER 4) 0
'4'))) () () 0 0 0 ())) PUBLIC ())
4 'opt' '' 9 ((VARIABLE UNKNOWN UNKNOWN UNKNOWN NONE NONE DUMMY) (
DERIVED 154) 0 0 () () () '' () ())
154 't_opt' 'p_fodits' 9 ((DERIVED UNKNOWN UNKNOWN UNKNOWN NONE NONE) (
UNKNOWN) 0 0 () () () '' ((155 'rdonlystanames' (INTEGER 4) () () 0 0 0
()) (156 'selinptstype' (INTEGER 4) () () 0 0 0 ()) (157 'inpltfile' (
CHARACTER 1 ((CONSTANT (INTEGER 4) 0 '32'))) () () 0 0 0 ()) (158
'inpltfilevciena' (INTEGER 4) () () 0 0 0 ()) (159 'inpltfilevim0' (
REAL 8) () () 0 0 0 ()) (160 'incrdfile' (CHARACTER 1 ((CONSTANT (
INTEGER 4) 0 '32'))) () () 0 0 0 ()) (161 'invelfile' (CHARACTER 1 ((
CONSTANT (INTEGER 4) 0 '32'))) () () 0 0 0 ()) (162 'ncrds' (INTEGER 4)
() () 0 0 0 ()) (163 'crdfilename' (CHARACTER 1 ((CONSTANT (INTEGER 4) 0
'32'))) (1 DEFERRED () ()) () 1 1 0 ()) (164 'inevlfile' (CHARACTER 1 (
(CONSTANT (INTEGER 4) 0 '32'))) () () 0 0 0 ()) (165 'instafile' (
CHARACTER 1 ((CONSTANT (INTEGER 4) 0 '32'))) () () 0 0 0 ()) (166
'inerqfile' (CHARACTER 1 ((CONSTANT (INTEGER 4) 0 '80'))) () () 0 0 0 ())
(167 'const' (CHARACTER 1 ((CONSTANT (INTEGER 4) 0 '32'))) () () 0 0 0 ())
(168 'datum' (CHARACTER 1 ((CONSTANT (INTEGER 4) 0 '32'))) () () 0 0 0 ())
(169 'gvarerqfacta' (REAL 8) () () 0 0 0 ()) (170 'gvarerqfactb' (REAL 8)
() () 0 0 0 ()) (171 'gvarerqmindist' (REAL 8) () () 0 0 0 ()) (172
'incrdfileaddplt' (INTEGER 4) () () 0 0 0 ()) (173 'invelfileaddplt' (
INTEGER 4) () () 0 0 0 ()) (174 'gvarmaxnriterstep' (INTEGER 4) () () 0
0 0 ()) (175 'gvarmaxnrscrnstep' (INTEGER 4) () () 0 0 0 ()) (176
'modnnewoutl' (INTEGER 4) () () 0 0 0 ()) (177 'modnoutlrms' (REAL 8) ()
() 0 0 0 ()) (178 'outevlfile' (CHARACTER 1 ((CONSTANT (INTEGER 4) 0 '32')))
() () 0 0 0 ()) (179 'outstafileforaddneq2' (CHARACTER 1 ((CONSTANT (
INTEGER 4) 0 '32'))) () () 0 0 0 ()) (180 'outpltfile' (CHARACTER 1 ((
CONSTANT (INTEGER 4) 0 '32'))) () () 0 0 0 ()) (181 'outfileverbose' (
INTEGER 4) () () 0 0 0 ()) (182 'outfileverboset' (INTEGER 4) () () 0 0
0 ()) (183 'outfileverbosett' (INTEGER 4) () () 0 0 0 ()) (184 'title' (
CHARACTER 1 ((CONSTANT (INTEGER 4) 0 '80'))) () () 0 0 0 ()) (185
'intruncstaname' (INTEGER 4) () () 0 0 0 ()) (186 'nstasel' (INTEGER 4)
() () 0 0 0 ()) (187 'instaselection' (CHARACTER 1 ((CONSTANT (INTEGER 4)
0 '16'))) (1 DEFERRED () ()) () 1 1 0 ()) (188 'inminnrobs' (INTEGER 4)
() () 0 0 0 ()) (189 'tstevltst' (INTEGER 4) () () 0 0 0 ()) (190
'tststarenamings' (INTEGER 4) () () 0 0 0 ()) (191 'tstrectypechanges' (
INTEGER 4) () () 0 0 0 ()) (192 'tstrecnumberchanges' (INTEGER 4) () ()
0 0 0 ()) (193 'tstanttypechanges' (INTEGER 4) () () 0 0 0 ()) (194
'tstantnumberchanges' (INTEGER 4) () () 0 0 0 ()) (195 'tsteccchanges' (
INTEGER 4) () () 0 0 0 ()) (196 'modpredattest' (INTEGER 4) () () 0 0 0
()) (197 'minintervforvel' (REAL 8) () () 0 0 0 ()) (198 'modperann' (
INTEGER 4) () () 0 0 0 ()) (199 'modaddena' (INTEGER 4) () () 0 0 0 ())
(200 'naddperparam' (INTEGER 4) () () 0 0 0 ()) (201 'modaddperparam' (
REAL 8) (1 DEFERRED () ()) () 1 1 0 ()) (202 'indatumcrdfile' (
CHARACTER 1 ((CONSTANT (INTEGER 4) 0 '32'))) () () 0 0 0 ()) (203
'indatumvelfile' (CHARACTER 1 ((CONSTANT (INTEGER 4) 0 '32'))) () () 0 0
0 ()) (204 'indatumfixfile' (CHARACTER 1 ((CONSTANT (INTEGER 4) 0 '32')))
() () 0 0 0 ()) (205 'dathlmtx' (INTEGER 4) () () 0 0 0 ()) (206
'dathlmty' (INTEGER 4) () () 0 0 0 ()) (207 'dathlmtz' (INTEGER 4) () ()
0 0 0 ()) (208 'dathlmrx' (INTEGER 4) () () 0 0 0 ()) (209 'dathlmry' (
INTEGER 4) () () 0 0 0 ()) (210 'dathlmrz' (INTEGER 4) () () 0 0 0 ()) (
211 'dathlmsc' (INTEGER 4) () () 0 0 0 ()) (212 'datrejectcrd' (INTEGER
4) () () 0 0 0 ()) (213 'datnlimitcrd' (REAL 8) () () 0 0 0 ()) (214
'datelimitcrd' (REAL 8) () () 0 0 0 ()) (215 'datulimitcrd' (REAL 8) ()
() 0 0 0 ()) (216 'datrejectoutlcrd' (INTEGER 4) () () 0 0 0 ()) (217
'modtestvalue' (REAL 8) () () 0 0 0 ()) (218 'modoutltestvalue' (REAL 8)
() () 0 0 0 ()) (219 'modjumpspac' (REAL 8) () () 0 0 0 ()) (220
'modjumpsing' (REAL 8) () () 0 0 0 ()) (221 'modjumphori' (REAL 8) () ()
0 0 0 ()) (222 'modjumpvert' (REAL 8) () () 0 0 0 ()) (223 'modvelospac'
(REAL 8) () () 0 0 0 ()) (224 'modvelosing' (REAL 8) () () 0 0 0 ()) (
225 'modvelohori' (REAL 8) () () 0 0 0 ()) (226 'modvelovert' (REAL 8) ()
() 0 0 0 ()) (227 'modoutlspac' (REAL 8) () () 0 0 0 ()) (228
'modoutlsing' (REAL 8) () () 0 0 0 ()) (229 'modoutlhori' (REAL 8) () ()
0 0 0 ()) (230 'modoutlvert' (REAL 8) () () 0 0 0 ()) (231 'modperispac'
(REAL 8) () () 0 0 0 ()) (232 'modperising' (REAL 8) () () 0 0 0 ()) (
233 'modperihori' (REAL 8) () () 0 0 0 ()) (234 'modperivert' (REAL 8) ()
() 0 0 0 ()) (235 'modnewjumpidentify' (INTEGER 4) () () 0 0 0 ()) (236
'modnewveloidentify' (INTEGER 4) () () 0 0 0 ()) (237 'modnewoutlidentify'
(INTEGER 4) () () 0 0 0 ()) (238 'modnewperiidentify' (INTEGER 4) () ()
0 0 0 ()) (239 'modaddveloaj' (INTEGER 4) () () 0 0 0 ()) (240 'sannlines'
(INTEGER 4) () () 0 0 0 ()) (241 'sanminperiod' (REAL 8) () () 0 0 0 ())
(242 'sanmaxperiod' (REAL 8) () () 0 0 0 ()) (243 'outtimref' (REAL 8) ()
() 0 0 0 ()) (244 'mintimeintlength' (REAL 8) () () 0 0 0 ()) (245
'minpercdatafix' (REAL 8) () () 0 0 0 ()) (246 'incrdfileforaddneq2' (
CHARACTER 1 ((CONSTANT (INTEGER 4) 0 '32'))) () () 0 0 0 ()) (247
'invelfileforaddneq2' (CHARACTER 1 ((CONSTANT (INTEGER 4) 0 '32'))) () ()
0 0 0 ()) (248 'infixfileforaddneq2' (CHARACTER 1 ((CONSTANT (INTEGER 4)
0 '32'))) () () 0 0 0 ()) (249 'insigfileforaddneq2' (CHARACTER 1 ((
CONSTANT (INTEGER 4) 0 '32'))) () () 0 0 0 ()) (250 'outcrdfileforaddneq2'
(CHARACTER 1 ((CONSTANT (INTEGER 4) 0 '32'))) () () 0 0 0 ()) (251
'outvelfileforaddneq2' (CHARACTER 1 ((CONSTANT (INTEGER 4) 0 '32'))) ()
() 0 0 0 ()) (252 'outfixfileforaddneq2' (CHARACTER 1 ((CONSTANT (
INTEGER 4) 0 '32'))) () () 0 0 0 ()) (253 'outsigfileforaddneq2' (
CHARACTER 1 ((CONSTANT (INTEGER 4) 0 '32'))) () () 0 0 0 ()) (254
'updstandays' (INTEGER 4) () () 0 0 0 ()) (255 'gvarcstrcrd' (REAL 8) ()
() 0 0 0 ()) (256 'gvarcstrvel' (REAL 8) () () 0 0 0 ())) PUBLIC ())
3 'mmod' '' 9 ((VARIABLE IN UNKNOWN UNKNOWN NONE NONE DUMMY) (INTEGER 4)
0 0 () () () '' () ())
)

('fodiadas' 0 2 's_fodiadas' 0 8)
