G95 module created on Thu Jun 25 17:42:39 2020 from ./.fpp/GETCO3.f90
If you edit this, you'll get what you deserve.
module-version 9
(() () () () () () () () () () () () () () () () () () () () ())

()

()

()

()

(2 'getco3' 's_getco3' 1 ((PROCEDURE UNKNOWN MODULE-PROC DECL NONE NONE
SUBROUTINE) (PROCEDURE 0) 0 0 (3 NONE 4 NONE 5 NONE 6 NONE 7 NONE 8 NONE
9 NONE 10 NONE 11 NONE 12 NONE 13 NONE 14 NONE 15 NONE 16 NONE) () () ''
() ())
17 's_getco3' 's_getco3' 1 ((MODULE UNKNOWN UNKNOWN UNKNOWN NONE NONE) (
UNKNOWN) 0 0 () () () '' () ())
16 'footer' '' 18 ((VARIABLE UNKNOWN UNKNOWN UNKNOWN NONE NONE DIMENSION
OPTIONAL POINTER DUMMY) (CHARACTER 1 (())) 0 0 () (1 DEFERRED () ()) () ''
() ())
15 'plate' '' 18 ((VARIABLE UNKNOWN UNKNOWN UNKNOWN NONE NONE DIMENSION
OPTIONAL POINTER DUMMY) (CHARACTER 1 ((CONSTANT (INTEGER 4) 0 '4'))) 0 0
() (1 DEFERRED () ()) () '' () ())
14 'staflg5' '' 18 ((VARIABLE UNKNOWN UNKNOWN UNKNOWN NONE NONE
DIMENSION OPTIONAL POINTER DUMMY) (CHARACTER 1 ((CONSTANT (INTEGER 4) 0
'5'))) 0 0 () (1 DEFERRED () ()) () '' () ())
13 'staflg' '' 18 ((VARIABLE UNKNOWN UNKNOWN UNKNOWN NONE NONE DIMENSION
OPTIONAL POINTER DUMMY) (CHARACTER 1 ((CONSTANT (INTEGER 4) 0 '1'))) 0 0
() (1 DEFERRED () ()) () '' () ())
12 'xstat' '' 18 ((VARIABLE UNKNOWN UNKNOWN UNKNOWN NONE NONE DIMENSION
OPTIONAL POINTER DUMMY) (REAL 8) 0 0 () (2 DEFERRED () () () ()) () '' ()
())
11 'stanum' '' 18 ((VARIABLE UNKNOWN UNKNOWN UNKNOWN NONE NONE DIMENSION
OPTIONAL POINTER DUMMY) (INTEGER 4) 0 0 () (1 DEFERRED () ()) () '' () ())
10 'timcrd' '' 18 ((VARIABLE UNKNOWN UNKNOWN UNKNOWN NONE NONE OPTIONAL
DUMMY) (REAL 8) 0 0 () () () '' () ())
9 'datum' '' 18 ((VARIABLE UNKNOWN UNKNOWN UNKNOWN NONE NONE OPTIONAL
DUMMY) (CHARACTER 1 ((CONSTANT (INTEGER 4) 0 '16'))) 0 0 () () () '' ()
())
8 'title' '' 18 ((VARIABLE UNKNOWN UNKNOWN UNKNOWN NONE NONE OPTIONAL
DUMMY) (CHARACTER 1 ((CONSTANT (INTEGER 4) 0 '80'))) 0 0 () () () '' ()
())
7 'stname' '' 18 ((VARIABLE UNKNOWN UNKNOWN UNKNOWN NONE NONE DIMENSION
POINTER DUMMY) (CHARACTER 1 ((CONSTANT (INTEGER 4) 0 '16'))) 0 0 () (1
DEFERRED () ()) () '' () ())
6 'nstat' '' 18 ((VARIABLE UNKNOWN UNKNOWN UNKNOWN NONE NONE DUMMY) (
INTEGER 4) 0 0 () () () '' () ())
5 'flags' '' 18 ((VARIABLE UNKNOWN UNKNOWN UNKNOWN NONE NONE DIMENSION
DUMMY) (CHARACTER 1 ((CONSTANT (INTEGER 4) 0 '1'))) 0 0 () (1
ASSUMED_SIZE (CONSTANT (INTEGER 4) 0 '1') ()) () '' () ())
4 'nflag' '' 18 ((VARIABLE UNKNOWN UNKNOWN UNKNOWN NONE NONE DUMMY) (
INTEGER 4) 0 0 () () () '' () ())
3 'filnam' '' 18 ((VARIABLE UNKNOWN UNKNOWN UNKNOWN NONE NONE DUMMY) (
CHARACTER 1 (())) 0 0 () () () '' () ())
)

('getco3' 0 2 's_getco3' 0 17)
