G95 module created on Thu Jun 25 17:43:27 2020 from ./.fpp/GOBSDEF.f90
If you edit this, you'll get what you deserve.
module-version 9
(() () () () () () () () () () () () () () () () () () () () ())

()

()

()

()

(2 'init_geos' 's_gobsdef' 1 ((PROCEDURE UNKNOWN MODULE-PROC DECL NONE
NONE SUBROUTINE) (PROCEDURE 0) 0 0 (3 NONE 4 NONE) () () '' () ())
5 'init_rinstat' 's_gobsdef' 1 ((PROCEDURE UNKNOWN MODULE-PROC DECL NONE
NONE SUBROUTINE) (PROCEDURE 0) 0 0 (6 NONE) () () '' () ())
7 'readgeos' 's_gobsdef' 1 ((PROCEDURE UNKNOWN MODULE-PROC DECL NONE
NONE SUBROUTINE) (PROCEDURE 0) 0 0 (8 NONE 9 NONE 10 NONE) () () '' () ())
11 'readgeos2' 's_gobsdef' 1 ((PROCEDURE UNKNOWN MODULE-PROC DECL NONE
NONE SUBROUTINE) (PROCEDURE 0) 0 0 (12 NONE 13 NONE 14 NONE 15 NONE) ()
() '' () ())
16 's_gobsdef' 's_gobsdef' 1 ((MODULE UNKNOWN UNKNOWN UNKNOWN NONE NONE)
(UNKNOWN) 0 0 () () () '' () ())
17 'setgeos' 's_gobsdef' 1 ((PROCEDURE UNKNOWN MODULE-PROC DECL NONE
NONE SUBROUTINE) (PROCEDURE 0) 0 0 (18 NONE 19 NONE 20 NONE) () () '' ()
())
21 'setgeos2' 's_gobsdef' 1 ((PROCEDURE UNKNOWN MODULE-PROC DECL NONE
NONE SUBROUTINE) (PROCEDURE 0) 0 0 (22 NONE 23 NONE 24 NONE 25 NONE) ()
() '' () ())
26 'tstobst' 's_gobsdef' 1 ((PROCEDURE UNKNOWN MODULE-PROC DECL NONE
NONE SUBROUTINE) (PROCEDURE 0) 0 0 (27 NONE 28 NONE 29 NONE) () () '' ()
())
29 'indobst_new' '' 30 ((VARIABLE UNKNOWN UNKNOWN UNKNOWN NONE NONE
DUMMY) (INTEGER 4) 0 0 () () () '' () ())
28 'obst_1' '' 30 ((VARIABLE UNKNOWN UNKNOWN UNKNOWN NONE NONE DUMMY) (
DERIVED 31) 0 0 () () () '' () ())
31 't_obst' 'd_neq' 30 ((DERIVED UNKNOWN UNKNOWN UNKNOWN NONE NONE) (
UNKNOWN) 0 0 () () () '' ((32 'obstyp' (CHARACTER 1 ((CONSTANT (INTEGER
4) 0 '3'))) (1 EXPLICIT (CONSTANT (INTEGER 4) 0 '1') (CONSTANT (INTEGER
4) 0 '4')) () 1 0 0 ())) PUBLIC ())
27 'misc' '' 30 ((VARIABLE UNKNOWN UNKNOWN UNKNOWN NONE NONE DUMMY) (
DERIVED 33) 0 0 () () () '' () ())
33 't_misc' 'd_neq' 30 ((DERIVED UNKNOWN UNKNOWN UNKNOWN NONE NONE) (
UNKNOWN) 0 0 () () () '' ((34 'title' (CHARACTER 1 ((CONSTANT (INTEGER 4)
0 '132'))) (1 EXPLICIT (CONSTANT (INTEGER 4) 0 '1') (CONSTANT (INTEGER 4)
0 '2')) () 1 0 0 ()) (35 'datum' (CHARACTER 1 ((CONSTANT (INTEGER 4) 0
'16'))) () () 0 0 0 ()) (36 'nutmod' (CHARACTER 1 ((CONSTANT (INTEGER 4)
0 '16'))) () () 0 0 0 ()) (37 'submod' (CHARACTER 1 ((CONSTANT (INTEGER
4) 0 '16'))) () () 0 0 0 ()) (38 'orbfil' (CHARACTER 1 ((CONSTANT (
INTEGER 4) 0 '32'))) (1 EXPLICIT (CONSTANT (INTEGER 4) 0 '1') (CONSTANT
(INTEGER 4) 0 '2')) () 1 0 0 ()) (39 'gravfil' (CHARACTER 1 ((CONSTANT (
INTEGER 4) 0 '32'))) () () 0 0 0 ()) (40 'nobs' (REAL 8) () () 0 0 0 ())
(41 'npar' (INTEGER 4) () () 0 0 0 ()) (42 'ltpl' (REAL 8) () () 0 0 0 ())
(43 'nparms' (REAL 8) () () 0 0 0 ()) (44 'npseu' (INTEGER 4) () () 0 0
0 ()) (45 'npseuel' (INTEGER 4) () () 0 0 0 ()) (46 'nftot' (INTEGER 4)
() () 0 0 0 ()) (47 'nsmpnq' (INTEGER 4) () () 0 0 0 ()) (48 'ielvnq' (
INTEGER 4) () () 0 0 0 ()) (49 'itropo' (INTEGER 4) () () 0 0 0 ()) (50
'iextra' (INTEGER 4) () () 0 0 0 ()) (51 'itrmap' (INTEGER 4) () () 0 0
0 ()) (52 'itrgrd' (INTEGER 4) () () 0 0 0 ()) (53 'nanoff' (INTEGER 4)
() () 0 0 0 ()) (54 'nsaoff' (INTEGER 4) (1 EXPLICIT (CONSTANT (INTEGER
4) 0 '1') (CONSTANT (INTEGER 4) 0 '260')) () 1 0 0 ()) (55 'satoff' (
INTEGER 4) (2 EXPLICIT (CONSTANT (INTEGER 4) 0 '1') (CONSTANT (INTEGER 4)
0 '130') (CONSTANT (INTEGER 4) 0 '1') (CONSTANT (INTEGER 4) 0 '260')) ()
1 0 0 ()) (56 'nstat_sinex' (INTEGER 4) () () 0 0 0 ()) (57 'sinex' (
DERIVED 58) (1 EXPLICIT (CONSTANT (INTEGER 4) 0 '1') (CONSTANT (INTEGER
4) 0 '2000')) () 1 0 0 ()) (59 'grdneq' (CHARACTER 1 ((CONSTANT (
INTEGER 4) 0 '12'))) (1 EXPLICIT (CONSTANT (INTEGER 4) 0 '1') (CONSTANT
(INTEGER 4) 0 '3')) () 1 0 0 ()) (60 'nobst' (INTEGER 4) () () 0 0 0 ())
(61 'obst' (DERIVED 31) (1 EXPLICIT (CONSTANT (INTEGER 4) 0 '1') (
CONSTANT (INTEGER 4) 0 '30000')) () 1 0 0 ())) PUBLIC ())
58 't_sinex' 'd_neq' 30 ((DERIVED UNKNOWN UNKNOWN UNKNOWN NONE NONE) (
UNKNOWN) 0 0 () () () '' ((62 'timint' (DERIVED 63) () () 0 0 0 ()) (64
'stname' (CHARACTER 1 ((CONSTANT (INTEGER 4) 0 '16'))) () () 0 0 0 ()) (
65 'antecc' (REAL 8) (1 EXPLICIT (CONSTANT (INTEGER 4) 0 '1') (CONSTANT
(INTEGER 4) 0 '3')) () 1 0 0 ()) (66 'antpcv' (DERIVED 67) (1 EXPLICIT (
CONSTANT (INTEGER 4) 0 '0') (CONSTANT (INTEGER 4) 0 '5')) () 1 0 0 ()) (
68 'antnum' (INTEGER 4) () () 0 0 0 ()) (69 'antsta' (CHARACTER 1 ((
CONSTANT (INTEGER 4) 0 '20'))) () () 0 0 0 ()) (70 'antrec' (CHARACTER 1
((CONSTANT (INTEGER 4) 0 '20'))) () () 0 0 0 ())) PUBLIC ())
67 't_sinex_pcv' 'd_neq' 30 ((DERIVED UNKNOWN UNKNOWN UNKNOWN NONE NONE)
(UNKNOWN) 0 0 () () () '' ((71 'nfrq' (INTEGER 4) () () 0 0 0 ()) (72
'antphs' (REAL 8) (2 EXPLICIT (CONSTANT (INTEGER 4) 0 '1') (CONSTANT (
INTEGER 4) 0 '3') (CONSTANT (INTEGER 4) 0 '1') (CONSTANT (INTEGER 4) 0 '2'))
() 1 0 0 ()) (73 'adopted' (INTEGER 4) () () 0 0 0 ()) (74 'individ' (
INTEGER 4) () () 0 0 0 ()) (75 'atxstr' (CHARACTER 1 ((CONSTANT (
INTEGER 4) 0 '10'))) () () 0 0 0 ())) PUBLIC ())
63 't_timint' 'm_time' 30 ((DERIVED UNKNOWN UNKNOWN UNKNOWN NONE NONE) (
UNKNOWN) 0 0 () () () '' ((76 't' (REAL 8) (1 EXPLICIT (CONSTANT (
INTEGER 4) 0 '1') (CONSTANT (INTEGER 4) 0 '2')) () 1 0 0 ())) PUBLIC ())
25 'usegeos' '' 77 ((VARIABLE UNKNOWN UNKNOWN UNKNOWN NONE NONE DUMMY) (
INTEGER 4) 0 0 () () () '' () ())
24 'gobsdef' '' 77 ((VARIABLE UNKNOWN UNKNOWN UNKNOWN NONE NONE DUMMY) (
DERIVED 78) 0 0 () () () '' () ())
78 't_gobsdef' 'd_rinex3' 77 ((DERIVED UNKNOWN UNKNOWN UNKNOWN NONE NONE)
(UNKNOWN) 0 0 () () () '' ((79 'norec' (INTEGER 4) () () 0 0 0 ()) (80
'sat' (DERIVED 81) (1 DEFERRED () ()) () 1 1 0 ()) (82 'nfreqc' (
INTEGER 4) () () 0 0 0 ()) (83 'nfreqp' (INTEGER 4) () () 0 0 0 ()))
PUBLIC ())
81 't_satsig' 'd_rinex3' 77 ((DERIVED UNKNOWN UNKNOWN UNKNOWN NONE NONE)
(UNKNOWN) 0 0 () () () '' ((84 'satname' (CHARACTER 1 ((CONSTANT (
INTEGER 4) 0 '3'))) () () 0 0 0 ()) (85 'sysnum' (INTEGER 4) () () 0 0 0
()) (86 'syschar' (CHARACTER 1 ((CONSTANT (INTEGER 4) 0 '1'))) () () 0 0
0 ()) (87 'satnum' (INTEGER 4) () () 0 0 0 ()) (88 'obstyp' (CHARACTER 1
((CONSTANT (INTEGER 4) 0 '3'))) (1 EXPLICIT (CONSTANT (INTEGER 4) 0 '1')
(CONSTANT (INTEGER 4) 0 '8')) () 1 0 0 ()) (89 'obstyp2' (CHARACTER 1 (
(CONSTANT (INTEGER 4) 0 '2'))) (1 EXPLICIT (CONSTANT (INTEGER 4) 0 '1')
(CONSTANT (INTEGER 4) 0 '8')) () 1 0 0 ()) (90 'obsindr212' (INTEGER 4)
(1 EXPLICIT (CONSTANT (INTEGER 4) 0 '1') (CONSTANT (INTEGER 4) 0 '8')) ()
1 0 0 ()) (91 'factor' (INTEGER 4) (1 EXPLICIT (CONSTANT (INTEGER 4) 0 '1')
(CONSTANT (INTEGER 4) 0 '8')) () 1 0 0 ()) (92 'nfreqc' (INTEGER 4) () ()
0 0 0 ()) (93 'nfreqp' (INTEGER 4) () () 0 0 0 ()) (94 'eposatind' (
INTEGER 4) () () 0 0 0 ())) PUBLIC ())
23 'svn' '' 77 ((VARIABLE UNKNOWN UNKNOWN UNKNOWN NONE NONE DUMMY) (
INTEGER 4) 0 0 () () () '' () ())
22 'obst' '' 77 ((VARIABLE UNKNOWN UNKNOWN UNKNOWN NONE NONE DUMMY) (
DERIVED 95) 0 0 () () () '' () ())
95 't_obst' 'd_neq' 77 ((DERIVED UNKNOWN UNKNOWN UNKNOWN NONE NONE) (
UNKNOWN) 0 0 () () () '' ((96 'obstyp' (CHARACTER 1 ((CONSTANT (INTEGER
4) 0 '3'))) (1 EXPLICIT (CONSTANT (INTEGER 4) 0 '1') (CONSTANT (INTEGER
4) 0 '4')) () 1 0 0 ())) PUBLIC ())
20 'usegeos' '' 97 ((VARIABLE UNKNOWN UNKNOWN UNKNOWN NONE NONE DUMMY) (
INTEGER 4) 0 0 () () () '' () ())
19 'gobsdef' '' 97 ((VARIABLE UNKNOWN UNKNOWN UNKNOWN NONE NONE DUMMY) (
DERIVED 98) 0 0 () () () '' () ())
98 't_gobsdef' 'd_rinex3' 97 ((DERIVED UNKNOWN UNKNOWN UNKNOWN NONE NONE)
(UNKNOWN) 0 0 () () () '' ((99 'norec' (INTEGER 4) () () 0 0 0 ()) (100
'sat' (DERIVED 101) (1 DEFERRED () ()) () 1 1 0 ()) (102 'nfreqc' (
INTEGER 4) () () 0 0 0 ()) (103 'nfreqp' (INTEGER 4) () () 0 0 0 ()))
PUBLIC ())
101 't_satsig' 'd_rinex3' 97 ((DERIVED UNKNOWN UNKNOWN UNKNOWN NONE NONE)
(UNKNOWN) 0 0 () () () '' ((104 'satname' (CHARACTER 1 ((CONSTANT (
INTEGER 4) 0 '3'))) () () 0 0 0 ()) (105 'sysnum' (INTEGER 4) () () 0 0
0 ()) (106 'syschar' (CHARACTER 1 ((CONSTANT (INTEGER 4) 0 '1'))) () ()
0 0 0 ()) (107 'satnum' (INTEGER 4) () () 0 0 0 ()) (108 'obstyp' (
CHARACTER 1 ((CONSTANT (INTEGER 4) 0 '3'))) (1 EXPLICIT (CONSTANT (
INTEGER 4) 0 '1') (CONSTANT (INTEGER 4) 0 '8')) () 1 0 0 ()) (109
'obstyp2' (CHARACTER 1 ((CONSTANT (INTEGER 4) 0 '2'))) (1 EXPLICIT (
CONSTANT (INTEGER 4) 0 '1') (CONSTANT (INTEGER 4) 0 '8')) () 1 0 0 ()) (
110 'obsindr212' (INTEGER 4) (1 EXPLICIT (CONSTANT (INTEGER 4) 0 '1') (
CONSTANT (INTEGER 4) 0 '8')) () 1 0 0 ()) (111 'factor' (INTEGER 4) (1
EXPLICIT (CONSTANT (INTEGER 4) 0 '1') (CONSTANT (INTEGER 4) 0 '8')) () 1
0 0 ()) (112 'nfreqc' (INTEGER 4) () () 0 0 0 ()) (113 'nfreqp' (
INTEGER 4) () () 0 0 0 ()) (114 'eposatind' (INTEGER 4) () () 0 0 0 ()))
PUBLIC ())
18 'head' '' 97 ((VARIABLE UNKNOWN UNKNOWN UNKNOWN NONE NONE DUMMY) (
DERIVED 115) 0 0 () () () '' () ())
115 't_obshead' 'd_gpsobs' 97 ((DERIVED UNKNOWN UNKNOWN UNKNOWN NONE
NONE) (UNKNOWN) 0 0 () () () '' ((116 'campgn' (CHARACTER 1 ((CONSTANT (
INTEGER 4) 0 '16'))) () () 0 0 0 ()) (117 'title' (CHARACTER 1 ((
CONSTANT (INTEGER 4) 0 '53'))) () () 0 0 0 ()) (118 'irmark' (INTEGER 4)
() () 0 0 0 ()) (119 'ifrmat' (INTEGER 4) () () 0 0 0 ()) (120 'csess' (
CHARACTER 1 ((CONSTANT (INTEGER 4) 0 '4'))) (1 EXPLICIT (CONSTANT (
INTEGER 4) 0 '1') (CONSTANT (INTEGER 4) 0 '2')) () 1 0 0 ()) (121 'crdate'
(CHARACTER 1 ((CONSTANT (INTEGER 4) 0 '9'))) (1 EXPLICIT (CONSTANT (
INTEGER 4) 0 '1') (CONSTANT (INTEGER 4) 0 '2')) () 1 0 0 ()) (122 'crtime'
(CHARACTER 1 ((CONSTANT (INTEGER 4) 0 '5'))) (1 EXPLICIT (CONSTANT (
INTEGER 4) 0 '1') (CONSTANT (INTEGER 4) 0 '2')) () 1 0 0 ()) (123 'timref'
(REAL 8) () () 0 0 0 ()) (124 'ideltt' (INTEGER 4) () () 0 0 0 ()) (125
'meatyp' (INTEGER 4) () () 0 0 0 ()) (126 'ndiff' (INTEGER 4) () () 0 0
0 ()) (127 'nfreq' (INTEGER 4) () () 0 0 0 ()) (128 'nepoch' (INTEGER 4)
() () 0 0 0 ()) (129 'numamb' (INTEGER 4) () () 0 0 0 ()) (130 'nsatel'
(INTEGER 4) () () 0 0 0 ()) (131 'nepflg' (INTEGER 4) () () 0 0 0 ()) (
132 'sta' (DERIVED 133) (1 EXPLICIT (CONSTANT (INTEGER 4) 0 '1') (
CONSTANT (INTEGER 4) 0 '2')) () 1 0 0 ()) (134 'sat' (DERIVED 135) (1
DEFERRED () ()) () 1 1 0 ()) (136 'ambigu' (DERIVED 137) (1 DEFERRED ()
()) () 1 1 0 ())) PUBLIC ())
137 't_ambigu' 'd_ambigu' 97 ((DERIVED UNKNOWN UNKNOWN UNKNOWN NONE NONE)
(UNKNOWN) 0 0 () () () '' ((138 'ambigu' (REAL 8) (1 EXPLICIT (CONSTANT
(INTEGER 4) 0 '1') (CONSTANT (INTEGER 4) 0 '3')) () 1 0 0 ()) (139
'ambsat' (INTEGER 4) () () 0 0 0 ()) (140 'ambiep' (INTEGER 4) () () 0 0
0 ()) (141 'ambwlf' (INTEGER 4) (1 EXPLICIT (CONSTANT (INTEGER 4) 0 '1')
(CONSTANT (INTEGER 4) 0 '2')) () 1 0 0 ()) (142 'ambcls' (INTEGER 4) (1
EXPLICIT (CONSTANT (INTEGER 4) 0 '1') (CONSTANT (INTEGER 4) 0 '3')) () 1
0 0 ()) (143 'solved' (LOGICAL 4) () () 0 0 0 ())) PUBLIC ())
135 't_sat' 'd_gpsobs' 97 ((DERIVED UNKNOWN UNKNOWN UNKNOWN NONE NONE) (
UNKNOWN) 0 0 () () () '' ((144 'numsat' (INTEGER 4) () () 0 0 0 ()) (
145 'numobs' (INTEGER 4) (1 EXPLICIT (CONSTANT (INTEGER 4) 0 '1') (
CONSTANT (INTEGER 4) 0 '2')) () 1 0 0 ()) (146 'nummrk' (INTEGER 4) (1
EXPLICIT (CONSTANT (INTEGER 4) 0 '1') (CONSTANT (INTEGER 4) 0 '2')) () 1
0 0 ()) (147 'obstyp' (CHARACTER 1 ((CONSTANT (INTEGER 4) 0 '3'))) (1
EXPLICIT (CONSTANT (INTEGER 4) 0 '1') (CONSTANT (INTEGER 4) 0 '8')) () 1
0 0 ())) PUBLIC ())
133 't_sta' 'd_gpsobs' 97 ((DERIVED UNKNOWN UNKNOWN UNKNOWN NONE NONE) (
UNKNOWN) 0 0 () () () '' ((148 'stanam' (CHARACTER 1 ((CONSTANT (
INTEGER 4) 0 '16'))) () () 0 0 0 ()) (149 'oprnam' (CHARACTER 1 ((
CONSTANT (INTEGER 4) 0 '20'))) () () 0 0 0 ()) (150 'rectyp' (CHARACTER
1 ((CONSTANT (INTEGER 4) 0 '20'))) () () 0 0 0 ()) (151 'irunit' (
INTEGER 4) () () 0 0 0 ()) (152 'anttyp' (CHARACTER 1 ((CONSTANT (
INTEGER 4) 0 '20'))) () () 0 0 0 ()) (153 'ianten' (INTEGER 4) () () 0 0
0 ()) (154 'posecc' (REAL 8) (1 EXPLICIT (CONSTANT (INTEGER 4) 0 '1') (
CONSTANT (INTEGER 4) 0 '3')) () 1 0 0 ()) (155 'iclock' (INTEGER 4) () ()
0 0 0 ())) PUBLIC ())
15 'usegeos' '' 156 ((VARIABLE UNKNOWN UNKNOWN UNKNOWN NONE NONE DUMMY)
(INTEGER 4) 0 0 () () () '' () ())
14 'gobsdef' '' 156 ((VARIABLE UNKNOWN UNKNOWN UNKNOWN NONE NONE DUMMY)
(DERIVED 157) 0 0 () () () '' () ())
157 't_gobsdef' 'd_rinex3' 156 ((DERIVED UNKNOWN UNKNOWN UNKNOWN NONE
NONE) (UNKNOWN) 0 0 () () () '' ((158 'norec' (INTEGER 4) () () 0 0 0 ())
(159 'sat' (DERIVED 160) (1 DEFERRED () ()) () 1 1 0 ()) (161 'nfreqc' (
INTEGER 4) () () 0 0 0 ()) (162 'nfreqp' (INTEGER 4) () () 0 0 0 ()))
PUBLIC ())
160 't_satsig' 'd_rinex3' 156 ((DERIVED UNKNOWN UNKNOWN UNKNOWN NONE
NONE) (UNKNOWN) 0 0 () () () '' ((163 'satname' (CHARACTER 1 ((CONSTANT
(INTEGER 4) 0 '3'))) () () 0 0 0 ()) (164 'sysnum' (INTEGER 4) () () 0 0
0 ()) (165 'syschar' (CHARACTER 1 ((CONSTANT (INTEGER 4) 0 '1'))) () ()
0 0 0 ()) (166 'satnum' (INTEGER 4) () () 0 0 0 ()) (167 'obstyp' (
CHARACTER 1 ((CONSTANT (INTEGER 4) 0 '3'))) (1 EXPLICIT (CONSTANT (
INTEGER 4) 0 '1') (CONSTANT (INTEGER 4) 0 '8')) () 1 0 0 ()) (168
'obstyp2' (CHARACTER 1 ((CONSTANT (INTEGER 4) 0 '2'))) (1 EXPLICIT (
CONSTANT (INTEGER 4) 0 '1') (CONSTANT (INTEGER 4) 0 '8')) () 1 0 0 ()) (
169 'obsindr212' (INTEGER 4) (1 EXPLICIT (CONSTANT (INTEGER 4) 0 '1') (
CONSTANT (INTEGER 4) 0 '8')) () 1 0 0 ()) (170 'factor' (INTEGER 4) (1
EXPLICIT (CONSTANT (INTEGER 4) 0 '1') (CONSTANT (INTEGER 4) 0 '8')) () 1
0 0 ()) (171 'nfreqc' (INTEGER 4) () () 0 0 0 ()) (172 'nfreqp' (
INTEGER 4) () () 0 0 0 ()) (173 'eposatind' (INTEGER 4) () () 0 0 0 ()))
PUBLIC ())
13 'rectyp' '' 156 ((VARIABLE UNKNOWN UNKNOWN UNKNOWN NONE NONE DUMMY) (
CHARACTER 1 ((CONSTANT (INTEGER 4) 0 '20'))) 0 0 () () () '' () ())
12 'rinstat' '' 156 ((VARIABLE UNKNOWN UNKNOWN UNKNOWN NONE NONE DUMMY)
(DERIVED 174) 0 0 () () () '' () ())
174 't_rinstat' 'd_rinex3' 156 ((DERIVED UNKNOWN UNKNOWN UNKNOWN NONE
NONE) (UNKNOWN) 0 0 () () () '' ((175 'sys' (DERIVED 176) (1 EXPLICIT (
CONSTANT (INTEGER 4) 0 '0') (CONSTANT (INTEGER 4) 0 '5')) () 1 0 0 ()) (
177 'numobs' (INTEGER 4) (1 EXPLICIT (CONSTANT (INTEGER 4) 0 '1') (
CONSTANT (INTEGER 4) 0 '134')) () 1 0 0 ()) (178 'obssum' (INTEGER 4) ()
() 0 0 0 ()) (179 'numsat' (INTEGER 4) () () 0 0 0 ())) PUBLIC ())
176 't_sysstat' 'd_rinex3' 156 ((DERIVED UNKNOWN UNKNOWN UNKNOWN NONE
NONE) (UNKNOWN) 0 0 () () () '' ((180 'syschar' (CHARACTER 1 ((CONSTANT
(INTEGER 4) 0 '1'))) () () 0 0 0 ()) (181 'sysnum' (INTEGER 4) () () 0 0
0 ()) (182 'indxs' (INTEGER 4) (1 EXPLICIT (CONSTANT (INTEGER 4) 0 '1')
(CONSTANT (INTEGER 4) 0 '134')) () 1 0 0 ()) (183 'numobs' (INTEGER 4) (
1 EXPLICIT (CONSTANT (INTEGER 4) 0 '1') (CONSTANT (INTEGER 4) 0 '134'))
() 1 0 0 ()) (184 'sat' (DERIVED 185) (1 EXPLICIT (CONSTANT (INTEGER 4)
0 '1') (CONSTANT (INTEGER 4) 0 '49')) () 1 0 0 ()) (186 'obssum' (
INTEGER 4) () () 0 0 0 ())) PUBLIC ())
185 't_satstat' 'd_rinex3' 156 ((DERIVED UNKNOWN UNKNOWN UNKNOWN NONE
NONE) (UNKNOWN) 0 0 () () () '' ((187 'satname' (CHARACTER 1 ((CONSTANT
(INTEGER 4) 0 '3'))) () () 0 0 0 ()) (188 'satnum' (INTEGER 4) () () 0 0
0 ()) (189 'eposatind' (INTEGER 4) () () 0 0 0 ()) (190 'numobs' (
INTEGER 4) (1 EXPLICIT (CONSTANT (INTEGER 4) 0 '1') (CONSTANT (INTEGER 4)
0 '134')) () 1 0 0 ()) (191 'obssum' (INTEGER 4) () () 0 0 0 ())) PUBLIC
())
10 'usegeos' '' 192 ((VARIABLE UNKNOWN UNKNOWN UNKNOWN NONE NONE DUMMY)
(INTEGER 4) 0 0 () () () '' () ())
9 'gobsdef' '' 192 ((VARIABLE UNKNOWN UNKNOWN UNKNOWN NONE NONE DUMMY) (
DERIVED 193) 0 0 () () () '' () ())
193 't_gobsdef' 'd_rinex3' 192 ((DERIVED UNKNOWN UNKNOWN UNKNOWN NONE
NONE) (UNKNOWN) 0 0 () () () '' ((194 'norec' (INTEGER 4) () () 0 0 0 ())
(195 'sat' (DERIVED 196) (1 DEFERRED () ()) () 1 1 0 ()) (197 'nfreqc' (
INTEGER 4) () () 0 0 0 ()) (198 'nfreqp' (INTEGER 4) () () 0 0 0 ()))
PUBLIC ())
196 't_satsig' 'd_rinex3' 192 ((DERIVED UNKNOWN UNKNOWN UNKNOWN NONE
NONE) (UNKNOWN) 0 0 () () () '' ((199 'satname' (CHARACTER 1 ((CONSTANT
(INTEGER 4) 0 '3'))) () () 0 0 0 ()) (200 'sysnum' (INTEGER 4) () () 0 0
0 ()) (201 'syschar' (CHARACTER 1 ((CONSTANT (INTEGER 4) 0 '1'))) () ()
0 0 0 ()) (202 'satnum' (INTEGER 4) () () 0 0 0 ()) (203 'obstyp' (
CHARACTER 1 ((CONSTANT (INTEGER 4) 0 '3'))) (1 EXPLICIT (CONSTANT (
INTEGER 4) 0 '1') (CONSTANT (INTEGER 4) 0 '8')) () 1 0 0 ()) (204
'obstyp2' (CHARACTER 1 ((CONSTANT (INTEGER 4) 0 '2'))) (1 EXPLICIT (
CONSTANT (INTEGER 4) 0 '1') (CONSTANT (INTEGER 4) 0 '8')) () 1 0 0 ()) (
205 'obsindr212' (INTEGER 4) (1 EXPLICIT (CONSTANT (INTEGER 4) 0 '1') (
CONSTANT (INTEGER 4) 0 '8')) () 1 0 0 ()) (206 'factor' (INTEGER 4) (1
EXPLICIT (CONSTANT (INTEGER 4) 0 '1') (CONSTANT (INTEGER 4) 0 '8')) () 1
0 0 ()) (207 'nfreqc' (INTEGER 4) () () 0 0 0 ()) (208 'nfreqp' (
INTEGER 4) () () 0 0 0 ()) (209 'eposatind' (INTEGER 4) () () 0 0 0 ()))
PUBLIC ())
8 'filename' '' 192 ((VARIABLE UNKNOWN UNKNOWN UNKNOWN NONE NONE DUMMY)
(CHARACTER 1 (())) 0 0 () () () '' () ())
6 'rinstat' '' 210 ((VARIABLE UNKNOWN UNKNOWN UNKNOWN NONE NONE DUMMY) (
DERIVED 211) 0 0 () () () '' () ())
211 't_rinstat' 'd_rinex3' 210 ((DERIVED UNKNOWN UNKNOWN UNKNOWN NONE
NONE) (UNKNOWN) 0 0 () () () '' ((212 'sys' (DERIVED 213) (1 EXPLICIT (
CONSTANT (INTEGER 4) 0 '0') (CONSTANT (INTEGER 4) 0 '5')) () 1 0 0 ()) (
214 'numobs' (INTEGER 4) (1 EXPLICIT (CONSTANT (INTEGER 4) 0 '1') (
CONSTANT (INTEGER 4) 0 '134')) () 1 0 0 ()) (215 'obssum' (INTEGER 4) ()
() 0 0 0 ()) (216 'numsat' (INTEGER 4) () () 0 0 0 ())) PUBLIC ())
213 't_sysstat' 'd_rinex3' 210 ((DERIVED UNKNOWN UNKNOWN UNKNOWN NONE
NONE) (UNKNOWN) 0 0 () () () '' ((217 'syschar' (CHARACTER 1 ((CONSTANT
(INTEGER 4) 0 '1'))) () () 0 0 0 ()) (218 'sysnum' (INTEGER 4) () () 0 0
0 ()) (219 'indxs' (INTEGER 4) (1 EXPLICIT (CONSTANT (INTEGER 4) 0 '1')
(CONSTANT (INTEGER 4) 0 '134')) () 1 0 0 ()) (220 'numobs' (INTEGER 4) (
1 EXPLICIT (CONSTANT (INTEGER 4) 0 '1') (CONSTANT (INTEGER 4) 0 '134'))
() 1 0 0 ()) (221 'sat' (DERIVED 222) (1 EXPLICIT (CONSTANT (INTEGER 4)
0 '1') (CONSTANT (INTEGER 4) 0 '49')) () 1 0 0 ()) (223 'obssum' (
INTEGER 4) () () 0 0 0 ())) PUBLIC ())
222 't_satstat' 'd_rinex3' 210 ((DERIVED UNKNOWN UNKNOWN UNKNOWN NONE
NONE) (UNKNOWN) 0 0 () () () '' ((224 'satname' (CHARACTER 1 ((CONSTANT
(INTEGER 4) 0 '3'))) () () 0 0 0 ()) (225 'satnum' (INTEGER 4) () () 0 0
0 ()) (226 'eposatind' (INTEGER 4) () () 0 0 0 ()) (227 'numobs' (
INTEGER 4) (1 EXPLICIT (CONSTANT (INTEGER 4) 0 '1') (CONSTANT (INTEGER 4)
0 '134')) () 1 0 0 ()) (228 'obssum' (INTEGER 4) () () 0 0 0 ())) PUBLIC
())
4 'gobsdef' '' 229 ((VARIABLE UNKNOWN UNKNOWN UNKNOWN NONE NONE DUMMY) (
DERIVED 230) 0 0 () () () '' () ())
230 't_gobsdef' 'd_rinex3' 229 ((DERIVED UNKNOWN UNKNOWN UNKNOWN NONE
NONE) (UNKNOWN) 0 0 () () () '' ((231 'norec' (INTEGER 4) () () 0 0 0 ())
(232 'sat' (DERIVED 233) (1 DEFERRED () ()) () 1 1 0 ()) (234 'nfreqc' (
INTEGER 4) () () 0 0 0 ()) (235 'nfreqp' (INTEGER 4) () () 0 0 0 ()))
PUBLIC ())
233 't_satsig' 'd_rinex3' 229 ((DERIVED UNKNOWN UNKNOWN UNKNOWN NONE
NONE) (UNKNOWN) 0 0 () () () '' ((236 'satname' (CHARACTER 1 ((CONSTANT
(INTEGER 4) 0 '3'))) () () 0 0 0 ()) (237 'sysnum' (INTEGER 4) () () 0 0
0 ()) (238 'syschar' (CHARACTER 1 ((CONSTANT (INTEGER 4) 0 '1'))) () ()
0 0 0 ()) (239 'satnum' (INTEGER 4) () () 0 0 0 ()) (240 'obstyp' (
CHARACTER 1 ((CONSTANT (INTEGER 4) 0 '3'))) (1 EXPLICIT (CONSTANT (
INTEGER 4) 0 '1') (CONSTANT (INTEGER 4) 0 '8')) () 1 0 0 ()) (241
'obstyp2' (CHARACTER 1 ((CONSTANT (INTEGER 4) 0 '2'))) (1 EXPLICIT (
CONSTANT (INTEGER 4) 0 '1') (CONSTANT (INTEGER 4) 0 '8')) () 1 0 0 ()) (
242 'obsindr212' (INTEGER 4) (1 EXPLICIT (CONSTANT (INTEGER 4) 0 '1') (
CONSTANT (INTEGER 4) 0 '8')) () 1 0 0 ()) (243 'factor' (INTEGER 4) (1
EXPLICIT (CONSTANT (INTEGER 4) 0 '1') (CONSTANT (INTEGER 4) 0 '8')) () 1
0 0 ()) (244 'nfreqc' (INTEGER 4) () () 0 0 0 ()) (245 'nfreqp' (
INTEGER 4) () () 0 0 0 ()) (246 'eposatind' (INTEGER 4) () () 0 0 0 ()))
PUBLIC ())
3 'norec' '' 229 ((VARIABLE UNKNOWN UNKNOWN UNKNOWN NONE NONE DUMMY) (
INTEGER 4) 0 0 () () () '' () ())
)

('init_geos' 0 2 'init_rinstat' 0 5 'readgeos' 0 7 'readgeos2' 0 11
's_gobsdef' 0 16 'setgeos' 0 17 'setgeos2' 0 21 'tstobst' 0 26)
