G95 module created on Thu Jun 25 17:43:12 2020 from ./.fpp/GRAVFIELD.f90
If you edit this, you'll get what you deserve.
module-version 9
(() () () () () () () () () () () () () () () () () () () () ())

()

()

()

()

(2 'alloc_pot' 's_gravfield' 1 ((PROCEDURE UNKNOWN MODULE-PROC DECL NONE
NONE SUBROUTINE) (PROCEDURE 0) 0 0 () () () '' () ())
3 'getpot2' 's_gravfield' 1 ((PROCEDURE UNKNOWN MODULE-PROC DECL NONE
NONE SUBROUTINE) (PROCEDURE 0) 0 0 (4 NONE) () () '' () ())
5 'gravfield' 's_gravfield' 1 ((VARIABLE UNKNOWN UNKNOWN UNKNOWN NONE
NONE) (DERIVED 6) 0 0 () () () '' () ())
7 'gravstore2' 's_gravfield' 1 ((PROCEDURE UNKNOWN MODULE-PROC DECL NONE
NONE SUBROUTINE) (PROCEDURE 0) 0 0 (8 NONE) () () '' () ())
9 'init_pot' 's_gravfield' 1 ((PROCEDURE UNKNOWN MODULE-PROC DECL NONE
NONE SUBROUTINE) (PROCEDURE 0) 0 0 () () () '' () ())
6 't_gravfield' 's_gravfield' 1 ((DERIVED UNKNOWN UNKNOWN UNKNOWN NONE
NONE) (UNKNOWN) 0 0 () () () '' ((10 'source' (CHARACTER 1 ((CONSTANT (
INTEGER 4) 0 '32'))) () () 0 0 0 ()) (11 'title' (CHARACTER 1 ((
CONSTANT (INTEGER 4) 0 '80'))) () () 0 0 0 ()) (12 'mjd' (INTEGER 4) ()
() 0 0 0 ()) (13 'gm' (REAL 8) () () 0 0 0 ()) (14 'ae' (REAL 8) () () 0
0 0 ()) (15 'tidefree' (LOGICAL 4) () () 0 0 0 ()) (16 'meanpole' (
LOGICAL 4) () () 0 0 0 ()) (17 'maxdegree' (INTEGER 4) () () 0 0 0 ()) (
18 'ccoe' (REAL 8) (1 DEFERRED () ()) () 1 1 0 ()) (19 'scoe' (REAL 8) (
1 DEFERRED () ()) () 1 1 0 ()) (20 'csigma' (REAL 8) (1 DEFERRED () ())
() 1 1 0 ()) (21 'ssigma' (REAL 8) (1 DEFERRED () ()) () 1 1 0 ()) (22
'capr' (REAL 8) (1 DEFERRED () ()) () 1 1 0 ()) (23 'sapr' (REAL 8) (1
DEFERRED () ()) () 1 1 0 ()) (24 'maxdegreedot' (INTEGER 4) () () 0 0 0
()) (25 'ccoedot' (REAL 8) (1 DEFERRED () ()) () 1 1 0 ()) (26 'scoedot'
(REAL 8) (1 DEFERRED () ()) () 1 1 0 ()) (27 'csigmadot' (REAL 8) (1
DEFERRED () ()) () 1 1 0 ()) (28 'ssigmadot' (REAL 8) (1 DEFERRED () ())
() 1 1 0 ()) (29 'caprdot' (REAL 8) (1 DEFERRED () ()) () 1 1 0 ()) (30
'saprdot' (REAL 8) (1 DEFERRED () ()) () 1 1 0 ())) PUBLIC ())
8 'neq' '' 31 ((VARIABLE UNKNOWN UNKNOWN UNKNOWN NONE NONE DUMMY) (
DERIVED 32) 0 0 () () () '' () ())
32 't_neq' 'd_neq' 31 ((DERIVED UNKNOWN UNKNOWN UNKNOWN NONE NONE) (
UNKNOWN) 0 0 () () () '' ((33 'version' (INTEGER 4) () () 0 0 0 ()) (34
'misc' (DERIVED 35) () () 0 0 0 ()) (36 'par' (DERIVED 37) (1 DEFERRED ()
()) () 1 1 0 ()) (38 'anor' (REAL 8) (1 DEFERRED () ()) () 1 1 0 ()) (
39 'bnor' (REAL 8) (1 DEFERRED () ()) () 1 1 0 ()) (40 'xxx' (REAL 8) (
1 DEFERRED () ()) () 1 1 0 ())) PUBLIC ())
37 't_par' 'd_par' 31 ((DERIVED UNKNOWN UNKNOWN UNKNOWN NONE NONE) (
UNKNOWN) 0 0 () () () '' ((41 'locq' (INTEGER 4) (1 EXPLICIT (CONSTANT (
INTEGER 4) 0 '1') (CONSTANT (INTEGER 4) 0 '7')) () 1 0 0 ()) (42 'name'
(CHARACTER 1 ((CONSTANT (INTEGER 4) 0 '20'))) () () 0 0 0 ()) (43 'time'
(DERIVED 44) () () 0 0 0 ()) (45 'x0' (REAL 8) () () 0 0 0 ()) (46 'scale'
(REAL 8) () () 0 0 0 ()) (47 'techn' (CHARACTER 1 ((CONSTANT (INTEGER 4)
0 '1'))) (1 EXPLICIT (CONSTANT (INTEGER 4) 0 '1') (CONSTANT (INTEGER 4)
0 '2')) () 1 0 0 ()) (48 'obstim' (DERIVED 49) () () 0 0 0 ()) (50 'type'
(CHARACTER 1 ((CONSTANT (INTEGER 4) 0 '2'))) () () 0 0 0 ()) (51 'omega'
(REAL 8) () () 0 0 0 ())) PUBLIC ())
49 't_timint' 'm_time' 31 ((DERIVED UNKNOWN UNKNOWN UNKNOWN NONE NONE) (
UNKNOWN) 0 0 () () () '' ((52 't' (REAL 8) (1 EXPLICIT (CONSTANT (
INTEGER 4) 0 '1') (CONSTANT (INTEGER 4) 0 '2')) () 1 0 0 ())) PUBLIC ())
44 't_time' 'm_time' 31 ((DERIVED UNKNOWN UNKNOWN UNKNOWN NONE NONE
SEQUENCE) (UNKNOWN) 0 0 () () () '' ((53 'mean' (REAL 8) () () 0 0 0 ())
(54 'half' (REAL 8) () () 0 0 0 ())) PUBLIC ())
35 't_misc' 'd_neq' 31 ((DERIVED UNKNOWN UNKNOWN UNKNOWN NONE NONE) (
UNKNOWN) 0 0 () () () '' ((55 'title' (CHARACTER 1 ((CONSTANT (INTEGER 4)
0 '132'))) (1 EXPLICIT (CONSTANT (INTEGER 4) 0 '1') (CONSTANT (INTEGER 4)
0 '2')) () 1 0 0 ()) (56 'datum' (CHARACTER 1 ((CONSTANT (INTEGER 4) 0
'16'))) () () 0 0 0 ()) (57 'nutmod' (CHARACTER 1 ((CONSTANT (INTEGER 4)
0 '16'))) () () 0 0 0 ()) (58 'submod' (CHARACTER 1 ((CONSTANT (INTEGER
4) 0 '16'))) () () 0 0 0 ()) (59 'orbfil' (CHARACTER 1 ((CONSTANT (
INTEGER 4) 0 '32'))) (1 EXPLICIT (CONSTANT (INTEGER 4) 0 '1') (CONSTANT
(INTEGER 4) 0 '2')) () 1 0 0 ()) (60 'gravfil' (CHARACTER 1 ((CONSTANT (
INTEGER 4) 0 '32'))) () () 0 0 0 ()) (61 'nobs' (REAL 8) () () 0 0 0 ())
(62 'npar' (INTEGER 4) () () 0 0 0 ()) (63 'ltpl' (REAL 8) () () 0 0 0 ())
(64 'nparms' (REAL 8) () () 0 0 0 ()) (65 'npseu' (INTEGER 4) () () 0 0
0 ()) (66 'npseuel' (INTEGER 4) () () 0 0 0 ()) (67 'nftot' (INTEGER 4)
() () 0 0 0 ()) (68 'nsmpnq' (INTEGER 4) () () 0 0 0 ()) (69 'ielvnq' (
INTEGER 4) () () 0 0 0 ()) (70 'itropo' (INTEGER 4) () () 0 0 0 ()) (71
'iextra' (INTEGER 4) () () 0 0 0 ()) (72 'itrmap' (INTEGER 4) () () 0 0
0 ()) (73 'itrgrd' (INTEGER 4) () () 0 0 0 ()) (74 'nanoff' (INTEGER 4)
() () 0 0 0 ()) (75 'nsaoff' (INTEGER 4) (1 EXPLICIT (CONSTANT (INTEGER
4) 0 '1') (CONSTANT (INTEGER 4) 0 '260')) () 1 0 0 ()) (76 'satoff' (
INTEGER 4) (2 EXPLICIT (CONSTANT (INTEGER 4) 0 '1') (CONSTANT (INTEGER 4)
0 '130') (CONSTANT (INTEGER 4) 0 '1') (CONSTANT (INTEGER 4) 0 '260')) ()
1 0 0 ()) (77 'nstat_sinex' (INTEGER 4) () () 0 0 0 ()) (78 'sinex' (
DERIVED 79) (1 EXPLICIT (CONSTANT (INTEGER 4) 0 '1') (CONSTANT (INTEGER
4) 0 '2000')) () 1 0 0 ()) (80 'grdneq' (CHARACTER 1 ((CONSTANT (
INTEGER 4) 0 '12'))) (1 EXPLICIT (CONSTANT (INTEGER 4) 0 '1') (CONSTANT
(INTEGER 4) 0 '3')) () 1 0 0 ()) (81 'nobst' (INTEGER 4) () () 0 0 0 ())
(82 'obst' (DERIVED 83) (1 EXPLICIT (CONSTANT (INTEGER 4) 0 '1') (
CONSTANT (INTEGER 4) 0 '30000')) () 1 0 0 ())) PUBLIC ())
83 't_obst' 'd_neq' 31 ((DERIVED UNKNOWN UNKNOWN UNKNOWN NONE NONE) (
UNKNOWN) 0 0 () () () '' ((84 'obstyp' (CHARACTER 1 ((CONSTANT (INTEGER
4) 0 '3'))) (1 EXPLICIT (CONSTANT (INTEGER 4) 0 '1') (CONSTANT (INTEGER
4) 0 '4')) () 1 0 0 ())) PUBLIC ())
79 't_sinex' 'd_neq' 31 ((DERIVED UNKNOWN UNKNOWN UNKNOWN NONE NONE) (
UNKNOWN) 0 0 () () () '' ((85 'timint' (DERIVED 49) () () 0 0 0 ()) (86
'stname' (CHARACTER 1 ((CONSTANT (INTEGER 4) 0 '16'))) () () 0 0 0 ()) (
87 'antecc' (REAL 8) (1 EXPLICIT (CONSTANT (INTEGER 4) 0 '1') (CONSTANT
(INTEGER 4) 0 '3')) () 1 0 0 ()) (88 'antpcv' (DERIVED 89) (1 EXPLICIT (
CONSTANT (INTEGER 4) 0 '0') (CONSTANT (INTEGER 4) 0 '5')) () 1 0 0 ()) (
90 'antnum' (INTEGER 4) () () 0 0 0 ()) (91 'antsta' (CHARACTER 1 ((
CONSTANT (INTEGER 4) 0 '20'))) () () 0 0 0 ()) (92 'antrec' (CHARACTER 1
((CONSTANT (INTEGER 4) 0 '20'))) () () 0 0 0 ())) PUBLIC ())
89 't_sinex_pcv' 'd_neq' 31 ((DERIVED UNKNOWN UNKNOWN UNKNOWN NONE NONE)
(UNKNOWN) 0 0 () () () '' ((93 'nfrq' (INTEGER 4) () () 0 0 0 ()) (94
'antphs' (REAL 8) (2 EXPLICIT (CONSTANT (INTEGER 4) 0 '1') (CONSTANT (
INTEGER 4) 0 '3') (CONSTANT (INTEGER 4) 0 '1') (CONSTANT (INTEGER 4) 0 '2'))
() 1 0 0 ()) (95 'adopted' (INTEGER 4) () () 0 0 0 ()) (96 'individ' (
INTEGER 4) () () 0 0 0 ()) (97 'atxstr' (CHARACTER 1 ((CONSTANT (
INTEGER 4) 0 '10'))) () () 0 0 0 ())) PUBLIC ())
6 't_gravfield' 's_gravfield' 1 ((DERIVED UNKNOWN UNKNOWN UNKNOWN NONE
NONE) (UNKNOWN) 0 0 () () () '' ((10 'source' (CHARACTER 1 ((CONSTANT (
INTEGER 4) 0 '32'))) () () 0 0 0 ()) (11 'title' (CHARACTER 1 ((
CONSTANT (INTEGER 4) 0 '80'))) () () 0 0 0 ()) (12 'mjd' (INTEGER 4) ()
() 0 0 0 ()) (13 'gm' (REAL 8) () () 0 0 0 ()) (14 'ae' (REAL 8) () () 0
0 0 ()) (15 'tidefree' (LOGICAL 4) () () 0 0 0 ()) (16 'meanpole' (
LOGICAL 4) () () 0 0 0 ()) (17 'maxdegree' (INTEGER 4) () () 0 0 0 ()) (
18 'ccoe' (REAL 8) (1 DEFERRED () ()) () 1 1 0 ()) (19 'scoe' (REAL 8) (
1 DEFERRED () ()) () 1 1 0 ()) (20 'csigma' (REAL 8) (1 DEFERRED () ())
() 1 1 0 ()) (21 'ssigma' (REAL 8) (1 DEFERRED () ()) () 1 1 0 ()) (22
'capr' (REAL 8) (1 DEFERRED () ()) () 1 1 0 ()) (23 'sapr' (REAL 8) (1
DEFERRED () ()) () 1 1 0 ()) (24 'maxdegreedot' (INTEGER 4) () () 0 0 0
()) (25 'ccoedot' (REAL 8) (1 DEFERRED () ()) () 1 1 0 ()) (26 'scoedot'
(REAL 8) (1 DEFERRED () ()) () 1 1 0 ()) (27 'csigmadot' (REAL 8) (1
DEFERRED () ()) () 1 1 0 ()) (28 'ssigmadot' (REAL 8) (1 DEFERRED () ())
() 1 1 0 ()) (29 'caprdot' (REAL 8) (1 DEFERRED () ()) () 1 1 0 ()) (30
'saprdot' (REAL 8) (1 DEFERRED () ()) () 1 1 0 ())) PUBLIC ())
4 'tmjd' '' 98 ((VARIABLE UNKNOWN UNKNOWN UNKNOWN NONE NONE DUMMY) (
REAL 8) 0 0 () () () '' () ())
)

('alloc_pot' 0 2 'getpot2' 0 3 'gravfield' 0 5 'gravstore2' 0 7 'init_pot'
0 9 't_gravfield' 0 6)
