G95 module created on Thu Jun 25 17:43:45 2020 from ./.fpp/INIMAX.f
If you edit this, you'll get what you deserve.
module-version 9
(() () () () () () () () () () () () () () () () () () () () ())

()

()

()

()

(2 'inimax' 's_inimax' 1 ((PROCEDURE UNKNOWN MODULE-PROC DECL NONE NONE
SUBROUTINE) (PROCEDURE 0) 0 0 (3 NONE 4 NONE 5 NONE 6 NONE 7 NONE 8 NONE
9 NONE 10 NONE 11 NONE 12 NONE 13 NONE 14 NONE 15 NONE 16 NONE 17 NONE
18 NONE 19 NONE 20 NONE 21 NONE 22 NONE 23 NONE 24 NONE 25 NONE 26 NONE
27 NONE 28 NONE 29 NONE 30 NONE 31 NONE 32 NONE 33 NONE 34 NONE 35 NONE
36 NONE 37 NONE 38 NONE 39 NONE 40 NONE 41 NONE 42 NONE 43 NONE 44 NONE
45 NONE 46 NONE 47 NONE 48 NONE 49 NONE 50 NONE 51 NONE 52 NONE 53 NONE
54 NONE 55 NONE 56 NONE 57 NONE 58 NONE 59 NONE 60 NONE 61 NONE 62 NONE
63 NONE 64 NONE 65 NONE 66 NONE 67 NONE 68 NONE 69 NONE 70 NONE 71 NONE
72 NONE 73 NONE 74 NONE 75 NONE 76 NONE 77 NONE 78 NONE 79 NONE 80 NONE
81 NONE 82 NONE 83 NONE 84 NONE 85 NONE 86 NONE 87 NONE 88 NONE 89 NONE
90 NONE 91 NONE 92 NONE 93 NONE 94 NONE 95 NONE 96 NONE 97 NONE 98 NONE
99 NONE 100 NONE 101 NONE 102 NONE 103 NONE 104 NONE 105 NONE 106 NONE
107 NONE 108 NONE 109 NONE 110 NONE 111 NONE 112 NONE 113 NONE 114 NONE
115 NONE 116 NONE 117 NONE) () () '' () ())
118 's_inimax' 's_inimax' 1 ((MODULE UNKNOWN UNKNOWN UNKNOWN NONE NONE)
(UNKNOWN) 0 0 () () () '' () ())
117 'optgsp' '' 119 ((VARIABLE UNKNOWN UNKNOWN UNKNOWN NONE NONE DUMMY)
(DERIVED 120) 0 0 () () () '' () ())
120 't_optgsp' 'p_gpsest' 119 ((DERIVED UNKNOWN UNKNOWN UNKNOWN NONE
NONE) (UNKNOWN) 0 0 () () () '' ((121 'trasys' (INTEGER 4) () () 0 0 0 ())
(122 'trasig' (REAL 8) (1 EXPLICIT (CONSTANT (INTEGER 4) 0 '1') (
CONSTANT (INTEGER 4) 0 '3')) () 1 0 0 ()) (123 'trpsys' (INTEGER 4) () ()
0 0 0 ()) (124 'trpsig' (REAL 8) () () 0 0 0 ())) PUBLIC ())
116 'numisb' '' 119 ((VARIABLE UNKNOWN UNKNOWN UNKNOWN NONE NONE DUMMY)
(INTEGER 4) 0 0 () () () '' () ())
115 'globalwindow' '' 119 ((VARIABLE UNKNOWN UNKNOWN UNKNOWN NONE NONE
DUMMY) (DERIVED 125) 0 0 () () () '' () ())
125 't_timint' 'm_time' 119 ((DERIVED UNKNOWN UNKNOWN UNKNOWN NONE NONE)
(UNKNOWN) 0 0 () () () '' ((126 't' (REAL 8) (1 EXPLICIT (CONSTANT (
INTEGER 4) 0 '1') (CONSTANT (INTEGER 4) 0 '2')) () 1 0 0 ())) PUBLIC ())
114 'irunit' '' 119 ((VARIABLE UNKNOWN UNKNOWN UNKNOWN NONE NONE
DIMENSION DUMMY) (INTEGER 4) 0 0 () (2 ASSUMED_SIZE (CONSTANT (INTEGER 4)
0 '1') (CONSTANT (INTEGER 4) 0 '2') (CONSTANT (INTEGER 4) 0 '1') ()) () ''
() ())
113 'rectyp' '' 119 ((VARIABLE UNKNOWN UNKNOWN UNKNOWN NONE NONE
DIMENSION DUMMY) (CHARACTER 1 ((CONSTANT (INTEGER 4) 0 '20'))) 0 0 () (
2 ASSUMED_SIZE (CONSTANT (INTEGER 4) 0 '1') (CONSTANT (INTEGER 4) 0 '2')
(CONSTANT (INTEGER 4) 0 '1') ()) () '' () ())
112 'nmxamp' '' 119 ((VARIABLE UNKNOWN UNKNOWN UNKNOWN NONE NONE DUMMY)
(INTEGER 4) 0 0 () () () '' () ())
111 'nmxpar' '' 119 ((VARIABLE UNKNOWN UNKNOWN UNKNOWN NONE NONE DUMMY)
(INTEGER 4) 0 0 () () () '' () ())
110 'nmxloc' '' 119 ((VARIABLE UNKNOWN UNKNOWN UNKNOWN NONE NONE DUMMY)
(INTEGER 4) 0 0 () () () '' () ())
109 'nepsng' '' 119 ((VARIABLE UNKNOWN UNKNOWN UNKNOWN NONE NONE DUMMY)
(INTEGER 4) 0 0 () () () '' () ())
108 'nmxsng' '' 119 ((VARIABLE UNKNOWN UNKNOWN UNKNOWN NONE NONE DUMMY)
(INTEGER 4) 0 0 () () () '' () ())
107 'maxfrs' '' 119 ((VARIABLE UNKNOWN UNKNOWN UNKNOWN NONE NONE DUMMY)
(INTEGER 4) 0 0 () () () '' () ())
106 'maxsas' '' 119 ((VARIABLE UNKNOWN UNKNOWN UNKNOWN NONE NONE DUMMY)
(INTEGER 4) 0 0 () () () '' () ())
105 'maxfls' '' 119 ((VARIABLE UNKNOWN UNKNOWN UNKNOWN NONE NONE DUMMY)
(INTEGER 4) 0 0 () () () '' () ())
104 'maxamb' '' 119 ((VARIABLE UNKNOWN UNKNOWN UNKNOWN NONE NONE DUMMY)
(INTEGER 4) 0 0 () () () '' () ())
103 'maxsat' '' 119 ((VARIABLE UNKNOWN UNKNOWN UNKNOWN NONE NONE DUMMY)
(INTEGER 4) 0 0 () () () '' () ())
102 'opload' '' 119 ((VARIABLE UNKNOWN UNKNOWN UNKNOWN NONE NONE
DIMENSION DUMMY) (DERIVED 127) 0 0 () (1 ASSUMED_SHAPE () ()) () '' () ())
127 't_optload' 'p_gpsest' 119 ((DERIVED UNKNOWN UNKNOWN UNKNOWN NONE
NONE) (UNKNOWN) 0 0 () () () '' ((128 'keyw' (CHARACTER 1 ((CONSTANT (
INTEGER 4) 0 '12'))) () () 0 0 0 ()) (129 'nsta' (INTEGER 4) () () 0 0 0
()) (130 'stalst' (CHARACTER 1 ((CONSTANT (INTEGER 4) 0 '16'))) (1
DEFERRED () ()) () 1 1 0 ()) (131 'staclu' (INTEGER 4) (1 DEFERRED () ())
() 1 1 0 ()) (132 'npar' (INTEGER 4) () () 0 0 0 ()) (133 'sigma' (REAL
8) (1 EXPLICIT (CONSTANT (INTEGER 4) 0 '1') (CONSTANT (INTEGER 4) 0 '3'))
() 1 0 0 ())) PUBLIC ())
101 'mixed' '' 119 ((VARIABLE UNKNOWN UNKNOWN UNKNOWN NONE NONE DUMMY) (
INTEGER 4) 0 0 () () () '' () ())
100 'maxtyp' '' 119 ((VARIABLE UNKNOWN UNKNOWN UNKNOWN NONE NONE DUMMY)
(INTEGER 4) 0 0 () () () '' () ())
99 'corstr' '' 119 ((VARIABLE UNKNOWN UNKNOWN UNKNOWN NONE NONE DUMMY) (
INTEGER 4) 0 0 () () () '' () ())
98 'nsaspv' '' 119 ((VARIABLE UNKNOWN UNKNOWN UNKNOWN NONE NONE
DIMENSION DUMMY) (INTEGER 4) 0 0 () (1 ASSUMED_SIZE (CONSTANT (INTEGER 4)
0 '1') ()) () '' () ())
97 'nptspv' '' 119 ((VARIABLE UNKNOWN UNKNOWN UNKNOWN NONE NONE
DIMENSION DUMMY) (INTEGER 4) 0 0 () (2 ASSUMED_SIZE (CONSTANT (INTEGER 4)
0 '1') (CONSTANT (INTEGER 4) 0 '2') (CONSTANT (INTEGER 4) 0 '1') ()) () ''
() ())
96 'nanspv' '' 119 ((VARIABLE UNKNOWN UNKNOWN UNKNOWN NONE NONE DUMMY) (
INTEGER 4) 0 0 () () () '' () ())
95 'norb2' '' 119 ((VARIABLE UNKNOWN UNKNOWN UNKNOWN NONE NONE DUMMY) (
INTEGER 4) 0 0 () () () '' () ())
94 'nstcep2' '' 119 ((VARIABLE UNKNOWN UNKNOWN UNKNOWN NONE NONE DUMMY)
(INTEGER 4) 0 0 () () () '' () ())
93 'numstc2' '' 119 ((VARIABLE UNKNOWN UNKNOWN UNKNOWN NONE NONE
DIMENSION DUMMY) (INTEGER 4) 0 0 () (1 ASSUMED_SIZE (CONSTANT (INTEGER 4)
0 '1') ()) () '' () ())
92 'nstcef2' '' 119 ((VARIABLE UNKNOWN UNKNOWN UNKNOWN NONE NONE
DIMENSION DUMMY) (INTEGER 4) 0 0 () (2 ASSUMED_SIZE (CONSTANT (INTEGER 4)
0 '1') (VARIABLE (INTEGER 4) 0 134 ()) (CONSTANT (INTEGER 4) 0 '1') ())
() '' () ())
134 'mxcsat' '' 119 ((VARIABLE UNKNOWN UNKNOWN UNKNOWN NONE NONE
IN_COMMON) (INTEGER 4) 0 135 () () () '' () ())
135 'mxnsat' '' 119 ((VARIABLE UNKNOWN UNKNOWN UNKNOWN NONE NONE
IN_COMMON) (CHARACTER 1 ((CONSTANT (INTEGER 4) 0 '6'))) 0 0 () () () ''
() ())
91 'nsastc2' '' 119 ((VARIABLE UNKNOWN UNKNOWN UNKNOWN NONE NONE DUMMY)
(INTEGER 4) 0 0 () () () '' () ())
90 'navnum2' '' 119 ((VARIABLE UNKNOWN UNKNOWN UNKNOWN NONE NONE
DIMENSION DUMMY) (INTEGER 4) 0 0 () (1 ASSUMED_SIZE (CONSTANT (INTEGER 4)
0 '1') ()) () '' () ())
89 'numsat2' '' 119 ((VARIABLE UNKNOWN UNKNOWN UNKNOWN NONE NONE
DIMENSION DUMMY) (INTEGER 4) 0 0 () (1 ASSUMED_SIZE (CONSTANT (INTEGER 4)
0 '1') ()) () '' () ())
88 'arcint2' '' 119 ((VARIABLE UNKNOWN UNKNOWN UNKNOWN NONE NONE
DIMENSION DUMMY) (INTEGER 4) 0 0 () (1 ASSUMED_SIZE (CONSTANT (INTEGER 4)
0 '1') ()) () '' () ())
87 'narc2' '' 119 ((VARIABLE UNKNOWN UNKNOWN UNKNOWN NONE NONE DUMMY) (
INTEGER 4) 0 0 () () () '' () ())
86 'estsat' '' 119 ((VARIABLE UNKNOWN UNKNOWN UNKNOWN NONE NONE
DIMENSION DUMMY) (INTEGER 4) 0 0 () (1 ASSUMED_SIZE (CONSTANT (INTEGER 4)
0 '1') ()) () '' () ())
85 'nestsat' '' 119 ((VARIABLE UNKNOWN UNKNOWN UNKNOWN NONE NONE DUMMY)
(INTEGER 4) 0 0 () () () '' () ())
84 'iorest' '' 119 ((VARIABLE UNKNOWN UNKNOWN UNKNOWN NONE NONE DUMMY) (
INTEGER 4) 0 0 () () () '' () ())
83 'stname' '' 119 ((VARIABLE UNKNOWN UNKNOWN UNKNOWN NONE NONE
DIMENSION DUMMY) (CHARACTER 1 ((CONSTANT (INTEGER 4) 0 '16'))) 0 0 () (
1 ASSUMED_SIZE (CONSTANT (INTEGER 4) 0 '1') ()) () '' () ())
82 'ndiff' '' 119 ((VARIABLE UNKNOWN UNKNOWN UNKNOWN NONE NONE DIMENSION
DUMMY) (INTEGER 4) 0 0 () (1 ASSUMED_SIZE (CONSTANT (INTEGER 4) 0 '1') ())
() '' () ())
81 'clkrec' '' 119 ((VARIABLE UNKNOWN UNKNOWN UNKNOWN NONE NONE DUMMY) (
DERIVED 136) 0 0 () () () '' () ())
136 't_clkrec' 'd_clkrnx' 119 ((DERIVED UNKNOWN UNKNOWN UNKNOWN NONE
NONE) (UNKNOWN) 0 0 () () () '' ((137 'iepo' (INTEGER 4) () () 0 0 0 ())
(138 'nepo' (INTEGER 4) () () 0 0 0 ()) (139 'epoch' (REAL 8) (1
DEFERRED () ()) () 1 1 0 ()) (140 'clock' (REAL 8) (2 DEFERRED () () ()
()) () 1 1 0 ()) (141 'sigma' (REAL 8) (2 DEFERRED () () () ()) () 1 1 0
()) (142 'clkflg' (CHARACTER 1 ((CONSTANT (INTEGER 4) 0 '1'))) (2
DEFERRED () () () ()) () 1 1 0 ())) PUBLIC ())
80 'clkhed' '' 119 ((VARIABLE UNKNOWN UNKNOWN UNKNOWN NONE NONE DUMMY) (
DERIVED 143) 0 0 () () () '' () ())
143 't_clkhead' 'd_clkrnx' 119 ((DERIVED UNKNOWN UNKNOWN UNKNOWN NONE
NONE) (UNKNOWN) 0 0 () () () '' ((144 'rnxvers' (REAL 8) () () 0 0 0 ())
(145 'ncomment' (INTEGER 4) () () 0 0 0 ()) (146 'comment' (CHARACTER 1
((CONSTANT (INTEGER 4) 0 '60'))) (1 DEFERRED () ()) () 1 1 0 ()) (147
'prognam' (CHARACTER 1 ((CONSTANT (INTEGER 4) 0 '20'))) () () 0 0 0 ())
(148 'runby' (CHARACTER 1 ((CONSTANT (INTEGER 4) 0 '20'))) () () 0 0 0 ())
(149 'crdate' (CHARACTER 1 ((CONSTANT (INTEGER 4) 0 '20'))) () () 0 0 0
()) (150 'leapsec' (INTEGER 4) () () 0 0 0 ()) (151 'numtyp' (INTEGER 4)
() () 0 0 0 ()) (152 'dattyp' (CHARACTER 1 ((CONSTANT (INTEGER 4) 0 '2')))
(1 DEFERRED () ()) () 1 1 0 ()) (153 'clk0name' (CHARACTER 1 ((CONSTANT
(INTEGER 4) 0 '16'))) () () 0 0 0 ()) (154 'calname' (CHARACTER 1 ((
CONSTANT (INTEGER 4) 0 '60'))) () () 0 0 0 ()) (155 'ac' (CHARACTER 1 (
(CONSTANT (INTEGER 4) 0 '3'))) () () 0 0 0 ()) (156 'acname' (CHARACTER
1 ((CONSTANT (INTEGER 4) 0 '55'))) () () 0 0 0 ()) (157 'timsys' (
CHARACTER 1 ((CONSTANT (INTEGER 4) 0 '3'))) () () 0 0 0 ()) (158 'pgmnam'
(CHARACTER 1 ((CONSTANT (INTEGER 4) 0 '17'))) () () 0 0 0 ()) (159
'dcbstr' (CHARACTER 1 ((CONSTANT (INTEGER 4) 0 '40'))) () () 0 0 0 ()) (
160 'pcvstr' (CHARACTER 1 ((CONSTANT (INTEGER 4) 0 '40'))) () () 0 0 0 ())
(161 'tfirst' (REAL 8) () () 0 0 0 ()) (162 'numref' (INTEGER 4) () () 0
0 0 ()) (163 'ref' (DERIVED 164) (1 DEFERRED () ()) () 1 1 0 ()) (165
'trfname' (CHARACTER 1 ((CONSTANT (INTEGER 4) 0 '50'))) () () 0 0 0 ())
(166 'nsta' (INTEGER 4) () () 0 0 0 ()) (167 'nsat' (INTEGER 4) () () 0
0 0 ()) (168 'clkname' (CHARACTER 1 ((CONSTANT (INTEGER 4) 0 '16'))) (1
DEFERRED () ()) () 1 1 0 ()) (169 'stacoord' (REAL 8) (2 DEFERRED () ()
() ()) () 1 1 0 ())) PUBLIC ())
164 't_ref' 'd_clkrnx' 119 ((DERIVED UNKNOWN UNKNOWN UNKNOWN NONE NONE)
(UNKNOWN) 0 0 () () () '' ((170 'nref' (INTEGER 4) () () 0 0 0 ()) (171
'clk' (DERIVED 172) (1 DEFERRED () ()) () 1 1 0 ()) (173 'refwin' (
DERIVED 125) () () 0 0 0 ())) PUBLIC ())
172 't_refclk' 'd_clkrnx' 119 ((DERIVED UNKNOWN UNKNOWN UNKNOWN NONE
NONE) (UNKNOWN) 0 0 () () () '' ((174 'name' (CHARACTER 1 ((CONSTANT (
INTEGER 4) 0 '16'))) () () 0 0 0 ()) (175 'sigma' (REAL 8) () () 0 0 0 ())
(176 'idx' (INTEGER 4) () () 0 0 0 ()) (177 'idx0' (INTEGER 4) () () 0 0
0 ())) PUBLIC ())
79 'nrgb' '' 119 ((VARIABLE UNKNOWN UNKNOWN UNKNOWN NONE NONE DUMMY) (
INTEGER 4) 0 0 () () () '' () ())
78 'clksys' '' 119 ((VARIABLE UNKNOWN UNKNOWN UNKNOWN NONE NONE DUMMY) (
INTEGER 4) 0 0 () () () '' () ())
77 'nclksa' '' 119 ((VARIABLE UNKNOWN UNKNOWN UNKNOWN NONE NONE DUMMY) (
INTEGER 4) 0 0 () () () '' () ())
76 'nclkst' '' 119 ((VARIABLE UNKNOWN UNKNOWN UNKNOWN NONE NONE DUMMY) (
INTEGER 4) 0 0 () () () '' () ())
75 'neurao' '' 119 ((VARIABLE UNKNOWN UNKNOWN UNKNOWN NONE NONE
DIMENSION DUMMY) (INTEGER 4) 0 0 () (1 EXPLICIT (CONSTANT (INTEGER 4) 0
'1') (CONSTANT (INTEGER 4) 0 '3')) () '' () ())
74 'nfrrao' '' 119 ((VARIABLE UNKNOWN UNKNOWN UNKNOWN NONE NONE
DIMENSION DUMMY) (INTEGER 4) 0 0 () (1 ASSUMED_SIZE (CONSTANT (INTEGER 4)
0 '1') ()) () '' () ())
73 'nanrao' '' 119 ((VARIABLE UNKNOWN UNKNOWN UNKNOWN NONE NONE DUMMY) (
INTEGER 4) 0 0 () () () '' () ())
72 'epogim' '' 119 ((VARIABLE UNKNOWN UNKNOWN UNKNOWN NONE NONE
DIMENSION DUMMY) (REAL 8) 0 0 () (2 ASSUMED_SIZE (CONSTANT (INTEGER 4) 0
'1') (CONSTANT (INTEGER 4) 0 '2') (CONSTANT (INTEGER 4) 0 '1') ()) () ''
() ())
71 'namgim' '' 119 ((VARIABLE UNKNOWN UNKNOWN UNKNOWN NONE NONE
DIMENSION DUMMY) (CHARACTER 1 ((CONSTANT (INTEGER 4) 0 '16'))) 0 0 () (
1 ASSUMED_SIZE (CONSTANT (INTEGER 4) 0 '1') ()) () '' () ())
70 'polgim' '' 119 ((VARIABLE UNKNOWN UNKNOWN UNKNOWN NONE NONE
DIMENSION DUMMY) (REAL 8) 0 0 () (2 ASSUMED_SIZE (CONSTANT (INTEGER 4) 0
'1') (CONSTANT (INTEGER 4) 0 '3') (CONSTANT (INTEGER 4) 0 '1') ()) () ''
() ())
69 'optgim' '' 119 ((VARIABLE UNKNOWN UNKNOWN UNKNOWN NONE NONE
DIMENSION DUMMY) (INTEGER 4) 0 0 () (1 ASSUMED_SIZE (CONSTANT (INTEGER 4)
0 '1') ()) () '' () ())
68 'opteli' '' 119 ((VARIABLE UNKNOWN UNKNOWN UNKNOWN NONE NONE
DIMENSION DUMMY) (INTEGER 4) 0 0 () (1 ASSUMED_SIZE (CONSTANT (INTEGER 4)
0 '1') ()) () '' () ())
67 'opthoi' '' 119 ((VARIABLE UNKNOWN UNKNOWN UNKNOWN NONE NONE
DIMENSION DUMMY) (INTEGER 4) 0 0 () (1 ASSUMED_SIZE (CONSTANT (INTEGER 4)
0 '1') ()) () '' () ())
66 'optdip' '' 119 ((VARIABLE UNKNOWN UNKNOWN UNKNOWN NONE NONE
DIMENSION DUMMY) (INTEGER 4) 0 0 () (1 ASSUMED_SIZE (CONSTANT (INTEGER 4)
0 '1') ()) () '' () ())
65 'stramb' '' 119 ((VARIABLE UNKNOWN UNKNOWN UNKNOWN NONE NONE
DIMENSION DUMMY) (INTEGER 4) 0 0 () (1 ASSUMED_SIZE (CONSTANT (INTEGER 4)
0 '1') ()) () '' () ())
64 'nptcal' '' 119 ((VARIABLE UNKNOWN UNKNOWN UNKNOWN NONE NONE
DIMENSION DUMMY) (INTEGER 4) 0 0 () (2 ASSUMED_SIZE (CONSTANT (INTEGER 4)
0 '1') (CONSTANT (INTEGER 4) 0 '2') (CONSTANT (INTEGER 4) 0 '1') ()) () ''
() ())
63 'nfrcal' '' 119 ((VARIABLE UNKNOWN UNKNOWN UNKNOWN NONE NONE
DIMENSION DUMMY) (INTEGER 4) 0 0 () (1 ASSUMED_SIZE (CONSTANT (INTEGER 4)
0 '1') ()) () '' () ())
62 'nancal' '' 119 ((VARIABLE UNKNOWN UNKNOWN UNKNOWN NONE NONE DUMMY) (
INTEGER 4) 0 0 () () () '' () ())
61 'dtsim' '' 119 ((VARIABLE UNKNOWN UNKNOWN UNKNOWN NONE NONE DUMMY) (
REAL 8) 0 0 () () () '' () ())
60 'ideltt' '' 119 ((VARIABLE UNKNOWN UNKNOWN UNKNOWN NONE NONE
DIMENSION DUMMY) (INTEGER 4) 0 0 () (1 ASSUMED_SIZE (CONSTANT (INTEGER 4)
0 '1') ()) () '' () ())
59 'nsampl' '' 119 ((VARIABLE UNKNOWN UNKNOWN UNKNOWN NONE NONE
DIMENSION DUMMY) (INTEGER 4) 0 0 () (1 EXPLICIT (CONSTANT (INTEGER 4) 0
'1') (CONSTANT (INTEGER 4) 0 '3')) () '' () ())
58 'window' '' 119 ((VARIABLE UNKNOWN UNKNOWN UNKNOWN NONE NONE
DIMENSION DUMMY) (REAL 8) 0 0 () (2 ASSUMED_SIZE (CONSTANT (INTEGER 4) 0
'1') (CONSTANT (INTEGER 4) 0 '2') (CONSTANT (INTEGER 4) 0 '1') ()) () ''
() ())
57 'nepoch' '' 119 ((VARIABLE UNKNOWN UNKNOWN UNKNOWN NONE NONE
DIMENSION DUMMY) (INTEGER 4) 0 0 () (1 ASSUMED_SIZE (CONSTANT (INTEGER 4)
0 '1') ()) () '' () ())
56 'ncenm' '' 119 ((VARIABLE UNKNOWN UNKNOWN UNKNOWN NONE NONE DUMMY) (
INTEGER 4) 0 0 () () () '' () ())
55 'nalb' '' 119 ((VARIABLE UNKNOWN UNKNOWN UNKNOWN NONE NONE DUMMY) (
INTEGER 4) 0 0 () () () '' () ())
54 'nalbgr' '' 119 ((VARIABLE UNKNOWN UNKNOWN UNKNOWN NONE NONE DUMMY) (
INTEGER 4) 0 0 () () () '' () ())
53 'npot' '' 119 ((VARIABLE UNKNOWN UNKNOWN UNKNOWN NONE NONE DUMMY) (
INTEGER 4) 0 0 () () () '' () ())
52 'nhill' '' 119 ((VARIABLE UNKNOWN UNKNOWN UNKNOWN NONE NONE DUMMY) (
INTEGER 4) 0 0 () () () '' () ())
51 'paroff' '' 119 ((VARIABLE UNKNOWN UNKNOWN UNKNOWN NONE NONE
DIMENSION DUMMY) (INTEGER 4) 0 0 () (1 ASSUMED_SIZE (CONSTANT (INTEGER 4)
0 '1') ()) () '' () ())
50 'nrqoff' '' 119 ((VARIABLE UNKNOWN UNKNOWN UNKNOWN NONE NONE DUMMY) (
INTEGER 4) 0 0 () () () '' () ())
49 'nstcep' '' 119 ((VARIABLE UNKNOWN UNKNOWN UNKNOWN NONE NONE DUMMY) (
INTEGER 4) 0 0 () () () '' () ())
48 'nstcef' '' 119 ((VARIABLE UNKNOWN UNKNOWN UNKNOWN NONE NONE
DIMENSION DUMMY) (INTEGER 4) 0 0 () (2 ASSUMED_SIZE (CONSTANT (INTEGER 4)
0 '1') (VARIABLE (INTEGER 4) 0 134 ()) (CONSTANT (INTEGER 4) 0 '1') ())
() '' () ())
47 'numstc' '' 119 ((VARIABLE UNKNOWN UNKNOWN UNKNOWN NONE NONE
DIMENSION DUMMY) (INTEGER 4) 0 0 () (1 ASSUMED_SIZE (CONSTANT (INTEGER 4)
0 '1') ()) () '' () ())
46 'nsastc' '' 119 ((VARIABLE UNKNOWN UNKNOWN UNKNOWN NONE NONE DUMMY) (
INTEGER 4) 0 0 () () () '' () ())
45 'ambdef' '' 119 ((VARIABLE UNKNOWN UNKNOWN UNKNOWN NONE NONE
DIMENSION DUMMY) (INTEGER 4) 0 0 () (1 ASSUMED_SIZE (CONSTANT (INTEGER 4)
0 '1') ()) () '' () ())
44 'ambiep' '' 119 ((VARIABLE UNKNOWN UNKNOWN UNKNOWN NONE NONE
DIMENSION DUMMY) (INTEGER 4) 0 0 () (2 ASSUMED_SIZE (CONSTANT (INTEGER 4)
0 '1') (VARIABLE (INTEGER 4) 0 178 ()) (CONSTANT (INTEGER 4) 0 '1') ())
() '' () ())
178 'mxcamb' '' 119 ((VARIABLE UNKNOWN UNKNOWN UNKNOWN NONE NONE
IN_COMMON) (INTEGER 4) 0 179 () () () '' () ())
179 'mxnamb' '' 119 ((VARIABLE UNKNOWN UNKNOWN UNKNOWN NONE NONE
IN_COMMON) (CHARACTER 1 ((CONSTANT (INTEGER 4) 0 '6'))) 0 0 () () () ''
() ())
43 'ambsat' '' 119 ((VARIABLE UNKNOWN UNKNOWN UNKNOWN NONE NONE
DIMENSION DUMMY) (INTEGER 4) 0 0 () (2 ASSUMED_SIZE (CONSTANT (INTEGER 4)
0 '1') (VARIABLE (INTEGER 4) 0 178 ()) (CONSTANT (INTEGER 4) 0 '1') ())
() '' () ())
42 'ambcls' '' 119 ((VARIABLE UNKNOWN UNKNOWN UNKNOWN NONE NONE
DIMENSION DUMMY) (INTEGER 4) 0 0 () (3 ASSUMED_SIZE (CONSTANT (INTEGER 4)
0 '1') (VARIABLE (INTEGER 4) 0 178 ()) (CONSTANT (INTEGER 4) 0 '1') (
CONSTANT (INTEGER 4) 0 '3') (CONSTANT (INTEGER 4) 0 '1') ()) () '' () ())
41 'numamb' '' 119 ((VARIABLE UNKNOWN UNKNOWN UNKNOWN NONE NONE
DIMENSION DUMMY) (INTEGER 4) 0 0 () (1 ASSUMED_SIZE (CONSTANT (INTEGER 4)
0 '1') ()) () '' () ())
40 'itrgrd' '' 119 ((VARIABLE UNKNOWN UNKNOWN UNKNOWN NONE NONE
DIMENSION DUMMY) (INTEGER 4) 0 0 () (1 ASSUMED_SIZE (CONSTANT (INTEGER 4)
0 '1') ()) () '' () ())
39 'statrp' '' 119 ((VARIABLE UNKNOWN UNKNOWN UNKNOWN NONE NONE
DIMENSION DUMMY) (INTEGER 4) 0 0 () (1 ASSUMED_SIZE (CONSTANT (INTEGER 4)
0 '1') ()) () '' () ())
38 'ntrsta' '' 119 ((VARIABLE UNKNOWN UNKNOWN UNKNOWN NONE NONE DUMMY) (
INTEGER 4) 0 0 () () () '' () ())
37 'npartr' '' 119 ((VARIABLE UNKNOWN UNKNOWN UNKNOWN NONE NONE
DIMENSION DUMMY) (INTEGER 4) 0 0 () (1 ASSUMED_SIZE (CONSTANT (INTEGER 4)
0 '1') ()) () '' () ())
36 'ntrreq' '' 119 ((VARIABLE UNKNOWN UNKNOWN UNKNOWN NONE NONE DUMMY) (
INTEGER 4) 0 0 () () () '' () ())
35 'npol' '' 119 ((VARIABLE UNKNOWN UNKNOWN UNKNOWN NONE NONE DUMMY) (
INTEGER 4) 0 0 () () () '' () ())
34 'polpar' '' 119 ((VARIABLE UNKNOWN UNKNOWN UNKNOWN NONE NONE
DIMENSION DUMMY) (INTEGER 4) 0 0 () (1 ASSUMED_SIZE (CONSTANT (INTEGER 4)
0 '1') ()) () '' () ())
33 'polmod' '' 119 ((VARIABLE UNKNOWN UNKNOWN UNKNOWN NONE NONE DUMMY) (
INTEGER 4) 0 0 () () () '' () ())
32 'optdcb' '' 119 ((VARIABLE UNKNOWN UNKNOWN UNKNOWN NONE NONE
DIMENSION DUMMY) (INTEGER 4) 0 0 () (1 ASSUMED_SIZE (CONSTANT (INTEGER 4)
0 '1') ()) () '' () ())
31 'ionreq' '' 119 ((VARIABLE UNKNOWN UNKNOWN UNKNOWN NONE NONE
DIMENSION DUMMY) (INTEGER 4) 0 0 () (2 ASSUMED_SIZE (CONSTANT (INTEGER 4)
0 '1') (CONSTANT (INTEGER 4) 0 '3') (CONSTANT (INTEGER 4) 0 '1') ()) () ''
() ())
30 'nioreq' '' 119 ((VARIABLE UNKNOWN UNKNOWN UNKNOWN NONE NONE DUMMY) (
INTEGER 4) 0 0 () () () '' () ())
29 'melwub' '' 119 ((VARIABLE UNKNOWN UNKNOWN UNKNOWN NONE NONE DUMMY) (
INTEGER 4) 0 0 () () () '' () ())
28 'meatyp' '' 119 ((VARIABLE UNKNOWN UNKNOWN UNKNOWN NONE NONE
DIMENSION DUMMY) (INTEGER 4) 0 0 () (1 ASSUMED_SIZE (CONSTANT (INTEGER 4)
0 '1') ()) () '' () ())
27 'icarr' '' 119 ((VARIABLE UNKNOWN UNKNOWN UNKNOWN NONE NONE DIMENSION
DUMMY) (INTEGER 4) 0 0 () (2 ASSUMED_SIZE (CONSTANT (INTEGER 4) 0 '1') (
VARIABLE (INTEGER 4) 0 180 ()) (CONSTANT (INTEGER 4) 0 '1') ()) () '' ()
())
180 'mxcfrq' '' 119 ((VARIABLE UNKNOWN UNKNOWN UNKNOWN NONE NONE
IN_COMMON) (INTEGER 4) 0 181 () () () '' () ())
181 'mxnfrq' '' 119 ((VARIABLE UNKNOWN UNKNOWN UNKNOWN NONE NONE
IN_COMMON) (CHARACTER 1 ((CONSTANT (INTEGER 4) 0 '6'))) 0 0 () () () ''
() ())
26 'nfrfil' '' 119 ((VARIABLE UNKNOWN UNKNOWN UNKNOWN NONE NONE
DIMENSION DUMMY) (INTEGER 4) 0 0 () (1 ASSUMED_SIZE (CONSTANT (INTEGER 4)
0 '1') ()) () '' () ())
25 'arcint' '' 119 ((VARIABLE UNKNOWN UNKNOWN UNKNOWN NONE NONE
DIMENSION DUMMY) (INTEGER 4) 0 0 () (1 ASSUMED_SIZE (CONSTANT (INTEGER 4)
0 '1') ()) () '' () ())
24 'navnum' '' 119 ((VARIABLE UNKNOWN UNKNOWN UNKNOWN NONE NONE
DIMENSION DUMMY) (INTEGER 4) 0 0 () (1 ASSUMED_SIZE (CONSTANT (INTEGER 4)
0 '1') ()) () '' () ())
23 'numsat' '' 119 ((VARIABLE UNKNOWN UNKNOWN UNKNOWN NONE NONE
DIMENSION DUMMY) (INTEGER 4) 0 0 () (1 ASSUMED_SIZE (CONSTANT (INTEGER 4)
0 '1') ()) () '' () ())
22 'satnum' '' 119 ((VARIABLE UNKNOWN UNKNOWN UNKNOWN NONE NONE
DIMENSION DUMMY) (INTEGER 4) 0 0 () (2 ASSUMED_SIZE (CONSTANT (INTEGER 4)
0 '1') (VARIABLE (INTEGER 4) 0 134 ()) (CONSTANT (INTEGER 4) 0 '1') ())
() '' () ())
21 'nsatel' '' 119 ((VARIABLE UNKNOWN UNKNOWN UNKNOWN NONE NONE
DIMENSION DUMMY) (INTEGER 4) 0 0 () (1 ASSUMED_SIZE (CONSTANT (INTEGER 4)
0 '1') ()) () '' () ())
20 'norb' '' 119 ((VARIABLE UNKNOWN UNKNOWN UNKNOWN NONE NONE DUMMY) (
INTEGER 4) 0 0 () () () '' () ())
19 'narc' '' 119 ((VARIABLE UNKNOWN UNKNOWN UNKNOWN NONE NONE DUMMY) (
INTEGER 4) 0 0 () () () '' () ())
18 'timref' '' 119 ((VARIABLE UNKNOWN UNKNOWN UNKNOWN NONE NONE
DIMENSION DUMMY) (REAL 8) 0 0 () (1 ASSUMED_SIZE (CONSTANT (INTEGER 4) 0
'1') ()) () '' () ())
17 'isbtim' '' 119 ((VARIABLE UNKNOWN UNKNOWN UNKNOWN NONE NONE
DIMENSION POINTER DUMMY) (DERIVED 182) 0 0 () (1 DEFERRED () ()) () '' ()
())
182 't_isbtime' 'p_gpsest' 119 ((DERIVED UNKNOWN UNKNOWN UNKNOWN NONE
NONE) (UNKNOWN) 0 0 () () () '' ((183 'recnam' (CHARACTER 1 ((CONSTANT (
INTEGER 4) 0 '20'))) () () 0 0 0 ()) (184 'recnum' (INTEGER 4) (1
EXPLICIT (CONSTANT (INTEGER 4) 0 '1') (CONSTANT (INTEGER 4) 0 '2')) () 1
0 0 ()) (185 'isbint' (REAL 8) () () 0 0 0 ())) PUBLIC ())
16 'nrec' '' 119 ((VARIABLE UNKNOWN UNKNOWN UNKNOWN NONE NONE DUMMY) (
INTEGER 4) 0 0 () () () '' () ())
15 'clfrto' '' 119 ((VARIABLE UNKNOWN UNKNOWN UNKNOWN NONE NONE
DIMENSION DUMMY) (REAL 8) 0 0 () (2 ASSUMED_SIZE (CONSTANT (INTEGER 4) 0
'1') (CONSTANT (INTEGER 4) 0 '2') (CONSTANT (INTEGER 4) 0 '1') ()) () ''
() ())
14 'ibias' '' 119 ((VARIABLE UNKNOWN UNKNOWN UNKNOWN NONE NONE DIMENSION
DUMMY) (INTEGER 4) 0 0 () (1 ASSUMED_SIZE (CONSTANT (INTEGER 4) 0 '1') ())
() '' () ())
13 'nclk' '' 119 ((VARIABLE UNKNOWN UNKNOWN UNKNOWN NONE NONE DIMENSION
DUMMY) (INTEGER 4) 0 0 () (1 ASSUMED_SIZE (CONSTANT (INTEGER 4) 0 '1') ())
() '' () ())
12 'istclk' '' 119 ((VARIABLE UNKNOWN UNKNOWN UNKNOWN NONE NONE
DIMENSION DUMMY) (INTEGER 4) 0 0 () (1 ASSUMED_SIZE (CONSTANT (INTEGER 4)
0 '1') ()) () '' () ())
11 'nclreq' '' 119 ((VARIABLE UNKNOWN UNKNOWN UNKNOWN NONE NONE DUMMY) (
INTEGER 4) 0 0 () () () '' () ())
10 'stkin' '' 119 ((VARIABLE UNKNOWN UNKNOWN UNKNOWN NONE NONE DIMENSION
DUMMY) (INTEGER 4) 0 0 () (1 ASSUMED_SIZE (CONSTANT (INTEGER 4) 0 '1') ())
() '' () ())
9 'nkin' '' 119 ((VARIABLE UNKNOWN UNKNOWN UNKNOWN NONE NONE DUMMY) (
INTEGER 4) 0 0 () () () '' () ())
8 'stfix' '' 119 ((VARIABLE UNKNOWN UNKNOWN UNKNOWN NONE NONE DIMENSION
DUMMY) (INTEGER 4) 0 0 () (1 ASSUMED_SIZE (CONSTANT (INTEGER 4) 0 '1') ())
() '' () ())
7 'nfix' '' 119 ((VARIABLE UNKNOWN UNKNOWN UNKNOWN NONE NONE DUMMY) (
INTEGER 4) 0 0 () () () '' () ())
6 'icentr' '' 119 ((VARIABLE UNKNOWN UNKNOWN UNKNOWN NONE NONE DIMENSION
DUMMY) (INTEGER 4) 0 0 () (1 ASSUMED_SIZE (CONSTANT (INTEGER 4) 0 '1') ())
() '' () ())
5 'nstat' '' 119 ((VARIABLE UNKNOWN UNKNOWN UNKNOWN NONE NONE DUMMY) (
INTEGER 4) 0 0 () () () '' () ())
4 'stfil' '' 119 ((VARIABLE UNKNOWN UNKNOWN UNKNOWN NONE NONE DIMENSION
DUMMY) (INTEGER 4) 0 0 () (1 ASSUMED_SIZE (CONSTANT (INTEGER 4) 0 '1') ())
() '' () ())
3 'nftot' '' 119 ((VARIABLE UNKNOWN UNKNOWN UNKNOWN NONE NONE DUMMY) (
INTEGER 4) 0 0 () () () '' () ())
)

('inimax' 0 2 's_inimax' 0 118)
