G95 module created on Thu Jun 25 17:42:45 2020 from ./.fpp/JEOPEN.f
If you edit this, you'll get what you deserve.
module-version 9
(() () () () () () () () () () () () () () () () () () () () ())

()

()

()

()

(2 'jeopen' 's_jeopen' 1 ((PROCEDURE UNKNOWN MODULE-PROC DECL NONE NONE
SUBROUTINE) (PROCEDURE 0) 0 0 (3 NONE) () () '' () ())
4 's_jeopen' 's_jeopen' 1 ((MODULE UNKNOWN UNKNOWN UNKNOWN NONE NONE) (
UNKNOWN) 0 0 () () () '' () ())
3 'rdf' '' 5 ((VARIABLE UNKNOWN UNKNOWN UNKNOWN NONE NONE DUMMY) (
LOGICAL 4) 0 0 () () () '' () ())
)

('jeopen' 0 2 's_jeopen' 0 4)
