G95 module created on Thu Jun 25 17:45:04 2020 from ./.fpp/L12SOL.f
If you edit this, you'll get what you deserve.
module-version 9
(() () () () () () () () () () () () () () () () () () () () ())

()

()

()

()

(2 'l12sol' 's_l12sol' 1 ((PROCEDURE UNKNOWN MODULE-PROC DECL NONE NONE
SUBROUTINE) (PROCEDURE 0) 0 0 (3 NONE 4 NONE 5 NONE 6 NONE 7 NONE 8 NONE)
() () '' () ())
9 's_l12sol' 's_l12sol' 1 ((MODULE UNKNOWN UNKNOWN UNKNOWN NONE NONE) (
UNKNOWN) 0 0 () () () '' () ())
8 'xn1' '' 10 ((VARIABLE UNKNOWN UNKNOWN UNKNOWN NONE NONE DUMMY) (REAL
8) 0 0 () () () '' () ())
7 'an1' '' 10 ((VARIABLE UNKNOWN UNKNOWN UNKNOWN NONE NONE DUMMY) (REAL
8) 0 0 () () () '' () ())
6 'iwlscr' '' 10 ((VARIABLE UNKNOWN UNKNOWN UNKNOWN NONE NONE DIMENSION
DUMMY) (INTEGER 4) 0 0 () (1 EXPLICIT (CONSTANT (INTEGER 4) 0 '1') (
CONSTANT (INTEGER 4) 0 '2')) () '' () ())
5 'n5' '' 10 ((VARIABLE UNKNOWN UNKNOWN UNKNOWN NONE NONE DUMMY) (REAL 8)
0 0 () () () '' () ())
4 'rhs' '' 10 ((VARIABLE UNKNOWN UNKNOWN UNKNOWN NONE NONE DIMENSION
DUMMY) (REAL 8) 0 0 () (1 EXPLICIT (CONSTANT (INTEGER 4) 0 '1') (
CONSTANT (INTEGER 4) 0 '2')) () '' () ())
3 'svn' '' 10 ((VARIABLE UNKNOWN UNKNOWN UNKNOWN NONE NONE DUMMY) (
INTEGER 4) 0 0 () () () '' () ())
)

('l12sol' 0 2 's_l12sol' 0 9)
