G95 module created on Thu Jun 25 17:45:13 2020 from ./.fpp/MCDBLG.f90
If you edit this, you'll get what you deserve.
module-version 9
(() () () () () () () () () () () () () () () () () () () () ())

()

()

()

()

(2 'mcdblg' 's_mcdblg' 1 ((PROCEDURE UNKNOWN MODULE-PROC DECL NONE NONE
SUBROUTINE) (PROCEDURE 0) 0 0 (3 NONE 4 NONE 5 NONE 6 NONE 7 NONE 8 NONE
9 NONE 10 NONE) () () '' () ())
11 's_mcdblg' 's_mcdblg' 1 ((MODULE UNKNOWN UNKNOWN UNKNOWN NONE NONE) (
UNKNOWN) 0 0 () () () '' () ())
10 'delsta' '' 12 ((VARIABLE UNKNOWN UNKNOWN UNKNOWN NONE NONE DIMENSION
POINTER DUMMY) (DERIVED 13) 0 0 () (1 DEFERRED () ()) () '' () ())
13 't_cluster' 'p_mkclus' 12 ((DERIVED UNKNOWN UNKNOWN UNKNOWN NONE NONE)
(UNKNOWN) 0 0 () () () '' ((14 'filidx' (INTEGER 4) () () 0 0 0 ()) (15
'cluster' (INTEGER 4) () () 0 0 0 ()) (16 'delflg' (INTEGER 4) () () 0 0
0 ())) PUBLIC ())
9 'ndel' '' 12 ((VARIABLE UNKNOWN UNKNOWN UNKNOWN NONE NONE DUMMY) (
INTEGER 4) 0 0 () () () '' () ())
8 'clulist' '' 12 ((VARIABLE UNKNOWN UNKNOWN UNKNOWN NONE NONE DIMENSION
POINTER DUMMY) (DERIVED 13) 0 0 () (1 DEFERRED () ()) () '' () ())
7 'nclu' '' 12 ((VARIABLE UNKNOWN UNKNOWN UNKNOWN NONE NONE DUMMY) (
INTEGER 4) 0 0 () () () '' () ())
6 'filinfo' '' 12 ((VARIABLE UNKNOWN UNKNOWN UNKNOWN NONE NONE DIMENSION
POINTER DUMMY) (DERIVED 17) 0 0 () (1 DEFERRED () ()) () '' () ())
17 't_stafil' 'p_mkclus' 12 ((DERIVED UNKNOWN UNKNOWN UNKNOWN NONE NONE)
(UNKNOWN) 0 0 () () () '' ((18 'staidx' (INTEGER 4) (1 EXPLICIT (
CONSTANT (INTEGER 4) 0 '1') (CONSTANT (INTEGER 4) 0 '2')) () 1 0 0 ()) (
19 'ndiff' (INTEGER 4) () () 0 0 0 ()) (20 'length' (REAL 8) () () 0 0 0
()) (21 'numobs' (INTEGER 4) () () 0 0 0 ()) (22 'numamb' (INTEGER 4) ()
() 0 0 0 ()) (23 'cluflg' (INTEGER 4) () () 0 0 0 ())) PUBLIC ())
5 'fillst' '' 12 ((VARIABLE UNKNOWN UNKNOWN UNKNOWN NONE NONE DIMENSION
POINTER DUMMY) (CHARACTER 1 ((CONSTANT (INTEGER 4) 0 '32'))) 0 0 () (2
DEFERRED () () () ()) () '' () ())
4 'nfil' '' 12 ((VARIABLE UNKNOWN UNKNOWN UNKNOWN NONE NONE DUMMY) (
INTEGER 4) 0 0 () () () '' () ())
3 'opt' '' 12 ((VARIABLE UNKNOWN UNKNOWN UNKNOWN NONE NONE DUMMY) (
DERIVED 24) 0 0 () () () '' () ())
24 't_mkclus_opt' 'p_mkclus' 12 ((DERIVED UNKNOWN UNKNOWN UNKNOWN NONE
NONE) (UNKNOWN) 0 0 () () () '' ((25 'clustrat' (INTEGER 4) () () 0 0 0
()) (26 'numclu' (INTEGER 4) () () 0 0 0 ()) (27 'maxsta' (INTEGER 4) ()
() 0 0 0 ()) (28 'stastrat' (INTEGER 4) () () 0 0 0 ()) (29 'satobs' (
INTEGER 4) () () 0 0 0 ()) (30 'staobs' (INTEGER 4) () () 0 0 0 ()) (31
'nsolve' (INTEGER 4) () () 0 0 0 ()) (32 'maxamb' (INTEGER 4) () () 0 0
0 ()) (33 'minobs' (INTEGER 4) () () 0 0 0 ()) (34 'maxrms' (REAL 8) ()
() 0 0 0 ()) (35 'coddel' (INTEGER 4) () () 0 0 0 ()) (36 'isasys' (
INTEGER 4) () () 0 0 0 ()) (37 'nsampl' (INTEGER 4) () () 0 0 0 ()) (38
'obssat' (REAL 8) () () 0 0 0 ())) PUBLIC ())
)

('mcdblg' 0 2 's_mcdblg' 0 11)
