G95 module created on Thu Jun 25 17:44:33 2020 from ./.fpp/MCINFO.f90
If you edit this, you'll get what you deserve.
module-version 9
(() () () () () () () () () () () () () () () () () () () () ())

()

()

()

()

(2 'mcinfo' 's_mcinfo' 1 ((PROCEDURE UNKNOWN MODULE-PROC DECL NONE NONE
SUBROUTINE) (PROCEDURE 0) 0 0 (3 NONE 4 NONE 5 NONE 6 NONE 7 NONE 8 NONE
9 NONE 10 NONE) () () '' () ())
11 's_mcinfo' 's_mcinfo' 1 ((MODULE UNKNOWN UNKNOWN UNKNOWN NONE NONE) (
UNKNOWN) 0 0 () () () '' () ())
10 'clulist' '' 12 ((VARIABLE UNKNOWN UNKNOWN UNKNOWN NONE NONE
DIMENSION POINTER DUMMY) (DERIVED 13) 0 0 () (1 DEFERRED () ()) () '' ()
())
13 't_cluster' 'p_mkclus' 12 ((DERIVED UNKNOWN UNKNOWN UNKNOWN NONE NONE)
(UNKNOWN) 0 0 () () () '' ((14 'filidx' (INTEGER 4) () () 0 0 0 ()) (15
'cluster' (INTEGER 4) () () 0 0 0 ()) (16 'delflg' (INTEGER 4) () () 0 0
0 ())) PUBLIC ())
9 'nclu' '' 12 ((VARIABLE UNKNOWN UNKNOWN UNKNOWN NONE NONE DUMMY) (
INTEGER 4) 0 0 () () () '' () ())
8 'station' '' 12 ((VARIABLE UNKNOWN UNKNOWN UNKNOWN NONE NONE DIMENSION
POINTER DUMMY) (DERIVED 17) 0 0 () (1 DEFERRED () ()) () '' () ())
17 't_station' 'p_mkclus' 12 ((DERIVED UNKNOWN UNKNOWN UNKNOWN NONE NONE)
(UNKNOWN) 0 0 () () () '' ((18 'stanam' (CHARACTER 1 ((CONSTANT (
INTEGER 4) 0 '16'))) () () 0 0 0 ()) (19 'lb' (REAL 8) (1 EXPLICIT (
CONSTANT (INTEGER 4) 0 '1') (CONSTANT (INTEGER 4) 0 '3')) () 1 0 0 ()) (
20 'clkrms' (REAL 8) () () 0 0 0 ()) (21 'nxtsta' (INTEGER 4) (1
DEFERRED () ()) () 1 1 0 ())) PUBLIC ())
7 'nsta' '' 12 ((VARIABLE UNKNOWN UNKNOWN UNKNOWN NONE NONE DUMMY) (
INTEGER 4) 0 0 () () () '' () ())
6 'filinfo' '' 12 ((VARIABLE UNKNOWN UNKNOWN UNKNOWN NONE NONE DIMENSION
POINTER DUMMY) (DERIVED 22) 0 0 () (1 DEFERRED () ()) () '' () ())
22 't_stafil' 'p_mkclus' 12 ((DERIVED UNKNOWN UNKNOWN UNKNOWN NONE NONE)
(UNKNOWN) 0 0 () () () '' ((23 'staidx' (INTEGER 4) (1 EXPLICIT (
CONSTANT (INTEGER 4) 0 '1') (CONSTANT (INTEGER 4) 0 '2')) () 1 0 0 ()) (
24 'ndiff' (INTEGER 4) () () 0 0 0 ()) (25 'length' (REAL 8) () () 0 0 0
()) (26 'numobs' (INTEGER 4) () () 0 0 0 ()) (27 'numamb' (INTEGER 4) ()
() 0 0 0 ()) (28 'cluflg' (INTEGER 4) () () 0 0 0 ())) PUBLIC ())
5 'fillst' '' 12 ((VARIABLE UNKNOWN UNKNOWN UNKNOWN NONE NONE DIMENSION
POINTER DUMMY) (CHARACTER 1 ((CONSTANT (INTEGER 4) 0 '32'))) 0 0 () (2
DEFERRED () () () ()) () '' () ())
4 'nfil' '' 12 ((VARIABLE UNKNOWN UNKNOWN UNKNOWN NONE NONE DUMMY) (
INTEGER 4) 0 0 () () () '' () ())
3 'opt' '' 12 ((VARIABLE UNKNOWN UNKNOWN UNKNOWN NONE NONE DUMMY) (
DERIVED 29) 0 0 () () () '' () ())
29 't_mkclus_opt' 'p_mkclus' 12 ((DERIVED UNKNOWN UNKNOWN UNKNOWN NONE
NONE) (UNKNOWN) 0 0 () () () '' ((30 'clustrat' (INTEGER 4) () () 0 0 0
()) (31 'numclu' (INTEGER 4) () () 0 0 0 ()) (32 'maxsta' (INTEGER 4) ()
() 0 0 0 ()) (33 'stastrat' (INTEGER 4) () () 0 0 0 ()) (34 'satobs' (
INTEGER 4) () () 0 0 0 ()) (35 'staobs' (INTEGER 4) () () 0 0 0 ()) (36
'nsolve' (INTEGER 4) () () 0 0 0 ()) (37 'maxamb' (INTEGER 4) () () 0 0
0 ()) (38 'minobs' (INTEGER 4) () () 0 0 0 ()) (39 'maxrms' (REAL 8) ()
() 0 0 0 ()) (40 'coddel' (INTEGER 4) () () 0 0 0 ()) (41 'isasys' (
INTEGER 4) () () 0 0 0 ()) (42 'nsampl' (INTEGER 4) () () 0 0 0 ()) (43
'obssat' (REAL 8) () () 0 0 0 ())) PUBLIC ())
)

('mcinfo' 0 2 's_mcinfo' 0 11)
