G95 module created on Thu Jun 25 17:44:16 2020 from ./.fpp/MCOBSB.f90
If you edit this, you'll get what you deserve.
module-version 9
(() () () () () () () () () () () () () () () () () () () () ())

()

()

()

()

(2 'mcobsb' 's_mcobsb' 1 ((PROCEDURE UNKNOWN MODULE-PROC DECL NONE NONE
SUBROUTINE) (PROCEDURE 0) 0 0 (3 NONE 4 NONE 5 NONE 6 NONE 7 NONE 8 NONE
9 NONE 10 NONE 11 NONE) () () '' () ())
12 's_mcobsb' 's_mcobsb' 1 ((MODULE UNKNOWN UNKNOWN UNKNOWN NONE NONE) (
UNKNOWN) 0 0 () () () '' () ())
11 'irc' '' 13 ((VARIABLE UNKNOWN UNKNOWN UNKNOWN NONE NONE DUMMY) (
INTEGER 4) 0 0 () () () '' () ())
10 'obsepo' '' 13 ((VARIABLE UNKNOWN UNKNOWN UNKNOWN NONE NONE DIMENSION
POINTER DUMMY) (DERIVED 14) 0 0 () (1 DEFERRED () ()) () '' () ())
14 't_obsepo' 'd_gpsobs' 13 ((DERIVED UNKNOWN UNKNOWN UNKNOWN NONE NONE)
(UNKNOWN) 0 0 () () () '' ((15 'obstim' (REAL 8) () () 0 0 0 ()) (16
'epoflg' (CHARACTER 1 ((CONSTANT (INTEGER 4) 0 '1'))) () () 0 0 0 ()) (
17 'deltat' (REAL 8) (1 EXPLICIT (CONSTANT (INTEGER 4) 0 '1') (CONSTANT
(INTEGER 4) 0 '2')) () 1 0 0 ()) (18 'nsat' (INTEGER 4) () () 0 0 0 ())
(19 'obsrec' (DERIVED 20) (1 DEFERRED () ()) () 1 1 0 ())) PUBLIC ())
20 't_obsrec' 'd_gpsobs' 13 ((DERIVED UNKNOWN UNKNOWN UNKNOWN NONE NONE)
(UNKNOWN) 0 0 () () () '' ((21 'numsat' (INTEGER 4) () () 0 0 0 ()) (22
'obsflg' (CHARACTER 1 ((CONSTANT (INTEGER 4) 0 '1'))) (1 EXPLICIT (
CONSTANT (INTEGER 4) 0 '1') (CONSTANT (INTEGER 4) 0 '2')) () 1 0 0 ()) (
23 'observ' (REAL 8) (1 EXPLICIT (CONSTANT (INTEGER 4) 0 '1') (CONSTANT
(INTEGER 4) 0 '2')) () 1 0 0 ())) PUBLIC ())
9 'satobs' '' 13 ((VARIABLE UNKNOWN UNKNOWN UNKNOWN NONE NONE DIMENSION
POINTER DUMMY) (REAL 8) 0 0 () (1 DEFERRED () ()) () '' () ())
8 'allsat' '' 13 ((VARIABLE UNKNOWN UNKNOWN UNKNOWN NONE NONE DIMENSION
POINTER DUMMY) (INTEGER 4) 0 0 () (1 DEFERRED () ()) () '' () ())
7 'nsat' '' 13 ((VARIABLE UNKNOWN UNKNOWN UNKNOWN NONE NONE DUMMY) (
INTEGER 4) 0 0 () () () '' () ())
6 'fillst' '' 13 ((VARIABLE UNKNOWN UNKNOWN UNKNOWN NONE NONE DIMENSION
POINTER DUMMY) (CHARACTER 1 ((CONSTANT (INTEGER 4) 0 '32'))) 0 0 () (2
DEFERRED () () () ()) () '' () ())
5 'nfil' '' 13 ((VARIABLE UNKNOWN UNKNOWN UNKNOWN NONE NONE DUMMY) (
INTEGER 4) 0 0 () () () '' () ())
4 'opt' '' 13 ((VARIABLE UNKNOWN UNKNOWN UNKNOWN NONE NONE DUMMY) (
DERIVED 24) 0 0 () () () '' () ())
24 't_mkclus_opt' 'p_mkclus' 13 ((DERIVED UNKNOWN UNKNOWN UNKNOWN NONE
NONE) (UNKNOWN) 0 0 () () () '' ((25 'clustrat' (INTEGER 4) () () 0 0 0
()) (26 'numclu' (INTEGER 4) () () 0 0 0 ()) (27 'maxsta' (INTEGER 4) ()
() 0 0 0 ()) (28 'stastrat' (INTEGER 4) () () 0 0 0 ()) (29 'satobs' (
INTEGER 4) () () 0 0 0 ()) (30 'staobs' (INTEGER 4) () () 0 0 0 ()) (31
'nsolve' (INTEGER 4) () () 0 0 0 ()) (32 'maxamb' (INTEGER 4) () () 0 0
0 ()) (33 'minobs' (INTEGER 4) () () 0 0 0 ()) (34 'maxrms' (REAL 8) ()
() 0 0 0 ()) (35 'coddel' (INTEGER 4) () () 0 0 0 ()) (36 'isasys' (
INTEGER 4) () () 0 0 0 ()) (37 'nsampl' (INTEGER 4) () () 0 0 0 ()) (38
'obssat' (REAL 8) () () 0 0 0 ())) PUBLIC ())
3 'imode' '' 13 ((VARIABLE UNKNOWN UNKNOWN UNKNOWN NONE NONE DUMMY) (
INTEGER 4) 0 0 () () () '' () ())
)

('mcobsb' 0 2 's_mcobsb' 0 12)
