G95 module created on Thu Jun 25 17:45:19 2020 from ./.fpp/MCMAXSTA.f90
If you edit this, you'll get what you deserve.
module-version 9
(() () () () () () () () () () () () () () () () () () () () ())

()

()

()

()

(2 'mcmaxsta' 's_mcmaxsta' 1 ((PROCEDURE UNKNOWN MODULE-PROC DECL NONE
NONE SUBROUTINE) (PROCEDURE 0) 0 0 (3 NONE 4 NONE 5 NONE 6 NONE 7 NONE 8
NONE 9 NONE 10 NONE 11 NONE 12 NONE 13 NONE) () () '' () ())
14 's_mcmaxsta' 's_mcmaxsta' 1 ((MODULE UNKNOWN UNKNOWN UNKNOWN NONE
NONE) (UNKNOWN) 0 0 () () () '' () ())
13 'ircsta' '' 15 ((VARIABLE UNKNOWN UNKNOWN UNKNOWN NONE NONE DUMMY) (
INTEGER 4) 0 0 () () () '' () ())
12 'delsta' '' 15 ((VARIABLE UNKNOWN UNKNOWN UNKNOWN NONE NONE DIMENSION
POINTER DUMMY) (DERIVED 16) 0 0 () (1 DEFERRED () ()) () '' () ())
16 't_cluster' 'p_mkclus' 15 ((DERIVED UNKNOWN UNKNOWN UNKNOWN NONE NONE)
(UNKNOWN) 0 0 () () () '' ((17 'filidx' (INTEGER 4) () () 0 0 0 ()) (18
'cluster' (INTEGER 4) () () 0 0 0 ()) (19 'delflg' (INTEGER 4) () () 0 0
0 ())) PUBLIC ())
11 'ndel' '' 15 ((VARIABLE UNKNOWN UNKNOWN UNKNOWN NONE NONE DUMMY) (
INTEGER 4) 0 0 () () () '' () ())
10 'clulist' '' 15 ((VARIABLE UNKNOWN UNKNOWN UNKNOWN NONE NONE
DIMENSION POINTER DUMMY) (DERIVED 16) 0 0 () (1 DEFERRED () ()) () '' ()
())
9 'nclu' '' 15 ((VARIABLE UNKNOWN UNKNOWN UNKNOWN NONE NONE DUMMY) (
INTEGER 4) 0 0 () () () '' () ())
8 'station' '' 15 ((VARIABLE UNKNOWN UNKNOWN UNKNOWN NONE NONE DIMENSION
POINTER DUMMY) (DERIVED 20) 0 0 () (1 DEFERRED () ()) () '' () ())
20 't_station' 'p_mkclus' 15 ((DERIVED UNKNOWN UNKNOWN UNKNOWN NONE NONE)
(UNKNOWN) 0 0 () () () '' ((21 'stanam' (CHARACTER 1 ((CONSTANT (
INTEGER 4) 0 '16'))) () () 0 0 0 ()) (22 'lb' (REAL 8) (1 EXPLICIT (
CONSTANT (INTEGER 4) 0 '1') (CONSTANT (INTEGER 4) 0 '3')) () 1 0 0 ()) (
23 'clkrms' (REAL 8) () () 0 0 0 ()) (24 'nxtsta' (INTEGER 4) (1
DEFERRED () ()) () 1 1 0 ())) PUBLIC ())
7 'nsta' '' 15 ((VARIABLE UNKNOWN UNKNOWN UNKNOWN NONE NONE DUMMY) (
INTEGER 4) 0 0 () () () '' () ())
6 'filinfo' '' 15 ((VARIABLE UNKNOWN UNKNOWN UNKNOWN NONE NONE DIMENSION
POINTER DUMMY) (DERIVED 25) 0 0 () (1 DEFERRED () ()) () '' () ())
25 't_stafil' 'p_mkclus' 15 ((DERIVED UNKNOWN UNKNOWN UNKNOWN NONE NONE)
(UNKNOWN) 0 0 () () () '' ((26 'staidx' (INTEGER 4) (1 EXPLICIT (
CONSTANT (INTEGER 4) 0 '1') (CONSTANT (INTEGER 4) 0 '2')) () 1 0 0 ()) (
27 'ndiff' (INTEGER 4) () () 0 0 0 ()) (28 'length' (REAL 8) () () 0 0 0
()) (29 'numobs' (INTEGER 4) () () 0 0 0 ()) (30 'numamb' (INTEGER 4) ()
() 0 0 0 ()) (31 'cluflg' (INTEGER 4) () () 0 0 0 ())) PUBLIC ())
5 'fillst' '' 15 ((VARIABLE UNKNOWN UNKNOWN UNKNOWN NONE NONE DIMENSION
POINTER DUMMY) (CHARACTER 1 ((CONSTANT (INTEGER 4) 0 '32'))) 0 0 () (2
DEFERRED () () () ()) () '' () ())
4 'nfil' '' 15 ((VARIABLE UNKNOWN UNKNOWN UNKNOWN NONE NONE DUMMY) (
INTEGER 4) 0 0 () () () '' () ())
3 'opt' '' 15 ((VARIABLE UNKNOWN UNKNOWN UNKNOWN NONE NONE DUMMY) (
DERIVED 32) 0 0 () () () '' () ())
32 't_mkclus_opt' 'p_mkclus' 15 ((DERIVED UNKNOWN UNKNOWN UNKNOWN NONE
NONE) (UNKNOWN) 0 0 () () () '' ((33 'clustrat' (INTEGER 4) () () 0 0 0
()) (34 'numclu' (INTEGER 4) () () 0 0 0 ()) (35 'maxsta' (INTEGER 4) ()
() 0 0 0 ()) (36 'stastrat' (INTEGER 4) () () 0 0 0 ()) (37 'satobs' (
INTEGER 4) () () 0 0 0 ()) (38 'staobs' (INTEGER 4) () () 0 0 0 ()) (39
'nsolve' (INTEGER 4) () () 0 0 0 ()) (40 'maxamb' (INTEGER 4) () () 0 0
0 ()) (41 'minobs' (INTEGER 4) () () 0 0 0 ()) (42 'maxrms' (REAL 8) ()
() 0 0 0 ()) (43 'coddel' (INTEGER 4) () () 0 0 0 ()) (44 'isasys' (
INTEGER 4) () () 0 0 0 ()) (45 'nsampl' (INTEGER 4) () () 0 0 0 ()) (46
'obssat' (REAL 8) () () 0 0 0 ())) PUBLIC ())
)

('mcmaxsta' 0 2 's_mcmaxsta' 0 14)
