G95 module created on Thu Jun 25 17:44:56 2020 from ./.fpp/MCGLOB.f90
If you edit this, you'll get what you deserve.
module-version 9
(() () () () () () () () () () () () () () () () () () () () ())

()

()

()

()

(2 'mcglob' 's_mcglob' 1 ((PROCEDURE UNKNOWN MODULE-PROC DECL NONE NONE
SUBROUTINE) (PROCEDURE 0) 0 0 (3 NONE 4 NONE 5 NONE 6 NONE 7 NONE 8 NONE
9 NONE) () () '' () ())
10 's_mcglob' 's_mcglob' 1 ((MODULE UNKNOWN UNKNOWN UNKNOWN NONE NONE) (
UNKNOWN) 0 0 () () () '' () ())
9 'clulist' '' 11 ((VARIABLE UNKNOWN UNKNOWN UNKNOWN NONE NONE DIMENSION
POINTER DUMMY) (DERIVED 12) 0 0 () (1 DEFERRED () ()) () '' () ())
12 't_cluster' 'p_mkclus' 11 ((DERIVED UNKNOWN UNKNOWN UNKNOWN NONE NONE)
(UNKNOWN) 0 0 () () () '' ((13 'filidx' (INTEGER 4) () () 0 0 0 ()) (14
'cluster' (INTEGER 4) () () 0 0 0 ()) (15 'delflg' (INTEGER 4) () () 0 0
0 ())) PUBLIC ())
8 'nclu' '' 11 ((VARIABLE UNKNOWN UNKNOWN UNKNOWN NONE NONE DUMMY) (
INTEGER 4) 0 0 () () () '' () ())
7 'filinfo' '' 11 ((VARIABLE UNKNOWN UNKNOWN UNKNOWN NONE NONE DIMENSION
POINTER DUMMY) (DERIVED 16) 0 0 () (1 DEFERRED () ()) () '' () ())
16 't_stafil' 'p_mkclus' 11 ((DERIVED UNKNOWN UNKNOWN UNKNOWN NONE NONE)
(UNKNOWN) 0 0 () () () '' ((17 'staidx' (INTEGER 4) (1 EXPLICIT (
CONSTANT (INTEGER 4) 0 '1') (CONSTANT (INTEGER 4) 0 '2')) () 1 0 0 ()) (
18 'ndiff' (INTEGER 4) () () 0 0 0 ()) (19 'length' (REAL 8) () () 0 0 0
()) (20 'numobs' (INTEGER 4) () () 0 0 0 ()) (21 'numamb' (INTEGER 4) ()
() 0 0 0 ()) (22 'cluflg' (INTEGER 4) () () 0 0 0 ())) PUBLIC ())
6 'nfil' '' 11 ((VARIABLE UNKNOWN UNKNOWN UNKNOWN NONE NONE DUMMY) (
INTEGER 4) 0 0 () () () '' () ())
5 'station' '' 11 ((VARIABLE UNKNOWN UNKNOWN UNKNOWN NONE NONE DIMENSION
POINTER DUMMY) (DERIVED 23) 0 0 () (1 DEFERRED () ()) () '' () ())
23 't_station' 'p_mkclus' 11 ((DERIVED UNKNOWN UNKNOWN UNKNOWN NONE NONE)
(UNKNOWN) 0 0 () () () '' ((24 'stanam' (CHARACTER 1 ((CONSTANT (
INTEGER 4) 0 '16'))) () () 0 0 0 ()) (25 'lb' (REAL 8) (1 EXPLICIT (
CONSTANT (INTEGER 4) 0 '1') (CONSTANT (INTEGER 4) 0 '3')) () 1 0 0 ()) (
26 'clkrms' (REAL 8) () () 0 0 0 ()) (27 'nxtsta' (INTEGER 4) (1
DEFERRED () ()) () 1 1 0 ())) PUBLIC ())
4 'nsta' '' 11 ((VARIABLE UNKNOWN UNKNOWN UNKNOWN NONE NONE DUMMY) (
INTEGER 4) 0 0 () () () '' () ())
3 'opt' '' 11 ((VARIABLE UNKNOWN UNKNOWN UNKNOWN NONE NONE DUMMY) (
DERIVED 28) 0 0 () () () '' () ())
28 't_mkclus_opt' 'p_mkclus' 11 ((DERIVED UNKNOWN UNKNOWN UNKNOWN NONE
NONE) (UNKNOWN) 0 0 () () () '' ((29 'clustrat' (INTEGER 4) () () 0 0 0
()) (30 'numclu' (INTEGER 4) () () 0 0 0 ()) (31 'maxsta' (INTEGER 4) ()
() 0 0 0 ()) (32 'stastrat' (INTEGER 4) () () 0 0 0 ()) (33 'satobs' (
INTEGER 4) () () 0 0 0 ()) (34 'staobs' (INTEGER 4) () () 0 0 0 ()) (35
'nsolve' (INTEGER 4) () () 0 0 0 ()) (36 'maxamb' (INTEGER 4) () () 0 0
0 ()) (37 'minobs' (INTEGER 4) () () 0 0 0 ()) (38 'maxrms' (REAL 8) ()
() 0 0 0 ()) (39 'coddel' (INTEGER 4) () () 0 0 0 ()) (40 'isasys' (
INTEGER 4) () () 0 0 0 ()) (41 'nsampl' (INTEGER 4) () () 0 0 0 ()) (42
'obssat' (REAL 8) () () 0 0 0 ())) PUBLIC ())
)

('mcglob' 0 2 's_mcglob' 0 10)
