G95 module created on Thu Jun 25 17:45:09 2020 from ./.fpp/MCINPT.f90
If you edit this, you'll get what you deserve.
module-version 9
(() () () () () () () () () () () () () () () () () () () () ())

()

()

()

()

(2 'mcinpt' 's_mcinpt' 1 ((PROCEDURE UNKNOWN MODULE-PROC DECL NONE NONE
SUBROUTINE) (PROCEDURE 0) 0 0 (3 NONE) () () '' () ())
4 's_mcinpt' 's_mcinpt' 1 ((MODULE UNKNOWN UNKNOWN UNKNOWN NONE NONE) (
UNKNOWN) 0 0 () () () '' () ())
3 'opt' '' 5 ((VARIABLE UNKNOWN UNKNOWN UNKNOWN NONE NONE DUMMY) (
DERIVED 6) 0 0 () () () '' () ())
6 't_mkclus_opt' 'p_mkclus' 5 ((DERIVED UNKNOWN UNKNOWN UNKNOWN NONE
NONE) (UNKNOWN) 0 0 () () () '' ((7 'clustrat' (INTEGER 4) () () 0 0 0 ())
(8 'numclu' (INTEGER 4) () () 0 0 0 ()) (9 'maxsta' (INTEGER 4) () () 0
0 0 ()) (10 'stastrat' (INTEGER 4) () () 0 0 0 ()) (11 'satobs' (
INTEGER 4) () () 0 0 0 ()) (12 'staobs' (INTEGER 4) () () 0 0 0 ()) (13
'nsolve' (INTEGER 4) () () 0 0 0 ()) (14 'maxamb' (INTEGER 4) () () 0 0
0 ()) (15 'minobs' (INTEGER 4) () () 0 0 0 ()) (16 'maxrms' (REAL 8) ()
() 0 0 0 ()) (17 'coddel' (INTEGER 4) () () 0 0 0 ()) (18 'isasys' (
INTEGER 4) () () 0 0 0 ()) (19 'nsampl' (INTEGER 4) () () 0 0 0 ()) (20
'obssat' (REAL 8) () () 0 0 0 ())) PUBLIC ())
)

('mcinpt' 0 2 's_mcinpt' 0 4)
