G95 module created on Thu Jun 25 17:43:32 2020 from ./.fpp/MYGETARG.f90
If you edit this, you'll get what you deserve.
module-version 9
(() () () () () () () () () () () () () () () () () () () () ())

()

()

()

()

(2 'mygetarg' 's_mygetarg' 1 ((PROCEDURE UNKNOWN MODULE-PROC DECL NONE
NONE SUBROUTINE) (PROCEDURE 0) 0 0 (3 NONE 4 NONE) () () '' () ())
5 's_mygetarg' 's_mygetarg' 1 ((MODULE UNKNOWN UNKNOWN UNKNOWN NONE NONE)
(UNKNOWN) 0 0 () () () '' () ())
4 'forcegetarg' '' 6 ((VARIABLE IN UNKNOWN UNKNOWN NONE NONE OPTIONAL
DUMMY) (LOGICAL 4) 0 0 () () () '' () ())
3 'argument' '' 6 ((VARIABLE OUT UNKNOWN UNKNOWN NONE NONE DUMMY) (
CHARACTER 1 (())) 0 0 () () () '' () ())
)

('mygetarg' 0 2 's_mygetarg' 0 5)
