G95 module created on Thu Jun 25 17:44:08 2020 from ./.fpp/NEQSOLVE.f90
If you edit this, you'll get what you deserve.
module-version 9
(() () () () () () () () () () () () () () () () () () () () ())

()

()

()

()

(2 'neqsolve' 's_neqsolve' 1 ((PROCEDURE UNKNOWN MODULE-PROC DECL NONE
NONE SUBROUTINE) (PROCEDURE 0) 0 0 (3 NONE 4 NONE 5 NONE 6 NONE 7 NONE)
() () '' () ())
8 's_neqsolve' 's_neqsolve' 1 ((MODULE UNKNOWN UNKNOWN UNKNOWN NONE NONE)
(UNKNOWN) 0 0 () () () '' () ())
7 'hlmout' '' 9 ((VARIABLE UNKNOWN UNKNOWN UNKNOWN NONE NONE DUMMY) (
DERIVED 10) 0 0 () () () '' () ())
10 't_hlmfil' 'p_addneq' 9 ((DERIVED UNKNOWN UNKNOWN UNKNOWN NONE NONE)
(UNKNOWN) 0 0 () () () '' ((11 'nneq' (INTEGER 4) () () 0 0 0 ()) (12
'filnam' (CHARACTER 1 ((CONSTANT (INTEGER 4) 0 '32'))) (1 DEFERRED () ())
() 1 1 0 ()) (13 'ihelm' (INTEGER 4) (2 DEFERRED () () () ()) () 1 1 0 ())
(14 'rhelm' (REAL 8) (2 DEFERRED () () () ()) () 1 1 0 ()) (15 'indgrp'
(INTEGER 4) (1 DEFERRED () ()) () 1 1 0 ()) (16 'grpnam' (CHARACTER 1 (
(CONSTANT (INTEGER 4) 0 '3'))) (1 DEFERRED () ()) () 1 1 0 ()) (17 'fact'
(REAL 8) (1 DEFERRED () ()) () 1 1 0 ())) PUBLIC ())
6 'statist' '' 9 ((VARIABLE UNKNOWN UNKNOWN UNKNOWN NONE NONE DIMENSION
DUMMY) (REAL 8) 0 0 () (1 EXPLICIT (CONSTANT (INTEGER 4) 0 '1') (
CONSTANT (INTEGER 4) 0 '9')) () '' () ())
5 'ifil' '' 9 ((VARIABLE UNKNOWN UNKNOWN UNKNOWN NONE NONE DUMMY) (
INTEGER 4) 0 0 () () () '' () ())
4 'ipart' '' 9 ((VARIABLE UNKNOWN UNKNOWN UNKNOWN NONE NONE DUMMY) (
INTEGER 4) 0 0 () () () '' () ())
3 'neq' '' 9 ((VARIABLE UNKNOWN UNKNOWN UNKNOWN NONE NONE DUMMY) (
DERIVED 18) 0 0 () () () '' () ())
18 't_neq' 'd_neq' 9 ((DERIVED UNKNOWN UNKNOWN UNKNOWN NONE NONE) (
UNKNOWN) 0 0 () () () '' ((19 'version' (INTEGER 4) () () 0 0 0 ()) (20
'misc' (DERIVED 21) () () 0 0 0 ()) (22 'par' (DERIVED 23) (1 DEFERRED ()
()) () 1 1 0 ()) (24 'anor' (REAL 8) (1 DEFERRED () ()) () 1 1 0 ()) (
25 'bnor' (REAL 8) (1 DEFERRED () ()) () 1 1 0 ()) (26 'xxx' (REAL 8) (
1 DEFERRED () ()) () 1 1 0 ())) PUBLIC ())
23 't_par' 'd_par' 9 ((DERIVED UNKNOWN UNKNOWN UNKNOWN NONE NONE) (
UNKNOWN) 0 0 () () () '' ((27 'locq' (INTEGER 4) (1 EXPLICIT (CONSTANT (
INTEGER 4) 0 '1') (CONSTANT (INTEGER 4) 0 '7')) () 1 0 0 ()) (28 'name'
(CHARACTER 1 ((CONSTANT (INTEGER 4) 0 '20'))) () () 0 0 0 ()) (29 'time'
(DERIVED 30) () () 0 0 0 ()) (31 'x0' (REAL 8) () () 0 0 0 ()) (32 'scale'
(REAL 8) () () 0 0 0 ()) (33 'techn' (CHARACTER 1 ((CONSTANT (INTEGER 4)
0 '1'))) (1 EXPLICIT (CONSTANT (INTEGER 4) 0 '1') (CONSTANT (INTEGER 4)
0 '2')) () 1 0 0 ()) (34 'obstim' (DERIVED 35) () () 0 0 0 ()) (36 'type'
(CHARACTER 1 ((CONSTANT (INTEGER 4) 0 '2'))) () () 0 0 0 ()) (37 'omega'
(REAL 8) () () 0 0 0 ())) PUBLIC ())
35 't_timint' 'm_time' 9 ((DERIVED UNKNOWN UNKNOWN UNKNOWN NONE NONE) (
UNKNOWN) 0 0 () () () '' ((38 't' (REAL 8) (1 EXPLICIT (CONSTANT (
INTEGER 4) 0 '1') (CONSTANT (INTEGER 4) 0 '2')) () 1 0 0 ())) PUBLIC ())
30 't_time' 'm_time' 9 ((DERIVED UNKNOWN UNKNOWN UNKNOWN NONE NONE
SEQUENCE) (UNKNOWN) 0 0 () () () '' ((39 'mean' (REAL 8) () () 0 0 0 ())
(40 'half' (REAL 8) () () 0 0 0 ())) PUBLIC ())
21 't_misc' 'd_neq' 9 ((DERIVED UNKNOWN UNKNOWN UNKNOWN NONE NONE) (
UNKNOWN) 0 0 () () () '' ((41 'title' (CHARACTER 1 ((CONSTANT (INTEGER 4)
0 '132'))) (1 EXPLICIT (CONSTANT (INTEGER 4) 0 '1') (CONSTANT (INTEGER 4)
0 '2')) () 1 0 0 ()) (42 'datum' (CHARACTER 1 ((CONSTANT (INTEGER 4) 0
'16'))) () () 0 0 0 ()) (43 'nutmod' (CHARACTER 1 ((CONSTANT (INTEGER 4)
0 '16'))) () () 0 0 0 ()) (44 'submod' (CHARACTER 1 ((CONSTANT (INTEGER
4) 0 '16'))) () () 0 0 0 ()) (45 'orbfil' (CHARACTER 1 ((CONSTANT (
INTEGER 4) 0 '32'))) (1 EXPLICIT (CONSTANT (INTEGER 4) 0 '1') (CONSTANT
(INTEGER 4) 0 '2')) () 1 0 0 ()) (46 'gravfil' (CHARACTER 1 ((CONSTANT (
INTEGER 4) 0 '32'))) () () 0 0 0 ()) (47 'nobs' (REAL 8) () () 0 0 0 ())
(48 'npar' (INTEGER 4) () () 0 0 0 ()) (49 'ltpl' (REAL 8) () () 0 0 0 ())
(50 'nparms' (REAL 8) () () 0 0 0 ()) (51 'npseu' (INTEGER 4) () () 0 0
0 ()) (52 'npseuel' (INTEGER 4) () () 0 0 0 ()) (53 'nftot' (INTEGER 4)
() () 0 0 0 ()) (54 'nsmpnq' (INTEGER 4) () () 0 0 0 ()) (55 'ielvnq' (
INTEGER 4) () () 0 0 0 ()) (56 'itropo' (INTEGER 4) () () 0 0 0 ()) (57
'iextra' (INTEGER 4) () () 0 0 0 ()) (58 'itrmap' (INTEGER 4) () () 0 0
0 ()) (59 'itrgrd' (INTEGER 4) () () 0 0 0 ()) (60 'nanoff' (INTEGER 4)
() () 0 0 0 ()) (61 'nsaoff' (INTEGER 4) (1 EXPLICIT (CONSTANT (INTEGER
4) 0 '1') (CONSTANT (INTEGER 4) 0 '260')) () 1 0 0 ()) (62 'satoff' (
INTEGER 4) (2 EXPLICIT (CONSTANT (INTEGER 4) 0 '1') (CONSTANT (INTEGER 4)
0 '130') (CONSTANT (INTEGER 4) 0 '1') (CONSTANT (INTEGER 4) 0 '260')) ()
1 0 0 ()) (63 'nstat_sinex' (INTEGER 4) () () 0 0 0 ()) (64 'sinex' (
DERIVED 65) (1 EXPLICIT (CONSTANT (INTEGER 4) 0 '1') (CONSTANT (INTEGER
4) 0 '2000')) () 1 0 0 ()) (66 'grdneq' (CHARACTER 1 ((CONSTANT (
INTEGER 4) 0 '12'))) (1 EXPLICIT (CONSTANT (INTEGER 4) 0 '1') (CONSTANT
(INTEGER 4) 0 '3')) () 1 0 0 ()) (67 'nobst' (INTEGER 4) () () 0 0 0 ())
(68 'obst' (DERIVED 69) (1 EXPLICIT (CONSTANT (INTEGER 4) 0 '1') (
CONSTANT (INTEGER 4) 0 '30000')) () 1 0 0 ())) PUBLIC ())
69 't_obst' 'd_neq' 9 ((DERIVED UNKNOWN UNKNOWN UNKNOWN NONE NONE) (
UNKNOWN) 0 0 () () () '' ((70 'obstyp' (CHARACTER 1 ((CONSTANT (INTEGER
4) 0 '3'))) (1 EXPLICIT (CONSTANT (INTEGER 4) 0 '1') (CONSTANT (INTEGER
4) 0 '4')) () 1 0 0 ())) PUBLIC ())
65 't_sinex' 'd_neq' 9 ((DERIVED UNKNOWN UNKNOWN UNKNOWN NONE NONE) (
UNKNOWN) 0 0 () () () '' ((71 'timint' (DERIVED 35) () () 0 0 0 ()) (72
'stname' (CHARACTER 1 ((CONSTANT (INTEGER 4) 0 '16'))) () () 0 0 0 ()) (
73 'antecc' (REAL 8) (1 EXPLICIT (CONSTANT (INTEGER 4) 0 '1') (CONSTANT
(INTEGER 4) 0 '3')) () 1 0 0 ()) (74 'antpcv' (DERIVED 75) (1 EXPLICIT (
CONSTANT (INTEGER 4) 0 '0') (CONSTANT (INTEGER 4) 0 '5')) () 1 0 0 ()) (
76 'antnum' (INTEGER 4) () () 0 0 0 ()) (77 'antsta' (CHARACTER 1 ((
CONSTANT (INTEGER 4) 0 '20'))) () () 0 0 0 ()) (78 'antrec' (CHARACTER 1
((CONSTANT (INTEGER 4) 0 '20'))) () () 0 0 0 ())) PUBLIC ())
75 't_sinex_pcv' 'd_neq' 9 ((DERIVED UNKNOWN UNKNOWN UNKNOWN NONE NONE)
(UNKNOWN) 0 0 () () () '' ((79 'nfrq' (INTEGER 4) () () 0 0 0 ()) (80
'antphs' (REAL 8) (2 EXPLICIT (CONSTANT (INTEGER 4) 0 '1') (CONSTANT (
INTEGER 4) 0 '3') (CONSTANT (INTEGER 4) 0 '1') (CONSTANT (INTEGER 4) 0 '2'))
() 1 0 0 ()) (81 'adopted' (INTEGER 4) () () 0 0 0 ()) (82 'individ' (
INTEGER 4) () () 0 0 0 ()) (83 'atxstr' (CHARACTER 1 ((CONSTANT (
INTEGER 4) 0 '10'))) () () 0 0 0 ())) PUBLIC ())
)

('neqsolve' 0 2 's_neqsolve' 0 8)
