G95 module created on Thu Jun 25 17:43:13 2020 from ./.fpp/NI_DYNPARTIAL.f90
If you edit this, you'll get what you deserve.
module-version 9
(() () () () () () () () () () () () () () () () () () () () ())

()

()

()

()

(2 'ni_dynpartial' 's_ni_dynpartial' 1 ((PROCEDURE UNKNOWN MODULE-PROC
DECL NONE NONE SUBROUTINE) (PROCEDURE 0) 0 0 (3 NONE 4 NONE 5 NONE 6
NONE 7 NONE 8 NONE 9 NONE 10 NONE 11 NONE 12 NONE) () () '' () ())
13 's_ni_dynpartial' 's_ni_dynpartial' 1 ((MODULE UNKNOWN UNKNOWN
UNKNOWN NONE NONE) (UNKNOWN) 0 0 () () () '' () ())
12 'stdorb' '' 14 ((VARIABLE UNKNOWN UNKNOWN UNKNOWN NONE NONE DIMENSION
DUMMY) (DERIVED 15) 0 0 () (1 ASSUMED_SHAPE () ()) () '' () ())
15 't_stdorb' 's_stdorbit_t' 14 ((DERIVED UNKNOWN UNKNOWN UNKNOWN NONE
NONE) (UNKNOWN) 0 0 () () () '' ((16 'version' (INTEGER 4) () () 0 0 0 (
CONSTANT (INTEGER 4) 0 '2')) (17 'title' (CHARACTER 1 ((CONSTANT (
INTEGER 4) 0 '255'))) () () 0 0 0 (CONSTANT (CHARACTER 1 ((CONSTANT (
INTEGER 4) 0 '255'))) 0 255
'                                                                                                                                                                                                                                                               '))
(18 'useoldgetorb' (LOGICAL 4) () () 0 0 0 (CONSTANT (LOGICAL 4) 0 0)) (
19 'moddesc' (DERIVED 20) (1 DEFERRED () ()) () 1 1 0 (NULL (DERIVED 20)
1)) (21 'orbarc' (DERIVED 22) (1 DEFERRED () ()) () 1 1 0 (NULL (
DERIVED 22) 1)) (23 'par' (DERIVED 24) (1 DEFERRED () ()) () 1 1 0 (
NULL (DERIVED 24) 1)) (25 'estpar' (DERIVED 26) (1 DEFERRED () ()) () 1
1 0 (NULL (DERIVED 26) 1)) (27 'eststc' (DERIVED 28) (1 DEFERRED () ())
() 1 1 0 (NULL (DERIVED 28) 1)) (29 'orbarcpart' (DERIVED 22) (1
DEFERRED () ()) () 1 1 0 (NULL (DERIVED 22) 1))) PUBLIC ())
28 't_stoch' 's_stdorbit_t' 14 ((DERIVED UNKNOWN UNKNOWN UNKNOWN NONE
NONE) (UNKNOWN) 0 0 () () () '' ((30 'typ' (CHARACTER 1 ((CONSTANT (
INTEGER 4) 0 '1'))) () () 0 0 0 ()) (31 'comp' (CHARACTER 1 ((CONSTANT (
INTEGER 4) 0 '1'))) () () 0 0 0 ()) (32 'left' (REAL 8) () () 0 0 0 (
CONSTANT (REAL 8) 0 '0' 0 0)) (33 'right' (REAL 8) () () 0 0 0 (
CONSTANT (REAL 8) 0 '0' 0 0)) (34 'value' (REAL 8) () () 0 0 0 (
CONSTANT (REAL 8) 0 '0' 0 0)) (35 'deds' (REAL 8) (1 EXPLICIT (CONSTANT
(INTEGER 4) 0 '1') (CONSTANT (INTEGER 4) 0 '6')) () 1 0 0 (CONSTANT (
REAL 8) 0 '0' 0 0)) (36 'de' (REAL 8) (1 EXPLICIT (CONSTANT (INTEGER 4)
0 '1') (CONSTANT (INTEGER 4) 0 '6')) () 1 0 0 (CONSTANT (REAL 8) 0 '0' 0
0))) PUBLIC ())
26 't_estpar' 's_stdorbit_t' 14 ((DERIVED UNKNOWN UNKNOWN UNKNOWN NONE
NONE) (UNKNOWN) 0 0 () () () '' ((37 'locq' (INTEGER 4) (1 EXPLICIT (
CONSTANT (INTEGER 4) 0 '1') (CONSTANT (INTEGER 4) 0 '7')) () 1 0 0 (
CONSTANT (INTEGER 4) 0 '0')) (38 'name' (CHARACTER 1 ((CONSTANT (
INTEGER 4) 0 '16'))) () () 0 0 0 (CONSTANT (CHARACTER 1 ((CONSTANT (
INTEGER 4) 0 '16'))) 0 16 '                ')) (39 'time' (DERIVED 40) ()
() 0 0 0 ()) (41 'x0' (REAL 8) () () 0 0 0 (CONSTANT (REAL 8) 0 '0' 0 0))
(42 'dx' (REAL 8) () () 0 0 0 (CONSTANT (REAL 8) 0 '0' 0 0)) (43 'scale'
(REAL 8) () () 0 0 0 (CONSTANT (REAL 8) 0 '4503599627370496' 0 1023)))
PUBLIC ())
40 't_time' 'm_time' 14 ((DERIVED UNKNOWN UNKNOWN UNKNOWN NONE NONE
SEQUENCE) (UNKNOWN) 0 0 () () () '' ((44 'mean' (REAL 8) () () 0 0 0 ())
(45 'half' (REAL 8) () () 0 0 0 ())) PUBLIC ())
24 't_par' 'd_par' 14 ((DERIVED UNKNOWN UNKNOWN UNKNOWN NONE NONE) (
UNKNOWN) 0 0 () () () '' ((46 'locq' (INTEGER 4) (1 EXPLICIT (CONSTANT (
INTEGER 4) 0 '1') (CONSTANT (INTEGER 4) 0 '7')) () 1 0 0 ()) (47 'name'
(CHARACTER 1 ((CONSTANT (INTEGER 4) 0 '20'))) () () 0 0 0 ()) (48 'time'
(DERIVED 40) () () 0 0 0 ()) (49 'x0' (REAL 8) () () 0 0 0 ()) (50 'scale'
(REAL 8) () () 0 0 0 ()) (51 'techn' (CHARACTER 1 ((CONSTANT (INTEGER 4)
0 '1'))) (1 EXPLICIT (CONSTANT (INTEGER 4) 0 '1') (CONSTANT (INTEGER 4)
0 '2')) () 1 0 0 ()) (52 'obstim' (DERIVED 53) () () 0 0 0 ()) (54 'type'
(CHARACTER 1 ((CONSTANT (INTEGER 4) 0 '2'))) () () 0 0 0 ()) (55 'omega'
(REAL 8) () () 0 0 0 ())) PUBLIC ())
53 't_timint' 'm_time' 14 ((DERIVED UNKNOWN UNKNOWN UNKNOWN NONE NONE) (
UNKNOWN) 0 0 () () () '' ((56 't' (REAL 8) (1 EXPLICIT (CONSTANT (
INTEGER 4) 0 '1') (CONSTANT (INTEGER 4) 0 '2')) () 1 0 0 ())) PUBLIC ())
22 't_orbarc' 's_stdorbit_t' 14 ((DERIVED UNKNOWN UNKNOWN UNKNOWN NONE
NONE) (UNKNOWN) 0 0 () () () '' ((57 'sys' (CHARACTER 1 ((CONSTANT (
INTEGER 4) 0 '1'))) () () 0 0 0 (CONSTANT (CHARACTER 1 ((CONSTANT (
INTEGER 4) 0 '1'))) 0 1 'G')) (58 'svn' (INTEGER 4) () () 0 0 0 (
CONSTANT (INTEGER 4) 0 '0')) (59 'man' (INTEGER 4) () () 0 0 0 (
CONSTANT (INTEGER 4) 0 '0')) (60 'twin' (DERIVED 61) () () 0 0 0 ()) (
62 'moddesc' (DERIVED 20) (1 DEFERRED () ()) () 1 1 0 (NULL (DERIVED 20)
1)) (63 'orbint' (DERIVED 64) (1 DEFERRED () ()) () 1 1 0 (NULL (
DERIVED 64) 1)) (65 'stoch' (DERIVED 28) (1 DEFERRED () ()) () 1 1 0 (
NULL (DERIVED 28) 1))) PUBLIC ())
64 't_orbint' 's_stdorbit_t' 14 ((DERIVED UNKNOWN UNKNOWN UNKNOWN NONE
NONE) (UNKNOWN) 0 0 () () () '' ((66 'left' (REAL 8) () () 0 0 0 (
CONSTANT (REAL 8) 0 '0' 0 0)) (67 'right' (REAL 8) () () 0 0 0 (
CONSTANT (REAL 8) 0 '0' 0 0)) (68 'shadow' (LOGICAL 4) () () 0 0 0 ()) (
69 'hh' (REAL 8) () () 0 0 0 ()) (70 't0' (REAL 8) () () 0 0 0 ()) (71
'qq' (INTEGER 4) () () 0 0 0 ()) (72 'rcoe' (REAL 8) (2 DEFERRED () () ()
()) () 1 1 0 (NULL (REAL 8) 2)) (73 'drdecoe' (REAL 8) (3 DEFERRED () ()
() () () ()) () 1 1 0 (NULL (REAL 8) 3)) (74 'drdscoe' (REAL 8) (3
DEFERRED () () () () () ()) () 1 1 0 (NULL (REAL 8) 3))) PUBLIC ())
61 't_timwin' 'm_epoch' 14 ((DERIVED UNKNOWN UNKNOWN UNKNOWN NONE NONE)
(UNKNOWN) 0 0 () () () '' ((75 't' (DERIVED 76) (1 EXPLICIT (CONSTANT (
INTEGER 4) 0 '1') (CONSTANT (INTEGER 4) 0 '2')) () 1 0 0 ())) PUBLIC ())
76 't_epoch' 'm_epoch' 14 ((DERIVED UNKNOWN UNKNOWN UNKNOWN NONE NONE) (
UNKNOWN) 0 0 () () () '' ((77 'day' (INTEGER 4) () () 0 0 0 ()) (78 'frac'
(REAL 8) () () 0 0 0 ())) PUBLIC ())
20 't_key' 'm_bern' 14 ((DERIVED UNKNOWN UNKNOWN UNKNOWN NONE NONE) (
UNKNOWN) 0 0 () () () '' ((79 'name' (CHARACTER 1 ((CONSTANT (INTEGER 4)
0 '32'))) () () 0 0 0 ()) (80 'value' (CHARACTER 1 ((CONSTANT (INTEGER 4)
0 '255'))) (1 DEFERRED () ()) () 1 1 0 ())) PUBLIC ())
11 'satpos' '' 14 ((VARIABLE UNKNOWN UNKNOWN UNKNOWN NONE NONE DIMENSION
DUMMY) (DERIVED 81) 0 0 () (1 ASSUMED_SHAPE () ()) () '' () ())
81 't_satpos' 's_stdorbit_t' 14 ((DERIVED UNKNOWN UNKNOWN UNKNOWN NONE
NONE) (UNKNOWN) 0 0 () () () '' ((82 'sys' (CHARACTER 1 ((CONSTANT (
INTEGER 4) 0 '1'))) () () 0 0 0 (CONSTANT (CHARACTER 1 ((CONSTANT (
INTEGER 4) 0 '1'))) 0 1 'G')) (83 'svn' (INTEGER 4) () () 0 0 0 (
CONSTANT (INTEGER 4) 0 '0')) (84 'epoch' (DERIVED 76) () () 0 0 0 ()) (
85 'xv' (REAL 8) (2 DEFERRED () () () ()) () 1 1 0 (NULL (REAL 8) 2)) (
86 'dxvdele' (REAL 8) (3 DEFERRED () () () () () ()) () 1 1 0 (NULL (
REAL 8) 3)) (87 'dxvdp' (REAL 8) (2 DEFERRED () () () ()) () 1 1 0 (
NULL (REAL 8) 2))) PUBLIC ())
10 'deledp' '' 14 ((VARIABLE UNKNOWN UNKNOWN UNKNOWN NONE NONE DIMENSION
DUMMY) (REAL 8) 0 0 () (2 ASSUMED_SHAPE () () () ()) () '' () ())
9 'tmjd' '' 14 ((VARIABLE UNKNOWN UNKNOWN UNKNOWN NONE NONE DUMMY) (
REAL 8) 0 0 () () () '' () ())
8 'tshad' '' 14 ((VARIABLE UNKNOWN UNKNOWN UNKNOWN NONE NONE DIMENSION
DUMMY) (REAL 8) 0 0 () (2 ASSUMED_SHAPE () () () ()) () '' () ())
7 'nshad' '' 14 ((VARIABLE UNKNOWN UNKNOWN UNKNOWN NONE NONE DUMMY) (
INTEGER 4) 0 0 () () () '' () ())
6 'stpvar' '' 14 ((VARIABLE UNKNOWN UNKNOWN UNKNOWN NONE NONE DUMMY) (
REAL 8) 0 0 () () () '' () ())
5 'qvar' '' 14 ((VARIABLE UNKNOWN UNKNOWN UNKNOWN NONE NONE DUMMY) (
INTEGER 4) 0 0 () () () '' () ())
4 'iter' '' 14 ((VARIABLE UNKNOWN UNKNOWN UNKNOWN NONE NONE DUMMY) (
INTEGER 4) 0 0 () () () '' () ())
3 'act_sat' '' 14 ((VARIABLE UNKNOWN UNKNOWN UNKNOWN NONE NONE DUMMY) (
INTEGER 4) 0 0 () () () '' () ())
)

('ni_dynpartial' 0 2 's_ni_dynpartial' 0 13)
