G95 module created on Thu Jun 25 17:43:13 2020 from ./.fpp/NQUADR.f
If you edit this, you'll get what you deserve.
module-version 9
(() () () () () () () () () () () () () () () () () () () () ())

()

()

()

()

(2 'nquadr' 's_nquadr' 1 ((PROCEDURE UNKNOWN MODULE-PROC DECL NONE NONE
SUBROUTINE) (PROCEDURE 0) 0 0 (3 NONE 4 NONE 5 NONE 6 NONE 7 NONE 8 NONE
9 NONE 10 NONE 11 NONE 12 NONE 13 NONE 14 NONE 15 NONE 16 NONE) () () ''
() ())
17 's_nquadr' 's_nquadr' 1 ((MODULE UNKNOWN UNKNOWN UNKNOWN NONE NONE) (
UNKNOWN) 0 0 () () () '' () ())
16 'act_sat' '' 18 ((VARIABLE UNKNOWN UNKNOWN UNKNOWN NONE NONE OPTIONAL
DUMMY) (INTEGER 4) 0 0 () () () '' () ())
15 'stdorb' '' 18 ((VARIABLE UNKNOWN UNKNOWN UNKNOWN NONE NONE DIMENSION
OPTIONAL DUMMY) (DERIVED 19) 0 0 () (1 ASSUMED_SHAPE () ()) () '' () ())
19 't_stdorb' 's_stdorbit_t' 18 ((DERIVED UNKNOWN UNKNOWN UNKNOWN NONE
NONE) (UNKNOWN) 0 0 () () () '' ((20 'version' (INTEGER 4) () () 0 0 0 (
CONSTANT (INTEGER 4) 0 '2')) (21 'title' (CHARACTER 1 ((CONSTANT (
INTEGER 4) 0 '255'))) () () 0 0 0 (CONSTANT (CHARACTER 1 ((CONSTANT (
INTEGER 4) 0 '255'))) 0 255
'                                                                                                                                                                                                                                                               '))
(22 'useoldgetorb' (LOGICAL 4) () () 0 0 0 (CONSTANT (LOGICAL 4) 0 0)) (
23 'moddesc' (DERIVED 24) (1 DEFERRED () ()) () 1 1 0 (NULL (DERIVED 24)
1)) (25 'orbarc' (DERIVED 26) (1 DEFERRED () ()) () 1 1 0 (NULL (
DERIVED 26) 1)) (27 'par' (DERIVED 28) (1 DEFERRED () ()) () 1 1 0 (
NULL (DERIVED 28) 1)) (29 'estpar' (DERIVED 30) (1 DEFERRED () ()) () 1
1 0 (NULL (DERIVED 30) 1)) (31 'eststc' (DERIVED 32) (1 DEFERRED () ())
() 1 1 0 (NULL (DERIVED 32) 1)) (33 'orbarcpart' (DERIVED 26) (1
DEFERRED () ()) () 1 1 0 (NULL (DERIVED 26) 1))) PUBLIC ())
32 't_stoch' 's_stdorbit_t' 18 ((DERIVED UNKNOWN UNKNOWN UNKNOWN NONE
NONE) (UNKNOWN) 0 0 () () () '' ((34 'typ' (CHARACTER 1 ((CONSTANT (
INTEGER 4) 0 '1'))) () () 0 0 0 ()) (35 'comp' (CHARACTER 1 ((CONSTANT (
INTEGER 4) 0 '1'))) () () 0 0 0 ()) (36 'left' (REAL 8) () () 0 0 0 (
CONSTANT (REAL 8) 0 '0' 0 0)) (37 'right' (REAL 8) () () 0 0 0 (
CONSTANT (REAL 8) 0 '0' 0 0)) (38 'value' (REAL 8) () () 0 0 0 (
CONSTANT (REAL 8) 0 '0' 0 0)) (39 'deds' (REAL 8) (1 EXPLICIT (CONSTANT
(INTEGER 4) 0 '1') (CONSTANT (INTEGER 4) 0 '6')) () 1 0 0 (CONSTANT (
REAL 8) 0 '0' 0 0)) (40 'de' (REAL 8) (1 EXPLICIT (CONSTANT (INTEGER 4)
0 '1') (CONSTANT (INTEGER 4) 0 '6')) () 1 0 0 (CONSTANT (REAL 8) 0 '0' 0
0))) PUBLIC ())
30 't_estpar' 's_stdorbit_t' 18 ((DERIVED UNKNOWN UNKNOWN UNKNOWN NONE
NONE) (UNKNOWN) 0 0 () () () '' ((41 'locq' (INTEGER 4) (1 EXPLICIT (
CONSTANT (INTEGER 4) 0 '1') (CONSTANT (INTEGER 4) 0 '7')) () 1 0 0 (
CONSTANT (INTEGER 4) 0 '0')) (42 'name' (CHARACTER 1 ((CONSTANT (
INTEGER 4) 0 '16'))) () () 0 0 0 (CONSTANT (CHARACTER 1 ((CONSTANT (
INTEGER 4) 0 '16'))) 0 16 '                ')) (43 'time' (DERIVED 44) ()
() 0 0 0 ()) (45 'x0' (REAL 8) () () 0 0 0 (CONSTANT (REAL 8) 0 '0' 0 0))
(46 'dx' (REAL 8) () () 0 0 0 (CONSTANT (REAL 8) 0 '0' 0 0)) (47 'scale'
(REAL 8) () () 0 0 0 (CONSTANT (REAL 8) 0 '4503599627370496' 0 1023)))
PUBLIC ())
44 't_time' 'm_time' 18 ((DERIVED UNKNOWN UNKNOWN UNKNOWN NONE NONE
SEQUENCE) (UNKNOWN) 0 0 () () () '' ((48 'mean' (REAL 8) () () 0 0 0 ())
(49 'half' (REAL 8) () () 0 0 0 ())) PUBLIC ())
28 't_par' 'd_par' 18 ((DERIVED UNKNOWN UNKNOWN UNKNOWN NONE NONE) (
UNKNOWN) 0 0 () () () '' ((50 'locq' (INTEGER 4) (1 EXPLICIT (CONSTANT (
INTEGER 4) 0 '1') (CONSTANT (INTEGER 4) 0 '7')) () 1 0 0 ()) (51 'name'
(CHARACTER 1 ((CONSTANT (INTEGER 4) 0 '20'))) () () 0 0 0 ()) (52 'time'
(DERIVED 44) () () 0 0 0 ()) (53 'x0' (REAL 8) () () 0 0 0 ()) (54 'scale'
(REAL 8) () () 0 0 0 ()) (55 'techn' (CHARACTER 1 ((CONSTANT (INTEGER 4)
0 '1'))) (1 EXPLICIT (CONSTANT (INTEGER 4) 0 '1') (CONSTANT (INTEGER 4)
0 '2')) () 1 0 0 ()) (56 'obstim' (DERIVED 57) () () 0 0 0 ()) (58 'type'
(CHARACTER 1 ((CONSTANT (INTEGER 4) 0 '2'))) () () 0 0 0 ()) (59 'omega'
(REAL 8) () () 0 0 0 ())) PUBLIC ())
57 't_timint' 'm_time' 18 ((DERIVED UNKNOWN UNKNOWN UNKNOWN NONE NONE) (
UNKNOWN) 0 0 () () () '' ((60 't' (REAL 8) (1 EXPLICIT (CONSTANT (
INTEGER 4) 0 '1') (CONSTANT (INTEGER 4) 0 '2')) () 1 0 0 ())) PUBLIC ())
26 't_orbarc' 's_stdorbit_t' 18 ((DERIVED UNKNOWN UNKNOWN UNKNOWN NONE
NONE) (UNKNOWN) 0 0 () () () '' ((61 'sys' (CHARACTER 1 ((CONSTANT (
INTEGER 4) 0 '1'))) () () 0 0 0 (CONSTANT (CHARACTER 1 ((CONSTANT (
INTEGER 4) 0 '1'))) 0 1 'G')) (62 'svn' (INTEGER 4) () () 0 0 0 (
CONSTANT (INTEGER 4) 0 '0')) (63 'man' (INTEGER 4) () () 0 0 0 (
CONSTANT (INTEGER 4) 0 '0')) (64 'twin' (DERIVED 65) () () 0 0 0 ()) (
66 'moddesc' (DERIVED 24) (1 DEFERRED () ()) () 1 1 0 (NULL (DERIVED 24)
1)) (67 'orbint' (DERIVED 68) (1 DEFERRED () ()) () 1 1 0 (NULL (
DERIVED 68) 1)) (69 'stoch' (DERIVED 32) (1 DEFERRED () ()) () 1 1 0 (
NULL (DERIVED 32) 1))) PUBLIC ())
68 't_orbint' 's_stdorbit_t' 18 ((DERIVED UNKNOWN UNKNOWN UNKNOWN NONE
NONE) (UNKNOWN) 0 0 () () () '' ((70 'left' (REAL 8) () () 0 0 0 (
CONSTANT (REAL 8) 0 '0' 0 0)) (71 'right' (REAL 8) () () 0 0 0 (
CONSTANT (REAL 8) 0 '0' 0 0)) (72 'shadow' (LOGICAL 4) () () 0 0 0 ()) (
73 'hh' (REAL 8) () () 0 0 0 ()) (74 't0' (REAL 8) () () 0 0 0 ()) (75
'qq' (INTEGER 4) () () 0 0 0 ()) (76 'rcoe' (REAL 8) (2 DEFERRED () () ()
()) () 1 1 0 (NULL (REAL 8) 2)) (77 'drdecoe' (REAL 8) (3 DEFERRED () ()
() () () ()) () 1 1 0 (NULL (REAL 8) 3)) (78 'drdscoe' (REAL 8) (3
DEFERRED () () () () () ()) () 1 1 0 (NULL (REAL 8) 3))) PUBLIC ())
65 't_timwin' 'm_epoch' 18 ((DERIVED UNKNOWN UNKNOWN UNKNOWN NONE NONE)
(UNKNOWN) 0 0 () () () '' ((79 't' (DERIVED 80) (1 EXPLICIT (CONSTANT (
INTEGER 4) 0 '1') (CONSTANT (INTEGER 4) 0 '2')) () 1 0 0 ())) PUBLIC ())
80 't_epoch' 'm_epoch' 18 ((DERIVED UNKNOWN UNKNOWN UNKNOWN NONE NONE) (
UNKNOWN) 0 0 () () () '' ((81 'day' (INTEGER 4) () () 0 0 0 ()) (82 'frac'
(REAL 8) () () 0 0 0 ())) PUBLIC ())
24 't_key' 'm_bern' 18 ((DERIVED UNKNOWN UNKNOWN UNKNOWN NONE NONE) (
UNKNOWN) 0 0 () () () '' ((83 'name' (CHARACTER 1 ((CONSTANT (INTEGER 4)
0 '32'))) () () 0 0 0 ()) (84 'value' (CHARACTER 1 ((CONSTANT (INTEGER 4)
0 '255'))) (1 DEFERRED () ()) () 1 1 0 ())) PUBLIC ())
14 'satpos' '' 18 ((VARIABLE INOUT UNKNOWN UNKNOWN NONE NONE DIMENSION
OPTIONAL DUMMY) (DERIVED 85) 0 0 () (1 ASSUMED_SHAPE () ()) () '' () ())
85 't_satpos' 's_stdorbit_t' 18 ((DERIVED UNKNOWN UNKNOWN UNKNOWN NONE
NONE) (UNKNOWN) 0 0 () () () '' ((86 'sys' (CHARACTER 1 ((CONSTANT (
INTEGER 4) 0 '1'))) () () 0 0 0 (CONSTANT (CHARACTER 1 ((CONSTANT (
INTEGER 4) 0 '1'))) 0 1 'G')) (87 'svn' (INTEGER 4) () () 0 0 0 (
CONSTANT (INTEGER 4) 0 '0')) (88 'epoch' (DERIVED 80) () () 0 0 0 ()) (
89 'xv' (REAL 8) (2 DEFERRED () () () ()) () 1 1 0 (NULL (REAL 8) 2)) (
90 'dxvdele' (REAL 8) (3 DEFERRED () () () () () ()) () 1 1 0 (NULL (
REAL 8) 3)) (91 'dxvdp' (REAL 8) (2 DEFERRED () () () ()) () 1 1 0 (
NULL (REAL 8) 2))) PUBLIC ())
13 'iret' '' 18 ((VARIABLE UNKNOWN UNKNOWN UNKNOWN NONE NONE DUMMY) (
INTEGER 4) 0 0 () () () '' () ())
12 'coef' '' 18 ((VARIABLE UNKNOWN UNKNOWN UNKNOWN NONE NONE DIMENSION
DUMMY) (REAL 8) 0 0 () (2 ASSUMED_SIZE (CONSTANT (INTEGER 4) 0 '1') (
VARIABLE (INTEGER 4) 0 3 ()) (CONSTANT (INTEGER 4) 0 '1') ()) () '' () ())
11 'h' '' 18 ((VARIABLE UNKNOWN UNKNOWN UNKNOWN NONE NONE DUMMY) (REAL 8)
0 0 () () () '' () ())
10 't0' '' 18 ((VARIABLE UNKNOWN UNKNOWN UNKNOWN NONE NONE DUMMY) (REAL
8) 0 0 () () () '' () ())
9 'value' '' 18 ((VARIABLE UNKNOWN UNKNOWN UNKNOWN NONE NONE DIMENSION
DUMMY) (REAL 8) 0 0 () (1 ASSUMED_SIZE (CONSTANT (INTEGER 4) 0 '1') ())
() '' () ())
8 'valini' '' 18 ((VARIABLE UNKNOWN UNKNOWN UNKNOWN NONE NONE DIMENSION
DUMMY) (REAL 8) 0 0 () (1 ASSUMED_SIZE (CONSTANT (INTEGER 4) 0 '1') ())
() '' () ())
7 'tb' '' 18 ((VARIABLE UNKNOWN UNKNOWN UNKNOWN NONE NONE DUMMY) (REAL 8)
0 0 () () () '' () ())
6 'ta' '' 18 ((VARIABLE UNKNOWN UNKNOWN UNKNOWN NONE NONE DUMMY) (REAL 8)
0 0 () () () '' () ())
5 'deriv' '' 18 ((PROCEDURE UNKNOWN UNKNOWN BODY NONE NONE DUMMY
SUBROUTINE) (PROCEDURE 0) 92 0 (93 NONE 94 NONE 95 NONE 96 NONE 97 NONE)
() () '' () ())
97 'act_sat' '' 92 ((VARIABLE UNKNOWN UNKNOWN UNKNOWN NONE NONE OPTIONAL
DUMMY) (INTEGER 4) 0 0 () () () '' () ())
96 'stdorb' '' 92 ((VARIABLE UNKNOWN UNKNOWN UNKNOWN NONE NONE DIMENSION
OPTIONAL DUMMY) (DERIVED 98) 0 0 () (1 ASSUMED_SHAPE () ()) () '' () ())
98 't_stdorb' 's_stdorbit_t' 92 ((DERIVED UNKNOWN UNKNOWN UNKNOWN NONE
NONE) (UNKNOWN) 0 0 () () () '' ((99 'version' (INTEGER 4) () () 0 0 0 (
CONSTANT (INTEGER 4) 0 '2')) (100 'title' (CHARACTER 1 ((CONSTANT (
INTEGER 4) 0 '255'))) () () 0 0 0 (CONSTANT (CHARACTER 1 ((CONSTANT (
INTEGER 4) 0 '255'))) 0 255
'                                                                                                                                                                                                                                                               '))
(101 'useoldgetorb' (LOGICAL 4) () () 0 0 0 (CONSTANT (LOGICAL 4) 0 0))
(102 'moddesc' (DERIVED 103) (1 DEFERRED () ()) () 1 1 0 (NULL (DERIVED
103) 1)) (104 'orbarc' (DERIVED 105) (1 DEFERRED () ()) () 1 1 0 (NULL (
DERIVED 105) 1)) (106 'par' (DERIVED 107) (1 DEFERRED () ()) () 1 1 0 (
NULL (DERIVED 107) 1)) (108 'estpar' (DERIVED 109) (1 DEFERRED () ()) ()
1 1 0 (NULL (DERIVED 109) 1)) (110 'eststc' (DERIVED 111) (1 DEFERRED ()
()) () 1 1 0 (NULL (DERIVED 111) 1)) (112 'orbarcpart' (DERIVED 105) (1
DEFERRED () ()) () 1 1 0 (NULL (DERIVED 105) 1))) PUBLIC ())
111 't_stoch' 's_stdorbit_t' 92 ((DERIVED UNKNOWN UNKNOWN UNKNOWN NONE
NONE) (UNKNOWN) 0 0 () () () '' ((113 'typ' (CHARACTER 1 ((CONSTANT (
INTEGER 4) 0 '1'))) () () 0 0 0 ()) (114 'comp' (CHARACTER 1 ((CONSTANT
(INTEGER 4) 0 '1'))) () () 0 0 0 ()) (115 'left' (REAL 8) () () 0 0 0 (
CONSTANT (REAL 8) 0 '0' 0 0)) (116 'right' (REAL 8) () () 0 0 0 (
CONSTANT (REAL 8) 0 '0' 0 0)) (117 'value' (REAL 8) () () 0 0 0 (
CONSTANT (REAL 8) 0 '0' 0 0)) (118 'deds' (REAL 8) (1 EXPLICIT (
CONSTANT (INTEGER 4) 0 '1') (CONSTANT (INTEGER 4) 0 '6')) () 1 0 0 (
CONSTANT (REAL 8) 0 '0' 0 0)) (119 'de' (REAL 8) (1 EXPLICIT (CONSTANT (
INTEGER 4) 0 '1') (CONSTANT (INTEGER 4) 0 '6')) () 1 0 0 (CONSTANT (
REAL 8) 0 '0' 0 0))) PUBLIC ())
109 't_estpar' 's_stdorbit_t' 92 ((DERIVED UNKNOWN UNKNOWN UNKNOWN NONE
NONE) (UNKNOWN) 0 0 () () () '' ((120 'locq' (INTEGER 4) (1 EXPLICIT (
CONSTANT (INTEGER 4) 0 '1') (CONSTANT (INTEGER 4) 0 '7')) () 1 0 0 (
CONSTANT (INTEGER 4) 0 '0')) (121 'name' (CHARACTER 1 ((CONSTANT (
INTEGER 4) 0 '16'))) () () 0 0 0 (CONSTANT (CHARACTER 1 ((CONSTANT (
INTEGER 4) 0 '16'))) 0 16 '                ')) (122 'time' (DERIVED 123)
() () 0 0 0 ()) (124 'x0' (REAL 8) () () 0 0 0 (CONSTANT (REAL 8) 0 '0'
0 0)) (125 'dx' (REAL 8) () () 0 0 0 (CONSTANT (REAL 8) 0 '0' 0 0)) (
126 'scale' (REAL 8) () () 0 0 0 (CONSTANT (REAL 8) 0 '4503599627370496'
0 1023))) PUBLIC ())
123 't_time' 'm_time' 92 ((DERIVED UNKNOWN UNKNOWN UNKNOWN NONE NONE
SEQUENCE) (UNKNOWN) 0 0 () () () '' ((127 'mean' (REAL 8) () () 0 0 0 ())
(128 'half' (REAL 8) () () 0 0 0 ())) PUBLIC ())
107 't_par' 'd_par' 92 ((DERIVED UNKNOWN UNKNOWN UNKNOWN NONE NONE) (
UNKNOWN) 0 0 () () () '' ((129 'locq' (INTEGER 4) (1 EXPLICIT (CONSTANT
(INTEGER 4) 0 '1') (CONSTANT (INTEGER 4) 0 '7')) () 1 0 0 ()) (130 'name'
(CHARACTER 1 ((CONSTANT (INTEGER 4) 0 '20'))) () () 0 0 0 ()) (131 'time'
(DERIVED 123) () () 0 0 0 ()) (132 'x0' (REAL 8) () () 0 0 0 ()) (133
'scale' (REAL 8) () () 0 0 0 ()) (134 'techn' (CHARACTER 1 ((CONSTANT (
INTEGER 4) 0 '1'))) (1 EXPLICIT (CONSTANT (INTEGER 4) 0 '1') (CONSTANT (
INTEGER 4) 0 '2')) () 1 0 0 ()) (135 'obstim' (DERIVED 136) () () 0 0 0
()) (137 'type' (CHARACTER 1 ((CONSTANT (INTEGER 4) 0 '2'))) () () 0 0 0
()) (138 'omega' (REAL 8) () () 0 0 0 ())) PUBLIC ())
136 't_timint' 'm_time' 92 ((DERIVED UNKNOWN UNKNOWN UNKNOWN NONE NONE)
(UNKNOWN) 0 0 () () () '' ((139 't' (REAL 8) (1 EXPLICIT (CONSTANT (
INTEGER 4) 0 '1') (CONSTANT (INTEGER 4) 0 '2')) () 1 0 0 ())) PUBLIC ())
105 't_orbarc' 's_stdorbit_t' 92 ((DERIVED UNKNOWN UNKNOWN UNKNOWN NONE
NONE) (UNKNOWN) 0 0 () () () '' ((140 'sys' (CHARACTER 1 ((CONSTANT (
INTEGER 4) 0 '1'))) () () 0 0 0 (CONSTANT (CHARACTER 1 ((CONSTANT (
INTEGER 4) 0 '1'))) 0 1 'G')) (141 'svn' (INTEGER 4) () () 0 0 0 (
CONSTANT (INTEGER 4) 0 '0')) (142 'man' (INTEGER 4) () () 0 0 0 (
CONSTANT (INTEGER 4) 0 '0')) (143 'twin' (DERIVED 144) () () 0 0 0 ()) (
145 'moddesc' (DERIVED 103) (1 DEFERRED () ()) () 1 1 0 (NULL (DERIVED
103) 1)) (146 'orbint' (DERIVED 147) (1 DEFERRED () ()) () 1 1 0 (NULL (
DERIVED 147) 1)) (148 'stoch' (DERIVED 111) (1 DEFERRED () ()) () 1 1 0
(NULL (DERIVED 111) 1))) PUBLIC ())
147 't_orbint' 's_stdorbit_t' 92 ((DERIVED UNKNOWN UNKNOWN UNKNOWN NONE
NONE) (UNKNOWN) 0 0 () () () '' ((149 'left' (REAL 8) () () 0 0 0 (
CONSTANT (REAL 8) 0 '0' 0 0)) (150 'right' (REAL 8) () () 0 0 0 (
CONSTANT (REAL 8) 0 '0' 0 0)) (151 'shadow' (LOGICAL 4) () () 0 0 0 ())
(152 'hh' (REAL 8) () () 0 0 0 ()) (153 't0' (REAL 8) () () 0 0 0 ()) (
154 'qq' (INTEGER 4) () () 0 0 0 ()) (155 'rcoe' (REAL 8) (2 DEFERRED ()
() () ()) () 1 1 0 (NULL (REAL 8) 2)) (156 'drdecoe' (REAL 8) (3
DEFERRED () () () () () ()) () 1 1 0 (NULL (REAL 8) 3)) (157 'drdscoe' (
REAL 8) (3 DEFERRED () () () () () ()) () 1 1 0 (NULL (REAL 8) 3)))
PUBLIC ())
144 't_timwin' 'm_epoch' 92 ((DERIVED UNKNOWN UNKNOWN UNKNOWN NONE NONE)
(UNKNOWN) 0 0 () () () '' ((158 't' (DERIVED 159) (1 EXPLICIT (CONSTANT
(INTEGER 4) 0 '1') (CONSTANT (INTEGER 4) 0 '2')) () 1 0 0 ())) PUBLIC ())
159 't_epoch' 'm_epoch' 92 ((DERIVED UNKNOWN UNKNOWN UNKNOWN NONE NONE)
(UNKNOWN) 0 0 () () () '' ((160 'day' (INTEGER 4) () () 0 0 0 ()) (161
'frac' (REAL 8) () () 0 0 0 ())) PUBLIC ())
103 't_key' 'm_bern' 92 ((DERIVED UNKNOWN UNKNOWN UNKNOWN NONE NONE) (
UNKNOWN) 0 0 () () () '' ((162 'name' (CHARACTER 1 ((CONSTANT (INTEGER 4)
0 '32'))) () () 0 0 0 ()) (163 'value' (CHARACTER 1 ((CONSTANT (INTEGER
4) 0 '255'))) (1 DEFERRED () ()) () 1 1 0 ())) PUBLIC ())
95 'satpos' '' 92 ((VARIABLE INOUT UNKNOWN UNKNOWN NONE NONE DIMENSION
OPTIONAL DUMMY) (DERIVED 164) 0 0 () (1 ASSUMED_SHAPE () ()) () '' () ())
164 't_satpos' 's_stdorbit_t' 92 ((DERIVED UNKNOWN UNKNOWN UNKNOWN NONE
NONE) (UNKNOWN) 0 0 () () () '' ((165 'sys' (CHARACTER 1 ((CONSTANT (
INTEGER 4) 0 '1'))) () () 0 0 0 (CONSTANT (CHARACTER 1 ((CONSTANT (
INTEGER 4) 0 '1'))) 0 1 'G')) (166 'svn' (INTEGER 4) () () 0 0 0 (
CONSTANT (INTEGER 4) 0 '0')) (167 'epoch' (DERIVED 159) () () 0 0 0 ())
(168 'xv' (REAL 8) (2 DEFERRED () () () ()) () 1 1 0 (NULL (REAL 8) 2))
(169 'dxvdele' (REAL 8) (3 DEFERRED () () () () () ()) () 1 1 0 (NULL (
REAL 8) 3)) (170 'dxvdp' (REAL 8) (2 DEFERRED () () () ()) () 1 1 0 (
NULL (REAL 8) 2))) PUBLIC ())
94 'rhs' '' 92 ((VARIABLE UNKNOWN UNKNOWN UNKNOWN NONE NONE DIMENSION
DUMMY) (REAL 8) 0 0 () (1 ASSUMED_SIZE (CONSTANT (INTEGER 4) 0 '1') ())
() '' () ())
93 'tmjd' '' 92 ((VARIABLE UNKNOWN UNKNOWN UNKNOWN NONE NONE DUMMY) (
REAL 8) 0 0 () () () '' () ())
4 'q' '' 18 ((VARIABLE UNKNOWN UNKNOWN UNKNOWN NONE NONE DUMMY) (
INTEGER 4) 0 0 () () () '' () ())
3 'idim' '' 18 ((VARIABLE UNKNOWN UNKNOWN UNKNOWN NONE NONE DUMMY) (
INTEGER 4) 0 0 () () () '' () ())
)

('nquadr' 0 2 's_nquadr' 0 17)
