G95 module created on Thu Jun 25 17:44:17 2020 from ./.fpp/OBSFMTFL.f90
If you edit this, you'll get what you deserve.
module-version 9
(() () () () () () () () () () () () () () () () () () () () ())

()

()

()

()

(2 'obsfmtfl' 's_obsfmtfl' 1 ((PROCEDURE UNKNOWN MODULE-PROC DECL NONE
NONE SUBROUTINE) (PROCEDURE 0) 0 0 (3 NONE 4 NONE) () () '' () ())
5 's_obsfmtfl' 's_obsfmtfl' 1 ((MODULE UNKNOWN UNKNOWN UNKNOWN NONE NONE)
(UNKNOWN) 0 0 () () () '' () ())
4 'filnam' '' 6 ((VARIABLE UNKNOWN UNKNOWN UNKNOWN NONE NONE DIMENSION
POINTER DUMMY) (CHARACTER 1 ((CONSTANT (INTEGER 4) 0 '32'))) 0 0 () (2
DEFERRED () () () ()) () '' () ())
3 'nfil' '' 6 ((VARIABLE UNKNOWN UNKNOWN UNKNOWN NONE NONE DUMMY) (
INTEGER 4) 0 0 () () () '' () ())
)

('obsfmtfl' 0 2 's_obsfmtfl' 0 5)
