G95 module created on Thu Jun 25 17:45:14 2020 from ./.fpp/OGSUMF.f
If you edit this, you'll get what you deserve.
module-version 9
(() () () () () () () () () () () () () () () () () () () () ())

()

()

()

()

(2 'ogsumf' 's_ogsumf' 1 ((PROCEDURE UNKNOWN MODULE-PROC DECL NONE NONE
SUBROUTINE) (PROCEDURE 0) 0 0 (3 NONE 4 NONE 5 NONE 6 NONE 7 NONE 8 NONE
9 NONE 10 NONE 11 NONE 12 NONE 13 NONE) () () '' () ())
14 's_ogsumf' 's_ogsumf' 1 ((MODULE UNKNOWN UNKNOWN UNKNOWN NONE NONE) (
UNKNOWN) 0 0 () () () '' () ())
13 'idasum' '' 15 ((VARIABLE UNKNOWN UNKNOWN UNKNOWN NONE NONE DIMENSION
DUMMY) (INTEGER 4) 0 0 () (2 EXPLICIT (CONSTANT (INTEGER 4) 0 '1') (
VARIABLE (INTEGER 4) 0 3 ()) (CONSTANT (INTEGER 4) 0 '1') (VARIABLE (
INTEGER 4) 0 4 ())) () '' () ())
12 'ieclip' '' 15 ((VARIABLE UNKNOWN UNKNOWN UNKNOWN NONE NONE DIMENSION
DUMMY) (INTEGER 4) 0 0 () (2 EXPLICIT (CONSTANT (INTEGER 4) 0 '1') (
VARIABLE (INTEGER 4) 0 3 ()) (CONSTANT (INTEGER 4) 0 '1') (CONSTANT (
INTEGER 4) 0 '130')) () '' () ())
11 'rmssum' '' 15 ((VARIABLE UNKNOWN UNKNOWN UNKNOWN NONE NONE DIMENSION
DUMMY) (REAL 8) 0 0 () (3 EXPLICIT (CONSTANT (INTEGER 4) 0 '1') (
VARIABLE (INTEGER 4) 0 3 ()) (CONSTANT (INTEGER 4) 0 '1') (VARIABLE (
INTEGER 4) 0 4 ()) (CONSTANT (INTEGER 4) 0 '1') (CONSTANT (INTEGER 4) 0
'130')) () '' () ())
10 'numsum' '' 15 ((VARIABLE UNKNOWN UNKNOWN UNKNOWN NONE NONE DIMENSION
DUMMY) (INTEGER 4) 0 0 () (3 EXPLICIT (CONSTANT (INTEGER 4) 0 '1') (
VARIABLE (INTEGER 4) 0 3 ()) (CONSTANT (INTEGER 4) 0 '1') (VARIABLE (
INTEGER 4) 0 4 ()) (CONSTANT (INTEGER 4) 0 '1') (CONSTANT (INTEGER 4) 0
'130')) () '' () ())
9 'numsat' '' 15 ((VARIABLE UNKNOWN UNKNOWN UNKNOWN NONE NONE DIMENSION
DUMMY) (INTEGER 4) 0 0 () (2 EXPLICIT (CONSTANT (INTEGER 4) 0 '1') (
CONSTANT (INTEGER 4) 0 '130') (CONSTANT (INTEGER 4) 0 '1') (VARIABLE (
INTEGER 4) 0 3 ())) () '' () ())
8 'nsatel' '' 15 ((VARIABLE UNKNOWN UNKNOWN UNKNOWN NONE NONE DIMENSION
DUMMY) (INTEGER 4) 0 0 () (1 EXPLICIT (CONSTANT (INTEGER 4) 0 '1') (
VARIABLE (INTEGER 4) 0 3 ())) () '' () ())
7 'nfil' '' 15 ((VARIABLE UNKNOWN UNKNOWN UNKNOWN NONE NONE DUMMY) (
INTEGER 4) 0 0 () () () '' () ())
6 'tfl' '' 15 ((VARIABLE UNKNOWN UNKNOWN UNKNOWN NONE NONE DIMENSION
DUMMY) (REAL 8) 0 0 () (2 ASSUMED_SIZE (CONSTANT (INTEGER 4) 0 '1') (
CONSTANT (INTEGER 4) 0 '2') (CONSTANT (INTEGER 4) 0 '1') ()) () '' () ())
5 'narc' '' 15 ((VARIABLE UNKNOWN UNKNOWN UNKNOWN NONE NONE DUMMY) (
INTEGER 4) 0 0 () () () '' () ())
4 'maxfil' '' 15 ((VARIABLE UNKNOWN UNKNOWN UNKNOWN NONE NONE DUMMY) (
INTEGER 4) 0 0 () () () '' () ())
3 'maxarc' '' 15 ((VARIABLE UNKNOWN UNKNOWN UNKNOWN NONE NONE DUMMY) (
INTEGER 4) 0 0 () () () '' () ())
)

('ogsumf' 0 2 's_ogsumf' 0 14)
