G95 module created on Thu Jun 25 17:45:01 2020 from ./.fpp/PARBINS.f90
If you edit this, you'll get what you deserve.
module-version 9
(() () () () () () () () () () () () () () () () () () () () ())

()

()

()

()

(2 'parbins' 's_parbins' 1 ((PROCEDURE UNKNOWN MODULE-PROC DECL NONE
NONE SUBROUTINE) (PROCEDURE 0) 0 0 (3 NONE 4 NONE 5 NONE) () () '' () ())
6 's_parbins' 's_parbins' 1 ((MODULE UNKNOWN UNKNOWN UNKNOWN NONE NONE)
(UNKNOWN) 0 0 () () () '' () ())
5 'ifil' '' 7 ((VARIABLE UNKNOWN UNKNOWN UNKNOWN NONE NONE DUMMY) (
INTEGER 4) 0 0 () () () '' () ())
4 'req' '' 7 ((VARIABLE IN UNKNOWN UNKNOWN NONE NONE DUMMY) (DERIVED 8)
0 0 () () () '' () ())
8 't_req' 'p_addneq' 7 ((DERIVED UNKNOWN UNKNOWN UNKNOWN NONE NONE) (
UNKNOWN) 0 0 () () () '' ((9 'locq' (INTEGER 4) (1 EXPLICIT (CONSTANT (
INTEGER 4) 0 '1') (CONSTANT (INTEGER 4) 0 '7')) () 1 0 0 ()) (10 'name'
(CHARACTER 1 ((CONSTANT (INTEGER 4) 0 '20'))) () () 0 0 0 ()) (11 'timint'
(DERIVED 12) () () 0 0 0 ()) (13 'type' (CHARACTER 1 ((CONSTANT (
INTEGER 4) 0 '2'))) () () 0 0 0 (CONSTANT (CHARACTER 1 ((CONSTANT (
INTEGER 4) 0 '2'))) 0 2 '  ')) (14 'omega' (REAL 8) () () 0 0 0 (
CONSTANT (REAL 8) 0 '0' 0 0))) PUBLIC ())
12 't_timint' 'm_time' 7 ((DERIVED UNKNOWN UNKNOWN UNKNOWN NONE NONE) (
UNKNOWN) 0 0 () () () '' ((15 't' (REAL 8) (1 EXPLICIT (CONSTANT (
INTEGER 4) 0 '1') (CONSTANT (INTEGER 4) 0 '2')) () 1 0 0 ())) PUBLIC ())
3 'neq' '' 7 ((VARIABLE UNKNOWN UNKNOWN UNKNOWN NONE NONE DUMMY) (
DERIVED 16) 0 0 () () () '' () ())
16 't_neq' 'd_neq' 7 ((DERIVED UNKNOWN UNKNOWN UNKNOWN NONE NONE) (
UNKNOWN) 0 0 () () () '' ((17 'version' (INTEGER 4) () () 0 0 0 ()) (18
'misc' (DERIVED 19) () () 0 0 0 ()) (20 'par' (DERIVED 21) (1 DEFERRED ()
()) () 1 1 0 ()) (22 'anor' (REAL 8) (1 DEFERRED () ()) () 1 1 0 ()) (
23 'bnor' (REAL 8) (1 DEFERRED () ()) () 1 1 0 ()) (24 'xxx' (REAL 8) (
1 DEFERRED () ()) () 1 1 0 ())) PUBLIC ())
21 't_par' 'd_par' 7 ((DERIVED UNKNOWN UNKNOWN UNKNOWN NONE NONE) (
UNKNOWN) 0 0 () () () '' ((25 'locq' (INTEGER 4) (1 EXPLICIT (CONSTANT (
INTEGER 4) 0 '1') (CONSTANT (INTEGER 4) 0 '7')) () 1 0 0 ()) (26 'name'
(CHARACTER 1 ((CONSTANT (INTEGER 4) 0 '20'))) () () 0 0 0 ()) (27 'time'
(DERIVED 28) () () 0 0 0 ()) (29 'x0' (REAL 8) () () 0 0 0 ()) (30 'scale'
(REAL 8) () () 0 0 0 ()) (31 'techn' (CHARACTER 1 ((CONSTANT (INTEGER 4)
0 '1'))) (1 EXPLICIT (CONSTANT (INTEGER 4) 0 '1') (CONSTANT (INTEGER 4)
0 '2')) () 1 0 0 ()) (32 'obstim' (DERIVED 12) () () 0 0 0 ()) (33 'type'
(CHARACTER 1 ((CONSTANT (INTEGER 4) 0 '2'))) () () 0 0 0 ()) (34 'omega'
(REAL 8) () () 0 0 0 ())) PUBLIC ())
28 't_time' 'm_time' 7 ((DERIVED UNKNOWN UNKNOWN UNKNOWN NONE NONE
SEQUENCE) (UNKNOWN) 0 0 () () () '' ((35 'mean' (REAL 8) () () 0 0 0 ())
(36 'half' (REAL 8) () () 0 0 0 ())) PUBLIC ())
19 't_misc' 'd_neq' 7 ((DERIVED UNKNOWN UNKNOWN UNKNOWN NONE NONE) (
UNKNOWN) 0 0 () () () '' ((37 'title' (CHARACTER 1 ((CONSTANT (INTEGER 4)
0 '132'))) (1 EXPLICIT (CONSTANT (INTEGER 4) 0 '1') (CONSTANT (INTEGER 4)
0 '2')) () 1 0 0 ()) (38 'datum' (CHARACTER 1 ((CONSTANT (INTEGER 4) 0
'16'))) () () 0 0 0 ()) (39 'nutmod' (CHARACTER 1 ((CONSTANT (INTEGER 4)
0 '16'))) () () 0 0 0 ()) (40 'submod' (CHARACTER 1 ((CONSTANT (INTEGER
4) 0 '16'))) () () 0 0 0 ()) (41 'orbfil' (CHARACTER 1 ((CONSTANT (
INTEGER 4) 0 '32'))) (1 EXPLICIT (CONSTANT (INTEGER 4) 0 '1') (CONSTANT
(INTEGER 4) 0 '2')) () 1 0 0 ()) (42 'gravfil' (CHARACTER 1 ((CONSTANT (
INTEGER 4) 0 '32'))) () () 0 0 0 ()) (43 'nobs' (REAL 8) () () 0 0 0 ())
(44 'npar' (INTEGER 4) () () 0 0 0 ()) (45 'ltpl' (REAL 8) () () 0 0 0 ())
(46 'nparms' (REAL 8) () () 0 0 0 ()) (47 'npseu' (INTEGER 4) () () 0 0
0 ()) (48 'npseuel' (INTEGER 4) () () 0 0 0 ()) (49 'nftot' (INTEGER 4)
() () 0 0 0 ()) (50 'nsmpnq' (INTEGER 4) () () 0 0 0 ()) (51 'ielvnq' (
INTEGER 4) () () 0 0 0 ()) (52 'itropo' (INTEGER 4) () () 0 0 0 ()) (53
'iextra' (INTEGER 4) () () 0 0 0 ()) (54 'itrmap' (INTEGER 4) () () 0 0
0 ()) (55 'itrgrd' (INTEGER 4) () () 0 0 0 ()) (56 'nanoff' (INTEGER 4)
() () 0 0 0 ()) (57 'nsaoff' (INTEGER 4) (1 EXPLICIT (CONSTANT (INTEGER
4) 0 '1') (CONSTANT (INTEGER 4) 0 '260')) () 1 0 0 ()) (58 'satoff' (
INTEGER 4) (2 EXPLICIT (CONSTANT (INTEGER 4) 0 '1') (CONSTANT (INTEGER 4)
0 '130') (CONSTANT (INTEGER 4) 0 '1') (CONSTANT (INTEGER 4) 0 '260')) ()
1 0 0 ()) (59 'nstat_sinex' (INTEGER 4) () () 0 0 0 ()) (60 'sinex' (
DERIVED 61) (1 EXPLICIT (CONSTANT (INTEGER 4) 0 '1') (CONSTANT (INTEGER
4) 0 '2000')) () 1 0 0 ()) (62 'grdneq' (CHARACTER 1 ((CONSTANT (
INTEGER 4) 0 '12'))) (1 EXPLICIT (CONSTANT (INTEGER 4) 0 '1') (CONSTANT
(INTEGER 4) 0 '3')) () 1 0 0 ()) (63 'nobst' (INTEGER 4) () () 0 0 0 ())
(64 'obst' (DERIVED 65) (1 EXPLICIT (CONSTANT (INTEGER 4) 0 '1') (
CONSTANT (INTEGER 4) 0 '30000')) () 1 0 0 ())) PUBLIC ())
65 't_obst' 'd_neq' 7 ((DERIVED UNKNOWN UNKNOWN UNKNOWN NONE NONE) (
UNKNOWN) 0 0 () () () '' ((66 'obstyp' (CHARACTER 1 ((CONSTANT (INTEGER
4) 0 '3'))) (1 EXPLICIT (CONSTANT (INTEGER 4) 0 '1') (CONSTANT (INTEGER
4) 0 '4')) () 1 0 0 ())) PUBLIC ())
61 't_sinex' 'd_neq' 7 ((DERIVED UNKNOWN UNKNOWN UNKNOWN NONE NONE) (
UNKNOWN) 0 0 () () () '' ((67 'timint' (DERIVED 12) () () 0 0 0 ()) (68
'stname' (CHARACTER 1 ((CONSTANT (INTEGER 4) 0 '16'))) () () 0 0 0 ()) (
69 'antecc' (REAL 8) (1 EXPLICIT (CONSTANT (INTEGER 4) 0 '1') (CONSTANT
(INTEGER 4) 0 '3')) () 1 0 0 ()) (70 'antpcv' (DERIVED 71) (1 EXPLICIT (
CONSTANT (INTEGER 4) 0 '0') (CONSTANT (INTEGER 4) 0 '5')) () 1 0 0 ()) (
72 'antnum' (INTEGER 4) () () 0 0 0 ()) (73 'antsta' (CHARACTER 1 ((
CONSTANT (INTEGER 4) 0 '20'))) () () 0 0 0 ()) (74 'antrec' (CHARACTER 1
((CONSTANT (INTEGER 4) 0 '20'))) () () 0 0 0 ())) PUBLIC ())
71 't_sinex_pcv' 'd_neq' 7 ((DERIVED UNKNOWN UNKNOWN UNKNOWN NONE NONE)
(UNKNOWN) 0 0 () () () '' ((75 'nfrq' (INTEGER 4) () () 0 0 0 ()) (76
'antphs' (REAL 8) (2 EXPLICIT (CONSTANT (INTEGER 4) 0 '1') (CONSTANT (
INTEGER 4) 0 '3') (CONSTANT (INTEGER 4) 0 '1') (CONSTANT (INTEGER 4) 0 '2'))
() 1 0 0 ()) (77 'adopted' (INTEGER 4) () () 0 0 0 ()) (78 'individ' (
INTEGER 4) () () 0 0 0 ()) (79 'atxstr' (CHARACTER 1 ((CONSTANT (
INTEGER 4) 0 '10'))) () () 0 0 0 ())) PUBLIC ())
)

('parbins' 0 2 's_parbins' 0 6)
