G95 module created on Thu Jun 25 17:44:14 2020 from ./.fpp/PARTRANS2.f90
If you edit this, you'll get what you deserve.
module-version 9
(() () () () () () () () () () () () () () () () () () () () ())

()

()

()

()

(2 'partrans2' 's_partrans2' 1 ((PROCEDURE UNKNOWN MODULE-PROC DECL NONE
NONE SUBROUTINE) (PROCEDURE 0) 0 0 (3 NONE 4 NONE) () () '' () ())
5 's_partrans2' 's_partrans2' 1 ((MODULE UNKNOWN UNKNOWN UNKNOWN NONE
NONE) (UNKNOWN) 0 0 () () () '' () ())
4 'req' '' 6 ((VARIABLE IN UNKNOWN UNKNOWN NONE NONE DUMMY) (DERIVED 7)
0 0 () () () '' () ())
7 't_req' 'p_addneq' 6 ((DERIVED UNKNOWN UNKNOWN UNKNOWN NONE NONE) (
UNKNOWN) 0 0 () () () '' ((8 'locq' (INTEGER 4) (1 EXPLICIT (CONSTANT (
INTEGER 4) 0 '1') (CONSTANT (INTEGER 4) 0 '7')) () 1 0 0 ()) (9 'name' (
CHARACTER 1 ((CONSTANT (INTEGER 4) 0 '20'))) () () 0 0 0 ()) (10 'timint'
(DERIVED 11) () () 0 0 0 ()) (12 'type' (CHARACTER 1 ((CONSTANT (
INTEGER 4) 0 '2'))) () () 0 0 0 (CONSTANT (CHARACTER 1 ((CONSTANT (
INTEGER 4) 0 '2'))) 0 2 '  ')) (13 'omega' (REAL 8) () () 0 0 0 (
CONSTANT (REAL 8) 0 '0' 0 0))) PUBLIC ())
11 't_timint' 'm_time' 6 ((DERIVED UNKNOWN UNKNOWN UNKNOWN NONE NONE) (
UNKNOWN) 0 0 () () () '' ((14 't' (REAL 8) (1 EXPLICIT (CONSTANT (
INTEGER 4) 0 '1') (CONSTANT (INTEGER 4) 0 '2')) () 1 0 0 ())) PUBLIC ())
3 'neq' '' 6 ((VARIABLE INOUT UNKNOWN UNKNOWN NONE NONE DUMMY) (DERIVED
15) 0 0 () () () '' () ())
15 't_neq' 'd_neq' 6 ((DERIVED UNKNOWN UNKNOWN UNKNOWN NONE NONE) (
UNKNOWN) 0 0 () () () '' ((16 'version' (INTEGER 4) () () 0 0 0 ()) (17
'misc' (DERIVED 18) () () 0 0 0 ()) (19 'par' (DERIVED 20) (1 DEFERRED ()
()) () 1 1 0 ()) (21 'anor' (REAL 8) (1 DEFERRED () ()) () 1 1 0 ()) (
22 'bnor' (REAL 8) (1 DEFERRED () ()) () 1 1 0 ()) (23 'xxx' (REAL 8) (
1 DEFERRED () ()) () 1 1 0 ())) PUBLIC ())
20 't_par' 'd_par' 6 ((DERIVED UNKNOWN UNKNOWN UNKNOWN NONE NONE) (
UNKNOWN) 0 0 () () () '' ((24 'locq' (INTEGER 4) (1 EXPLICIT (CONSTANT (
INTEGER 4) 0 '1') (CONSTANT (INTEGER 4) 0 '7')) () 1 0 0 ()) (25 'name'
(CHARACTER 1 ((CONSTANT (INTEGER 4) 0 '20'))) () () 0 0 0 ()) (26 'time'
(DERIVED 27) () () 0 0 0 ()) (28 'x0' (REAL 8) () () 0 0 0 ()) (29 'scale'
(REAL 8) () () 0 0 0 ()) (30 'techn' (CHARACTER 1 ((CONSTANT (INTEGER 4)
0 '1'))) (1 EXPLICIT (CONSTANT (INTEGER 4) 0 '1') (CONSTANT (INTEGER 4)
0 '2')) () 1 0 0 ()) (31 'obstim' (DERIVED 11) () () 0 0 0 ()) (32 'type'
(CHARACTER 1 ((CONSTANT (INTEGER 4) 0 '2'))) () () 0 0 0 ()) (33 'omega'
(REAL 8) () () 0 0 0 ())) PUBLIC ())
27 't_time' 'm_time' 6 ((DERIVED UNKNOWN UNKNOWN UNKNOWN NONE NONE
SEQUENCE) (UNKNOWN) 0 0 () () () '' ((34 'mean' (REAL 8) () () 0 0 0 ())
(35 'half' (REAL 8) () () 0 0 0 ())) PUBLIC ())
18 't_misc' 'd_neq' 6 ((DERIVED UNKNOWN UNKNOWN UNKNOWN NONE NONE) (
UNKNOWN) 0 0 () () () '' ((36 'title' (CHARACTER 1 ((CONSTANT (INTEGER 4)
0 '132'))) (1 EXPLICIT (CONSTANT (INTEGER 4) 0 '1') (CONSTANT (INTEGER 4)
0 '2')) () 1 0 0 ()) (37 'datum' (CHARACTER 1 ((CONSTANT (INTEGER 4) 0
'16'))) () () 0 0 0 ()) (38 'nutmod' (CHARACTER 1 ((CONSTANT (INTEGER 4)
0 '16'))) () () 0 0 0 ()) (39 'submod' (CHARACTER 1 ((CONSTANT (INTEGER
4) 0 '16'))) () () 0 0 0 ()) (40 'orbfil' (CHARACTER 1 ((CONSTANT (
INTEGER 4) 0 '32'))) (1 EXPLICIT (CONSTANT (INTEGER 4) 0 '1') (CONSTANT
(INTEGER 4) 0 '2')) () 1 0 0 ()) (41 'gravfil' (CHARACTER 1 ((CONSTANT (
INTEGER 4) 0 '32'))) () () 0 0 0 ()) (42 'nobs' (REAL 8) () () 0 0 0 ())
(43 'npar' (INTEGER 4) () () 0 0 0 ()) (44 'ltpl' (REAL 8) () () 0 0 0 ())
(45 'nparms' (REAL 8) () () 0 0 0 ()) (46 'npseu' (INTEGER 4) () () 0 0
0 ()) (47 'npseuel' (INTEGER 4) () () 0 0 0 ()) (48 'nftot' (INTEGER 4)
() () 0 0 0 ()) (49 'nsmpnq' (INTEGER 4) () () 0 0 0 ()) (50 'ielvnq' (
INTEGER 4) () () 0 0 0 ()) (51 'itropo' (INTEGER 4) () () 0 0 0 ()) (52
'iextra' (INTEGER 4) () () 0 0 0 ()) (53 'itrmap' (INTEGER 4) () () 0 0
0 ()) (54 'itrgrd' (INTEGER 4) () () 0 0 0 ()) (55 'nanoff' (INTEGER 4)
() () 0 0 0 ()) (56 'nsaoff' (INTEGER 4) (1 EXPLICIT (CONSTANT (INTEGER
4) 0 '1') (CONSTANT (INTEGER 4) 0 '260')) () 1 0 0 ()) (57 'satoff' (
INTEGER 4) (2 EXPLICIT (CONSTANT (INTEGER 4) 0 '1') (CONSTANT (INTEGER 4)
0 '130') (CONSTANT (INTEGER 4) 0 '1') (CONSTANT (INTEGER 4) 0 '260')) ()
1 0 0 ()) (58 'nstat_sinex' (INTEGER 4) () () 0 0 0 ()) (59 'sinex' (
DERIVED 60) (1 EXPLICIT (CONSTANT (INTEGER 4) 0 '1') (CONSTANT (INTEGER
4) 0 '2000')) () 1 0 0 ()) (61 'grdneq' (CHARACTER 1 ((CONSTANT (
INTEGER 4) 0 '12'))) (1 EXPLICIT (CONSTANT (INTEGER 4) 0 '1') (CONSTANT
(INTEGER 4) 0 '3')) () 1 0 0 ()) (62 'nobst' (INTEGER 4) () () 0 0 0 ())
(63 'obst' (DERIVED 64) (1 EXPLICIT (CONSTANT (INTEGER 4) 0 '1') (
CONSTANT (INTEGER 4) 0 '30000')) () 1 0 0 ())) PUBLIC ())
64 't_obst' 'd_neq' 6 ((DERIVED UNKNOWN UNKNOWN UNKNOWN NONE NONE) (
UNKNOWN) 0 0 () () () '' ((65 'obstyp' (CHARACTER 1 ((CONSTANT (INTEGER
4) 0 '3'))) (1 EXPLICIT (CONSTANT (INTEGER 4) 0 '1') (CONSTANT (INTEGER
4) 0 '4')) () 1 0 0 ())) PUBLIC ())
60 't_sinex' 'd_neq' 6 ((DERIVED UNKNOWN UNKNOWN UNKNOWN NONE NONE) (
UNKNOWN) 0 0 () () () '' ((66 'timint' (DERIVED 11) () () 0 0 0 ()) (67
'stname' (CHARACTER 1 ((CONSTANT (INTEGER 4) 0 '16'))) () () 0 0 0 ()) (
68 'antecc' (REAL 8) (1 EXPLICIT (CONSTANT (INTEGER 4) 0 '1') (CONSTANT
(INTEGER 4) 0 '3')) () 1 0 0 ()) (69 'antpcv' (DERIVED 70) (1 EXPLICIT (
CONSTANT (INTEGER 4) 0 '0') (CONSTANT (INTEGER 4) 0 '5')) () 1 0 0 ()) (
71 'antnum' (INTEGER 4) () () 0 0 0 ()) (72 'antsta' (CHARACTER 1 ((
CONSTANT (INTEGER 4) 0 '20'))) () () 0 0 0 ()) (73 'antrec' (CHARACTER 1
((CONSTANT (INTEGER 4) 0 '20'))) () () 0 0 0 ())) PUBLIC ())
70 't_sinex_pcv' 'd_neq' 6 ((DERIVED UNKNOWN UNKNOWN UNKNOWN NONE NONE)
(UNKNOWN) 0 0 () () () '' ((74 'nfrq' (INTEGER 4) () () 0 0 0 ()) (75
'antphs' (REAL 8) (2 EXPLICIT (CONSTANT (INTEGER 4) 0 '1') (CONSTANT (
INTEGER 4) 0 '3') (CONSTANT (INTEGER 4) 0 '1') (CONSTANT (INTEGER 4) 0 '2'))
() 1 0 0 ()) (76 'adopted' (INTEGER 4) () () 0 0 0 ()) (77 'individ' (
INTEGER 4) () () 0 0 0 ()) (78 'atxstr' (CHARACTER 1 ((CONSTANT (
INTEGER 4) 0 '10'))) () () 0 0 0 ())) PUBLIC ())
)

('partrans2' 0 2 's_partrans2' 0 5)
