G95 module created on Thu Jun 25 17:44:54 2020 from ./.fpp/PRTOPT.f90
If you edit this, you'll get what you deserve.
module-version 9
(() () () () () () () () () () () () () () () () () () () () ())

()

()

()

()

(2 'prtopt' 's_prtopt' 1 ((PROCEDURE UNKNOWN MODULE-PROC DECL NONE NONE
SUBROUTINE) (PROCEDURE 0) 0 0 () () () '' () ())
3 's_prtopt' 's_prtopt' 1 ((MODULE UNKNOWN UNKNOWN UNKNOWN NONE NONE) (
UNKNOWN) 0 0 () () () '' () ())
)

('prtopt' 0 2 's_prtopt' 0 3)
