G95 module created on Thu Jun 25 17:43:26 2020 from ./.fpp/PRISTS.f
If you edit this, you'll get what you deserve.
module-version 9
(() () () () () () () () () () () () () () () () () () () () ())

()

()

()

()

(2 'prists' 's_prists' 1 ((PROCEDURE UNKNOWN MODULE-PROC DECL NONE NONE
SUBROUTINE) (PROCEDURE 0) 0 0 (3 NONE 4 NONE 5 NONE 6 NONE 7 NONE 8 NONE
9 NONE 10 NONE 11 NONE 12 NONE) () () '' () ())
13 's_prists' 's_prists' 1 ((MODULE UNKNOWN UNKNOWN UNKNOWN NONE NONE) (
UNKNOWN) 0 0 () () () '' () ())
12 'pgm' '' 14 ((VARIABLE UNKNOWN UNKNOWN UNKNOWN NONE NONE DUMMY) (
INTEGER 4) 0 0 () () () '' () ())
11 'wgtfile' '' 14 ((VARIABLE UNKNOWN UNKNOWN UNKNOWN NONE NONE DUMMY) (
CHARACTER 1 ((CONSTANT (INTEGER 4) 0 '80'))) 0 0 () () () '' () ())
10 'stanum' '' 14 ((VARIABLE UNKNOWN UNKNOWN UNKNOWN NONE NONE DIMENSION
DUMMY) (INTEGER 4) 0 0 () (1 ASSUMED_SIZE (CONSTANT (INTEGER 4) 0 '1') ())
() '' () ())
9 'stname' '' 14 ((VARIABLE UNKNOWN UNKNOWN UNKNOWN NONE NONE DIMENSION
DUMMY) (CHARACTER 1 ((CONSTANT (INTEGER 4) 0 '16'))) 0 0 () (1
ASSUMED_SIZE (CONSTANT (INTEGER 4) 0 '1') ()) () '' () ())
8 'vewgt' '' 14 ((VARIABLE UNKNOWN UNKNOWN UNKNOWN NONE NONE DIMENSION
DUMMY) (REAL 8) 0 0 () (2 ASSUMED_SIZE (CONSTANT (INTEGER 4) 0 '1') (
CONSTANT (INTEGER 4) 0 '3') (CONSTANT (INTEGER 4) 0 '1') ()) () '' () ())
7 'ivewgt' '' 14 ((VARIABLE UNKNOWN UNKNOWN UNKNOWN NONE NONE DIMENSION
DUMMY) (INTEGER 4) 0 0 () (1 ASSUMED_SIZE (CONSTANT (INTEGER 4) 0 '1') ())
() '' () ())
6 'nvewgt' '' 14 ((VARIABLE UNKNOWN UNKNOWN UNKNOWN NONE NONE DUMMY) (
INTEGER 4) 0 0 () () () '' () ())
5 'stwgt' '' 14 ((VARIABLE UNKNOWN UNKNOWN UNKNOWN NONE NONE DIMENSION
DUMMY) (REAL 8) 0 0 () (2 ASSUMED_SIZE (CONSTANT (INTEGER 4) 0 '1') (
CONSTANT (INTEGER 4) 0 '3') (CONSTANT (INTEGER 4) 0 '1') ()) () '' () ())
4 'istwgt' '' 14 ((VARIABLE UNKNOWN UNKNOWN UNKNOWN NONE NONE DIMENSION
DUMMY) (INTEGER 4) 0 0 () (1 ASSUMED_SIZE (CONSTANT (INTEGER 4) 0 '1') ())
() '' () ())
3 'nstwgt' '' 14 ((VARIABLE UNKNOWN UNKNOWN UNKNOWN NONE NONE DUMMY) (
INTEGER 4) 0 0 () () () '' () ())
)

('prists' 0 2 's_prists' 0 13)
