G95 module created on Thu Jun 25 17:45:33 2020 from ./.fpp/QLGTREC.f90
If you edit this, you'll get what you deserve.
module-version 9
(() () () () () () () () () () () () () () () () () () () () ())

()

()

()

()

(2 'qlgtrec' 's_qlgtrec' 1 ((PROCEDURE UNKNOWN MODULE-PROC DECL NONE
NONE SUBROUTINE) (PROCEDURE 0) 0 0 (3 NONE 4 NONE 5 NONE 6 NONE) () () ''
() ())
7 's_qlgtrec' 's_qlgtrec' 1 ((MODULE UNKNOWN UNKNOWN UNKNOWN NONE NONE)
(UNKNOWN) 0 0 () () () '' () ())
6 'qlobs' '' 8 ((VARIABLE UNKNOWN UNKNOWN UNKNOWN NONE NONE DUMMY) (
DERIVED 9) 0 0 () () () '' () ())
9 't_qlobs' 'd_qlfil' 8 ((DERIVED UNKNOWN UNKNOWN UNKNOWN NONE NONE) (
UNKNOWN) 0 0 () () () '' ((10 'iwlfac' (INTEGER 4) (1 EXPLICIT (
CONSTANT (INTEGER 4) 0 '1') (CONSTANT (INTEGER 4) 0 '2')) () 1 0 0 ()) (
11 'cdps' (INTEGER 4) () () 0 0 0 ()) (12 'cdpo' (INTEGER 4) () () 0 0 0
()) (13 'timsy' (INTEGER 4) () () 0 0 0 ()) (14 'syscf' (INTEGER 4) () ()
0 0 0 ()) (15 'revnr' (INTEGER 4) () () 0 0 0 ()) (16 'qlrec' (DERIVED
17) (1 DEFERRED () ()) () 1 1 0 ())) PUBLIC ())
17 't_qlrec' 'd_qlfil' 8 ((DERIVED UNKNOWN UNKNOWN UNKNOWN NONE NONE) (
UNKNOWN) 0 0 () () () '' ((18 'satnr' (INTEGER 4) () () 0 0 0 ()) (19
'iobstp' (INTEGER 4) () () 0 0 0 ()) (20 'numnpt' (INTEGER 4) () () 0 0
0 ()) (21 'llinpt' (INTEGER 4) () () 0 0 0 ()) (22 'range' (REAL 8) () ()
0 0 0 ()) (23 'epoch' (REAL 8) (1 EXPLICIT (CONSTANT (INTEGER 4) 0 '1')
(CONSTANT (INTEGER 4) 0 '2')) () 1 0 0 ()) (24 'press' (REAL 8) () () 0
0 0 ()) (25 'temp' (REAL 8) () () 0 0 0 ()) (26 'humid' (REAL 8) () () 0
0 0 ()) (27 'versnr' (INTEGER 4) () () 0 0 0 ())) PUBLIC ())
5 'nrec' '' 8 ((VARIABLE UNKNOWN UNKNOWN UNKNOWN NONE NONE DUMMY) (
INTEGER 4) 0 0 () () () '' () ())
4 'stanam' '' 8 ((VARIABLE UNKNOWN UNKNOWN UNKNOWN NONE NONE DUMMY) (
CHARACTER 1 ((CONSTANT (INTEGER 4) 0 '4'))) 0 0 () () () '' () ())
3 'lfnscr' '' 8 ((VARIABLE UNKNOWN UNKNOWN UNKNOWN NONE NONE DUMMY) (
INTEGER 4) 0 0 () () () '' () ())
)

('qlgtrec' 0 2 's_qlgtrec' 0 7)
