G95 module created on Thu Jun 25 17:44:13 2020 from ./.fpp/R2RDOR.f
If you edit this, you'll get what you deserve.
module-version 9
(() () () () () () () () () () () () () () () () () () () () ())

()

()

()

()

(2 'r2rdor' 's_r2rdor' 1 ((PROCEDURE UNKNOWN MODULE-PROC DECL NONE NONE
SUBROUTINE) (PROCEDURE 0) 0 0 (3 NONE 4 NONE 5 NONE 6 NONE 7 NONE 8 NONE
9 NONE 10 NONE 11 NONE 12 NONE 13 NONE 14 NONE 15 NONE 16 NONE 17 NONE
18 NONE 19 NONE) () () '' () ())
20 's_r2rdor' 's_r2rdor' 1 ((MODULE UNKNOWN UNKNOWN UNKNOWN NONE NONE) (
UNKNOWN) 0 0 () () () '' () ())
19 'rinstat' '' 21 ((VARIABLE UNKNOWN UNKNOWN UNKNOWN NONE NONE OPTIONAL
DUMMY) (DERIVED 22) 0 0 () () () '' () ())
22 't_rinstat' 'd_rinex3' 21 ((DERIVED UNKNOWN UNKNOWN UNKNOWN NONE NONE)
(UNKNOWN) 0 0 () () () '' ((23 'sys' (DERIVED 24) (1 EXPLICIT (CONSTANT
(INTEGER 4) 0 '0') (CONSTANT (INTEGER 4) 0 '5')) () 1 0 0 ()) (25 'numobs'
(INTEGER 4) (1 EXPLICIT (CONSTANT (INTEGER 4) 0 '1') (CONSTANT (INTEGER
4) 0 '134')) () 1 0 0 ()) (26 'obssum' (INTEGER 4) () () 0 0 0 ()) (27
'numsat' (INTEGER 4) () () 0 0 0 ())) PUBLIC ())
24 't_sysstat' 'd_rinex3' 21 ((DERIVED UNKNOWN UNKNOWN UNKNOWN NONE NONE)
(UNKNOWN) 0 0 () () () '' ((28 'syschar' (CHARACTER 1 ((CONSTANT (
INTEGER 4) 0 '1'))) () () 0 0 0 ()) (29 'sysnum' (INTEGER 4) () () 0 0 0
()) (30 'indxs' (INTEGER 4) (1 EXPLICIT (CONSTANT (INTEGER 4) 0 '1') (
CONSTANT (INTEGER 4) 0 '134')) () 1 0 0 ()) (31 'numobs' (INTEGER 4) (1
EXPLICIT (CONSTANT (INTEGER 4) 0 '1') (CONSTANT (INTEGER 4) 0 '134')) ()
1 0 0 ()) (32 'sat' (DERIVED 33) (1 EXPLICIT (CONSTANT (INTEGER 4) 0 '1')
(CONSTANT (INTEGER 4) 0 '49')) () 1 0 0 ()) (34 'obssum' (INTEGER 4) ()
() 0 0 0 ())) PUBLIC ())
33 't_satstat' 'd_rinex3' 21 ((DERIVED UNKNOWN UNKNOWN UNKNOWN NONE NONE)
(UNKNOWN) 0 0 () () () '' ((35 'satname' (CHARACTER 1 ((CONSTANT (
INTEGER 4) 0 '3'))) () () 0 0 0 ()) (36 'satnum' (INTEGER 4) () () 0 0 0
()) (37 'eposatind' (INTEGER 4) () () 0 0 0 ()) (38 'numobs' (INTEGER 4)
(1 EXPLICIT (CONSTANT (INTEGER 4) 0 '1') (CONSTANT (INTEGER 4) 0 '134'))
() 1 0 0 ()) (39 'obssum' (INTEGER 4) () () 0 0 0 ())) PUBLIC ())
18 'gobsdef' '' 21 ((VARIABLE UNKNOWN UNKNOWN UNKNOWN NONE NONE OPTIONAL
DUMMY) (DERIVED 40) 0 0 () () () '' () ())
40 't_gobsdef' 'd_rinex3' 21 ((DERIVED UNKNOWN UNKNOWN UNKNOWN NONE NONE)
(UNKNOWN) 0 0 () () () '' ((41 'norec' (INTEGER 4) () () 0 0 0 ()) (42
'sat' (DERIVED 43) (1 DEFERRED () ()) () 1 1 0 ()) (44 'nfreqc' (
INTEGER 4) () () 0 0 0 ()) (45 'nfreqp' (INTEGER 4) () () 0 0 0 ()))
PUBLIC ())
43 't_satsig' 'd_rinex3' 21 ((DERIVED UNKNOWN UNKNOWN UNKNOWN NONE NONE)
(UNKNOWN) 0 0 () () () '' ((46 'satname' (CHARACTER 1 ((CONSTANT (
INTEGER 4) 0 '3'))) () () 0 0 0 ()) (47 'sysnum' (INTEGER 4) () () 0 0 0
()) (48 'syschar' (CHARACTER 1 ((CONSTANT (INTEGER 4) 0 '1'))) () () 0 0
0 ()) (49 'satnum' (INTEGER 4) () () 0 0 0 ()) (50 'obstyp' (CHARACTER 1
((CONSTANT (INTEGER 4) 0 '3'))) (1 EXPLICIT (CONSTANT (INTEGER 4) 0 '1')
(CONSTANT (INTEGER 4) 0 '8')) () 1 0 0 ()) (51 'obstyp2' (CHARACTER 1 (
(CONSTANT (INTEGER 4) 0 '2'))) (1 EXPLICIT (CONSTANT (INTEGER 4) 0 '1')
(CONSTANT (INTEGER 4) 0 '8')) () 1 0 0 ()) (52 'obsindr212' (INTEGER 4)
(1 EXPLICIT (CONSTANT (INTEGER 4) 0 '1') (CONSTANT (INTEGER 4) 0 '8')) ()
1 0 0 ()) (53 'factor' (INTEGER 4) (1 EXPLICIT (CONSTANT (INTEGER 4) 0 '1')
(CONSTANT (INTEGER 4) 0 '8')) () 1 0 0 ()) (54 'nfreqc' (INTEGER 4) () ()
0 0 0 ()) (55 'nfreqp' (INTEGER 4) () () 0 0 0 ()) (56 'eposatind' (
INTEGER 4) () () 0 0 0 ())) PUBLIC ())
17 'usegeos' '' 21 ((VARIABLE UNKNOWN UNKNOWN UNKNOWN NONE NONE OPTIONAL
DUMMY) (INTEGER 4) 0 0 () () () '' () ())
16 'ircode' '' 21 ((VARIABLE UNKNOWN UNKNOWN UNKNOWN NONE NONE DUMMY) (
INTEGER 4) 0 0 () () () '' () ())
15 'lli' '' 21 ((VARIABLE UNKNOWN UNKNOWN UNKNOWN NONE NONE DIMENSION
DUMMY) (INTEGER 4) 0 0 () (2 ASSUMED_SIZE (CONSTANT (INTEGER 4) 0 '1') (
VARIABLE (INTEGER 4) 0 5 ()) (CONSTANT (INTEGER 4) 0 '1') ()) () '' () ())
14 'isign' '' 21 ((VARIABLE UNKNOWN UNKNOWN UNKNOWN NONE NONE DIMENSION
DUMMY) (INTEGER 4) 0 0 () (2 ASSUMED_SIZE (CONSTANT (INTEGER 4) 0 '1') (
VARIABLE (INTEGER 4) 0 5 ()) (CONSTANT (INTEGER 4) 0 '1') ()) () '' () ())
13 'obsepo' '' 21 ((VARIABLE UNKNOWN UNKNOWN UNKNOWN NONE NONE DIMENSION
DUMMY) (REAL 8) 0 0 () (2 ASSUMED_SIZE (CONSTANT (INTEGER 4) 0 '1') (
VARIABLE (INTEGER 4) 0 5 ()) (CONSTANT (INTEGER 4) 0 '1') ()) () '' () ())
12 'satepo' '' 21 ((VARIABLE UNKNOWN UNKNOWN UNKNOWN NONE NONE DIMENSION
DUMMY) (INTEGER 4) 0 0 () (1 ASSUMED_SIZE (CONSTANT (INTEGER 4) 0 '1') ())
() '' () ())
11 'nsatep' '' 21 ((VARIABLE UNKNOWN UNKNOWN UNKNOWN NONE NONE DUMMY) (
INTEGER 4) 0 0 () () () '' () ())
10 'iflag' '' 21 ((VARIABLE UNKNOWN UNKNOWN UNKNOWN NONE NONE DUMMY) (
INTEGER 4) 0 0 () () () '' () ())
9 'epoch' '' 21 ((VARIABLE UNKNOWN UNKNOWN UNKNOWN NONE NONE DIMENSION
DUMMY) (REAL 8) 0 0 () (1 ASSUMED_SIZE (CONSTANT (INTEGER 4) 0 '1') ())
() '' () ())
8 'obstyp' '' 21 ((VARIABLE UNKNOWN UNKNOWN UNKNOWN NONE NONE DIMENSION
DUMMY) (CHARACTER 1 ((CONSTANT (INTEGER 4) 0 '2'))) 0 0 () (1
ASSUMED_SIZE (CONSTANT (INTEGER 4) 0 '1') ()) () '' () ())
7 'numtyp' '' 21 ((VARIABLE UNKNOWN UNKNOWN UNKNOWN NONE NONE DUMMY) (
INTEGER 4) 0 0 () () () '' () ())
6 'irxvrs' '' 21 ((VARIABLE UNKNOWN UNKNOWN UNKNOWN NONE NONE DUMMY) (
INTEGER 4) 0 0 () () () '' () ())
5 'maxsat' '' 21 ((VARIABLE UNKNOWN UNKNOWN UNKNOWN NONE NONE DUMMY) (
INTEGER 4) 0 0 () () () '' () ())
4 'lfnerr' '' 21 ((VARIABLE UNKNOWN UNKNOWN UNKNOWN NONE NONE DUMMY) (
INTEGER 4) 0 0 () () () '' () ())
3 'lfnobs' '' 21 ((VARIABLE UNKNOWN UNKNOWN UNKNOWN NONE NONE DUMMY) (
INTEGER 4) 0 0 () () () '' () ())
)

('r2rdor' 0 2 's_r2rdor' 0 20)
