G95 module created on Thu Jun 25 17:45:28 2020 from ./.fpp/RCSATCHK.f90
If you edit this, you'll get what you deserve.
module-version 9
(() () () () () () () () () () () () () () () () () () () () ())

()

()

()

()

(2 'rcsatchk' 's_rcsatchk' 1 ((PROCEDURE UNKNOWN MODULE-PROC DECL NONE
NONE SUBROUTINE) (PROCEDURE 0) 0 0 (3 NONE 4 NONE 5 NONE 6 NONE 7 NONE 8
NONE 9 NONE 10 NONE) () () '' () ())
11 's_rcsatchk' 's_rcsatchk' 1 ((MODULE UNKNOWN UNKNOWN UNKNOWN NONE
NONE) (UNKNOWN) 0 0 () () () '' () ())
10 'ircode' '' 12 ((VARIABLE UNKNOWN UNKNOWN UNKNOWN NONE NONE DUMMY) (
INTEGER 4) 0 0 () () () '' () ())
9 'badsat' '' 12 ((VARIABLE UNKNOWN UNKNOWN UNKNOWN NONE NONE DIMENSION
POINTER DUMMY) (DERIVED 13) 0 0 () (1 DEFERRED () ()) () '' () ())
13 't_badsat' 'p_reschk' 12 ((DERIVED UNKNOWN UNKNOWN UNKNOWN NONE NONE)
(UNKNOWN) 0 0 () () () '' ((14 'isat' (INTEGER 4) () () 0 0 0 ()) (15
'satnum' (INTEGER 4) () () 0 0 0 ()) (16 'flag' (INTEGER 4) () () 0 0 0
()) (17 'rmsratio' (REAL 8) () () 0 0 0 ())) PUBLIC ())
8 'nbad' '' 12 ((VARIABLE UNKNOWN UNKNOWN UNKNOWN NONE NONE DUMMY) (
INTEGER 4) 0 0 () () () '' () ())
7 'mansat' '' 12 ((VARIABLE UNKNOWN UNKNOWN UNKNOWN NONE NONE DIMENSION
POINTER DUMMY) (DERIVED 13) 0 0 () (1 DEFERRED () ()) () '' () ())
6 'nman' '' 12 ((VARIABLE UNKNOWN UNKNOWN UNKNOWN NONE NONE DUMMY) (
INTEGER 4) 0 0 () () () '' () ())
5 'rmssat' '' 12 ((VARIABLE UNKNOWN UNKNOWN UNKNOWN NONE NONE DIMENSION
POINTER DUMMY) (DERIVED 18) 0 0 () (1 DEFERRED () ()) () '' () ())
18 't_rmssat' 'p_reschk' 12 ((DERIVED UNKNOWN UNKNOWN UNKNOWN NONE NONE)
(UNKNOWN) 0 0 () () () '' ((19 'satnum' (INTEGER 4) () () 0 0 0 ()) (20
'rms' (REAL 8) (1 EXPLICIT (CONSTANT (INTEGER 4) 0 '1') (CONSTANT (
INTEGER 4) 0 '2')) () 1 0 0 ()) (21 'obs' (REAL 8) (1 EXPLICIT (
CONSTANT (INTEGER 4) 0 '1') (CONSTANT (INTEGER 4) 0 '2')) () 1 0 0 ()) (
22 'numobs' (INTEGER 4) (1 EXPLICIT (CONSTANT (INTEGER 4) 0 '1') (
CONSTANT (INTEGER 4) 0 '2')) () 1 0 0 ()) (23 'satarc' (REAL 8) (1
EXPLICIT (CONSTANT (INTEGER 4) 0 '1') (CONSTANT (INTEGER 4) 0 '2')) () 1
0 0 ())) PUBLIC ())
4 'nsat' '' 12 ((VARIABLE UNKNOWN UNKNOWN UNKNOWN NONE NONE DUMMY) (
INTEGER 4) 0 0 () () () '' () ())
3 'opt' '' 12 ((VARIABLE UNKNOWN UNKNOWN UNKNOWN NONE NONE DUMMY) (
DERIVED 24) 0 0 () () () '' () ())
24 't_reschk_opt' 'p_reschk' 12 ((DERIVED UNKNOWN UNKNOWN UNKNOWN NONE
NONE) (UNKNOWN) 0 0 () () () '' ((25 'satcrux' (CHARACTER 1 ((CONSTANT (
INTEGER 4) 0 '32'))) () () 0 0 0 ()) (26 'sesfile' (CHARACTER 1 ((
CONSTANT (INTEGER 4) 0 '32'))) () () 0 0 0 ()) (27 'abbpan' (CHARACTER 1
((CONSTANT (INTEGER 4) 0 '32'))) () () 0 0 0 ()) (28 'asplit' (
CHARACTER 1 ((CONSTANT (INTEGER 4) 0 '32'))) () () 0 0 0 ()) (29 'codxtr'
(CHARACTER 1 ((CONSTANT (INTEGER 4) 0 '32'))) () () 0 0 0 ()) (30 'resrms'
(CHARACTER 1 ((CONSTANT (INTEGER 4) 0 '32'))) () () 0 0 0 ()) (31 'delsta'
(CHARACTER 1 ((CONSTANT (INTEGER 4) 0 '32'))) () () 0 0 0 ()) (32 'sumout'
(CHARACTER 1 ((CONSTANT (INTEGER 4) 0 '32'))) () () 0 0 0 ()) (33 'title'
(CHARACTER 1 ((CONSTANT (INTEGER 4) 0 '80'))) () () 0 0 0 ()) (34
'summary' (INTEGER 4) () () 0 0 0 ()) (35 'iyear4' (INTEGER 4) () () 0 0
0 ()) (36 'badsta' (LOGICAL 4) () () 0 0 0 ()) (37 'ndiff' (INTEGER 4) ()
() 0 0 0 ()) (38 'maxsta0' (INTEGER 4) () () 0 0 0 ()) (39 'maxrms0' (
REAL 8) () () 0 0 0 ()) (40 'badsol0' (REAL 8) () () 0 0 0 ()) (41
'maxsta1' (INTEGER 4) () () 0 0 0 ()) (42 'maxrms1' (REAL 8) () () 0 0 0
()) (43 'dir_czh' (CHARACTER 1 ((CONSTANT (INTEGER 4) 0 '255'))) () () 0
0 0 ()) (44 'dir_czo' (CHARACTER 1 ((CONSTANT (INTEGER 4) 0 '255'))) ()
() 0 0 0 ()) (45 'dir_pzh' (CHARACTER 1 ((CONSTANT (INTEGER 4) 0 '255')))
() () 0 0 0 ()) (46 'dir_pzo' (CHARACTER 1 ((CONSTANT (INTEGER 4) 0 '255')))
() () 0 0 0 ()) (47 'ext_czh' (CHARACTER 1 ((CONSTANT (INTEGER 4) 0 '3')))
() () 0 0 0 ()) (48 'ext_czo' (CHARACTER 1 ((CONSTANT (INTEGER 4) 0 '3')))
() () 0 0 0 ()) (49 'ext_pzh' (CHARACTER 1 ((CONSTANT (INTEGER 4) 0 '3')))
() () 0 0 0 ()) (50 'ext_pzo' (CHARACTER 1 ((CONSTANT (INTEGER 4) 0 '3')))
() () 0 0 0 ()) (51 'mansat' (LOGICAL 4) () () 0 0 0 ()) (52 'maxrrms' (
REAL 8) () () 0 0 0 ()) (53 'maxdel' (REAL 8) () () 0 0 0 ()) (54
'maxarms' (REAL 8) () () 0 0 0 ()) (55 'maxorb' (REAL 8) () () 0 0 0 ())
(56 'maxmrms' (REAL 8) () () 0 0 0 ()) (57 'minobsg' (REAL 8) () () 0 0
0 ()) (58 'minobsr' (REAL 8) () () 0 0 0 ()) (59 'del1sat' (LOGICAL 4) ()
() 0 0 0 ()) (60 'tstmode' (LOGICAL 4) () () 0 0 0 ())) PUBLIC ())
)

('rcsatchk' 0 2 's_rcsatchk' 0 11)
