G95 module created on Thu Jun 25 17:43:02 2020 from ./.fpp/RDTRPE.f90
If you edit this, you'll get what you deserve.
module-version 9
(() () () () () () () () () () () () () () () () () () () () ())

()

()

()

()

(2 'rdtrpe' 's_rdtrpe' 1 ((PROCEDURE UNKNOWN MODULE-PROC DECL NONE NONE
SUBROUTINE) (PROCEDURE 0) 0 0 (3 NONE 4 NONE 5 NONE) () () '' () ())
6 's_rdtrpe' 's_rdtrpe' 1 ((MODULE UNKNOWN UNKNOWN UNKNOWN NONE NONE) (
UNKNOWN) 0 0 () () () '' () ())
5 'ircode' '' 7 ((VARIABLE UNKNOWN UNKNOWN UNKNOWN NONE NONE DUMMY) (
INTEGER 4) 0 0 () () () '' () ())
4 'trpest' '' 7 ((VARIABLE UNKNOWN UNKNOWN UNKNOWN NONE NONE DUMMY) (
DERIVED 8) 0 0 () () () '' () ())
8 't_trpest' 'd_trpest' 7 ((DERIVED UNKNOWN UNKNOWN UNKNOWN NONE NONE) (
UNKNOWN) 0 0 () () () '' ((9 'nrec' (INTEGER 4) () () 0 0 0 ()) (10 'nsta'
(INTEGER 4) () () 0 0 0 ()) (11 'head' (DERIVED 12) () () 0 0 0 ()) (13
'sta' (DERIVED 14) (1 DEFERRED () ()) () 1 1 0 ())) PUBLIC ())
14 't_trpstat' 'd_trpest' 7 ((DERIVED UNKNOWN UNKNOWN UNKNOWN NONE NONE)
(UNKNOWN) 0 0 () () () '' ((15 'ntrp' (INTEGER 4) () () 0 0 0 ()) (16
'stanam' (CHARACTER 1 ((CONSTANT (INTEGER 4) 0 '16'))) () () 0 0 0 ()) (
17 'staflg' (CHARACTER 1 ((CONSTANT (INTEGER 4) 0 '1'))) () () 0 0 0 ())
(18 'trp' (DERIVED 19) (1 DEFERRED () ()) () 1 1 0 ())) PUBLIC ())
19 't_trprec' 'd_trpest' 7 ((DERIVED UNKNOWN UNKNOWN UNKNOWN NONE NONE)
(UNKNOWN) 0 0 () () () '' ((20 'timint' (REAL 8) (1 EXPLICIT (CONSTANT (
INTEGER 4) 0 '1') (CONSTANT (INTEGER 4) 0 '2')) () 1 0 0 ()) (21 'model'
(REAL 8) () () 0 0 0 ()) (22 'total' (REAL 8) () () 0 0 0 ()) (23 'corr'
(REAL 8) (1 EXPLICIT (CONSTANT (INTEGER 4) 0 '1') (CONSTANT (INTEGER 4)
0 '3')) () 1 0 0 ()) (24 'sigma' (REAL 8) (1 EXPLICIT (CONSTANT (
INTEGER 4) 0 '1') (CONSTANT (INTEGER 4) 0 '3')) () 1 0 0 ())) PUBLIC ())
12 't_trphead' 'd_trpest' 7 ((DERIVED UNKNOWN UNKNOWN UNKNOWN NONE NONE)
(UNKNOWN) 0 0 () () () '' ((25 'title' (CHARACTER 1 ((CONSTANT (INTEGER
4) 0 '80'))) () () 0 0 0 ()) (26 'ifrmt' (INTEGER 4) () () 0 0 0 ()) (
27 'itrpmd' (INTEGER 4) () () 0 0 0 ()) (28 'itrmap' (INTEGER 4) () () 0
0 0 ()) (29 'itrgrd' (INTEGER 4) (1 EXPLICIT (CONSTANT (INTEGER 4) 0 '1')
(CONSTANT (INTEGER 4) 0 '2')) () 1 0 0 ()) (30 'ielvnq' (INTEGER 4) () ()
0 0 0 ()) (31 'itab' (REAL 8) () () 0 0 0 ())) PUBLIC ())
3 'filnam' '' 7 ((VARIABLE UNKNOWN UNKNOWN UNKNOWN NONE NONE DUMMY) (
CHARACTER 1 ((CONSTANT (INTEGER 4) 0 '32'))) 0 0 () () () '' () ())
)

('rdtrpe' 0 2 's_rdtrpe' 0 6)
