G95 module created on Thu Jun 25 17:42:41 2020 from ./.fpp/RDKINF.f90
If you edit this, you'll get what you deserve.
module-version 9
(() () () () () () () () () () () () () () () () () () () () ())

()

()

()

()

(2 'rdkinf' 's_rdkinf' 1 ((PROCEDURE UNKNOWN MODULE-PROC DECL NONE NONE
SUBROUTINE) (PROCEDURE 0) 0 0 (3 NONE 4 NONE) () () '' () ())
5 's_rdkinf' 's_rdkinf' 1 ((MODULE UNKNOWN UNKNOWN UNKNOWN NONE NONE) (
UNKNOWN) 0 0 () () () '' () ())
4 'kinsta' '' 6 ((VARIABLE UNKNOWN UNKNOWN UNKNOWN NONE NONE DUMMY) (
DERIVED 7) 0 0 () () () '' () ())
7 't_kinsta' 'd_kinsta' 6 ((DERIVED UNKNOWN UNKNOWN UNKNOWN NONE NONE) (
UNKNOWN) 0 0 () () () '' ((8 'title' (CHARACTER 1 ((CONSTANT (INTEGER 4)
0 '80'))) () () 0 0 0 ()) (9 'datum' (DERIVED 10) () () 0 0 0 ()) (11
'refepo' (REAL 8) () () 0 0 0 ()) (12 'nsta' (INTEGER 4) () () 0 0 0 ())
(13 'sta' (DERIVED 14) (1 DEFERRED () ()) () 1 1 0 ())) PUBLIC ())
14 't_ksta' 'd_kinsta' 6 ((DERIVED UNKNOWN UNKNOWN UNKNOWN NONE NONE) (
UNKNOWN) 0 0 () () () '' ((15 'stanam' (CHARACTER 1 ((CONSTANT (INTEGER
4) 0 '16'))) () () 0 0 0 ()) (16 'nepo' (INTEGER 4) () () 0 0 0 ()) (17
'kin' (DERIVED 18) (1 DEFERRED () ()) () 1 1 0 ())) PUBLIC ())
18 't_kin' 'd_kinsta' 6 ((DERIVED UNKNOWN UNKNOWN UNKNOWN NONE NONE) (
UNKNOWN) 0 0 () () () '' ((19 'xyzepo' (REAL 8) () () 0 0 0 ()) (20 'xyz'
(REAL 8) (1 EXPLICIT (CONSTANT (INTEGER 4) 0 '1') (CONSTANT (INTEGER 4)
0 '3')) () 1 0 0 ()) (21 'kinflg' (CHARACTER 1 ((CONSTANT (INTEGER 4) 0
'1'))) () () 0 0 0 ())) PUBLIC ())
10 't_datum' 'd_datum' 6 ((DERIVED UNKNOWN UNKNOWN UNKNOWN NONE NONE) (
UNKNOWN) 0 0 () () () '' ((22 'name' (CHARACTER 1 ((CONSTANT (INTEGER 4)
0 '16'))) () () 0 0 0 ()) (23 'aell' (REAL 8) () () 0 0 0 ()) (24 'bell'
(REAL 8) () () 0 0 0 ()) (25 'dxell' (REAL 8) (1 EXPLICIT (CONSTANT (
INTEGER 4) 0 '1') (CONSTANT (INTEGER 4) 0 '3')) () 1 0 0 ()) (26 'drell'
(REAL 8) (1 EXPLICIT (CONSTANT (INTEGER 4) 0 '1') (CONSTANT (INTEGER 4)
0 '3')) () 1 0 0 ()) (27 'scell' (REAL 8) () () 0 0 0 ()) (28 'type' (
CHARACTER 1 ((CONSTANT (INTEGER 4) 0 '16'))) () () 0 0 0 ())) PUBLIC ())
3 'filnam' '' 6 ((VARIABLE UNKNOWN UNKNOWN UNKNOWN NONE NONE DUMMY) (
CHARACTER 1 (())) 0 0 () () () '' () ())
)

('rdkinf' 0 2 's_rdkinf' 0 5)
