G95 module created on Thu Jun 25 17:43:36 2020 from ./.fpp/RDSTDH.f90
If you edit this, you'll get what you deserve.
module-version 9
(() () () () () () () () () () () () () () () () () () () () ())

()

()

()

()

(2 'rdstdh' 's_rdstdh' 1 ((PROCEDURE UNKNOWN MODULE-PROC DECL NONE NONE
SUBROUTINE) (PROCEDURE 0) 0 0 (3 NONE 4 NONE 5 NONE) () () '' () ())
6 's_rdstdh' 's_rdstdh' 1 ((MODULE UNKNOWN UNKNOWN UNKNOWN NONE NONE) (
UNKNOWN) 0 0 () () () '' () ())
5 'ircode' '' 7 ((VARIABLE UNKNOWN UNKNOWN UNKNOWN NONE NONE DUMMY) (
INTEGER 4) 0 0 () () () '' () ())
4 'stdhead' '' 7 ((VARIABLE UNKNOWN UNKNOWN UNKNOWN NONE NONE DUMMY) (
DERIVED 8) 0 0 () () () '' () ())
8 't_stdhead' 'd_stdorb' 7 ((DERIVED UNKNOWN UNKNOWN UNKNOWN NONE NONE)
(UNKNOWN) 0 0 () () () '' ((9 'ifrmt' (INTEGER 4) () () 0 0 0 ()) (10
'narc' (INTEGER 4) () () 0 0 0 ()) (11 'iorsys' (INTEGER 4) () () 0 0 0
()) (12 'arc' (DERIVED 13) (1 DEFERRED () ()) () 1 1 0 ())) PUBLIC ())
13 't_stdarc' 'd_stdorb' 7 ((DERIVED UNKNOWN UNKNOWN UNKNOWN NONE NONE)
(UNKNOWN) 0 0 () () () '' ((14 'nsat' (INTEGER 4) () () 0 0 0 ()) (15
'nint' (INTEGER 4) () () 0 0 0 ()) (16 'degr' (INTEGER 4) () () 0 0 0 ())
(17 'tosc' (REAL 8) () () 0 0 0 ()) (18 'tbound' (REAL 8) (1 EXPLICIT (
CONSTANT (INTEGER 4) 0 '1') (CONSTANT (INTEGER 4) 0 '2')) () 1 0 0 ()) (
19 'source' (CHARACTER 1 ((CONSTANT (INTEGER 4) 0 '10'))) () () 0 0 0 ())
(20 'sat' (DERIVED 21) (1 DEFERRED () ()) () 1 1 0 ())) PUBLIC ())
21 't_stdsat' 'd_stdorb' 7 ((DERIVED UNKNOWN UNKNOWN UNKNOWN NONE NONE)
(UNKNOWN) 0 0 () () () '' ((22 'svn' (INTEGER 4) () () 0 0 0 ())) PUBLIC
())
3 'filstd' '' 7 ((VARIABLE UNKNOWN UNKNOWN UNKNOWN NONE NONE DUMMY) (
CHARACTER 1 ((CONSTANT (INTEGER 4) 0 '32'))) 0 0 () () () '' () ())
)

('rdstdh' 0 2 's_rdstdh' 0 6)
