G95 module created on Thu Jun 25 17:42:34 2020 from ./.fpp/RDSATFIL.f90
If you edit this, you'll get what you deserve.
module-version 9
(() () () () () () () () () () () () () () () () () () () () ())

()

()

()

()

(2 'rdsatfil' 's_rdsatfil' 1 ((PROCEDURE UNKNOWN MODULE-PROC DECL NONE
NONE SUBROUTINE) (PROCEDURE 0) 0 0 (3 NONE 4 NONE) () () '' () ())
5 's_rdsatfil' 's_rdsatfil' 1 ((MODULE UNKNOWN UNKNOWN UNKNOWN NONE NONE)
(UNKNOWN) 0 0 () () () '' () ())
4 'satfil' '' 6 ((VARIABLE UNKNOWN UNKNOWN UNKNOWN NONE NONE DUMMY) (
DERIVED 7) 0 0 () () () '' () ())
7 't_satfil' 'd_satfil' 6 ((DERIVED UNKNOWN UNKNOWN UNKNOWN NONE NONE) (
UNKNOWN) 0 0 () () () '' ((8 'fvers' (REAL 8) () () 0 0 0 ()) (9 'pcvmod'
(CHARACTER 1 ((CONSTANT (INTEGER 4) 0 '10'))) () () 0 0 0 ()) (10
'rpmodel' (CHARACTER 1 ((CONSTANT (INTEGER 4) 0 '8'))) () () 0 0 0 ()) (
11 'nsatellite' (INTEGER 4) () () 0 0 0 ()) (12 'nsensor' (INTEGER 4) ()
() 0 0 0 ()) (13 'nrprmod' (INTEGER 4) () () 0 0 0 ()) (14 'satellite' (
DERIVED 15) (1 DEFERRED () ()) () 1 1 0 ()) (16 'sensor' (DERIVED 17) (
1 DEFERRED () ()) () 1 1 0 ()) (18 'rprmod' (DERIVED 19) (1 DEFERRED ()
()) () 1 1 0 ())) PUBLIC ())
19 't_rprmod' 'd_satfil' 6 ((DERIVED UNKNOWN UNKNOWN UNKNOWN NONE NONE)
(UNKNOWN) 0 0 () () () '' ((20 'svn' (INTEGER 4) () () 0 0 0 ()) (21
'timint' (DERIVED 22) () () 0 0 0 ()) (23 'rpmodel' (INTEGER 4) () () 0
0 0 ()) (24 'nrprcoe' (INTEGER 4) () () 0 0 0 ()) (25 'rprcoe' (REAL 8)
(1 DEFERRED () ()) () 1 1 0 ())) PUBLIC ())
22 't_timint' 'm_time' 6 ((DERIVED UNKNOWN UNKNOWN UNKNOWN NONE NONE) (
UNKNOWN) 0 0 () () () '' ((26 't' (REAL 8) (1 EXPLICIT (CONSTANT (
INTEGER 4) 0 '1') (CONSTANT (INTEGER 4) 0 '2')) () 1 0 0 ())) PUBLIC ())
17 't_sensor' 'd_satfil' 6 ((DERIVED UNKNOWN UNKNOWN UNKNOWN NONE NONE)
(UNKNOWN) 0 0 () () () '' ((27 'svn' (INTEGER 4) () () 0 0 0 ()) (28
'type' (CHARACTER 1 ((CONSTANT (INTEGER 4) 0 '4'))) () () 0 0 0 ()) (29
'sensor' (CHARACTER 1 ((CONSTANT (INTEGER 4) 0 '20'))) () () 0 0 0 ()) (
30 'numb' (INTEGER 4) () () 0 0 0 ()) (31 'timint' (DERIVED 22) () () 0
0 0 ()) (32 'antoff' (REAL 8) (1 EXPLICIT (CONSTANT (INTEGER 4) 0 '1') (
CONSTANT (INTEGER 4) 0 '3')) () 1 0 0 ()) (33 'bore' (REAL 8) (1
EXPLICIT (CONSTANT (INTEGER 4) 0 '1') (CONSTANT (INTEGER 4) 0 '3')) () 1
0 0 ()) (34 'azim' (REAL 8) (1 EXPLICIT (CONSTANT (INTEGER 4) 0 '1') (
CONSTANT (INTEGER 4) 0 '3')) () 1 0 0 ()) (35 'name' (CHARACTER 1 ((
CONSTANT (INTEGER 4) 0 '20'))) () () 0 0 0 ()) (36 'ifrq' (INTEGER 4) ()
() 0 0 0 ()) (37 'nsigli' (INTEGER 4) () () 0 0 0 ()) (38 'sigli' (
CHARACTER 1 ((CONSTANT (INTEGER 4) 0 '3'))) (1 DEFERRED () ()) () 1 1 0
())) PUBLIC ())
15 't_satellite' 'd_satfil' 6 ((DERIVED UNKNOWN UNKNOWN UNKNOWN NONE
NONE) (UNKNOWN) 0 0 () () () '' ((39 'svn' (INTEGER 4) () () 0 0 0 ()) (
40 'svnnr' (CHARACTER 1 ((CONSTANT (INTEGER 4) 0 '4'))) () () 0 0 0 ())
(41 'iblock' (INTEGER 4) () () 0 0 0 ()) (42 'cospar' (CHARACTER 1 ((
CONSTANT (INTEGER 4) 0 '9'))) () () 0 0 0 ()) (43 'attflag' (INTEGER 4)
() () 0 0 0 ()) (44 'timint' (DERIVED 22) () () 0 0 0 ()) (45 'mass' (
REAL 8) () () 0 0 0 ()) (46 'formf' (REAL 8) () () 0 0 0 ()) (47 'radpres'
(REAL 8) () () 0 0 0 ()) (48 'admodel' (INTEGER 4) () () 0 0 0 ()) (49
'adrag' (REAL 8) () () 0 0 0 ()) (50 'plane' (CHARACTER 1 ((CONSTANT (
INTEGER 4) 0 '3'))) () () 0 0 0 ())) PUBLIC ())
3 'filename' '' 6 ((VARIABLE UNKNOWN UNKNOWN UNKNOWN NONE NONE DUMMY) (
CHARACTER 1 ((CONSTANT (INTEGER 4) 0 '32'))) 0 0 () () () '' () ())
)

('rdsatfil' 0 2 's_rdsatfil' 0 5)
