G95 module created on Thu Jun 25 17:42:52 2020 from ./.fpp/RDPREH.f
If you edit this, you'll get what you deserve.
module-version 9
(() () () () () () () () () () () () () () () () () () () () ())

()

()

()

()

(2 'rdpreh' 's_rdpreh' 1 ((PROCEDURE UNKNOWN MODULE-PROC DECL NONE NONE
SUBROUTINE) (PROCEDURE 0) 0 0 (3 NONE 4 NONE 5 NONE 6 NONE 7 NONE 8 NONE
9 NONE 10 NONE 11 NONE 12 NONE 13 NONE 14 NONE 15 NONE 16 NONE 17 NONE
18 NONE 19 NONE 20 NONE) () () '' () ())
21 's_rdpreh' 's_rdpreh' 1 ((MODULE UNKNOWN UNKNOWN UNKNOWN NONE NONE) (
UNKNOWN) 0 0 () () () '' () ())
20 'basclk' '' 22 ((VARIABLE UNKNOWN UNKNOWN UNKNOWN NONE NONE DUMMY) (
REAL 8) 0 0 () () () '' () ())
19 'baspos' '' 22 ((VARIABLE UNKNOWN UNKNOWN UNKNOWN NONE NONE DUMMY) (
REAL 8) 0 0 () () () '' () ())
18 'timsys' '' 22 ((VARIABLE UNKNOWN UNKNOWN UNKNOWN NONE NONE DUMMY) (
CHARACTER 1 ((CONSTANT (INTEGER 4) 0 '3'))) 0 0 () () () '' () ())
17 'filtyp' '' 22 ((VARIABLE UNKNOWN UNKNOWN UNKNOWN NONE NONE DUMMY) (
CHARACTER 1 ((CONSTANT (INTEGER 4) 0 '2'))) 0 0 () () () '' () ())
16 'agency' '' 22 ((VARIABLE UNKNOWN UNKNOWN UNKNOWN NONE NONE DUMMY) (
CHARACTER 1 ((CONSTANT (INTEGER 4) 0 '4'))) 0 0 () () () '' () ())
15 'orbtyp' '' 22 ((VARIABLE UNKNOWN UNKNOWN UNKNOWN NONE NONE DUMMY) (
CHARACTER 1 ((CONSTANT (INTEGER 4) 0 '3'))) 0 0 () () () '' () ())
14 'coosys' '' 22 ((VARIABLE UNKNOWN UNKNOWN UNKNOWN NONE NONE DUMMY) (
CHARACTER 1 ((CONSTANT (INTEGER 4) 0 '5'))) 0 0 () () () '' () ())
13 'datdes' '' 22 ((VARIABLE UNKNOWN UNKNOWN UNKNOWN NONE NONE DUMMY) (
CHARACTER 1 ((CONSTANT (INTEGER 4) 0 '5'))) 0 0 () () () '' () ())
12 'title' '' 22 ((VARIABLE UNKNOWN UNKNOWN UNKNOWN NONE NONE DIMENSION
DUMMY) (CHARACTER 1 ((CONSTANT (INTEGER 4) 0 '57'))) 0 0 () (1 EXPLICIT
(CONSTANT (INTEGER 4) 0 '1') (CONSTANT (INTEGER 4) 0 '4')) () '' () ())
11 'dttab' '' 22 ((VARIABLE UNKNOWN UNKNOWN UNKNOWN NONE NONE DUMMY) (
REAL 8) 0 0 () () () '' () ())
10 'nepo' '' 22 ((VARIABLE UNKNOWN UNKNOWN UNKNOWN NONE NONE DUMMY) (
INTEGER 4) 0 0 () () () '' () ())
9 'tfirst' '' 22 ((VARIABLE UNKNOWN UNKNOWN UNKNOWN NONE NONE DUMMY) (
REAL 8) 0 0 () () () '' () ())
8 'satwgt' '' 22 ((VARIABLE UNKNOWN UNKNOWN UNKNOWN NONE NONE DIMENSION
DUMMY) (INTEGER 4) 0 0 () (1 ASSUMED_SIZE (CONSTANT (INTEGER 4) 0 '1') ())
() '' () ())
7 'satnum' '' 22 ((VARIABLE UNKNOWN UNKNOWN UNKNOWN NONE NONE DIMENSION
DUMMY) (INTEGER 4) 0 0 () (1 ASSUMED_SIZE (CONSTANT (INTEGER 4) 0 '1') ())
() '' () ())
6 'nsat' '' 22 ((VARIABLE UNKNOWN UNKNOWN UNKNOWN NONE NONE DUMMY) (
INTEGER 4) 0 0 () () () '' () ())
5 'ifrmat' '' 22 ((VARIABLE UNKNOWN UNKNOWN UNKNOWN NONE NONE DUMMY) (
INTEGER 4) 0 0 () () () '' () ())
4 'lfn' '' 22 ((VARIABLE UNKNOWN UNKNOWN UNKNOWN NONE NONE DUMMY) (
INTEGER 4) 0 0 () () () '' () ())
3 'filnam' '' 22 ((VARIABLE UNKNOWN UNKNOWN UNKNOWN NONE NONE DUMMY) (
CHARACTER 1 (())) 0 0 () () () '' () ())
)

('rdpreh' 0 2 's_rdpreh' 0 21)
