G95 module created on Thu Jun 25 17:43:35 2020 from ./.fpp/RDIDIP.f90
If you edit this, you'll get what you deserve.
module-version 9
(() () () () () () () () () () () () () () () () () () () () ())

()

()

()

()

(2 'rdidip' 's_rdidip' 1 ((PROCEDURE UNKNOWN MODULE-PROC DECL NONE NONE
SUBROUTINE) (PROCEDURE 0) 0 0 (3 NONE 4 NONE) () () '' () ())
5 's_rdidip' 's_rdidip' 1 ((MODULE UNKNOWN UNKNOWN UNKNOWN NONE NONE) (
UNKNOWN) 0 0 () () () '' () ())
4 'sigdip' '' 6 ((VARIABLE UNKNOWN UNKNOWN UNKNOWN NONE NONE DIMENSION
DUMMY) (REAL 8) 0 0 () (1 EXPLICIT (CONSTANT (INTEGER 4) 0 '1') (
CONSTANT (INTEGER 4) 0 '2')) () '' () ())
3 'optdip' '' 6 ((VARIABLE UNKNOWN UNKNOWN UNKNOWN NONE NONE DIMENSION
DUMMY) (INTEGER 4) 0 0 () (1 ASSUMED_SIZE (CONSTANT (INTEGER 4) 0 '1') ())
() '' () ())
)

('rdidip' 0 2 's_rdidip' 0 5)
