G95 module created on Thu Jun 25 17:44:44 2020 from ./.fpp/RDLAUX.f90
If you edit this, you'll get what you deserve.
module-version 9
(() () () () () () () () () () () () () () () () () () () () ())

()

()

()

()

(2 'rdlaux' 's_rdlaux' 1 ((PROCEDURE UNKNOWN MODULE-PROC DECL NONE NONE
SUBROUTINE) (PROCEDURE 0) 0 0 (3 NONE 4 NONE 5 NONE 6 NONE) () () '' ()
())
7 's_rdlaux' 's_rdlaux' 1 ((MODULE UNKNOWN UNKNOWN UNKNOWN NONE NONE) (
UNKNOWN) 0 0 () () () '' () ())
6 'irc' '' 8 ((VARIABLE UNKNOWN UNKNOWN UNKNOWN NONE NONE DUMMY) (
INTEGER 4) 0 0 () () () '' () ())
5 'cdata' '' 8 ((VARIABLE UNKNOWN UNKNOWN UNKNOWN NONE NONE DUMMY) (
DERIVED 9) 0 0 () () () '' () ())
9 't_chpdata' 'p_leoaux' 8 ((DERIVED UNKNOWN UNKNOWN UNKNOWN NONE NONE)
(UNKNOWN) 0 0 () () () '' ((10 'flgdat' (INTEGER 4) (1 EXPLICIT (
CONSTANT (INTEGER 4) 0 '1') (CONSTANT (INTEGER 4) 0 '12')) () 1 0 0 ())
(11 'timstr' (CHARACTER 1 ((CONSTANT (INTEGER 4) 0 '27'))) () () 0 0 0 ())
(12 'acl' (REAL 8) (1 EXPLICIT (CONSTANT (INTEGER 4) 0 '1') (CONSTANT (
INTEGER 4) 0 '3')) () 1 0 0 ()) (13 'sacl' (INTEGER 4) () () 0 0 0 ()) (
14 'aca' (REAL 8) (1 EXPLICIT (CONSTANT (INTEGER 4) 0 '1') (CONSTANT (
INTEGER 4) 0 '3')) () 1 0 0 ()) (15 'saca' (INTEGER 4) () () 0 0 0 ()) (
16 'acc' (REAL 8) (2 EXPLICIT (CONSTANT (INTEGER 4) 0 '1') (CONSTANT (
INTEGER 4) 0 '10') (CONSTANT (INTEGER 4) 0 '1') (CONSTANT (INTEGER 4) 0
'3')) () 1 0 0 ()) (17 'facc' (INTEGER 4) (2 EXPLICIT (CONSTANT (
INTEGER 4) 0 '1') (CONSTANT (INTEGER 4) 0 '10') (CONSTANT (INTEGER 4) 0
'1') (CONSTANT (INTEGER 4) 0 '2')) () 1 0 0 ()) (18 'att' (REAL 8) (1
EXPLICIT (CONSTANT (INTEGER 4) 0 '1') (CONSTANT (INTEGER 4) 0 '4')) () 1
0 0 ()) (19 'starfl' (INTEGER 4) (1 EXPLICIT (CONSTANT (INTEGER 4) 0 '1')
(CONSTANT (INTEGER 4) 0 '4')) () 1 0 0 ()) (20 'thrflg' (INTEGER 4) (1
EXPLICIT (CONSTANT (INTEGER 4) 0 '1') (CONSTANT (INTEGER 4) 0 '14')) ()
1 0 0 ()) (21 'quatt' (REAL 8) () () 0 0 0 ()) (22 'thrpul' (REAL 8) ()
() 0 0 0 ()) (23 'hk1' (REAL 8) (1 EXPLICIT (CONSTANT (INTEGER 4) 0 '1')
(CONSTANT (INTEGER 4) 0 '4')) () 1 0 0 ()) (24 'hk2' (REAL 8) (1
EXPLICIT (CONSTANT (INTEGER 4) 0 '1') (CONSTANT (INTEGER 4) 0 '4')) () 1
0 0 ()) (25 'flhk3' (INTEGER 4) (1 EXPLICIT (CONSTANT (INTEGER 4) 0 '1')
(CONSTANT (INTEGER 4) 0 '6')) () 1 0 0 ()) (26 'nbc' (INTEGER 4) () () 0
0 0 ()) (27 'hk3' (REAL 8) (1 EXPLICIT (CONSTANT (INTEGER 4) 0 '1') (
CONSTANT (INTEGER 4) 0 '4')) () 1 0 0 ()) (28 'hk4' (REAL 8) (1 EXPLICIT
(CONSTANT (INTEGER 4) 0 '1') (CONSTANT (INTEGER 4) 0 '5')) () 1 0 0 ())
(29 'tmpacc' (REAL 8) () () 0 0 0 ()) (30 'fgm' (REAL 8) (1 EXPLICIT (
CONSTANT (INTEGER 4) 0 '1') (CONSTANT (INTEGER 4) 0 '3')) () 1 0 0 ()) (
31 'fgmnr' (INTEGER 4) () () 0 0 0 ())) PUBLIC ())
4 'head_out' '' 8 ((VARIABLE UNKNOWN UNKNOWN UNKNOWN NONE NONE DUMMY) (
DERIVED 32) 0 0 () () () '' () ())
32 't_chphead' 'p_leoaux' 8 ((DERIVED UNKNOWN UNKNOWN UNKNOWN NONE NONE)
(UNKNOWN) 0 0 () () () '' ((33 'versio' (CHARACTER 1 ((CONSTANT (
INTEGER 4) 0 '3'))) () () 0 0 0 ()) (34 'satnum' (CHARACTER 1 ((
CONSTANT (INTEGER 4) 0 '7'))) () () 0 0 0 ()) (35 'satnam' (CHARACTER 1
((CONSTANT (INTEGER 4) 0 '20'))) () () 0 0 0 ()) (36 'timfst' (
CHARACTER 1 ((CONSTANT (INTEGER 4) 0 '27'))) () () 0 0 0 ()) (37 'timlst'
(CHARACTER 1 ((CONSTANT (INTEGER 4) 0 '27'))) () () 0 0 0 ()) (38 'flgtyp'
(INTEGER 4) (1 EXPLICIT (CONSTANT (INTEGER 4) 0 '1') (CONSTANT (INTEGER
4) 0 '12')) () 1 0 0 ()) (39 'dattyp' (DERIVED 40) (1 EXPLICIT (
CONSTANT (INTEGER 4) 0 '1') (CONSTANT (INTEGER 4) 0 '12')) () 1 0 0 ())
(41 'aclk' (REAL 8) (2 EXPLICIT (CONSTANT (INTEGER 4) 0 '1') (CONSTANT (
INTEGER 4) 0 '3') (CONSTANT (INTEGER 4) 0 '1') (CONSTANT (INTEGER 4) 0 '3'))
() 1 0 0 ()) (42 'acak' (REAL 8) (2 EXPLICIT (CONSTANT (INTEGER 4) 0 '1')
(CONSTANT (INTEGER 4) 0 '3') (CONSTANT (INTEGER 4) 0 '1') (CONSTANT (
INTEGER 4) 0 '3')) () 1 0 0 ()) (43 'revis' (INTEGER 4) () () 0 0 0 ())
(44 'faclk' (INTEGER 4) (1 EXPLICIT (CONSTANT (INTEGER 4) 0 '1') (
CONSTANT (INTEGER 4) 0 '3')) () 1 0 0 ()) (45 'facak' (INTEGER 4) (1
EXPLICIT (CONSTANT (INTEGER 4) 0 '1') (CONSTANT (INTEGER 4) 0 '3')) () 1
0 0 ()) (46 'mass' (REAL 8) () () 0 0 0 ()) (47 'asc2sc' (REAL 8) (1
EXPLICIT (CONSTANT (INTEGER 4) 0 '1') (CONSTANT (INTEGER 4) 0 '4')) () 1
0 0 ()) (48 'filt' (CHARACTER 1 ((CONSTANT (INTEGER 4) 0 '3'))) () () 0
0 0 ())) PUBLIC ())
40 't_chpdattyp' 'p_leoaux' 8 ((DERIVED UNKNOWN UNKNOWN UNKNOWN NONE
NONE) (UNKNOWN) 0 0 () () () '' ((49 'typ' (CHARACTER 1 ((CONSTANT (
INTEGER 4) 0 '3'))) () () 0 0 0 ()) (50 'ref' (CHARACTER 1 ((CONSTANT (
INTEGER 4) 0 '3'))) () () 0 0 0 ()) (51 'form' (CHARACTER 1 ((CONSTANT (
INTEGER 4) 0 '50'))) () () 0 0 0 ())) PUBLIC ())
3 'isel' '' 8 ((VARIABLE UNKNOWN UNKNOWN UNKNOWN NONE NONE DUMMY) (
INTEGER 4) 0 0 () () () '' () ())
)

('rdlaux' 0 2 's_rdlaux' 0 7)
