G95 module created on Thu Jun 25 17:43:06 2020 from ./.fpp/RDOBSI.f
If you edit this, you'll get what you deserve.
module-version 9
(() () () () () () () () () () () () () () () () () () () () ())

()

()

()

()

(2 'rdobsi' 's_rdobsi' 1 ((PROCEDURE UNKNOWN MODULE-PROC DECL NONE NONE
SUBROUTINE) (PROCEDURE 0) 0 0 (3 NONE 4 NONE 5 NONE 6 NONE 7 NONE 8 NONE
9 NONE 10 NONE 11 NONE 12 NONE 13 NONE 14 NONE) () () '' () ())
15 's_rdobsi' 's_rdobsi' 1 ((MODULE UNKNOWN UNKNOWN UNKNOWN NONE NONE) (
UNKNOWN) 0 0 () () () '' () ())
14 'iretrn' '' 16 ((VARIABLE UNKNOWN UNKNOWN UNKNOWN NONE NONE DUMMY) (
INTEGER 4) 0 0 () () () '' () ())
13 'observ' '' 16 ((VARIABLE UNKNOWN UNKNOWN UNKNOWN NONE NONE DIMENSION
DUMMY) (REAL 8) 0 0 () (2 ASSUMED_SIZE (CONSTANT (INTEGER 4) 0 '1') (
VARIABLE (INTEGER 4) 0 17 ()) (CONSTANT (INTEGER 4) 0 '1') ()) () '' ()
())
17 'mxcsat' '' 16 ((VARIABLE UNKNOWN UNKNOWN UNKNOWN NONE NONE IN_COMMON)
(INTEGER 4) 0 18 () () () '' () ())
18 'mxnsat' '' 16 ((VARIABLE UNKNOWN UNKNOWN UNKNOWN NONE NONE IN_COMMON)
(CHARACTER 1 ((CONSTANT (INTEGER 4) 0 '6'))) 0 0 () () () '' () ())
12 'obsflg' '' 16 ((VARIABLE UNKNOWN UNKNOWN UNKNOWN NONE NONE DIMENSION
DUMMY) (CHARACTER 1 ((CONSTANT (INTEGER 4) 0 '1'))) 0 0 () (2
ASSUMED_SIZE (CONSTANT (INTEGER 4) 0 '1') (VARIABLE (INTEGER 4) 0 17 ())
(CONSTANT (INTEGER 4) 0 '1') ()) () '' () ())
11 'nrsat' '' 16 ((VARIABLE UNKNOWN UNKNOWN UNKNOWN NONE NONE DIMENSION
DUMMY) (INTEGER 4) 0 0 () (1 ASSUMED_SIZE (CONSTANT (INTEGER 4) 0 '1') ())
() '' () ())
10 'nsat' '' 16 ((VARIABLE UNKNOWN UNKNOWN UNKNOWN NONE NONE DUMMY) (
INTEGER 4) 0 0 () () () '' () ())
9 'epoflg' '' 16 ((VARIABLE UNKNOWN UNKNOWN UNKNOWN NONE NONE DUMMY) (
CHARACTER 1 ((CONSTANT (INTEGER 4) 0 '1'))) 0 0 () () () '' () ())
8 'deltat' '' 16 ((VARIABLE UNKNOWN UNKNOWN UNKNOWN NONE NONE DIMENSION
DUMMY) (REAL 8) 0 0 () (1 EXPLICIT (CONSTANT (INTEGER 4) 0 '1') (
CONSTANT (INTEGER 4) 0 '2')) () '' () ())
7 'obstim' '' 16 ((VARIABLE UNKNOWN UNKNOWN UNKNOWN NONE NONE DUMMY) (
REAL 8) 0 0 () () () '' () ())
6 'ifrqs' '' 16 ((VARIABLE UNKNOWN UNKNOWN UNKNOWN NONE NONE DIMENSION
DUMMY) (INTEGER 4) 0 0 () (1 ASSUMED_SIZE (CONSTANT (INTEGER 4) 0 '1') ())
() '' () ())
5 'nfrqs' '' 16 ((VARIABLE UNKNOWN UNKNOWN UNKNOWN NONE NONE DUMMY) (
INTEGER 4) 0 0 () () () '' () ())
4 'ifrmat' '' 16 ((VARIABLE UNKNOWN UNKNOWN UNKNOWN NONE NONE DUMMY) (
INTEGER 4) 0 0 () () () '' () ())
3 'lfnobs' '' 16 ((VARIABLE UNKNOWN UNKNOWN UNKNOWN NONE NONE DUMMY) (
INTEGER 4) 0 0 () () () '' () ())
)

('rdobsi' 0 2 's_rdobsi' 0 15)
