G95 module created on Thu Jun 25 17:44:29 2020 from ./.fpp/RDLAUI.f90
If you edit this, you'll get what you deserve.
module-version 9
(() () () () () () () () () () () () () () () () () () () () ())

()

()

()

()

(2 'rdlaui' 's_rdlaui' 1 ((PROCEDURE UNKNOWN MODULE-PROC DECL NONE NONE
SUBROUTINE) (PROCEDURE 0) 0 0 (3 NONE) () () '' () ())
4 's_rdlaui' 's_rdlaui' 1 ((MODULE UNKNOWN UNKNOWN UNKNOWN NONE NONE) (
UNKNOWN) 0 0 () () () '' () ())
3 'opt' '' 5 ((VARIABLE UNKNOWN UNKNOWN UNKNOWN NONE NONE DUMMY) (
DERIVED 6) 0 0 () () () '' () ())
6 't_leoaux_opt' 'p_leoaux' 5 ((DERIVED UNKNOWN UNKNOWN UNKNOWN NONE
NONE) (UNKNOWN) 0 0 () () () '' ((7 'title' (CHARACTER 1 ((CONSTANT (
INTEGER 4) 0 '80'))) () () 0 0 0 ()) (8 'satnam' (CHARACTER 1 ((
CONSTANT (INTEGER 4) 0 '5'))) () () 0 0 0 ()) (9 'window' (REAL 8) (1
EXPLICIT (CONSTANT (INTEGER 4) 0 '1') (CONSTANT (INTEGER 4) 0 '2')) () 1
0 0 ()) (10 'typlst' (INTEGER 4) (1 EXPLICIT (CONSTANT (INTEGER 4) 0 '1')
(CONSTANT (INTEGER 4) 0 '12')) () 1 0 0 ()) (11 'ixyz' (INTEGER 4) () ()
0 0 0 ()) (12 'strqua' (INTEGER 4) () () 0 0 0 ())) PUBLIC ())
)

('rdlaui' 0 2 's_rdlaui' 0 4)
