G95 module created on Thu Jun 25 17:43:24 2020 from ./.fpp/REDTRB.f90
If you edit this, you'll get what you deserve.
module-version 9
(() () () () () () () () () () () () () () () () () () () () ())

()

()

()

()

(2 'redtrb' 's_redtrb' 1 ((PROCEDURE UNKNOWN MODULE-PROC DECL NONE NONE
SUBROUTINE) (PROCEDURE 0) 0 0 (3 NONE 4 NONE 5 NONE 6 NONE 7 NONE 8 NONE
9 NONE 10 NONE) () () '' () ())
11 's_redtrb' 's_redtrb' 1 ((MODULE UNKNOWN UNKNOWN UNKNOWN NONE NONE) (
UNKNOWN) 0 0 () () () '' () ())
10 'rms' '' 12 ((VARIABLE UNKNOWN UNKNOWN UNKNOWN NONE NONE DUMMY) (
REAL 8) 0 0 () () () '' () ())
9 'bnor' '' 12 ((VARIABLE UNKNOWN UNKNOWN UNKNOWN NONE NONE DIMENSION
DUMMY) (REAL 8) 0 0 () (1 ASSUMED_SIZE (CONSTANT (INTEGER 4) 0 '1') ())
() '' () ())
8 'anor' '' 12 ((VARIABLE UNKNOWN UNKNOWN UNKNOWN NONE NONE DIMENSION
DUMMY) (REAL 8) 0 0 () (1 ASSUMED_SIZE (CONSTANT (INTEGER 4) 0 '1') ())
() '' () ())
7 'nlin' '' 12 ((VARIABLE UNKNOWN UNKNOWN UNKNOWN NONE NONE DUMMY) (
INTEGER 4) 0 0 () () () '' () ())
6 'idel' '' 12 ((VARIABLE UNKNOWN UNKNOWN UNKNOWN NONE NONE DIMENSION
DUMMY) (INTEGER 4) 0 0 () (1 ASSUMED_SIZE (CONSTANT (INTEGER 4) 0 '1') ())
() '' () ())
5 'aii' '' 12 ((VARIABLE UNKNOWN UNKNOWN UNKNOWN NONE NONE DIMENSION
DUMMY) (REAL 8) 0 0 () (1 ASSUMED_SIZE (CONSTANT (INTEGER 4) 0 '1') ())
() '' () ())
4 'a0i' '' 12 ((VARIABLE UNKNOWN UNKNOWN UNKNOWN NONE NONE DIMENSION
DUMMY) (REAL 8) 0 0 () (2 ASSUMED_SIZE (CONSTANT (INTEGER 4) 0 '1') (
VARIABLE (INTEGER 4) 0 7 ()) (CONSTANT (INTEGER 4) 0 '1') ()) () '' () ())
3 'npar' '' 12 ((VARIABLE UNKNOWN UNKNOWN UNKNOWN NONE NONE DUMMY) (
INTEGER 4) 0 0 () () () '' () ())
)

('redtrb' 0 2 's_redtrb' 0 11)
