G95 module created on Thu Jun 25 17:43:03 2020 from ./.fpp/READRGB.f90
If you edit this, you'll get what you deserve.
module-version 9
(() () () () () () () () () () () () () () () () () () ()
() ())

()

()

()

()

(2 'readrgb' 's_readrgb' 1 ((PROCEDURE UNKNOWN MODULE-PROC DECL NONE
NONE SUBROUTINE) (PROCEDURE 0) 0 0 (3 NONE 4 NONE) () () '' () ())
5 's_readrgb' 's_readrgb' 1 ((MODULE UNKNOWN UNKNOWN UNKNOWN NONE NONE)
(UNKNOWN) 0 0 () () () '' () ())
4 'slrinfo' '' 6 ((VARIABLE UNKNOWN UNKNOWN UNKNOWN NONE NONE DUMMY) (
DERIVED 7) 0 0 () () () '' () ())
7 't_slrinfo' 'd_rgbfil' 6 ((DERIVED UNKNOWN UNKNOWN UNKNOWN NONE NONE)
(UNKNOWN) 0 0 () () () '' ((8 'slrfile' (CHARACTER 1 ((CONSTANT (
INTEGER 4) 0 '32'))) () () 0 0 0 ()) (9 'headline' (CHARACTER 1 ((
CONSTANT (INTEGER 4) 0 '255'))) (1 EXPLICIT (CONSTANT (INTEGER 4) 0 '1')
(CONSTANT (INTEGER 4) 0 '7')) () 1 0 0 ()) (10 'version' (REAL 8) () ()
0 0 0 ()) (11 'rgb' (DERIVED 12) (1 DEFERRED () ()) () 1 1 0 ()) (13
'nrgb' (INTEGER 4) () () 0 0 0 ())) PUBLIC ())
12 't_rgb' 'd_rgbfil' 6 ((DERIVED UNKNOWN UNKNOWN UNKNOWN NONE NONE) (
UNKNOWN) 0 0 () () () '' ((14 'corrtyp' (CHARACTER 1 ((CONSTANT (
INTEGER 4) 0 '3'))) () () 0 0 0 ()) (15 'stanam' (CHARACTER 1 ((
CONSTANT (INTEGER 4) 0 '20'))) () () 0 0 0 ()) (16 'satnum' (INTEGER 4)
() () 0 0 0 ()) (17 'wlchar' (CHARACTER 1 ((CONSTANT (INTEGER 4) 0 '1')))
() () 0 0 0 ()) (18 'wlind' (INTEGER 4) () () 0 0 0 ()) (19 'value' (
REAL 8) () () 0 0 0 ()) (20 'sigma' (REAL 8) () () 0 0 0 ()) (21 'timwin'
(DERIVED 22) () () 0 0 0 ()) (23 'solflag' (CHARACTER 1 ((CONSTANT (
INTEGER 4) 0 '6'))) () () 0 0 0 ()) (24 'remark' (CHARACTER 1 ((
CONSTANT (INTEGER 4) 0 '23'))) () () 0 0 0 ())) PUBLIC ())
22 't_timwin' 'm_epoch' 6 ((DERIVED UNKNOWN UNKNOWN UNKNOWN NONE NONE) (
UNKNOWN) 0 0 () () () '' ((25 't' (DERIVED 26) (1 EXPLICIT (CONSTANT (
INTEGER 4) 0 '1') (CONSTANT (INTEGER 4) 0 '2')) () 1 0 0 ())) PUBLIC ())
26 't_epoch' 'm_epoch' 6 ((DERIVED UNKNOWN UNKNOWN UNKNOWN NONE NONE) (
UNKNOWN) 0 0 () () () '' ((27 'day' (INTEGER 4) () () 0 0 0 ()) (28 'frac'
(REAL 8) () () 0 0 0 ())) PUBLIC ())
3 'filrgb' '' 6 ((VARIABLE UNKNOWN UNKNOWN UNKNOWN NONE NONE DUMMY) (
CHARACTER 1 ((CONSTANT (INTEGER 4) 0 '32'))) 0 0 () () () '' () ())
)

('readrgb' 0 2 's_readrgb' 0 5)
