G95 module created on Thu Jun 25 17:43:32 2020 from ./.fpp/READINPF.f90
If you edit this, you'll get what you deserve.
module-version 9
(() () () () () () () () () () () () () () () () () () () () ())

()

()

()

()

(2 'readinpf' 's_readinpf' 1 ((PROCEDURE UNKNOWN MODULE-PROC DECL NONE
NONE SUBROUTINE) (PROCEDURE 0) 0 0 (3 NONE 4 NONE 5 NONE) () () '' () ())
6 's_readinpf' 's_readinpf' 1 ((MODULE UNKNOWN UNKNOWN UNKNOWN NONE NONE)
(UNKNOWN) 0 0 () () () '' () ())
5 'readmode' '' 7 ((VARIABLE UNKNOWN UNKNOWN UNKNOWN NONE NONE OPTIONAL
DUMMY) (INTEGER 4) 0 0 () () () '' () ())
4 'inpkey' '' 7 ((VARIABLE UNKNOWN UNKNOWN UNKNOWN NONE NONE DUMMY) (
DERIVED 8) 0 0 () () () '' () ())
8 't_inpkey' 'd_inpkey' 7 ((DERIVED UNKNOWN UNKNOWN UNKNOWN NONE NONE) (
UNKNOWN) 0 0 () () () '' ((9 'inpfilename' (CHARACTER 1 ((CONSTANT (
INTEGER 4) 0 '255'))) () () 0 0 0 ()) (10 'nkeys' (INTEGER 4) () () 0 0
0 ()) (11 'keys' (DERIVED 12) (1 DEFERRED () ()) () 1 1 0 ()) (13 'ndel'
(INTEGER 4) () () 0 0 0 ()) (14 'delfil' (CHARACTER 1 ((CONSTANT (
INTEGER 4) 0 '255'))) (1 DEFERRED () ()) () 1 1 0 ()) (15 'isopnfil' (
LOGICAL 4) () () 0 0 0 ()) (16 'status' (INTEGER 4) () () 0 0 0 ()))
PUBLIC ())
12 't_key' 'm_bern' 7 ((DERIVED UNKNOWN UNKNOWN UNKNOWN NONE NONE) (
UNKNOWN) 0 0 () () () '' ((17 'name' (CHARACTER 1 ((CONSTANT (INTEGER 4)
0 '32'))) () () 0 0 0 ()) (18 'value' (CHARACTER 1 ((CONSTANT (INTEGER 4)
0 '255'))) (1 DEFERRED () ()) () 1 1 0 ())) PUBLIC ())
3 'inpfilename' '' 7 ((VARIABLE UNKNOWN UNKNOWN UNKNOWN NONE NONE DUMMY)
(CHARACTER 1 (())) 0 0 () () () '' () ())
)

('readinpf' 0 2 's_readinpf' 0 6)
