G95 module created on Thu Jun 25 17:45:33 2020 from ./.fpp/RMSELE.f
If you edit this, you'll get what you deserve.
module-version 9
(() () () () () () () () () () () () () () () () () () () () ())

()

()

()

()

(2 'rmsele' 's_rmsele' 1 ((PROCEDURE UNKNOWN MODULE-PROC DECL NONE NONE
SUBROUTINE) (PROCEDURE 0) 0 0 (3 NONE 4 NONE 5 NONE 6 NONE) () () '' ()
())
7 's_rmsele' 's_rmsele' 1 ((MODULE UNKNOWN UNKNOWN UNKNOWN NONE NONE) (
UNKNOWN) 0 0 () () () '' () ())
6 'du' '' 8 ((VARIABLE UNKNOWN UNKNOWN UNKNOWN NONE NONE DUMMY) (REAL 8)
0 0 () () () '' () ())
5 'iupd' '' 8 ((VARIABLE UNKNOWN UNKNOWN UNKNOWN NONE NONE DUMMY) (
INTEGER 4) 0 0 () () () '' () ())
4 'svn' '' 8 ((VARIABLE UNKNOWN UNKNOWN UNKNOWN NONE NONE DUMMY) (
INTEGER 4) 0 0 () () () '' () ())
3 'iarc' '' 8 ((VARIABLE UNKNOWN UNKNOWN UNKNOWN NONE NONE DUMMY) (
INTEGER 4) 0 0 () () () '' () ())
)

('rmsele' 0 2 's_rmsele' 0 7)
