G95 module created on Thu Jun 25 17:44:13 2020 from ./.fpp/RNXSTAT.f90
If you edit this, you'll get what you deserve.
module-version 9
(() () () () () () () () () () () () () () () () () () () () ())

()

()

()

()

(2 'rnxstat' 's_rnxstat' 1 ((PROCEDURE UNKNOWN MODULE-PROC DECL NONE
NONE SUBROUTINE) (PROCEDURE 0) 0 0 (3 NONE 4 NONE 5 NONE) () () '' () ())
6 's_rnxstat' 's_rnxstat' 1 ((MODULE UNKNOWN UNKNOWN UNKNOWN NONE NONE)
(UNKNOWN) 0 0 () () () '' () ())
5 'gobsdef' '' 7 ((VARIABLE UNKNOWN UNKNOWN UNKNOWN NONE NONE DUMMY) (
DERIVED 8) 0 0 () () () '' () ())
8 't_gobsdef' 'd_rinex3' 7 ((DERIVED UNKNOWN UNKNOWN UNKNOWN NONE NONE)
(UNKNOWN) 0 0 () () () '' ((9 'norec' (INTEGER 4) () () 0 0 0 ()) (10
'sat' (DERIVED 11) (1 DEFERRED () ()) () 1 1 0 ()) (12 'nfreqc' (
INTEGER 4) () () 0 0 0 ()) (13 'nfreqp' (INTEGER 4) () () 0 0 0 ()))
PUBLIC ())
11 't_satsig' 'd_rinex3' 7 ((DERIVED UNKNOWN UNKNOWN UNKNOWN NONE NONE)
(UNKNOWN) 0 0 () () () '' ((14 'satname' (CHARACTER 1 ((CONSTANT (
INTEGER 4) 0 '3'))) () () 0 0 0 ()) (15 'sysnum' (INTEGER 4) () () 0 0 0
()) (16 'syschar' (CHARACTER 1 ((CONSTANT (INTEGER 4) 0 '1'))) () () 0 0
0 ()) (17 'satnum' (INTEGER 4) () () 0 0 0 ()) (18 'obstyp' (CHARACTER 1
((CONSTANT (INTEGER 4) 0 '3'))) (1 EXPLICIT (CONSTANT (INTEGER 4) 0 '1')
(CONSTANT (INTEGER 4) 0 '8')) () 1 0 0 ()) (19 'obstyp2' (CHARACTER 1 (
(CONSTANT (INTEGER 4) 0 '2'))) (1 EXPLICIT (CONSTANT (INTEGER 4) 0 '1')
(CONSTANT (INTEGER 4) 0 '8')) () 1 0 0 ()) (20 'obsindr212' (INTEGER 4)
(1 EXPLICIT (CONSTANT (INTEGER 4) 0 '1') (CONSTANT (INTEGER 4) 0 '8')) ()
1 0 0 ()) (21 'factor' (INTEGER 4) (1 EXPLICIT (CONSTANT (INTEGER 4) 0 '1')
(CONSTANT (INTEGER 4) 0 '8')) () 1 0 0 ()) (22 'nfreqc' (INTEGER 4) () ()
0 0 0 ()) (23 'nfreqp' (INTEGER 4) () () 0 0 0 ()) (24 'eposatind' (
INTEGER 4) () () 0 0 0 ())) PUBLIC ())
4 'usegeos' '' 7 ((VARIABLE UNKNOWN UNKNOWN UNKNOWN NONE NONE DUMMY) (
INTEGER 4) 0 0 () () () '' () ())
3 'filename' '' 7 ((VARIABLE UNKNOWN UNKNOWN UNKNOWN NONE NONE DUMMY) (
CHARACTER 1 ((CONSTANT (INTEGER 4) 0 '32'))) 0 0 () () () '' () ())
)

('rnxstat' 0 2 's_rnxstat' 0 6)
