G95 module created on Thu Jun 25 17:44:06 2020 from ./.fpp/SESWIN.f90
If you edit this, you'll get what you deserve.
module-version 9
(() () () () () () () () () () () () () () () () () () () () ())

()

()

()

()

(2 's_seswin' 's_seswin' 1 ((MODULE UNKNOWN UNKNOWN UNKNOWN NONE NONE) (
UNKNOWN) 0 0 () () () '' () ())
3 'seswin' 's_seswin' 1 ((PROCEDURE UNKNOWN MODULE-PROC DECL NONE NONE
SUBROUTINE) (PROCEDURE 0) 0 0 (4 NONE 5 NONE 6 NONE 7 NONE 8 NONE 9 NONE
10 NONE 11 NONE) () () '' () ())
11 'ircode' '' 12 ((VARIABLE UNKNOWN UNKNOWN UNKNOWN NONE NONE DUMMY) (
INTEGER 4) 0 0 () () () '' () ())
10 't2ses' '' 12 ((VARIABLE UNKNOWN UNKNOWN UNKNOWN NONE NONE DUMMY) (
CHARACTER 1 ((CONSTANT (INTEGER 4) 0 '4'))) 0 0 () () () '' () ())
9 't1ses' '' 12 ((VARIABLE UNKNOWN UNKNOWN UNKNOWN NONE NONE DUMMY) (
CHARACTER 1 ((CONSTANT (INTEGER 4) 0 '4'))) 0 0 () () () '' () ())
8 't2out' '' 12 ((VARIABLE UNKNOWN UNKNOWN UNKNOWN NONE NONE DUMMY) (
REAL 8) 0 0 () () () '' () ())
7 't1out' '' 12 ((VARIABLE UNKNOWN UNKNOWN UNKNOWN NONE NONE DUMMY) (
REAL 8) 0 0 () () () '' () ())
6 't2inp' '' 12 ((VARIABLE UNKNOWN UNKNOWN UNKNOWN NONE NONE DUMMY) (
REAL 8) 0 0 () () () '' () ())
5 't1inp' '' 12 ((VARIABLE UNKNOWN UNKNOWN UNKNOWN NONE NONE DUMMY) (
REAL 8) 0 0 () () () '' () ())
4 'seskeyw' '' 12 ((VARIABLE UNKNOWN UNKNOWN UNKNOWN NONE NONE DUMMY) (
CHARACTER 1 (())) 0 0 () () () '' () ())
)

('s_seswin' 0 2 'seswin' 0 3)
