G95 module created on Thu Jun 25 17:44:53 2020 from ./.fpp/SIMINP.f90
If you edit this, you'll get what you deserve.
module-version 9
(() () () () () () () () () () () () () () () () () () () () ())

()

()

()

()

(2 's_siminp' 's_siminp' 1 ((MODULE UNKNOWN UNKNOWN UNKNOWN NONE NONE) (
UNKNOWN) 0 0 () () () '' () ())
3 'siminp' 's_siminp' 1 ((PROCEDURE UNKNOWN MODULE-PROC DECL NONE NONE
SUBROUTINE) (PROCEDURE 0) 0 0 (4 NONE) () () '' () ())
4 'opt' '' 5 ((VARIABLE UNKNOWN UNKNOWN UNKNOWN NONE NONE DUMMY) (
DERIVED 6) 0 0 () () () '' () ())
6 't_stamrg_opt' 'p_stamrg' 5 ((DERIVED UNKNOWN UNKNOWN UNKNOWN NONE
NONE) (UNKNOWN) 0 0 () () () '' ((7 'mtrfil' (CHARACTER 1 ((CONSTANT (
INTEGER 4) 0 '32'))) () () 0 0 0 ()) (8 'secfil' (CHARACTER 1 ((
CONSTANT (INTEGER 4) 0 '32'))) () () 0 0 0 ()) (9 'resfil' (CHARACTER 1
((CONSTANT (INTEGER 4) 0 '32'))) () () 0 0 0 ()) (10 'csort' (INTEGER 4)
() () 0 0 0 ()) (11 'cconsid' (INTEGER 4) () () 0 0 0 ()) (12 'ctype01'
(INTEGER 4) () () 0 0 0 ()) (13 'ctype02' (INTEGER 4) () () 0 0 0 ()) (
14 'ctype03' (INTEGER 4) () () 0 0 0 ()) (15 'ctype04' (INTEGER 4) () ()
0 0 0 ()) (16 'ctype05' (INTEGER 4) () () 0 0 0 ()) (17 'crant' (
INTEGER 4) () () 0 0 0 ()) (18 'crrec' (INTEGER 4) () () 0 0 0 ()) (19
'timwin' (REAL 8) (1 EXPLICIT (CONSTANT (INTEGER 4) 0 '1') (CONSTANT (
INTEGER 4) 0 '2')) () 1 0 0 ()) (20 'stalist' (DERIVED 21) () () 0 0 0 ()))
PUBLIC ())
21 't_stalist' 'd_stalst' 5 ((DERIVED UNKNOWN UNKNOWN UNKNOWN NONE NONE)
(UNKNOWN) 0 0 () () () '' ((22 'title' (CHARACTER 1 ((CONSTANT (INTEGER
4) 0 '80'))) () () 0 0 0 ()) (23 'nsta' (INTEGER 4) () () 0 0 0 ()) (24
'stanam' (CHARACTER 1 ((CONSTANT (INTEGER 4) 0 '16'))) (1 DEFERRED () ())
() 1 1 0 ()) (25 'sigma' (REAL 8) (2 DEFERRED () () () ()) () 1 1 0 ()))
PUBLIC ())
)

('s_siminp' 0 2 'siminp' 0 3)
