G95 module created on Thu Jun 25 17:42:55 2020 from ./.fpp/SLR2COS.f90
If you edit this, you'll get what you deserve.
module-version 9
(() () () () () () () () () () () () () () () () () () () () ())

()

()

()

()

(2 's_slr2cos' 's_slr2cos' 1 ((MODULE UNKNOWN UNKNOWN UNKNOWN NONE NONE)
(UNKNOWN) 0 0 () () () '' () ())
3 'slr2cos' 's_slr2cos' 1 ((PROCEDURE UNKNOWN MODULE-PROC DECL NONE NONE
SUBROUTINE) (PROCEDURE 0) 0 0 (4 NONE 5 NONE) () () '' () ())
5 'cospar' '' 6 ((VARIABLE UNKNOWN UNKNOWN UNKNOWN NONE NONE DUMMY) (
CHARACTER 1 ((CONSTANT (INTEGER 4) 0 '9'))) 0 0 () () () '' () ())
4 'slrcos' '' 6 ((VARIABLE UNKNOWN UNKNOWN UNKNOWN NONE NONE DUMMY) (
CHARACTER 1 ((CONSTANT (INTEGER 4) 0 '9'))) 0 0 () () () '' () ())
)

('s_slr2cos' 0 2 'slr2cos' 0 3)
