G95 module created on Thu Jun 25 17:43:11 2020 from ./.fpp/STDORBIT_T.f90
If you edit this, you'll get what you deserve.
module-version 9
(() () () () () () () () () () () () () () () () () () () () (2 3 4))

()

()

()

()

(5 'stdorb_version' 's_stdorbit_t' 1 ((PARAMETER UNKNOWN UNKNOWN UNKNOWN
NONE NONE) (INTEGER 4) 0 0 () (CONSTANT (INTEGER 4) 0 '2') () () '' () ())
6 't_estpar' 's_stdorbit_t' 1 ((DERIVED UNKNOWN UNKNOWN UNKNOWN NONE
NONE) (UNKNOWN) 0 0 () () () '' ((7 'locq' (INTEGER 4) (1 EXPLICIT (
CONSTANT (INTEGER 4) 0 '1') (CONSTANT (INTEGER 4) 0 '7')) () 1 0 0 (
CONSTANT (INTEGER 4) 0 '0')) (8 'name' (CHARACTER 1 ((CONSTANT (INTEGER
4) 0 '16'))) () () 0 0 0 (CONSTANT (CHARACTER 1 ((CONSTANT (INTEGER 4) 0
'16'))) 0 16 '                ')) (9 'time' (DERIVED 10) () () 0 0 0 ())
(11 'x0' (REAL 8) () () 0 0 0 (CONSTANT (REAL 8) 0 '0' 0 0)) (12 'dx' (
REAL 8) () () 0 0 0 (CONSTANT (REAL 8) 0 '0' 0 0)) (13 'scale' (REAL 8)
() () 0 0 0 (CONSTANT (REAL 8) 0 '4503599627370496' 0 1023))) PUBLIC ())
14 't_orbarc' 's_stdorbit_t' 1 ((DERIVED UNKNOWN UNKNOWN UNKNOWN NONE
NONE) (UNKNOWN) 0 0 () () () '' ((15 'sys' (CHARACTER 1 ((CONSTANT (
INTEGER 4) 0 '1'))) () () 0 0 0 (CONSTANT (CHARACTER 1 ((CONSTANT (
INTEGER 4) 0 '1'))) 0 1 'G')) (16 'svn' (INTEGER 4) () () 0 0 0 (
CONSTANT (INTEGER 4) 0 '0')) (17 'man' (INTEGER 4) () () 0 0 0 (
CONSTANT (INTEGER 4) 0 '0')) (18 'twin' (DERIVED 19) () () 0 0 0 ()) (
20 'moddesc' (DERIVED 21) (1 DEFERRED () ()) () 1 1 0 (NULL (DERIVED 21)
1)) (22 'orbint' (DERIVED 23) (1 DEFERRED () ()) () 1 1 0 (NULL (
DERIVED 23) 1)) (24 'stoch' (DERIVED 25) (1 DEFERRED () ()) () 1 1 0 (
NULL (DERIVED 25) 1))) PUBLIC ())
23 't_orbint' 's_stdorbit_t' 1 ((DERIVED UNKNOWN UNKNOWN UNKNOWN NONE
NONE) (UNKNOWN) 0 0 () () () '' ((26 'left' (REAL 8) () () 0 0 0 (
CONSTANT (REAL 8) 0 '0' 0 0)) (27 'right' (REAL 8) () () 0 0 0 (
CONSTANT (REAL 8) 0 '0' 0 0)) (28 'shadow' (LOGICAL 4) () () 0 0 0 ()) (
29 'hh' (REAL 8) () () 0 0 0 ()) (30 't0' (REAL 8) () () 0 0 0 ()) (31
'qq' (INTEGER 4) () () 0 0 0 ()) (32 'rcoe' (REAL 8) (2 DEFERRED () () ()
()) () 1 1 0 (NULL (REAL 8) 2)) (33 'drdecoe' (REAL 8) (3 DEFERRED () ()
() () () ()) () 1 1 0 (NULL (REAL 8) 3)) (34 'drdscoe' (REAL 8) (3
DEFERRED () () () () () ()) () 1 1 0 (NULL (REAL 8) 3))) PUBLIC ())
35 't_satpos' 's_stdorbit_t' 1 ((DERIVED UNKNOWN UNKNOWN UNKNOWN NONE
NONE) (UNKNOWN) 0 0 () () () '' ((36 'sys' (CHARACTER 1 ((CONSTANT (
INTEGER 4) 0 '1'))) () () 0 0 0 (CONSTANT (CHARACTER 1 ((CONSTANT (
INTEGER 4) 0 '1'))) 0 1 'G')) (37 'svn' (INTEGER 4) () () 0 0 0 (
CONSTANT (INTEGER 4) 0 '0')) (38 'epoch' (DERIVED 39) () () 0 0 0 ()) (
40 'xv' (REAL 8) (2 DEFERRED () () () ()) () 1 1 0 (NULL (REAL 8) 2)) (
41 'dxvdele' (REAL 8) (3 DEFERRED () () () () () ()) () 1 1 0 (NULL (
REAL 8) 3)) (42 'dxvdp' (REAL 8) (2 DEFERRED () () () ()) () 1 1 0 (
NULL (REAL 8) 2))) PUBLIC ())
43 't_stdorb' 's_stdorbit_t' 1 ((DERIVED UNKNOWN UNKNOWN UNKNOWN NONE
NONE) (UNKNOWN) 0 0 () () () '' ((44 'version' (INTEGER 4) () () 0 0 0 (
CONSTANT (INTEGER 4) 0 '2')) (45 'title' (CHARACTER 1 ((CONSTANT (
INTEGER 4) 0 '255'))) () () 0 0 0 (CONSTANT (CHARACTER 1 ((CONSTANT (
INTEGER 4) 0 '255'))) 0 255
'                                                                                                                                                                                                                                                               '))
(46 'useoldgetorb' (LOGICAL 4) () () 0 0 0 (CONSTANT (LOGICAL 4) 0 0)) (
47 'moddesc' (DERIVED 21) (1 DEFERRED () ()) () 1 1 0 (NULL (DERIVED 21)
1)) (48 'orbarc' (DERIVED 14) (1 DEFERRED () ()) () 1 1 0 (NULL (
DERIVED 14) 1)) (49 'par' (DERIVED 50) (1 DEFERRED () ()) () 1 1 0 (
NULL (DERIVED 50) 1)) (51 'estpar' (DERIVED 6) (1 DEFERRED () ()) () 1 1
0 (NULL (DERIVED 6) 1)) (52 'eststc' (DERIVED 25) (1 DEFERRED () ()) ()
1 1 0 (NULL (DERIVED 25) 1)) (53 'orbarcpart' (DERIVED 14) (1 DEFERRED ()
()) () 1 1 0 (NULL (DERIVED 14) 1))) PUBLIC ())
25 't_stoch' 's_stdorbit_t' 1 ((DERIVED UNKNOWN UNKNOWN UNKNOWN NONE
NONE) (UNKNOWN) 0 0 () () () '' ((54 'typ' (CHARACTER 1 ((CONSTANT (
INTEGER 4) 0 '1'))) () () 0 0 0 ()) (55 'comp' (CHARACTER 1 ((CONSTANT (
INTEGER 4) 0 '1'))) () () 0 0 0 ()) (56 'left' (REAL 8) () () 0 0 0 (
CONSTANT (REAL 8) 0 '0' 0 0)) (57 'right' (REAL 8) () () 0 0 0 (
CONSTANT (REAL 8) 0 '0' 0 0)) (58 'value' (REAL 8) () () 0 0 0 (
CONSTANT (REAL 8) 0 '0' 0 0)) (59 'deds' (REAL 8) (1 EXPLICIT (CONSTANT
(INTEGER 4) 0 '1') (CONSTANT (INTEGER 4) 0 '6')) () 1 0 0 (CONSTANT (
REAL 8) 0 '0' 0 0)) (60 'de' (REAL 8) (1 EXPLICIT (CONSTANT (INTEGER 4)
0 '1') (CONSTANT (INTEGER 4) 0 '6')) () 1 0 0 (CONSTANT (REAL 8) 0 '0' 0
0))) PUBLIC ())
50 't_par' 'd_par' 1 ((DERIVED UNKNOWN UNKNOWN UNKNOWN NONE NONE) (
UNKNOWN) 0 0 () () () '' ((61 'locq' (INTEGER 4) (1 EXPLICIT (CONSTANT (
INTEGER 4) 0 '1') (CONSTANT (INTEGER 4) 0 '7')) () 1 0 0 ()) (62 'name'
(CHARACTER 1 ((CONSTANT (INTEGER 4) 0 '20'))) () () 0 0 0 ()) (63 'time'
(DERIVED 10) () () 0 0 0 ()) (64 'x0' (REAL 8) () () 0 0 0 ()) (65 'scale'
(REAL 8) () () 0 0 0 ()) (66 'techn' (CHARACTER 1 ((CONSTANT (INTEGER 4)
0 '1'))) (1 EXPLICIT (CONSTANT (INTEGER 4) 0 '1') (CONSTANT (INTEGER 4)
0 '2')) () 1 0 0 ()) (67 'obstim' (DERIVED 68) () () 0 0 0 ()) (69 'type'
(CHARACTER 1 ((CONSTANT (INTEGER 4) 0 '2'))) () () 0 0 0 ()) (70 'omega'
(REAL 8) () () 0 0 0 ())) PUBLIC ())
68 't_timint' 'm_time' 1 ((DERIVED UNKNOWN UNKNOWN UNKNOWN NONE NONE) (
UNKNOWN) 0 0 () () () '' ((71 't' (REAL 8) (1 EXPLICIT (CONSTANT (
INTEGER 4) 0 '1') (CONSTANT (INTEGER 4) 0 '2')) () 1 0 0 ())) PUBLIC ())
39 't_epoch' 'm_epoch' 1 ((DERIVED UNKNOWN UNKNOWN UNKNOWN NONE NONE) (
UNKNOWN) 0 0 () () () '' ((72 'day' (INTEGER 4) () () 0 0 0 ()) (73 'frac'
(REAL 8) () () 0 0 0 ())) PUBLIC ())
25 't_stoch' 's_stdorbit_t' 1 ((DERIVED UNKNOWN UNKNOWN UNKNOWN NONE
NONE) (UNKNOWN) 0 0 () () () '' ((54 'typ' (CHARACTER 1 ((CONSTANT (
INTEGER 4) 0 '1'))) () () 0 0 0 ()) (55 'comp' (CHARACTER 1 ((CONSTANT (
INTEGER 4) 0 '1'))) () () 0 0 0 ()) (56 'left' (REAL 8) () () 0 0 0 (
CONSTANT (REAL 8) 0 '0' 0 0)) (57 'right' (REAL 8) () () 0 0 0 (
CONSTANT (REAL 8) 0 '0' 0 0)) (58 'value' (REAL 8) () () 0 0 0 (
CONSTANT (REAL 8) 0 '0' 0 0)) (59 'deds' (REAL 8) (1 EXPLICIT (CONSTANT
(INTEGER 4) 0 '1') (CONSTANT (INTEGER 4) 0 '6')) () 1 0 0 (CONSTANT (
REAL 8) 0 '0' 0 0)) (60 'de' (REAL 8) (1 EXPLICIT (CONSTANT (INTEGER 4)
0 '1') (CONSTANT (INTEGER 4) 0 '6')) () 1 0 0 (CONSTANT (REAL 8) 0 '0' 0
0))) PUBLIC ())
23 't_orbint' 's_stdorbit_t' 1 ((DERIVED UNKNOWN UNKNOWN UNKNOWN NONE
NONE) (UNKNOWN) 0 0 () () () '' ((26 'left' (REAL 8) () () 0 0 0 (
CONSTANT (REAL 8) 0 '0' 0 0)) (27 'right' (REAL 8) () () 0 0 0 (
CONSTANT (REAL 8) 0 '0' 0 0)) (28 'shadow' (LOGICAL 4) () () 0 0 0 ()) (
29 'hh' (REAL 8) () () 0 0 0 ()) (30 't0' (REAL 8) () () 0 0 0 ()) (31
'qq' (INTEGER 4) () () 0 0 0 ()) (32 'rcoe' (REAL 8) (2 DEFERRED () () ()
()) () 1 1 0 (NULL (REAL 8) 2)) (33 'drdecoe' (REAL 8) (3 DEFERRED () ()
() () () ()) () 1 1 0 (NULL (REAL 8) 3)) (34 'drdscoe' (REAL 8) (3
DEFERRED () () () () () ()) () 1 1 0 (NULL (REAL 8) 3))) PUBLIC ())
21 't_key' 'm_bern' 1 ((DERIVED UNKNOWN UNKNOWN UNKNOWN NONE NONE) (
UNKNOWN) 0 0 () () () '' ((74 'name' (CHARACTER 1 ((CONSTANT (INTEGER 4)
0 '32'))) () () 0 0 0 ()) (75 'value' (CHARACTER 1 ((CONSTANT (INTEGER 4)
0 '255'))) (1 DEFERRED () ()) () 1 1 0 ())) PUBLIC ())
19 't_timwin' 'm_epoch' 1 ((DERIVED UNKNOWN UNKNOWN UNKNOWN NONE NONE) (
UNKNOWN) 0 0 () () () '' ((76 't' (DERIVED 39) (1 EXPLICIT (CONSTANT (
INTEGER 4) 0 '1') (CONSTANT (INTEGER 4) 0 '2')) () 1 0 0 ())) PUBLIC ())
10 't_time' 'm_time' 1 ((DERIVED UNKNOWN UNKNOWN UNKNOWN NONE NONE
SEQUENCE) (UNKNOWN) 0 0 () () () '' ((77 'mean' (REAL 8) () () 0 0 0 ())
(78 'half' (REAL 8) () () 0 0 0 ())) PUBLIC ())
4 'epochasgnreal' 'm_epoch' 1 ((PROCEDURE UNKNOWN MODULE-PROC DECL NONE
NONE SUBROUTINE INVOKED) (PROCEDURE 0) 0 0 (79 NONE 80 NONE) () () '' ()
())
80 'repoch' '' 81 ((VARIABLE IN UNKNOWN UNKNOWN NONE NONE DUMMY) (REAL 8)
0 0 () () () '' () ())
79 'epoch' '' 81 ((VARIABLE OUT UNKNOWN UNKNOWN NONE NONE DUMMY) (
DERIVED 39) 0 0 () () () '' () ())
3 'realasgnepoch' 'm_epoch' 1 ((PROCEDURE UNKNOWN MODULE-PROC DECL NONE
NONE SUBROUTINE INVOKED) (PROCEDURE 0) 0 0 (82 NONE 83 NONE) () () '' ()
())
83 'epoch' '' 84 ((VARIABLE IN UNKNOWN UNKNOWN NONE NONE DUMMY) (
DERIVED 39) 0 0 () () () '' () ())
82 'repoch' '' 84 ((VARIABLE OUT UNKNOWN UNKNOWN NONE NONE DUMMY) (REAL
8) 0 0 () () () '' () ())
2 'assign_par_to_estpar' 's_stdorbit_t' 1 ((PROCEDURE UNKNOWN
MODULE-PROC DECL NONE NONE SUBROUTINE INVOKED) (PROCEDURE 0) 0 0 (85
NONE 86 NONE) () () '' () ())
86 'par' '' 87 ((VARIABLE IN UNKNOWN UNKNOWN NONE NONE DUMMY) (DERIVED
88) 0 0 () () () '' () ())
88 't_par' 'd_par' 87 ((DERIVED UNKNOWN UNKNOWN UNKNOWN NONE NONE) (
UNKNOWN) 0 0 () () () '' ((89 'locq' (INTEGER 4) (1 EXPLICIT (CONSTANT (
INTEGER 4) 0 '1') (CONSTANT (INTEGER 4) 0 '7')) () 1 0 0 ()) (90 'name'
(CHARACTER 1 ((CONSTANT (INTEGER 4) 0 '20'))) () () 0 0 0 ()) (91 'time'
(DERIVED 92) () () 0 0 0 ()) (93 'x0' (REAL 8) () () 0 0 0 ()) (94 'scale'
(REAL 8) () () 0 0 0 ()) (95 'techn' (CHARACTER 1 ((CONSTANT (INTEGER 4)
0 '1'))) (1 EXPLICIT (CONSTANT (INTEGER 4) 0 '1') (CONSTANT (INTEGER 4)
0 '2')) () 1 0 0 ()) (96 'obstim' (DERIVED 97) () () 0 0 0 ()) (98 'type'
(CHARACTER 1 ((CONSTANT (INTEGER 4) 0 '2'))) () () 0 0 0 ()) (99 'omega'
(REAL 8) () () 0 0 0 ())) PUBLIC ())
97 't_timint' 'm_time' 87 ((DERIVED UNKNOWN UNKNOWN UNKNOWN NONE NONE) (
UNKNOWN) 0 0 () () () '' ((100 't' (REAL 8) (1 EXPLICIT (CONSTANT (
INTEGER 4) 0 '1') (CONSTANT (INTEGER 4) 0 '2')) () 1 0 0 ())) PUBLIC ())
92 't_time' 'm_time' 87 ((DERIVED UNKNOWN UNKNOWN UNKNOWN NONE NONE
SEQUENCE) (UNKNOWN) 0 0 () () () '' ((101 'mean' (REAL 8) () () 0 0 0 ())
(102 'half' (REAL 8) () () 0 0 0 ())) PUBLIC ())
85 'estpar' '' 87 ((VARIABLE OUT UNKNOWN UNKNOWN NONE NONE DUMMY) (
DERIVED 6) 0 0 () () () '' () ())
)

('stdorb_version' 0 5 't_estpar' 0 6 't_orbarc' 0 14 't_orbint' 0 23
't_satpos' 0 35 't_stdorb' 0 43 't_stoch' 0 25)
