G95 module created on Thu Jun 25 17:44:19 2020 from ./.fpp/STDFMTFL.f90
If you edit this, you'll get what you deserve.
module-version 9
(() () () () () () () () () () () () () () () () () () () () ())

()

()

()

()

(2 's_stdfmtfl' 's_stdfmtfl' 1 ((MODULE UNKNOWN UNKNOWN UNKNOWN NONE
NONE) (UNKNOWN) 0 0 () () () '' () ())
3 'stdfmtfl' 's_stdfmtfl' 1 ((PROCEDURE UNKNOWN MODULE-PROC DECL NONE
NONE SUBROUTINE) (PROCEDURE 0) 0 0 (4 NONE 5 NONE 6 NONE) () () '' () ())
6 'filnam' '' 7 ((VARIABLE UNKNOWN UNKNOWN UNKNOWN NONE NONE DIMENSION
DUMMY) (CHARACTER 1 (())) 0 0 () (2 ASSUMED_SIZE (CONSTANT (INTEGER 4) 0
'1') (CONSTANT (INTEGER 4) 0 '4') (CONSTANT (INTEGER 4) 0 '1') ()) () ''
() ())
5 'nfil' '' 7 ((VARIABLE UNKNOWN UNKNOWN UNKNOWN NONE NONE DUMMY) (
INTEGER 4) 0 0 () () () '' () ())
4 'maxfil' '' 7 ((VARIABLE UNKNOWN UNKNOWN UNKNOWN NONE NONE DUMMY) (
INTEGER 4) 0 0 () () () '' () ())
)

('s_stdfmtfl' 0 2 'stdfmtfl' 0 3)
