G95 module created on Thu Jun 25 17:42:48 2020 from ./.fpp/STATIS.f90
If you edit this, you'll get what you deserve.
module-version 9
(() () () () () () () () () () () () () () () () () () () () ())

()

()

()

()

(2 's_statis' 's_statis' 1 ((MODULE UNKNOWN UNKNOWN UNKNOWN NONE NONE) (
UNKNOWN) 0 0 () () () '' () ())
3 'statis' 's_statis' 1 ((PROCEDURE UNKNOWN MODULE-PROC DECL NONE NONE
SUBROUTINE) (PROCEDURE 0) 0 0 (4 NONE 5 NONE 6 NONE 7 NONE 8 NONE 9 NONE
10 NONE 11 NONE) () () '' () ())
11 'xmin' '' 12 ((VARIABLE UNKNOWN UNKNOWN UNKNOWN NONE NONE OPTIONAL
DUMMY) (REAL 8) 0 0 () () () '' () ())
10 'xmax' '' 12 ((VARIABLE UNKNOWN UNKNOWN UNKNOWN NONE NONE OPTIONAL
DUMMY) (REAL 8) 0 0 () () () '' () ())
9 'xsigma' '' 12 ((VARIABLE UNKNOWN UNKNOWN UNKNOWN NONE NONE OPTIONAL
DUMMY) (REAL 8) 0 0 () () () '' () ())
8 'xrms' '' 12 ((VARIABLE UNKNOWN UNKNOWN UNKNOWN NONE NONE OPTIONAL
DUMMY) (REAL 8) 0 0 () () () '' () ())
7 'xmean' '' 12 ((VARIABLE UNKNOWN UNKNOWN UNKNOWN NONE NONE OPTIONAL
DUMMY) (REAL 8) 0 0 () () () '' () ())
6 'xmed' '' 12 ((VARIABLE UNKNOWN UNKNOWN UNKNOWN NONE NONE OPTIONAL
DUMMY) (REAL 8) 0 0 () () () '' () ())
5 'x' '' 12 ((VARIABLE IN UNKNOWN UNKNOWN NONE NONE DIMENSION DUMMY) (
REAL 8) 0 0 () (1 EXPLICIT (CONSTANT (INTEGER 4) 0 '1') (VARIABLE (
INTEGER 4) 0 4 ())) () '' () ())
4 'n' '' 12 ((VARIABLE UNKNOWN UNKNOWN UNKNOWN NONE NONE DUMMY) (
INTEGER 4) 0 0 () () () '' () ())
)

('s_statis' 0 2 'statis' 0 3)
