G95 module created on Thu Jun 25 17:44:44 2020 from ./.fpp/SVLAUX.f90
If you edit this, you'll get what you deserve.
module-version 9
(() () () () () () () () () () () () () () () () () () () () ())

()

()

()

()

(2 's_svlaux' 's_svlaux' 1 ((MODULE UNKNOWN UNKNOWN UNKNOWN NONE NONE) (
UNKNOWN) 0 0 () () () '' () ())
3 'svlaux' 's_svlaux' 1 ((PROCEDURE UNKNOWN MODULE-PROC DECL NONE NONE
SUBROUTINE) (PROCEDURE 0) 0 0 (4 NONE 5 NONE) () () '' () ())
5 'iretrn' '' 6 ((VARIABLE UNKNOWN UNKNOWN UNKNOWN NONE NONE DUMMY) (
INTEGER 4) 0 0 () () () '' () ())
4 'opt' '' 6 ((VARIABLE UNKNOWN UNKNOWN UNKNOWN NONE NONE DUMMY) (
DERIVED 7) 0 0 () () () '' () ())
7 't_leoaux_opt' 'p_leoaux' 6 ((DERIVED UNKNOWN UNKNOWN UNKNOWN NONE
NONE) (UNKNOWN) 0 0 () () () '' ((8 'title' (CHARACTER 1 ((CONSTANT (
INTEGER 4) 0 '80'))) () () 0 0 0 ()) (9 'satnam' (CHARACTER 1 ((
CONSTANT (INTEGER 4) 0 '5'))) () () 0 0 0 ()) (10 'window' (REAL 8) (1
EXPLICIT (CONSTANT (INTEGER 4) 0 '1') (CONSTANT (INTEGER 4) 0 '2')) () 1
0 0 ()) (11 'typlst' (INTEGER 4) (1 EXPLICIT (CONSTANT (INTEGER 4) 0 '1')
(CONSTANT (INTEGER 4) 0 '12')) () 1 0 0 ()) (12 'ixyz' (INTEGER 4) () ()
0 0 0 ()) (13 'strqua' (INTEGER 4) () () 0 0 0 ())) PUBLIC ())
)

('s_svlaux' 0 2 'svlaux' 0 3)
