G95 module created on Thu Jun 25 17:42:49 2020 from ./.fpp/SYMINVG.f90
If you edit this, you'll get what you deserve.
module-version 9
(() () () () () () () () () () () () () () () () () () () () ())

()

()

()

()

(2 's_syminvg' 's_syminvg' 1 ((MODULE UNKNOWN UNKNOWN UNKNOWN NONE NONE)
(UNKNOWN) 0 0 () () () '' () ())
3 'syminvg' 's_syminvg' 1 ((PROCEDURE UNKNOWN MODULE-PROC DECL NONE NONE
SUBROUTINE) (PROCEDURE 0) 0 0 (4 NONE 5 NONE 6 NONE 7 NONE 8 NONE 9 NONE
10 NONE 11 NONE) () () '' () ())
11 'utest' '' 12 ((VARIABLE UNKNOWN UNKNOWN UNKNOWN NONE NONE OPTIONAL
DUMMY) (CHARACTER 1 (())) 0 0 () () () '' () ())
10 'bigajj_limit' '' 12 ((VARIABLE UNKNOWN UNKNOWN UNKNOWN NONE NONE
OPTIONAL DUMMY) (REAL 8) 0 0 () () () '' () ())
9 'sbrname' '' 12 ((VARIABLE UNKNOWN UNKNOWN UNKNOWN NONE NONE OPTIONAL
DUMMY) (CHARACTER 1 (())) 0 0 () () () '' () ())
8 'parflg' '' 12 ((VARIABLE UNKNOWN UNKNOWN UNKNOWN NONE NONE DIMENSION
OPTIONAL DUMMY) (INTEGER 4) 0 0 () (1 EXPLICIT (CONSTANT (INTEGER 4) 0 '1')
(VARIABLE (INTEGER 4) 0 4 ())) () '' () ())
7 'nsing' '' 12 ((VARIABLE OUT UNKNOWN UNKNOWN NONE NONE DUMMY) (
INTEGER 4) 0 0 () () () '' () ())
6 'norm' '' 12 ((VARIABLE UNKNOWN UNKNOWN UNKNOWN NONE NONE DUMMY) (
INTEGER 4) 0 0 () () () '' () ())
5 'q' '' 12 ((VARIABLE UNKNOWN UNKNOWN UNKNOWN NONE NONE DIMENSION DUMMY)
(REAL 8) 0 0 () (1 EXPLICIT (CONSTANT (INTEGER 4) 0 '1') (OP (INTEGER 4)
0 DIVIDE (OP (INTEGER 4) 0 TIMES (VARIABLE (INTEGER 4) 0 4 ()) (OP (
INTEGER 4) 0 PLUS (VARIABLE (INTEGER 4) 0 4 ()) (CONSTANT (INTEGER 4) 0
'1'))) (CONSTANT (INTEGER 4) 0 '2'))) () '' () ())
4 'n' '' 12 ((VARIABLE IN UNKNOWN UNKNOWN NONE NONE DUMMY) (INTEGER 4) 0
0 () () () '' () ())
)

('s_syminvg' 0 2 'syminvg' 0 3)
