G95 module created on Thu Jun 25 17:42:34 2020 from ./.fpp/TIMST2.f90
If you edit this, you'll get what you deserve.
module-version 9
(() () () () () () () () () () () () () () () () () () () () ())

()

(('timst2' 2 3))

()

()

(4 's_timst2' 's_timst2' 1 ((MODULE UNKNOWN UNKNOWN UNKNOWN NONE NONE) (
UNKNOWN) 0 0 () () () '' () ())
3 'timst2_arg1' 's_timst2' 1 ((PROCEDURE UNKNOWN MODULE-PROC DECL NONE
NONE SUBROUTINE INVOKED) (PROCEDURE 0) 0 0 (5 NONE 6 NONE 7 NONE 8 NONE
9 NONE) () () '' () ())
2 'timst2_arg2' 's_timst2' 1 ((PROCEDURE UNKNOWN MODULE-PROC DECL NONE
NONE SUBROUTINE INVOKED) (PROCEDURE 0) 0 0 (10 NONE 11 NONE 12 NONE 13
NONE 14 NONE) () () '' () ())
14 'nfrac' '' 15 ((VARIABLE UNKNOWN UNKNOWN UNKNOWN NONE NONE OPTIONAL
DUMMY) (INTEGER 4) 0 0 () () () '' () ())
13 'tstrng' '' 15 ((VARIABLE UNKNOWN UNKNOWN UNKNOWN NONE NONE DUMMY) (
CHARACTER 1 (())) 0 0 () () () '' () ())
12 'twin' '' 15 ((VARIABLE UNKNOWN UNKNOWN UNKNOWN NONE NONE DIMENSION
DUMMY) (REAL 8) 0 0 () (1 EXPLICIT (CONSTANT (INTEGER 4) 0 '1') (
CONSTANT (INTEGER 4) 0 '2')) () '' () ())
11 'ntim' '' 15 ((VARIABLE UNKNOWN UNKNOWN UNKNOWN NONE NONE DUMMY) (
INTEGER 4) 0 0 () () () '' () ())
10 'ifmt' '' 15 ((VARIABLE UNKNOWN UNKNOWN UNKNOWN NONE NONE DUMMY) (
INTEGER 4) 0 0 () () () '' () ())
9 'nfrac' '' 16 ((VARIABLE UNKNOWN UNKNOWN UNKNOWN NONE NONE OPTIONAL
DUMMY) (INTEGER 4) 0 0 () () () '' () ())
8 'tstrng' '' 16 ((VARIABLE UNKNOWN UNKNOWN UNKNOWN NONE NONE DUMMY) (
CHARACTER 1 (())) 0 0 () () () '' () ())
7 'tmjd' '' 16 ((VARIABLE UNKNOWN UNKNOWN UNKNOWN NONE NONE DUMMY) (
REAL 8) 0 0 () () () '' () ())
6 'ntim' '' 16 ((VARIABLE UNKNOWN UNKNOWN UNKNOWN NONE NONE DUMMY) (
INTEGER 4) 0 0 () () () '' () ())
5 'ifmt' '' 16 ((VARIABLE UNKNOWN UNKNOWN UNKNOWN NONE NONE DUMMY) (
INTEGER 4) 0 0 () () () '' () ())
3 'timst2_arg1' 's_timst2' 1 ((PROCEDURE UNKNOWN MODULE-PROC DECL NONE
NONE SUBROUTINE INVOKED) (PROCEDURE 0) 0 0 (5 NONE 6 NONE 7 NONE 8 NONE
9 NONE) () () '' () ())
2 'timst2_arg2' 's_timst2' 1 ((PROCEDURE UNKNOWN MODULE-PROC DECL NONE
NONE SUBROUTINE INVOKED) (PROCEDURE 0) 0 0 (10 NONE 11 NONE 12 NONE 13
NONE 14 NONE) () () '' () ())
)

('s_timst2' 0 4 'timst2_arg1' 0 3 'timst2_arg2' 0 2)
