G95 module created on Thu Jun 25 17:45:20 2020 from ./.fpp/UPHEAD2.f90
If you edit this, you'll get what you deserve.
module-version 9
(() () () () () () () () () () () () () () () () () () () () ())

()

()

()

()

(2 's_uphead2' 's_uphead2' 1 ((MODULE UNKNOWN UNKNOWN UNKNOWN NONE NONE)
(UNKNOWN) 0 0 () () () '' () ())
3 'uphead2' 's_uphead2' 1 ((PROCEDURE UNKNOWN MODULE-PROC DECL NONE NONE
SUBROUTINE) (PROCEDURE 0) 0 0 (4 NONE 5 NONE 6 NONE) () () '' () ())
6 'ifrlst' '' 7 ((VARIABLE UNKNOWN UNKNOWN UNKNOWN NONE NONE DIMENSION
DUMMY) (INTEGER 4) 0 0 () (2 ASSUMED_SIZE (CONSTANT (INTEGER 4) 0 '1') (
CONSTANT (INTEGER 4) 0 '2') (CONSTANT (INTEGER 4) 0 '1') ()) () '' () ())
5 'head' '' 7 ((VARIABLE UNKNOWN UNKNOWN UNKNOWN NONE NONE DUMMY) (
DERIVED 8) 0 0 () () () '' () ())
8 't_obshead' 'd_gpsobs' 7 ((DERIVED UNKNOWN UNKNOWN UNKNOWN NONE NONE)
(UNKNOWN) 0 0 () () () '' ((9 'campgn' (CHARACTER 1 ((CONSTANT (INTEGER
4) 0 '16'))) () () 0 0 0 ()) (10 'title' (CHARACTER 1 ((CONSTANT (
INTEGER 4) 0 '53'))) () () 0 0 0 ()) (11 'irmark' (INTEGER 4) () () 0 0
0 ()) (12 'ifrmat' (INTEGER 4) () () 0 0 0 ()) (13 'csess' (CHARACTER 1
((CONSTANT (INTEGER 4) 0 '4'))) (1 EXPLICIT (CONSTANT (INTEGER 4) 0 '1')
(CONSTANT (INTEGER 4) 0 '2')) () 1 0 0 ()) (14 'crdate' (CHARACTER 1 ((
CONSTANT (INTEGER 4) 0 '9'))) (1 EXPLICIT (CONSTANT (INTEGER 4) 0 '1') (
CONSTANT (INTEGER 4) 0 '2')) () 1 0 0 ()) (15 'crtime' (CHARACTER 1 ((
CONSTANT (INTEGER 4) 0 '5'))) (1 EXPLICIT (CONSTANT (INTEGER 4) 0 '1') (
CONSTANT (INTEGER 4) 0 '2')) () 1 0 0 ()) (16 'timref' (REAL 8) () () 0
0 0 ()) (17 'ideltt' (INTEGER 4) () () 0 0 0 ()) (18 'meatyp' (INTEGER 4)
() () 0 0 0 ()) (19 'ndiff' (INTEGER 4) () () 0 0 0 ()) (20 'nfreq' (
INTEGER 4) () () 0 0 0 ()) (21 'nepoch' (INTEGER 4) () () 0 0 0 ()) (22
'numamb' (INTEGER 4) () () 0 0 0 ()) (23 'nsatel' (INTEGER 4) () () 0 0
0 ()) (24 'nepflg' (INTEGER 4) () () 0 0 0 ()) (25 'sta' (DERIVED 26) (
1 EXPLICIT (CONSTANT (INTEGER 4) 0 '1') (CONSTANT (INTEGER 4) 0 '2')) ()
1 0 0 ()) (27 'sat' (DERIVED 28) (1 DEFERRED () ()) () 1 1 0 ()) (29
'ambigu' (DERIVED 30) (1 DEFERRED () ()) () 1 1 0 ())) PUBLIC ())
30 't_ambigu' 'd_ambigu' 7 ((DERIVED UNKNOWN UNKNOWN UNKNOWN NONE NONE)
(UNKNOWN) 0 0 () () () '' ((31 'ambigu' (REAL 8) (1 EXPLICIT (CONSTANT (
INTEGER 4) 0 '1') (CONSTANT (INTEGER 4) 0 '3')) () 1 0 0 ()) (32 'ambsat'
(INTEGER 4) () () 0 0 0 ()) (33 'ambiep' (INTEGER 4) () () 0 0 0 ()) (
34 'ambwlf' (INTEGER 4) (1 EXPLICIT (CONSTANT (INTEGER 4) 0 '1') (
CONSTANT (INTEGER 4) 0 '2')) () 1 0 0 ()) (35 'ambcls' (INTEGER 4) (1
EXPLICIT (CONSTANT (INTEGER 4) 0 '1') (CONSTANT (INTEGER 4) 0 '3')) () 1
0 0 ()) (36 'solved' (LOGICAL 4) () () 0 0 0 ())) PUBLIC ())
28 't_sat' 'd_gpsobs' 7 ((DERIVED UNKNOWN UNKNOWN UNKNOWN NONE NONE) (
UNKNOWN) 0 0 () () () '' ((37 'numsat' (INTEGER 4) () () 0 0 0 ()) (38
'numobs' (INTEGER 4) (1 EXPLICIT (CONSTANT (INTEGER 4) 0 '1') (CONSTANT
(INTEGER 4) 0 '2')) () 1 0 0 ()) (39 'nummrk' (INTEGER 4) (1 EXPLICIT (
CONSTANT (INTEGER 4) 0 '1') (CONSTANT (INTEGER 4) 0 '2')) () 1 0 0 ()) (
40 'obstyp' (CHARACTER 1 ((CONSTANT (INTEGER 4) 0 '3'))) (1 EXPLICIT (
CONSTANT (INTEGER 4) 0 '1') (CONSTANT (INTEGER 4) 0 '8')) () 1 0 0 ()))
PUBLIC ())
26 't_sta' 'd_gpsobs' 7 ((DERIVED UNKNOWN UNKNOWN UNKNOWN NONE NONE) (
UNKNOWN) 0 0 () () () '' ((41 'stanam' (CHARACTER 1 ((CONSTANT (INTEGER
4) 0 '16'))) () () 0 0 0 ()) (42 'oprnam' (CHARACTER 1 ((CONSTANT (
INTEGER 4) 0 '20'))) () () 0 0 0 ()) (43 'rectyp' (CHARACTER 1 ((
CONSTANT (INTEGER 4) 0 '20'))) () () 0 0 0 ()) (44 'irunit' (INTEGER 4)
() () 0 0 0 ()) (45 'anttyp' (CHARACTER 1 ((CONSTANT (INTEGER 4) 0 '20')))
() () 0 0 0 ()) (46 'ianten' (INTEGER 4) () () 0 0 0 ()) (47 'posecc' (
REAL 8) (1 EXPLICIT (CONSTANT (INTEGER 4) 0 '1') (CONSTANT (INTEGER 4) 0
'3')) () 1 0 0 ()) (48 'iclock' (INTEGER 4) () () 0 0 0 ())) PUBLIC ())
4 'obsti1' '' 7 ((VARIABLE UNKNOWN UNKNOWN UNKNOWN NONE NONE DUMMY) (
REAL 8) 0 0 () () () '' () ())
)

('s_uphead2' 0 2 'uphead2' 0 3)
