G95 module created on Thu Jun 25 17:45:03 2020 from ./.fpp/WGTSTORE.f90
If you edit this, you'll get what you deserve.
module-version 9
(() () () () () () () () () () () () () () () () () () () () ())

()

()

()

()

(2 's_wgtstore' 's_wgtstore' 1 ((MODULE UNKNOWN UNKNOWN UNKNOWN NONE
NONE) (UNKNOWN) 0 0 () () () '' () ())
3 'wgtstore' 's_wgtstore' 1 ((PROCEDURE UNKNOWN MODULE-PROC DECL NONE
NONE SUBROUTINE) (PROCEDURE 0) 0 0 (4 NONE) () () '' () ())
4 'hlmout' '' 5 ((VARIABLE UNKNOWN UNKNOWN UNKNOWN NONE NONE DUMMY) (
DERIVED 6) 0 0 () () () '' () ())
6 't_hlmfil' 'p_addneq' 5 ((DERIVED UNKNOWN UNKNOWN UNKNOWN NONE NONE) (
UNKNOWN) 0 0 () () () '' ((7 'nneq' (INTEGER 4) () () 0 0 0 ()) (8
'filnam' (CHARACTER 1 ((CONSTANT (INTEGER 4) 0 '32'))) (1 DEFERRED () ())
() 1 1 0 ()) (9 'ihelm' (INTEGER 4) (2 DEFERRED () () () ()) () 1 1 0 ())
(10 'rhelm' (REAL 8) (2 DEFERRED () () () ()) () 1 1 0 ()) (11 'indgrp'
(INTEGER 4) (1 DEFERRED () ()) () 1 1 0 ()) (12 'grpnam' (CHARACTER 1 (
(CONSTANT (INTEGER 4) 0 '3'))) (1 DEFERRED () ()) () 1 1 0 ()) (13 'fact'
(REAL 8) (1 DEFERRED () ()) () 1 1 0 ())) PUBLIC ())
)

('s_wgtstore' 0 2 'wgtstore' 0 3)
