G95 module created on Thu Jun 25 17:44:45 2020 from ./.fpp/WTNUTM.f90
If you edit this, you'll get what you deserve.
module-version 9
(() () () () () () () () () () () () () () () () () () () () ())

()

()

()

()

(2 's_wtnutm' 's_wtnutm' 1 ((MODULE UNKNOWN UNKNOWN UNKNOWN NONE NONE) (
UNKNOWN) 0 0 () () () '' () ())
3 'wtnutm' 's_wtnutm' 1 ((PROCEDURE UNKNOWN MODULE-PROC DECL NONE NONE
SUBROUTINE) (PROCEDURE 0) 0 0 (4 NONE 5 NONE) () () '' () ())
5 'nutat' '' 6 ((VARIABLE UNKNOWN UNKNOWN UNKNOWN NONE NONE DUMMY) (
DERIVED 7) 0 0 () () () '' () ())
7 't_nutat' 'd_nutmod' 6 ((DERIVED UNKNOWN UNKNOWN UNKNOWN NONE NONE) (
UNKNOWN) 0 0 () () () '' ((8 'ivers' (INTEGER 4) () () 0 0 0 ()) (9 'nnut'
(INTEGER 4) () () 0 0 0 ()) (10 'nutmlt' (INTEGER 4) (2 DEFERRED () () ()
()) () 1 1 0 ()) (11 'nutpre' (REAL 8) (1 EXPLICIT (CONSTANT (INTEGER 4)
0 '1') (CONSTANT (INTEGER 4) 0 '4')) () 1 0 0 ()) (12 'nutfar' (REAL 8)
(2 EXPLICIT (CONSTANT (INTEGER 4) 0 '1') (CONSTANT (INTEGER 4) 0 '6') (
CONSTANT (INTEGER 4) 0 '1') (CONSTANT (INTEGER 4) 0 '14')) () 1 0 0 ())
(13 'nutper' (REAL 8) (1 DEFERRED () ()) () 1 1 0 ()) (14 'nutcoe' (
REAL 8) (2 DEFERRED () () () ()) () 1 1 0 ()) (15 'filnut' (CHARACTER 1
((CONSTANT (INTEGER 4) 0 '32'))) () () 0 0 0 ()) (16 'title' (CHARACTER
1 ((CONSTANT (INTEGER 4) 0 '80'))) () () 0 0 0 ()) (17 'nutnam' (
CHARACTER 1 ((CONSTANT (INTEGER 4) 0 '16'))) () () 0 0 0 ())) PUBLIC ())
4 'filnam' '' 6 ((VARIABLE UNKNOWN UNKNOWN UNKNOWN NONE NONE DUMMY) (
CHARACTER 1 (())) 0 0 () () () '' () ())
)

('s_wtnutm' 0 2 'wtnutm' 0 3)
