G95 module created on Thu Jun 25 17:44:59 2020 from ./.fpp/WTBRDC.f
If you edit this, you'll get what you deserve.
module-version 9
(() () () () () () () () () () () () () () () () () () () () ())

()

()

()

()

(2 's_wtbrdc' 's_wtbrdc' 1 ((MODULE UNKNOWN UNKNOWN UNKNOWN NONE NONE) (
UNKNOWN) 0 0 () () () '' () ())
3 'wtbrdc' 's_wtbrdc' 1 ((PROCEDURE UNKNOWN MODULE-PROC DECL NONE NONE
SUBROUTINE) (PROCEDURE 0) 0 0 (4 NONE 5 NONE 6 NONE 7 NONE 8 NONE 9 NONE
10 NONE) () () '' () ())
10 'clock' '' 11 ((VARIABLE UNKNOWN UNKNOWN UNKNOWN NONE NONE DIMENSION
DUMMY) (REAL 8) 0 0 () (2 ASSUMED_SIZE (CONSTANT (INTEGER 4) 0 '1') (OP
(INTEGER 4) 0 TIMES (CONSTANT (INTEGER 4) 0 '20') (VARIABLE (INTEGER 4)
0 12 ())) (CONSTANT (INTEGER 4) 0 '1') ()) () '' () ())
12 'mxceph' '' 11 ((VARIABLE UNKNOWN UNKNOWN UNKNOWN NONE NONE IN_COMMON)
(INTEGER 4) 0 13 () () () '' () ())
13 'mxneph' '' 11 ((VARIABLE UNKNOWN UNKNOWN UNKNOWN NONE NONE IN_COMMON)
(CHARACTER 1 ((CONSTANT (INTEGER 4) 0 '6'))) 0 0 () () () '' () ())
9 'eph' '' 11 ((VARIABLE UNKNOWN UNKNOWN UNKNOWN NONE NONE DIMENSION
DUMMY) (REAL 8) 0 0 () (2 ASSUMED_SIZE (CONSTANT (INTEGER 4) 0 '1') (OP
(INTEGER 4) 0 TIMES (CONSTANT (INTEGER 4) 0 '20') (VARIABLE (INTEGER 4)
0 12 ())) (CONSTANT (INTEGER 4) 0 '1') ()) () '' () ())
8 'neph' '' 11 ((VARIABLE UNKNOWN UNKNOWN UNKNOWN NONE NONE DIMENSION
DUMMY) (INTEGER 4) 0 0 () (1 ASSUMED_SIZE (CONSTANT (INTEGER 4) 0 '1') ())
() '' () ())
7 'nrsat' '' 11 ((VARIABLE UNKNOWN UNKNOWN UNKNOWN NONE NONE DIMENSION
DUMMY) (INTEGER 4) 0 0 () (1 ASSUMED_SIZE (CONSTANT (INTEGER 4) 0 '1') ())
() '' () ())
6 'nsat' '' 11 ((VARIABLE UNKNOWN UNKNOWN UNKNOWN NONE NONE DUMMY) (
INTEGER 4) 0 0 () () () '' () ())
5 'title' '' 11 ((VARIABLE UNKNOWN UNKNOWN UNKNOWN NONE NONE DUMMY) (
CHARACTER 1 ((CONSTANT (INTEGER 4) 0 '53'))) 0 0 () () () '' () ())
4 'filbrd' '' 11 ((VARIABLE UNKNOWN UNKNOWN UNKNOWN NONE NONE DUMMY) (
CHARACTER 1 (())) 0 0 () () () '' () ())
)

('s_wtbrdc' 0 2 'wtbrdc' 0 3)
