G95 module created on Thu Jun 25 17:45:07 2020 from ./.fpp/WTEDIT2.f90
If you edit this, you'll get what you deserve.
module-version 9
(() () () () () () () () () () () () () () () () () () () () ())

()

()

()

()

(2 's_wtedit2' 's_wtedit2' 1 ((MODULE UNKNOWN UNKNOWN UNKNOWN NONE NONE)
(UNKNOWN) 0 0 () () () '' () ())
3 'wtedit2' 's_wtedit2' 1 ((PROCEDURE UNKNOWN MODULE-PROC DECL NONE NONE
SUBROUTINE) (PROCEDURE 0) 0 0 (4 NONE 5 NONE) () () '' () ())
5 'filnam' '' 6 ((VARIABLE UNKNOWN UNKNOWN UNKNOWN NONE NONE OPTIONAL
DUMMY) (CHARACTER 1 ((CONSTANT (INTEGER 4) 0 '32'))) 0 0 () () () '' ()
())
4 'edt' '' 6 ((VARIABLE UNKNOWN UNKNOWN UNKNOWN NONE NONE DUMMY) (
DERIVED 7) 0 0 () () () '' () ())
7 't_edit' 'd_edit' 6 ((DERIVED UNKNOWN UNKNOWN UNKNOWN NONE NONE) (
UNKNOWN) 0 0 () () () '' ((8 'head' (DERIVED 9) (1 DEFERRED () ()) () 1
1 0 ()) (10 'rec' (DERIVED 11) (1 DEFERRED () ()) () 1 1 0 ()) (12 'title'
(CHARACTER 1 ((CONSTANT (INTEGER 4) 0 '80'))) () () 0 0 0 ()) (13 'filnam'
(CHARACTER 1 ((CONSTANT (INTEGER 4) 0 '32'))) () () 0 0 0 ()) (14 'resmax'
(REAL 8) (1 EXPLICIT (CONSTANT (INTEGER 4) 0 '1') (CONSTANT (INTEGER 4)
0 '3')) () 1 0 0 ()) (15 'nedfil' (INTEGER 4) () () 0 0 0 ()) (16 'nedt'
(INTEGER 4) () () 0 0 0 ()) (17 'nsampl' (INTEGER 4) () () 0 0 0 ()) (
18 'minamb' (INTEGER 4) () () 0 0 0 ()) (19 'minint' (INTEGER 4) () () 0
0 0 ()) (20 'isampl' (INTEGER 4) () () 0 0 0 ())) PUBLIC ())
11 't_edtrec' 'd_edit' 6 ((DERIVED UNKNOWN UNKNOWN UNKNOWN NONE NONE) (
UNKNOWN) 0 0 () () () '' ((21 'lstcyc' (REAL 8) () () 0 0 0 ()) (22
'lstedt' (INTEGER 4) (1 EXPLICIT (CONSTANT (INTEGER 4) 0 '1') (CONSTANT
(INTEGER 4) 0 '7')) () 1 0 0 ())) PUBLIC ())
9 't_edthead' 'd_edit' 6 ((DERIVED UNKNOWN UNKNOWN UNKNOWN NONE NONE) (
UNKNOWN) 0 0 () () () '' ((23 'cseedt' (CHARACTER 1 ((CONSTANT (INTEGER
4) 0 '4'))) (1 EXPLICIT (CONSTANT (INTEGER 4) 0 '1') (CONSTANT (INTEGER
4) 0 '2')) () 1 0 0 ()) (24 'staedt' (CHARACTER 1 ((CONSTANT (INTEGER 4)
0 '16'))) (1 EXPLICIT (CONSTANT (INTEGER 4) 0 '1') (CONSTANT (INTEGER 4)
0 '2')) () 1 0 0 ()) (25 'timedt' (REAL 8) () () 0 0 0 ()) (26 'idtedt'
(INTEGER 4) () () 0 0 0 ()) (27 'meaedt' (INTEGER 4) () () 0 0 0 ()))
PUBLIC ())
)

('s_wtedit2' 0 2 'wtedit2' 0 3)
