
! List of Campaigns
! -----------------
CAMPAIGN 3
  "${P}/ASTPOD"
  "${P}/F9P_STA"
  "${P}/F9P_KIN"
  ## widget = uniline; numlines = 30

MSG_CAMPAIGN 1  "Campaign directory"


# BEGIN_PANEL NO_CONDITION #####################################################
# EDIT LIST OF CAMPAIGNS - MENU_CMP                                            #
#                                                                              #
# > Campaign_directory       <                                                 # CAMPAIGN
#                                                                              #
# END_PANEL ####################################################################
